Points_0	Points_1	Points_2
-0.265981	0	0
0.26583	0	0
-0.107097	0.217957	0
-0.107903	0.217587	0
-0.106068	0.218412	0
-0.10968	0.216836	0
-0.109838	0.216763	0
-0.109971	0.216696	0
-0.104809	0.218955	0
-0.113835	0.214773	0
-0.115617	0.21386	0
-0.112078	0.215695	0
-0.113811	0.214786	0
-0.117474	0.212942	0
-0.117803	0.212775	0
-0.113814	0.214784	0
-0.125412	0.208713	0
-0.127289	0.207619	0
-0.127347	0.207587	0
-0.134327	0.203459	0
-0.134913	0.203153	0
-0.12913	0.206575	0
-0.129889	0.206188	0
-0.132425	0.204694	0
-0.133371	0.20402	0
-0.137975	0.20134	0
-0.138097	0.201267	0
-0.135395	0.202881	0
-0.136396	0.202289	0
-0.131941	0.205013	0
-0.132133	0.20492	0
-0.140138	0.199916	0
-0.141192	0.199218	0
-0.0274913	0.239863	0
-0.0292026	0.239688	0
-0.0300808	0.239586	0
-0.0311316	0.239461	0
-0.0264242	0.239964	0
-0.0272081	0.239893	0
-0.10252	0.220056	0
-0.102627	0.22001	0
-0.104296	0.219199	0
-0.111807	0.21583	0
-0.115876	0.213735	0
-0.0996933	0.221232	0
-0.100139	0.221054	0
-0.0946319	0.223298	0
-0.0963926	0.22266	0
-0.101239	0.220583	0
-0.102824	0.219917	0
-0.0941697	0.223478	0
-0.0919016	0.224308	0
-0.092685	0.22401	0
-0.0965121	0.222614	0
-0.0965489	0.2226	0
-0.0993301	0.221395	0
0.0133186	0.240974	0
0.0128776	0.241001	0
0.0166851	0.240783	0
0.0166143	0.240791	0
0.0222217	0.24031	0
0.0210224	0.240439	0
0.0203084	0.24044	0
0.0192187	0.240533	0
0.018492	0.240641	0
0.00771546	0.241204	0
0.00691983	0.241223	0
0.0119816	0.241032	0
0.0108072	0.241091	0
0.0147109	0.240909	0
0.00886115	0.241184	0
0.00995171	0.241122	0
0.0246264	0.240125	0
0.0234249	0.240218	0
-0.0108892	0.241082	0
-0.0113789	0.241066	0
-0.130744	0.205675	0
-0.12743	0.20754	0
-0.123243	0.209903	0
-0.123482	0.209773	0
-0.12522	0.208824	0
-0.119673	0.211817	0
-0.121291	0.210971	0
-0.121556	0.21083	0
-0.119365	0.211978	0
-0.0454577	0.237271	0
-0.0456208	0.237238	0
-0.0423336	0.237794	0
-0.0435961	0.237583	0
-0.0416461	0.237944	0
-0.0394407	0.238282	0
-0.0411503	0.238029	0
-0.0909117	0.224688	0
-0.098119	0.221886	0
-0.0892001	0.225325	0
-0.0896984	0.225113	0
-0.0783448	0.229146	0
-0.0797296	0.228695	0
-0.083875	0.22726	0
-0.0851414	0.226828	0
-0.0373918	0.238602	0
-0.0384308	0.238434	0
-0.0353326	0.238893	0
-0.0357138	0.238837	0
-0.0328027	0.239239	0
-0.0331778	0.239188	0
-0.0342565	0.23904	0
-0.183102	0.165588	0
-0.184319	0.164459	0
-0.188103	0.160613	0
-0.189224	0.159447	0
-0.189588	0.159079	0
-0.190691	0.15795	0
-0.186532	0.162227	0
-0.186824	0.16193	0
-0.185557	0.163184	0
-0.187062	0.16169	0
-0.174567	0.173622	0
-0.174946	0.173277	0
-0.176734	0.17163	0
-0.177358	0.171056	0
-0.182935	0.165745	0
-0.184946	0.16383	0
-0.178458	0.170015	0
-0.178785	0.169704	0
-0.165663	0.181341	0
-0.166307	0.180803	0
-0.16395	0.182838	0
-0.16482	0.181955	0
-0.167331	0.179833	0
-0.167768	0.179471	0
-0.229923	0.104826	0
-0.230812	0.103241	0
-0.229878	0.104907	0
-0.229895	0.104876	0
-0.145757	0.196168	0
-0.146509	0.19564	0
-0.159381	0.186337	0
-0.160047	0.18579	0
-0.157849	0.18747	0
-0.157941	0.1874	0
-0.158003	0.187356	0
-0.160665	0.185339	0
-0.155085	0.189575	0
-0.15566	0.189153	0
-0.156563	0.188479	0
-0.15411	0.190292	0
-0.148855	0.194069	0
-0.150242	0.193092	0
-0.151959	0.19186	0
-0.153083	0.191045	0
-0.153481	0.190755	0
-0.147939	0.194673	0
-0.144198	0.197204	0
-0.144879	0.196737	0
-0.142685	0.198266	0
-0.143791	0.197488	0
-0.137765	0.201468	0
-0.220556	0.120035	0
-0.221496	0.118587	0
-0.222534	0.116972	0
-0.223396	0.11562	0
-0.219762	0.121294	0
-0.219212	0.122084	0
-0.219549	0.121612	0
-0.265983	0.0012726	0
-0.265546	0.00373841	0
-0.26576	0.00274718	0
-0.265421	0.00433525	0
-0.264234	0.0102514	0
-0.264264	0.0101021	0
-0.264759	0.00718398	0
-0.2648	0.00700221	0
-0.265175	0.00559653	0
-0.26454	0.00856999	0
-0.263535	0.0138563	0
-0.263802	0.0127531	0
-0.264176	0.0106262	0
-0.263916	0.0122509	0
-0.262789	0.017458	0
-0.26314	0.0157827	0
-0.263194	0.0155178	0
-0.263234	0.0153302	0
-0.26205	0.020878	0
-0.262432	0.0192472	0
-0.262477	0.0189994	0
-0.262454	0.019108	0
-0.265953	0.00183965	0
-0.250647	0.0596677	0
-0.251109	0.0583704	0
-0.251495	0.05723	0
-0.251703	0.056618	0
-0.252193	0.0554573	0
-0.248432	0.0658232	0
-0.248554	0.0654788	0
-0.241407	0.0823445	0
-0.24205	0.0808581	0
-0.234409	0.0965808	0
-0.235319	0.0948329	0
-0.216729	0.125537	0
-0.217203	0.124886	0
-0.218394	0.123237	0
-0.216209	0.126349	0
-0.210982	0.13366	0
-0.211591	0.132918	0
-0.214381	0.128934	0
-0.215081	0.127992	0
-0.212471	0.131603	0
-0.212697	0.131294	0
-0.221556	0.118494	0
-0.218072	0.123676	0
-0.215511	0.127409	0
-0.203025	0.143855	0
-0.203049	0.143825	0
-0.253185	0.0525427	0
-0.253448	0.0517568	0
-0.252535	0.0544131	0
-0.252794	0.0536224	0
-0.255219	0.0463984	0
-0.255323	0.0460185	0
-0.254445	0.0489075	0
-0.254529	0.0486364	0
-0.253773	0.0507733	0
-0.253918	0.0502889	0
-0.225672	0.111967	0
-0.226317	0.110897	0
-0.22682	0.110069	0
-0.227221	0.109402	0
-0.239638	0.086132	0
-0.240455	0.0843949	0
-0.240519	0.0842586	0
-0.237941	0.0896355	0
-0.23866	0.0881787	0
-0.238783	0.0879175	0
-0.239568	0.0862832	0
-0.237715	0.0900952	0
-0.237088	0.0913533	0
-0.246157	0.071481	0
-0.246385	0.0708592	0
-0.24689	0.0696236	0
-0.247117	0.0691402	0
-0.247677	0.067762	0
-0.245363	0.0735278	0
-0.245763	0.0724902	0
-0.229012	0.106348	0
-0.233214	0.0987969	0
-0.233485	0.0982851	0
-0.236231	0.0930847	0
-0.236704	0.0921145	0
-0.235606	0.0942806	0
-0.22775	0.108505	0
-0.228113	0.107881	0
-0.228387	0.107423	0
-0.234291	0.0967983	0
-0.234379	0.0966369	0
-0.241291	0.082588	0
-0.243655	0.0775116	0
-0.244218	0.0761842	0
-0.254812	0.0475934	0
-0.261054	0.0250555	0
-0.261059	0.025035	0
-0.261061	0.0250235	0
-0.261553	0.0228657	0
-0.261592	0.0227022	0
-0.260565	0.02697	0
-0.261701	0.0223714	0
-0.2603	0.0279179	0
-0.260037	0.0291793	0
-0.258931	0.033515	0
-0.25918	0.0327083	0
-0.258624	0.0346302	0
-0.258378	0.0354325	0
-0.259453	0.0317102	0
-0.256814	0.0410236	0
-0.256908	0.0407163	0
-0.258298	0.0357832	0
-0.257986	0.0370737	0
-0.257312	0.0393757	0
-0.257767	0.0379303	0
-0.257843	0.0376517	0
-0.25993	0.0298239	0
-0.259728	0.0305837	0
-0.249145	0.0639075	0
-0.247859	0.0672963	0
-0.242836	0.0792579	0
-0.243341	0.0781616	0
-0.244489	0.0755602	0
-0.242322	0.0803041	0
-0.24506	0.0742827	0
-0.256348	0.0427804	0
-0.256683	0.0415334	0
-0.256103	0.0435718	0
-0.249866	0.0619786	0
-0.249964	0.0617145	0
-0.249246	0.0636467	0
-0.255812	0.0444141	0
-0.255488	0.0454874	0
-0.193672	0.154697	0
-0.193784	0.15458	0
-0.197623	0.150136	0
-0.198326	0.149289	0
-0.19721	0.150638	0
-0.195098	0.153062	0
-0.195162	0.152979	0
-0.172097	0.175809	0
-0.17322	0.174834	0
-0.174311	0.173848	0
-0.16922	0.178212	0
-0.169506	0.177994	0
-0.176	0.172311	0
-0.171698	0.17617	0
-0.171953	0.175933	0
-0.169093	0.178318	0
-0.170656	0.177088	0
-0.162026	0.184276	0
-0.162049	0.184258	0
-0.207868	0.137778	0
-0.208824	0.136481	0
-0.209885	0.135108	0
-0.21053	0.134204	0
-0.202965	0.143927	0
-0.191927	0.156681	0
-0.192571	0.155905	0
-0.197003	0.150851	0
-0.196093	0.151825	0
-0.198587	0.149002	0
-0.19959	0.14799	0
-0.200052	0.147441	0
-0.193875	0.154471	0
-0.201506	0.145717	0
-0.201884	0.145235	0
-0.200803	0.146563	0
-0.213211	0.130552	0
-0.213911	0.12958	0
-0.207158	0.138679	0
-0.207708	0.137988	0
-0.206259	0.139812	0
-0.206471	0.13954	0
-0.209288	0.135889	0
-0.205334	0.140987	0
-0.204214	0.142387	0
-0.204701	0.141777	0
-0.221605	0.118419	0
-0.231749	0.10154	0
-0.231947	0.101165	0
-0.232641	0.0998516	0
-0.231547	0.10194	0
-0.224455	0.113926	0
-0.225145	0.112824	0
-0.223493	0.115469	0
-0.225381	0.112445	0
-0.223604	0.11529	0
-0.180258	0.168326	0
-0.180905	0.167769	0
-0.178962	0.169537	0
-0.181656	0.167103	0
-0.182845	0.165839	0
-0.189383	0.159278	0
-0.191363	0.157304	0
-0.162072	0.184238	0
-0.163701	0.18304	0
-0.147306	0.195104	0
-0.150518	0.192898	0
-0.150408	0.192977	0
-0.141645	0.198929	0
-0.139609	0.200305	0
-0.250506	0.0600636	0
-0.0601945	0.234249	0
-0.060693	0.234104	0
-0.069196	0.231823	0
-0.0708801	0.231346	0
-0.0744822	0.230291	0
-0.0755293	0.229972	0
-0.0728065	0.230794	0
-0.0732616	0.230656	0
-0.0779858	0.229253	0
-0.0781112	0.229216	0
-0.0809143	0.228385	0
-0.0814296	0.228215	0
-0.0871436	0.226139	0
-0.0874706	0.226017	0
-0.0881428	0.225741	0
-0.0817388	0.228123	0
-0.0833036	0.227463	0
-0.0858098	0.226572	0
-0.0633749	0.233387	0
-0.0637529	0.233281	0
-0.071038	0.231302	0
-0.0714696	0.231177	0
-0.0762465	0.229752	0
-0.0233629	0.240216	0
-0.0247414	0.240104	0
-0.0201074	0.240461	0
-0.020172	0.240455	0
-0.0251789	0.240079	0
-0.0218701	0.240328	0
-0.0221996	0.240299	0
-0.0166404	0.240812	0
-0.0172323	0.240741	0
-0.0184942	0.240651	0
-0.0204652	0.24043	0
-0.00848526	0.241159	0
-0.00884541	0.241154	0
-0.00504799	0.241204	0
-0.00701027	0.241239	0
-0.00495993	0.241205	0
-0.0049967	0.241205	0
-0.000862811	0.241271	0
-0.00202449	0.241211	0
-0.0129037	0.241036	0
-0.0139739	0.241016	0
-0.015881	0.240865	0
-0.014699	0.240981	0
-0.0476277	0.236884	0
-0.0481081	0.236796	0
-0.045724	0.237215	0
-0.0494453	0.236538	0
-0.0502583	0.236372	0
-0.0511459	0.23615	0
-0.0523089	0.23591	0
-0.0547172	0.235381	0
-0.0562709	0.235119	0
-0.0543876	0.235438	0
-0.0528051	0.235783	0
-0.0583447	0.234628	0
-0.0583828	0.234621	0
-0.056512	0.235076	0
-0.0583371	0.23463	0
-0.0619853	0.233734	0
-0.06474	0.233025	0
-0.0656298	0.232791	0
-0.0659623	0.232703	0
0.231897	0.101194	0
0.231086	0.102657	0
0.22896	0.106281	0
0.228644	0.106856	0
0.229815	0.104892	0
0.225743	0.111799	0
0.224723	0.113453	0
0.22608	0.111229	0
0.226861	0.10997	0
0.227357	0.109092	0
0.232104	0.100788	0
0.230046	0.104492	0
0.230882	0.103025	0
0.227964	0.108072	0
0.234808	0.0958196	0
0.234062	0.0971613	0
0.233746	0.0977804	0
0.233253	0.0986732	0
0.235275	0.0949317	0
0.237424	0.0907015	0
0.236741	0.0920571	0
0.238437	0.0886507	0
0.23766	0.0902208	0
0.236369	0.0927904	0
0.235799	0.093916	0
0.224635	0.113596	0
0.221586	0.118448	0
0.220737	0.119755	0
0.224337	0.114071	0
0.22261	0.11683	0
0.221944	0.117883	0
0.223594	0.115258	0
0.196046	0.152005	0
0.195555	0.152554	0
0.213281	0.130561	0
0.212834	0.131176	0
0.214628	0.128737	0
0.213966	0.129626	0
0.21104	0.133563	0
0.21051	0.134278	0
0.212343	0.131844	0
0.209088	0.136179	0
0.208136	0.13745	0
0.209331	0.135859	0
0.209741	0.135302	0
0.205131	0.14126	0
0.204975	0.141441	0
0.206032	0.140122	0
0.207122	0.13866	0
0.202408	0.144552	0
0.201983	0.145159	0
0.201388	0.145854	0
0.200873	0.146471	0
0.203977	0.142648	0
0.203493	0.143199	0
0.204736	0.14173	0
0.202952	0.143861	0
0.197461	0.150405	0
0.197294	0.150597	0
0.199681	0.147865	0
0.199347	0.148251	0
0.215041	0.128174	0
0.216803	0.125553	0
0.216049	0.126693	0
0.215383	0.127652	0
0.217149	0.125082	0
0.248946	0.0644554	0
0.248645	0.0652679	0
0.248225	0.0663708	0
0.247934	0.0671203	0
0.24929	0.063381	0
0.24744	0.0683946	0
0.247176	0.0690565	0
0.244953	0.0744094	0
0.244737	0.0749154	0
0.245563	0.0729623	0
0.261649	0.0230793	0
0.261568	0.0234182	0
0.262091	0.0208027	0
0.261914	0.0215477	0
0.262286	0.0198861	0
0.240391	0.0845866	0
0.23987	0.0856787	0
0.241286	0.0826687	0
0.240432	0.0844988	0
0.24304	0.0788078	0
0.242309	0.0804361	0
0.232846	0.0994129	0
0.23944	0.08658	0
0.238559	0.088393	0
0.242169	0.0807438	0
0.24321	0.0784237	0
0.243896	0.0768644	0
0.244091	0.0764155	0
0.245795	0.0724053	0
0.239473	0.0865112	0
0.241384	0.0824571	0
0.250022	0.061486	0
0.249571	0.0626821	0
0.246374	0.0710064	0
0.246622	0.0704029	0
0.255536	0.0451928	0
0.255429	0.0456561	0
0.256326	0.0427577	0
0.256093	0.0435385	0
0.257322	0.0392351	0
0.25709	0.0402354	0
0.261741	0.0226588	0
0.2604	0.0277781	0
0.260076	0.0287804	0
0.261216	0.0246991	0
0.260817	0.0263755	0
0.260727	0.0267646	0
0.260683	0.0269318	0
0.265992	0.0017562	0
0.264916	0.00709642	0
0.264614	0.00866131	0
0.265394	0.00444422	0
0.26524	0.00537629	0
0.264945	0.00690959	0
0.265991	0.00177326	0
0.265984	0.00180571	0
0.265543	0.00356788	0
0.264519	0.00912709	0
0.259596	0.0307492	0
0.259487	0.0310755	0
0.259379	0.0315029	0
0.259065	0.0329028	0
0.258575	0.0347328	0
0.258552	0.0348096	0
0.260044	0.028997	0
0.167777	0.17953	0
0.166676	0.180473	0
0.00610848	0.241274	0
0.00497928	0.241324	0
0.00420603	0.241364	0
0.00295923	0.241426	0
0.0165599	0.240794	0
0.00131353	0.241366	0
0.000898903	0.24136	0
0.0228856	0.24028	0
0.0282698	0.2397	0
0.0277501	0.239749	0
0.0256313	0.240014	0
0.0271656	0.239818	0
0.0262495	0.239948	0
0.0311909	0.239425	0
0.0302833	0.239542	0
0.178423	0.17008	0
0.177238	0.171187	0
0.180969	0.167659	0
0.179693	0.168884	0
0.181169	0.167466	0
0.181038	0.167593	0
0.183614	0.165076	0
0.182951	0.165728	0
0.258539	0.0348573	0
0.257924	0.0367762	0
0.257912	0.0368259	0
0.257497	0.0385243	0
0.256699	0.0414967	0
0.256599	0.0418113	0
0.255885	0.0441622	0
0.254897	0.0472697	0
0.25472	0.04778	0
0.264377	0.00986439	0
0.264188	0.0109857	0
0.263826	0.0125718	0
0.2634	0.0146455	0
0.262978	0.0163153	0
0.26374	0.0129436	0
0.262418	0.0191343	0
0.262976	0.0163242	0
0.262974	0.0163339	0
0.263685	0.0132241	0
0.262592	0.0181715	0
0.251339	0.0579701	0
0.250808	0.059308	0
0.250625	0.059857	0
0.250148	0.0611466	0
0.252051	0.055969	0
0.251543	0.0574064	0
0.252228	0.0554521	0
0.252746	0.0539016	0
0.253545	0.0515767	0
0.253459	0.0518328	0
0.254111	0.0496264	0
0.254118	0.0496022	0
0.254112	0.0496207	0
0.252893	0.0534753	0
0.219401	0.121767	0
0.218828	0.12269	0
0.220373	0.12032	0
0.220482	0.120148	0
0.22336	0.115631	0
0.218313	0.12349	0
0.217532	0.124562	0
0.185082	0.163609	0
0.184944	0.163748	0
0.184732	0.163961	0
0.187414	0.161253	0
0.186217	0.162468	0
0.188736	0.159894	0
0.187549	0.161116	0
0.189904	0.158641	0
0.189831	0.158716	0
0.18748	0.161185	0
0.192348	0.156118	0
0.191751	0.156715	0
0.191187	0.157342	0
0.190011	0.158526	0
0.174476	0.173726	0
0.173673	0.174476	0
0.177018	0.171391	0
0.175748	0.172556	0
0.174966	0.173278	0
0.200191	0.147267	0
0.20705	0.138759	0
0.207086	0.138709	0
0.211677	0.132759	0
0.196982	0.150949	0
0.182353	0.166316	0
0.198519	0.149192	0
0.193522	0.154805	0
0.194839	0.153354	0
0.193598	0.15472	0
0.193569	0.154753	0
0.177095	0.17132	0
0.170497	0.177251	0
0.169459	0.178071	0
0.173163	0.174943	0
0.172697	0.175357	0
0.171774	0.176156	0
0.171267	0.176581	0
0.178995	0.169542	0
0.138683	0.200928	0
0.137345	0.201722	0
0.140518	0.199707	0
0.139646	0.200335	0
0.139029	0.200715	0
0.142577	0.198425	0
0.14233	0.198585	0
0.142675	0.19835	0
0.140946	0.199422	0
0.149071	0.193923	0
0.148572	0.194264	0
0.152967	0.191104	0
0.151608	0.192175	0
0.154454	0.19004	0
0.154213	0.19021	0
0.157613	0.187709	0
0.157479	0.187818	0
0.162159	0.184129	0
0.160625	0.185383	0
0.160004	0.185845	0
0.159011	0.186592	0
0.162225	0.184077	0
0.16939	0.178131	0
0.168106	0.179275	0
0.166034	0.180994	0
0.155889	0.188931	0
0.154692	0.189857	0
0.157349	0.187913	0
0.151494	0.192258	0
0.15008	0.193221	0
0.1345	0.2035	0
0.133703	0.204015	0
0.135531	0.202819	0
0.13531	0.202976	0
0.136909	0.201989	0
0.146948	0.19536	0
0.146539	0.195608	0
0.144466	0.19709	0
0.144178	0.197303	0
0.145435	0.196336	0
0.133374	0.204201	0
0.151553	0.192216	0
0.147645	0.194891	0
-0.067431	0.232328	0
-0.0683712	0.232063	0
0.057249	0.234905	0
0.0556907	0.23517	0
0.0590362	0.234482	0
0.058029	0.23472	0
0.0608729	0.234039	0
0.0608031	0.234057	0
0.0455112	0.237199	0
0.0452576	0.237248	0
0.0474366	0.236868	0
0.0460913	0.237089	0
0.0555087	0.235211	0
0.0550604	0.235338	0
0.0537641	0.235698	0
0.162429	0.183913	0
0.16381	0.1828	0
0.16419	0.182494	0
0.165279	0.181604	0
0.119455	0.211967	0
0.118695	0.21239	0
0.122904	0.210083	0
0.122212	0.210451	0
0.12074	0.21125	0
0.12046	0.211398	0
0.12556	0.208598	0
0.125054	0.208875	0
0.123885	0.209546	0
0.114573	0.214442	0
0.113773	0.214824	0
0.103094	0.219654	0
0.102682	0.219828	0
0.106359	0.218288	0
0.105468	0.218674	0
0.100875	0.220633	0
0.0992539	0.221383	0
0.100875	0.220633	0
0.0981202	0.221874	0
0.0976016	0.22209	0
0.100876	0.220633	0
0.104806	0.218981	0
0.103893	0.219337	0
0.0959411	0.222773	0
0.0955162	0.222947	0
0.115646	0.21389	0
0.118449	0.212524	0
0.126717	0.207921	0
0.112871	0.215283	0
0.111262	0.21598	0
0.117089	0.213148	0
0.116026	0.213711	0
0.111173	0.216015	0
0.111094	0.216054	0
0.109552	0.216809	0
0.130673	0.205745	0
0.130655	0.205757	0
0.066202	0.232635	0
0.0650079	0.232955	0
0.0644182	0.233116	0
0.0639508	0.233235	0
0.0609712	0.234013	0
0.0518995	0.236067	0
0.0512321	0.236229	0
0.0671516	0.232371	0
0.0626368	0.233579	0
0.0487525	0.236654	0
0.0499138	0.236459	0
0.049345	0.236566	0
0.0934268	0.22381	0
0.0930448	0.223954	0
0.0944925	0.22334	0
0.0968422	0.222416	0
0.0913194	0.224548	0
0.0911134	0.224616	0
0.0913456	0.224538	0
0.108261	0.217417	0
0.107922	0.217578	0
0.0440299	0.237415	0
0.0433044	0.237534	0
0.0859318	0.226516	0
0.0844603	0.226963	0
0.084114	0.227076	0
0.0875017	0.225957	0
0.0866106	0.226261	0
0.0750588	0.230113	0
0.0740579	0.230433	0
0.0757224	0.229914	0
0.0734863	0.230612	0
0.0730558	0.23074	0
0.0777635	0.229267	0
0.0765284	0.229662	0
0.078195	0.229115	0
0.0679866	0.232145	0
0.0889216	0.225381	0
0.0813924	0.227984	0
0.0800054	0.228506	0
0.0839361	0.227137	0
0.0818337	0.227839	0
0.0785723	0.228993	0
0.0692794	0.231789	0
0.0717575	0.231081	0
0.0703261	0.231495	0
0.0699333	0.231608	0
0.130624	0.205773	0
0.128905	0.20673	0
0.127532	0.207466	0
0.127223	0.207636	0
0.132247	0.204827	0
0.107502	0.217765	0
0.0892139	0.225273	0
-0.00962301	0.24112	0
0.000634782	0.241364	0
-0.00265165	0.241222	0
0.0429951	0.237584	0
0.0330722	0.239123	0
0.0323801	0.239235	0
0.0358985	0.23879	0
0.0350553	0.238906	0
0.0293841	0.239631	0
0.0335209	0.239073	0
0.0414638	0.237918	0
0.0380907	0.238422	0
0.0373085	0.238539	0
0.039526	0.23825	0
0.040462	0.238086	0
0.0532888	0.23581	0
