"cvar","mu","phivar","pressure","rho","str","velocity:0","velocity:1","Label","Points:0","Points:1","Points:2"
0,0.505,0.012601,65.334,0.505,0.0002368,-0.034367,-0.00067096,0,-0.27138,0,0
0,0.505,0.012742,65.349,0.505,0.0002975,0.036368,-0.00077185,0,0.27136,0,0
0,0.505,0.012949,64.091,0.505,8.9238e-05,-0.073317,-0.0039385,0,-0.27068,0.0030626,0
0,0.505,0.013085,63.774,0.505,5.2997e-05,-0.08359,-0.0047087,0,-0.27051,0.003863,0
0,0.505,0.013137,63.612,0.505,1.6847e-05,-0.089916,-0.0053833,0,-0.27043,0.0042237,0
0,0.505,0.014411,61.696,0.505,-0.0016676,-0.20804,-0.031479,0,-0.26837,0.015221,0
0,0.505,0.014215,61.695,0.505,-0.0014194,-0.19844,-0.028152,0,-0.26865,0.013888,0
0,0.505,0.017344,66.932,0.505,-0.019479,-0.14803,-0.094421,0,-0.2204,0.12348,0
0,0.505,0.017356,66.912,0.505,-0.019297,-0.15054,-0.09385,0,-0.22197,0.12134,0
0,0.505,0.017337,66.944,0.505,-0.020053,-0.13909,-0.096587,0,-0.21433,0.13133,0
0,0.505,0.017343,66.944,0.505,-0.019935,-0.14111,-0.096064,0,-0.21573,0.12959,0
0,0.505,0.017334,66.931,0.505,-0.020169,-0.137,-0.09712,0,-0.2129,0.1332,0
0,0.505,0.013219,63.227,0.505,-0.00012542,-0.10645,-0.0080006,0,-0.2702,0.0054101,0
0,0.505,0.01348,62.217,0.505,-0.0004501,-0.14862,-0.01413,0,-0.26968,0.0082953,0
0,0.505,0.014816,61.917,0.505,-0.0023712,-0.22354,-0.039425,0,-0.26763,0.018589,0
0,0.505,0.014545,61.761,0.505,-0.0018947,-0.21357,-0.034292,0,-0.26812,0.016339,0
0,0.505,0.0158,63.136,0.505,-0.0045829,-0.24039,-0.058478,0,-0.2652,0.028497,0
0,0.505,0.015722,63.03,0.505,-0.0043789,-0.24005,-0.057129,0,-0.26542,0.027611,0
0,0.505,0.016129,63.713,0.505,-0.005558,-0.24017,-0.064657,0,-0.26395,0.032886,0
0,0.505,0.016061,63.581,0.505,-0.0053441,-0.24039,-0.063382,0,-0.26422,0.0319,0
0,0.505,0.016291,64.033,0.505,-0.0061224,-0.23878,-0.067567,0,-0.26322,0.035447,0
0,0.505,0.015934,63.34,0.505,-0.0049719,-0.24034,-0.061063,0,-0.2647,0.030231,0
0,0.505,0.015507,62.713,0.505,-0.0038373,-0.23809,-0.052871,0,-0.26604,0.025205,0
0,0.505,0.015212,62.303,0.505,-0.00317,-0.23372,-0.047514,0,-0.26675,0.02224,0
0,0.505,0.015178,62.258,0.505,-0.003099,-0.23308,-0.046847,0,-0.26682,0.021917,0
0,0.505,0.015125,62.194,0.505,-0.0029983,-0.23167,-0.045839,0,-0.26694,0.021447,0
0,0.505,0.016833,65.387,0.505,-0.0089779,-0.22588,-0.078344,0,-0.25888,0.049032,0
0,0.505,0.016819,65.34,0.505,-0.0088758,-0.22642,-0.078068,0,-0.25904,0.048532,0
0,0.505,0.016917,65.629,0.505,-0.0096516,-0.22208,-0.079929,0,-0.25767,0.052449,0
0,0.505,0.016847,65.426,0.505,-0.0090828,-0.22534,-0.078631,0,-0.2587,0.049566,0
0,0.505,0.016972,65.759,0.505,-0.010142,-0.21924,-0.081099,0,-0.25672,0.055026,0
0,0.505,0.016728,65.144,0.505,-0.0083085,-0.22941,-0.076251,0,-0.25994,0.045755,0
0,0.505,0.016673,64.948,0.505,-0.0078655,-0.23181,-0.074946,0,-0.26061,0.043644,0
0,0.505,0.016544,64.563,0.505,-0.0071422,-0.23506,-0.072278,0,-0.26177,0.040218,0
0,0.505,0.016496,64.451,0.505,-0.0068959,-0.23619,-0.071259,0,-0.26216,0.039061,0
0,0.505,0.017174,66.379,0.505,-0.012807,-0.20333,-0.085229,0,-0.25068,0.07002,0
0,0.505,0.017171,66.369,0.505,-0.012763,-0.2036,-0.085179,0,-0.2508,0.069757,0
0,0.505,0.017137,66.28,0.505,-0.012204,-0.207,-0.084455,0,-0.25221,0.06643,0
0,0.505,0.017094,66.163,0.505,-0.011602,-0.21062,-0.083585,0,-0.25366,0.063002,0
0,0.505,0.017065,66.042,0.505,-0.011167,-0.21321,-0.082965,0,-0.25463,0.060577,0
0,0.505,0.017019,65.898,0.505,-0.010591,-0.21668,-0.081985,0,-0.25582,0.057432,0
0,0.505,0.016991,65.825,0.505,-0.010319,-0.21823,-0.081453,0,-0.25637,0.055965,0
0,0.505,0.017308,66.852,0.505,-0.017301,-0.17147,-0.089943,0,-0.2347,0.10155,0
0,0.505,0.017309,66.823,0.505,-0.016994,-0.17412,-0.08955,0,-0.2362,0.098961,0
0,0.505,0.017301,66.785,0.505,-0.016455,-0.17849,-0.088914,0,-0.23865,0.094664,0
0,0.505,0.0173,66.782,0.505,-0.016427,-0.17871,-0.088883,0,-0.23877,0.094447,0
0,0.505,0.017305,66.816,0.505,-0.016877,-0.17509,-0.089403,0,-0.23675,0.098007,0
0,0.505,0.017316,66.859,0.505,-0.01755,-0.16927,-0.0903,0,-0.23342,0.10369,0
0,0.505,0.016463,64.378,0.505,-0.0067465,-0.23682,-0.070638,0,-0.26236,0.038371,0
0,0.505,0.016631,64.826,0.505,-0.0076206,-0.23291,-0.074053,0,-0.261,0.042489,0
0,0.505,0.017049,66.008,0.505,-0.010974,-0.21438,-0.082617,0,-0.25506,0.059503,0
0,0.505,0.017326,66.88,0.505,-0.018059,-0.16447,-0.091105,0,-0.2306,0.10829,0
0,0.505,0.017326,66.871,0.505,-0.017975,-0.16528,-0.090976,0,-0.23109,0.10751,0
0,0.505,0.017328,66.881,0.505,-0.018101,-0.16406,-0.091177,0,-0.23036,0.10868,0
0,0.505,0.017296,66.769,0.505,-0.016274,-0.17988,-0.088727,0,-0.23942,0.093303,0
0,0.505,0.017269,66.726,0.505,-0.01548,-0.18576,-0.087875,0,-0.24254,0.087476,0
0,0.505,0.017265,66.709,0.505,-0.015313,-0.18695,-0.087715,0,-0.24314,0.086293,0
0,0.505,0.017284,66.758,0.505,-0.015964,-0.18225,-0.088381,0,-0.24073,0.090987,0
0,0.505,0.017317,66.874,0.505,-0.017696,-0.16794,-0.090499,0,-0.23267,0.10496,0
0,0.505,0.017324,66.916,0.505,-0.018394,-0.16103,-0.091689,0,-0.22853,0.11152,0
0,0.505,0.017206,66.528,0.505,-0.017496,-0.056889,-0.1297,0,-0.12899,0.20388,0
0,0.505,0.017219,66.531,0.505,-0.017705,-0.058302,-0.12897,0,-0.13114,0.20259,0
0,0.505,0.01722,66.544,0.505,-0.017909,-0.059704,-0.12824,0,-0.13322,0.20132,0
0,0.505,0.017218,66.577,0.505,-0.018111,-0.061231,-0.12746,0,-0.13536,0.20005,0
0,0.505,0.017236,66.58,0.505,-0.018402,-0.063465,-0.12631,0,-0.13852,0.1982,0
0,0.505,0.017217,66.545,0.505,-0.017813,-0.059013,-0.1286,0,-0.13223,0.20197,0
0,0.505,0.017185,66.489,0.505,-0.016502,-0.050871,-0.1328,0,-0.11933,0.20879,0
0,0.505,0.017196,66.484,0.505,-0.016813,-0.052631,-0.13188,0,-0.12223,0.20735,0
0,0.505,0.017236,66.586,0.505,-0.018454,-0.063892,-0.12611,0,-0.13909,0.19784,0
0,0.505,0.017237,66.581,0.505,-0.018544,-0.064635,-0.12574,0,-0.1401,0.1973,0
0,0.505,0.017234,66.598,0.505,-0.018753,-0.066375,-0.12485,0,-0.14252,0.19598,0
0,0.505,0.017238,66.588,0.505,-0.0189,-0.067694,-0.12418,0,-0.14445,0.19484,0
0,0.505,0.017315,66.802,0.505,-0.020895,-0.10058,-0.10904,0,-0.18231,0.16616,0
0,0.505,0.017317,66.802,0.505,-0.020902,-0.10108,-0.10885,0,-0.18283,0.16569,0
0,0.505,0.017126,66.234,0.505,-0.012027,-0.20805,-0.084233,0,-0.25264,0.06541,0
0,0.505,0.013896,61.763,0.505,-0.0010147,-0.18385,-0.022785,0,-0.2691,0.011792,0
0,0.505,0.013664,61.994,0.505,-0.00067938,-0.16403,-0.017921,0,-0.2694,0.0097914,0
0,0.505,0.017283,66.752,0.505,-0.015907,-0.18267,-0.088325,0,-0.24094,0.09057,0
0,0.505,0.017244,66.65,0.505,-0.014693,-0.19121,-0.087116,0,-0.24525,0.082033,0
0,0.505,0.017234,66.623,0.505,-0.014459,-0.19275,-0.086885,0,-0.246,0.080473,0
0,0.505,0.017222,66.574,0.505,-0.014062,-0.19538,-0.086521,0,-0.24722,0.077876,0
0,0.505,0.017215,66.554,0.505,-0.013929,-0.19622,-0.086387,0,-0.24761,0.077022,0
0,0.505,0.017195,66.471,0.505,-0.01338,-0.19974,-0.085857,0,-0.24914,0.073557,0
0,0.505,0.017198,66.481,0.505,-0.01343,-0.19943,-0.08591,0,-0.249,0.073866,0
0,0.505,0.017251,66.681,0.505,-0.014977,-0.18926,-0.087378,0,-0.24431,0.083965,0
0,0.505,0.017354,66.906,0.505,-0.019197,-0.15182,-0.093575,0,-0.22284,0.12015,0
0,0.505,0.017344,66.921,0.505,-0.01905,-0.15366,-0.093148,0,-0.22415,0.1182,0
0,0.505,0.017333,66.914,0.505,-0.018811,-0.15645,-0.092599,0,-0.22588,0.11566,0
0,0.505,0.017356,66.89,0.505,-0.020681,-0.12523,-0.10055,0,-0.20387,0.14385,0
0,0.505,0.017357,66.886,0.505,-0.020652,-0.12603,-0.1003,0,-0.20455,0.14307,0
0,0.505,0.017345,66.891,0.505,-0.020843,-0.11922,-0.1024,0,-0.19934,0.14918,0
0,0.505,0.017343,66.903,0.505,-0.020818,-0.12039,-0.10203,0,-0.20032,0.14822,0
0,0.505,0.017351,66.897,0.505,-0.020692,-0.12489,-0.10065,0,-0.20357,0.14418,0
0,0.505,0.01735,66.892,0.505,-0.020739,-0.1232,-0.10118,0,-0.20236,0.14568,0
0,0.505,0.017343,66.906,0.505,-0.020803,-0.12091,-0.10187,0,-0.20076,0.14776,0
0,0.505,0.017343,66.938,0.505,-0.019572,-0.14675,-0.094704,0,-0.21969,0.12474,0
0,0.505,0.017346,66.939,0.505,-0.01966,-0.14544,-0.09501,0,-0.2187,0.12595,0
0,0.505,0.017325,66.925,0.505,-0.018734,-0.15735,-0.09239,0,-0.22645,0.11484,0
0,0.505,0.017328,66.911,0.505,-0.018639,-0.15839,-0.092204,0,-0.22704,0.1139,0
0,0.505,0.017232,66.598,0.505,-0.019004,-0.068635,-0.12371,0,-0.14579,0.19399,0
0,0.505,0.01724,66.602,0.505,-0.019094,-0.069531,-0.12326,0,-0.14705,0.19319,0
0,0.505,0.017242,66.626,0.505,-0.019248,-0.07101,-0.12249,0,-0.14903,0.1918,0
0,0.505,0.017265,66.635,0.505,-0.019497,-0.073688,-0.12115,0,-0.15234,0.18959,0
0,0.505,0.017265,66.64,0.505,-0.019522,-0.07394,-0.12102,0,-0.15267,0.18936,0
0,0.505,0.017266,66.64,0.505,-0.019543,-0.074179,-0.1209,0,-0.15297,0.18916,0
0,0.505,0.017352,66.895,0.505,-0.020398,-0.13242,-0.098385,0,-0.20952,0.13724,0
0,0.505,0.01734,66.931,0.505,-0.020249,-0.13549,-0.097529,0,-0.21178,0.13463,0
0,0.505,0.017355,66.896,0.505,-0.020555,-0.1287,-0.099485,0,-0.20686,0.14065,0
0,0.505,0.017355,66.889,0.505,-0.020441,-0.13142,-0.098688,0,-0.20879,0.13812,0
0,0.505,0.017094,66.292,0.505,-0.0095541,-0.023998,-0.14662,0,-0.06446,0.22855,0
0,0.505,0.017107,66.286,0.505,-0.0098937,-0.024988,-0.14614,0,-0.066834,0.22801,0
0,0.505,0.017123,66.343,0.505,0.012925,0.030979,-0.14297,0,0.087377,0.22188,0
0,0.505,0.017122,66.323,0.505,0.012496,0.029491,-0.14383,0,0.084329,0.22298,0
0,0.505,0.017124,66.362,0.505,0.013409,0.03274,-0.14194,0,0.091195,0.2205,0
0,0.505,0.017123,66.343,0.505,0.013033,0.031345,-0.14274,0,0.088234,0.22157,0
0,0.505,0.017126,66.369,0.505,0.013564,0.033297,-0.14161,0,0.092398,0.22014,0
0,0.505,0.017142,66.386,0.505,0.014052,0.035206,-0.14047,0,0.096171,0.21877,0
0,0.505,0.017137,66.383,0.505,0.013886,0.034566,-0.14086,0,0.094916,0.21924,0
0,0.505,0.017148,66.396,0.505,0.014536,0.03719,-0.13929,0,0.099988,0.21725,0
0,0.505,0.017144,66.399,0.505,0.014331,0.036366,-0.13979,0,0.098382,0.21792,0
0,0.505,0.017059,66.182,0.505,-0.0025898,-0.0071894,-0.15312,0,-0.017247,0.23591,0
0,0.505,0.017056,66.201,0.505,-0.003058,-0.0082222,-0.15292,0,-0.020319,0.2357,0
0,0.505,0.017063,66.188,0.505,-0.0035205,-0.0092287,-0.15269,0,-0.023359,0.23545,0
0,0.505,0.017062,66.192,0.505,-0.0036182,-0.0094546,-0.15264,0,-0.024007,0.23539,0
0,0.505,0.017079,66.243,0.505,-0.0074874,-0.018497,-0.1493,0,-0.050134,0.2317,0
0,0.505,0.017098,66.255,0.505,-0.008008,-0.019855,-0.14866,0,-0.053601,0.23102,0
0,0.505,0.017064,66.223,0.505,-0.0068955,-0.017023,-0.14998,0,-0.04605,0.23237,0
0,0.505,0.017078,66.237,0.505,-0.0073471,-0.01816,-0.14946,0,-0.049202,0.2319,0
0,0.505,0.017068,66.221,0.505,-0.005753,-0.014328,-0.15108,0,-0.038147,0.23372,0
0,0.505,0.01707,66.204,0.505,-0.0062147,-0.015401,-0.15066,0,-0.041188,0.23318,0
0,0.505,0.017106,66.299,0.505,-0.010076,-0.025507,-0.14587,0,-0.068106,0.22771,0
0,0.505,0.017115,66.294,0.505,-0.010267,-0.026073,-0.14558,0,-0.069435,0.22738,0
0,0.505,0.017098,66.261,0.505,-0.0081106,-0.020111,-0.14853,0,-0.054273,0.23089,0
0,0.505,0.017096,66.252,0.505,-0.008263,-0.020502,-0.14835,0,-0.055273,0.23068,0
0,0.505,0.017073,66.271,0.505,-0.0086917,-0.021645,-0.14784,0,-0.058142,0.23004,0
0,0.505,0.017065,66.199,0.505,-0.0044528,-0.011314,-0.15212,0,-0.029513,0.23483,0
0,0.505,0.017063,66.211,0.505,-0.0047096,-0.011914,-0.15193,0,-0.031219,0.23463,0
0,0.505,0.01707,66.2,0.505,-0.005058,-0.012715,-0.15167,0,-0.033531,0.23436,0
0,0.505,0.017064,66.218,0.505,-0.0067801,-0.016757,-0.1501,0,-0.045226,0.23252,0
0,0.505,0.01707,66.206,0.505,-0.0062585,-0.01551,-0.15062,0,-0.041487,0.23313,0
0,0.505,0.017069,66.205,0.505,-0.0063735,-0.015785,-0.15051,0,-0.042308,0.23298,0
0,0.505,0.017112,66.301,0.505,-0.011127,-0.028698,-0.14427,0,-0.075511,0.22583,0
0,0.505,0.017101,66.304,0.505,-0.011411,-0.029601,-0.14382,0,-0.077726,0.2251,0
0,0.505,0.017113,66.314,0.505,-0.011901,-0.031198,-0.14297,0,-0.081601,0.22385,0
0,0.505,0.017115,66.327,0.505,-0.012049,-0.031683,-0.1427,0,-0.082775,0.22345,0
0,0.505,0.017139,66.334,0.505,-0.012453,-0.033106,-0.14195,0,-0.085826,0.22259,0
0,0.505,0.017139,66.338,0.505,-0.012496,-0.033247,-0.14188,0,-0.086126,0.22249,0
0,0.505,0.017143,66.345,0.505,-0.012953,-0.034913,-0.14104,0,-0.089501,0.22134,0
0,0.505,0.017141,66.345,0.505,-0.013028,-0.035192,-0.1409,0,-0.090069,0.22112,0
0,0.505,0.017098,66.303,0.505,-0.011609,-0.030213,-0.14349,0,-0.07933,0.22464,0
0,0.505,0.017143,66.342,0.505,-0.012872,-0.034617,-0.14119,0,-0.088903,0.22155,0
0,0.505,0.017128,66.356,0.505,-0.013403,-0.036593,-0.1402,0,-0.092914,0.22004,0
0,0.505,0.017128,66.355,0.505,-0.013441,-0.036735,-0.14012,0,-0.093226,0.21993,0
0,0.505,0.017143,66.345,0.505,-0.012946,-0.034888,-0.14105,0,-0.089451,0.22136,0
0,0.505,0.017113,66.304,0.505,-0.010832,-0.027808,-0.14473,0,-0.073447,0.22639,0
0,0.505,0.017145,66.42,0.505,-0.014944,-0.043022,-0.13687,0,-0.10555,0.21492,0
0,0.505,0.01715,66.42,0.505,-0.015112,-0.043768,-0.13646,0,-0.10704,0.21427,0
0,0.505,0.017156,66.433,0.505,-0.015351,-0.044912,-0.13588,0,-0.1091,0.21337,0
0,0.505,0.017159,66.448,0.505,-0.015529,-0.045741,-0.13543,0,-0.11066,0.21279,0
0,0.505,0.017156,66.399,0.505,-0.014546,-0.041245,-0.13778,0,-0.10218,0.2163,0
0,0.505,0.017156,66.396,0.505,-0.014596,-0.041463,-0.13766,0,-0.10258,0.21612,0
0,0.505,0.017156,66.391,0.505,-0.014459,-0.040885,-0.13796,0,-0.10151,0.21658,0
0,0.505,0.017206,66.513,0.505,-0.017176,-0.054831,-0.13076,0,-0.12573,0.20557,0
0,0.505,0.017211,66.509,0.505,-0.017322,-0.055744,-0.13028,0,-0.12719,0.20479,0
0,0.505,0.017201,66.487,0.505,-0.016915,-0.053251,-0.13157,0,-0.12321,0.20685,0
0,0.505,0.017197,66.488,0.505,-0.016844,-0.052824,-0.13179,0,-0.12252,0.2072,0
0,0.505,0.01718,66.479,0.505,-0.016142,-0.048899,-0.13381,0,-0.11607,0.21044,0
0,0.505,0.017186,66.475,0.505,-0.016352,-0.05002,-0.13322,0,-0.11795,0.20948,0
0,0.505,0.017132,66.368,0.505,-0.013934,-0.038668,-0.13912,0,-0.097357,0.21829,0
0,0.505,0.017146,66.394,0.505,-0.014146,-0.039564,-0.13864,0,-0.099111,0.21765,0
0,0.505,0.017125,66.368,0.505,-0.013801,-0.038139,-0.1394,0,-0.096246,0.21873,0
0,0.505,0.017176,66.465,0.505,-0.015925,-0.04774,-0.1344,0,-0.11412,0.21133,0
0,0.505,0.017172,66.458,0.505,-0.015759,-0.046905,-0.13483,0,-0.11269,0.21196,0
0,0.505,0.017282,66.74,0.505,-0.020496,-0.088297,-0.11422,0,-0.16945,0.17706,0
0,0.505,0.017283,66.745,0.505,-0.020534,-0.089121,-0.11386,0,-0.17045,0.17625,0
0,0.505,0.017272,66.678,0.505,-0.019902,-0.078595,-0.11874,0,-0.15832,0.1854,0
0,0.505,0.017269,66.707,0.505,-0.019996,-0.079933,-0.11811,0,-0.15987,0.18422,0
0,0.505,0.017287,66.714,0.505,-0.020335,-0.085228,-0.11562,0,-0.16597,0.17969,0
0,0.505,0.017287,66.718,0.505,-0.020353,-0.085514,-0.11548,0,-0.16631,0.17944,0
0,0.505,0.017305,66.745,0.505,-0.020642,-0.09167,-0.11273,0,-0.17312,0.17397,0
0,0.505,0.017306,66.749,0.505,-0.020654,-0.091923,-0.11261,0,-0.17339,0.17374,0
0,0.505,0.017273,66.723,0.505,-0.020195,-0.082862,-0.11671,0,-0.16328,0.18166,0
0,0.505,0.017306,66.748,0.505,-0.020658,-0.09204,-0.11256,0,-0.17352,0.17363,0
0,0.505,0.017305,66.779,0.505,-0.020748,-0.094624,-0.11146,0,-0.17627,0.17125,0
0,0.505,0.017289,66.715,0.505,-0.020381,-0.086073,-0.11523,0,-0.16695,0.17896,0
0,0.505,0.017307,66.817,0.505,-0.020833,-0.097654,-0.11021,0,-0.17938,0.16865,0
0,0.505,0.017316,66.797,0.505,-0.020887,-0.10014,-0.10921,0,-0.18187,0.16655,0
0,0.505,0.017306,66.79,0.505,-0.020783,-0.09573,-0.11098,0,-0.1774,0.17026,0
0,0.505,0.017314,66.837,0.505,-0.020937,-0.10345,-0.10792,0,-0.18517,0.16338,0
0,0.505,0.017326,66.831,0.505,-0.02096,-0.1066,-0.10674,0,-0.18796,0.16046,0
0,0.505,0.017327,66.833,0.505,-0.020962,-0.10682,-0.10665,0,-0.18819,0.16024,0
0,0.505,0.017327,66.834,0.505,-0.020962,-0.10732,-0.10647,0,-0.18865,0.15978,0
0,0.505,0.017228,66.588,0.505,0.019231,0.065205,-0.12361,0,0.14454,0.1946,0
0,0.505,0.017227,66.564,0.505,0.019064,0.063729,-0.12437,0,0.14264,0.19579,0
0,0.505,0.017295,66.764,0.505,0.021127,0.093156,-0.11098,0,0.17671,0.17105,0
0,0.505,0.017297,66.738,0.505,0.021068,0.091523,-0.11167,0,0.17506,0.1724,0
0,0.505,0.017268,66.673,0.505,0.020483,0.079754,-0.11672,0,0.1621,0.18233,0
0,0.505,0.01726,66.657,0.505,0.020302,0.077086,-0.11791,0,0.15934,0.18446,0
0,0.505,0.017305,66.805,0.505,0.021303,0.10106,-0.10784,0,0.18444,0.16406,0
0,0.505,0.017305,66.76,0.505,0.021268,0.09891,-0.1087,0,0.18239,0.16588,0
0,0.505,0.01729,66.716,0.505,0.020963,0.088752,-0.11281,0,0.17215,0.17465,0
0,0.505,0.017283,66.72,0.505,0.020925,0.087794,-0.11321,0,0.17114,0.17547,0
0,0.505,0.017304,66.76,0.505,0.021265,0.098719,-0.10877,0,0.1822,0.16604,0
0,0.505,0.017304,66.758,0.505,0.021261,0.098533,-0.10884,0,0.18202,0.16621,0
0,0.505,0.017317,66.799,0.505,0.021337,0.10543,-0.10619,0,0.18826,0.16035,0
0,0.505,0.017314,66.805,0.505,0.021329,0.10398,-0.10673,0,0.18693,0.16163,0
0,0.505,0.017314,66.788,0.505,0.021319,0.10265,-0.10723,0,0.18581,0.16274,0
0,0.505,0.017301,66.769,0.505,0.021213,0.096363,-0.10969,0,0.17978,0.16828,0
0,0.505,0.017336,66.88,0.505,0.021016,0.1258,-0.099055,0,0.20545,0.14227,0
0,0.505,0.017338,66.866,0.505,0.021044,0.12487,-0.099373,0,0.20472,0.1431,0
0,0.505,0.017333,66.88,0.505,0.020798,0.13105,-0.09748,0,0.20908,0.13758,0
0,0.505,0.017331,66.892,0.505,0.020879,0.1292,-0.098013,0,0.20782,0.1392,0
0,0.505,0.017336,66.875,0.505,0.020555,0.13602,-0.096034,0,0.21276,0.13307,0
0,0.505,0.017334,66.888,0.505,0.02068,0.13363,-0.096694,0,0.21097,0.13528,0
0,0.505,0.017331,66.896,0.505,0.020721,0.13282,-0.096931,0,0.21038,0.13604,0
0,0.505,0.017324,66.82,0.505,0.021325,0.11156,-0.10392,0,0.19371,0.15488,0
0,0.505,0.01732,66.826,0.505,0.021337,0.10993,-0.1045,0,0.1923,0.15631,0
0,0.505,0.017325,66.849,0.505,0.02127,0.11604,-0.10231,0,0.19753,0.15095,0
0,0.505,0.017325,66.829,0.505,0.021299,0.11414,-0.10298,0,0.19594,0.15261,0
0,0.505,0.017336,66.879,0.505,0.020498,0.13708,-0.095735,0,0.21355,0.1321,0
0,0.505,0.017335,66.872,0.505,0.019813,0.14762,-0.093052,0,0.22092,0.12257,0
0,0.505,0.017335,66.876,0.505,0.019863,0.14696,-0.093202,0,0.22048,0.12318,0
0,0.505,0.017267,66.678,0.505,0.020661,0.082659,-0.11544,0,0.16537,0.17983,0
0,0.505,0.01727,66.669,0.505,0.020594,0.081551,-0.11592,0,0.16412,0.18078,0
0,0.505,0.017269,66.674,0.505,0.020503,0.080049,-0.11658,0,0.16244,0.18209,0
0,0.505,0.017316,66.816,0.505,0.021345,0.10693,-0.10561,0,0.18965,0.15897,0
0,0.505,0.017243,66.618,0.505,0.019954,0.072701,-0.11998,0,0.15386,0.18837,0
0,0.505,0.017243,66.618,0.505,0.0199,0.072068,-0.12026,0,0.15309,0.18891,0
0,0.505,0.017244,66.596,0.505,0.019704,0.06989,-0.12131,0,0.15045,0.19071,0
0,0.505,0.017241,66.63,0.505,0.020093,0.074353,-0.11919,0,0.15604,0.18681,0
0,0.505,0.017243,66.596,0.505,0.019687,0.069701,-0.1214,0,0.15022,0.19087,0
0,0.505,0.017243,66.596,0.505,0.019683,0.069654,-0.12142,0,0.15016,0.19091,0
0,0.505,0.017198,66.499,0.505,0.017777,0.053973,-0.12955,0,0.12854,0.20387,0
0,0.505,0.017188,66.5,0.505,0.017495,0.052183,-0.13056,0,0.12586,0.2052,0
0,0.505,0.017234,66.589,0.505,0.01939,0.066722,-0.12286,0,0.14648,0.19336,0
0,0.505,0.017221,66.562,0.505,0.018988,0.063045,-0.12472,0,0.14175,0.19632,0
0,0.505,0.017215,66.537,0.505,0.018844,0.061808,-0.12536,0,0.14001,0.19742,0
0,0.505,0.017209,66.537,0.505,0.018771,0.061197,-0.12568,0,0.13914,0.19797,0
0,0.505,0.017215,66.522,0.505,0.018505,0.059121,-0.12676,0,0.13605,0.19975,0
0,0.505,0.017212,66.516,0.505,0.018214,0.056998,-0.1279,0,0.13303,0.20142,0
0,0.505,0.017271,66.71,0.505,0.0208,0.085214,-0.11431,0,0.16833,0.17761,0
0,0.505,0.017268,66.678,0.505,0.020678,0.082963,-0.11531,0,0.16571,0.17957,0
0,0.505,0.017259,66.657,0.505,0.020278,0.076773,-0.11806,0,0.159,0.18474,0
0,0.505,0.017258,66.642,0.505,0.020237,0.076248,-0.11831,0,0.15836,0.18517,0
0,0.505,0.017211,66.511,0.505,0.018159,0.056593,-0.12811,0,0.13245,0.20175,0
0,0.505,0.017066,66.194,0.505,-0.0013799,-0.0045641,-0.15343,0,-0.0093825,0.23632,0
0,0.505,0.017066,66.184,0.505,-0.0016617,-0.0051645,-0.15337,0,-0.011209,0.23623,0
0,0.505,0.017064,66.189,0.505,-0.0037574,-0.0097697,-0.15256,0,-0.024927,0.2353,0
0,0.505,0.01706,66.208,0.505,-0.0041713,-0.010691,-0.15231,0,-0.027656,0.23505,0
0,0.505,0.017069,66.208,0.505,-0.0052343,-0.013113,-0.15153,0,-0.034698,0.23422,0
0,0.505,0.017072,66.203,0.505,-0.0053574,-0.013391,-0.15142,0,-0.035511,0.2341,0
0,0.505,0.017346,66.942,0.505,-0.019831,-0.14282,-0.095655,0,-0.21695,0.12824,0
0,0.505,0.017344,66.869,0.505,-0.020924,-0.11472,-0.10386,0,-0.19536,0.15323,0
0,0.505,0.017346,66.871,0.505,-0.020907,-0.1159,-0.10348,0,-0.19646,0.15215,0
0,0.505,0.017333,66.893,0.505,-0.020939,-0.11341,-0.10429,0,-0.19414,0.15447,0
0,0.505,0.017339,66.9,0.505,-0.020892,-0.11696,-0.10311,0,-0.19749,0.1511,0
0,0.505,0.017353,66.896,0.505,-0.020415,-0.13207,-0.098487,0,-0.20926,0.13755,0
0,0.505,0.017274,66.705,0.505,-0.02007,-0.081037,-0.1176,0,-0.16112,0.18325,0
0,0.505,0.017266,66.678,0.505,-0.01978,-0.077003,-0.11952,0,-0.15647,0.18679,0
0,0.505,0.017326,66.86,0.505,-0.020961,-0.11027,-0.1054,0,-0.19141,0.15707,0
0,0.505,0.01733,66.861,0.505,-0.020955,-0.11113,-0.10511,0,-0.19211,0.15629,0
0,0.505,0.017327,66.833,0.505,-0.020961,-0.10674,-0.10669,0,-0.1881,0.16033,0
0,0.505,0.017075,66.209,0.505,0.0062298,0.012149,-0.15173,0,0.040531,0.23346,0
0,0.505,0.017075,66.209,0.505,0.0062278,0.012144,-0.15173,0,0.040518,0.23346,0
0,0.505,0.017058,66.217,0.505,0.0056959,0.01091,-0.15208,0,0.037018,0.23397,0
0,0.505,0.017052,66.199,0.505,0.0054317,0.010286,-0.15225,0,0.035178,0.23428,0
0,0.505,0.017051,66.202,0.505,0.0051871,0.0097512,-0.15239,0,0.033518,0.23445,0
0,0.505,0.017017,65.942,0.505,0.011221,0.21375,-0.080688,0,0.2556,0.058279,0
0,0.505,0.017076,66.085,0.505,0.011857,0.20999,-0.081813,0,0.25414,0.061849,0
0,0.505,0.016949,65.741,0.505,0.010491,0.21802,-0.07925,0,0.25703,0.054626,0
0,0.505,0.016992,65.874,0.505,0.010938,0.21549,-0.080193,0,0.2562,0.05686,0
0,0.505,0.013275,63.077,0.505,0.00070012,0.11431,-0.0088115,0,0.27037,0.0058925,0
0,0.505,0.013415,62.481,0.505,0.00084909,0.13684,-0.01173,0,0.27004,0.0073518,0
0,0.505,0.012897,64.557,0.505,0.00038309,0.060582,-0.0026866,0,0.27104,0.0021052,0
0,0.505,0.01307,63.976,0.505,0.00045811,0.079826,-0.0041934,0,0.27078,0.0037273,0
0,0.505,0.01523,62.365,0.505,0.0036996,0.23244,-0.046756,0,0.26671,0.022108,0
0,0.505,0.015435,62.583,0.505,0.004098,0.23539,-0.050301,0,0.26624,0.02407,0
0,0.505,0.015603,62.763,0.505,0.0044658,0.23733,-0.053174,0,0.26581,0.025808,0
0,0.505,0.015798,63.147,0.505,0.0050508,0.23887,-0.057393,0,0.26503,0.028526,0
0,0.505,0.014305,61.733,0.505,0.0020595,0.20308,-0.029588,0,0.26855,0.014708,0
0,0.505,0.014388,61.781,0.505,0.0021995,0.20649,-0.031276,0,0.26839,0.01538,0
0,0.505,0.013509,62.337,0.505,0.00096466,0.14576,-0.013729,0,0.26989,0.0081242,0
0,0.505,0.013833,61.875,0.505,0.0013991,0.17609,-0.020467,0,0.26921,0.011018,0
0,0.505,0.014227,61.746,0.505,0.0019572,0.19854,-0.028101,0,0.26867,0.014097,0
0,0.505,0.017283,66.707,0.505,0.02089,0.087088,-0.11352,0,0.17037,0.17604,0
0,0.505,0.017321,66.809,0.505,0.021342,0.10848,-0.10503,0,0.19102,0.1576,0
0,0.505,0.017322,66.836,0.505,0.021316,0.11295,-0.1034,0,0.19493,0.15366,0
0,0.505,0.017338,66.87,0.505,0.020963,0.12715,-0.098643,0,0.20639,0.14104,0
0,0.505,0.017332,66.872,0.505,0.021122,0.12243,-0.10014,0,0.20278,0.14528,0
0,0.505,0.017333,66.846,0.505,0.02119,0.11989,-0.10099,0,0.20073,0.14753,0
0,0.505,0.01732,66.856,0.505,0.018747,0.16011,-0.09034,0,0.22891,0.11091,0
0,0.505,0.017321,66.857,0.505,0.0188,0.15956,-0.090447,0,0.22857,0.11142,0
0,0.505,0.017322,66.875,0.505,0.019053,0.15683,-0.090987,0,0.22688,0.114,0
0,0.505,0.017335,66.875,0.505,0.019881,0.14671,-0.093261,0,0.22031,0.12341,0
0,0.505,0.017325,66.885,0.505,0.019342,0.15355,-0.091678,0,0.22481,0.11708,0
0,0.505,0.01733,66.879,0.505,0.019543,0.15112,-0.092222,0,0.22324,0.11933,0
0,0.505,0.017326,66.874,0.505,0.019184,0.15537,-0.091293,0,0.22596,0.11537,0
0,0.505,0.017293,66.797,0.505,0.0173,0.17341,-0.087971,0,0.23672,0.098022,0
0,0.505,0.017297,66.804,0.505,0.017456,0.17211,-0.088185,0,0.23598,0.099303,0
0,0.505,0.017308,66.84,0.505,0.018076,0.16665,-0.089102,0,0.23286,0.10463,0
0,0.505,0.017316,66.841,0.505,0.018386,0.16374,-0.089649,0,0.23112,0.10745,0
0,0.505,0.017306,66.83,0.505,0.017938,0.16791,-0.08889,0,0.23358,0.10342,0
0,0.505,0.017298,66.824,0.505,0.017703,0.16999,-0.088528,0,0.23479,0.10139,0
0,0.505,0.017279,66.768,0.505,0.016859,0.17695,-0.08741,0,0.23875,0.094442,0
0,0.505,0.017281,66.773,0.505,0.016946,0.17627,-0.087517,0,0.23836,0.095119,0
0,0.505,0.017265,66.692,0.505,0.015798,0.18485,-0.086224,0,0.24299,0.086798,0
0,0.505,0.017261,66.733,0.505,0.016318,0.18106,-0.086805,0,0.24101,0.090481,0
0,0.505,0.017315,66.844,0.505,0.018424,0.16337,-0.089715,0,0.2309,0.1078,0
0,0.505,0.017261,66.737,0.505,0.016343,0.18088,-0.086828,0,0.2409,0.090665,0
0,0.505,0.017262,66.738,0.505,0.016364,0.18072,-0.086852,0,0.24082,0.090812,0
0,0.505,0.017201,66.541,0.505,0.014383,0.19432,-0.084781,0,0.24756,0.077159,0
0,0.505,0.017211,66.571,0.505,0.014587,0.19302,-0.084988,0,0.24696,0.078451,0
0,0.505,0.017243,66.637,0.505,0.015237,0.18872,-0.085648,0,0.24492,0.082748,0
0,0.505,0.01726,66.669,0.505,0.015631,0.18601,-0.086057,0,0.24355,0.085592,0
0,0.505,0.016936,65.574,0.505,0.010017,0.22093,-0.078454,0,0.25795,0.052077,0
0,0.505,0.01695,65.609,0.505,0.010134,0.22023,-0.078714,0,0.25773,0.052715,0
0,0.505,0.016177,63.835,0.505,0.0062752,0.238,-0.064808,0,0.26345,0.033762,0
0,0.505,0.016282,64.046,0.505,0.0066682,0.23678,-0.066715,0,0.26291,0.035563,0
0,0.505,0.017078,66.091,0.505,0.01188,0.20986,-0.081848,0,0.25409,0.061976,0
0,0.505,0.017137,66.293,0.505,0.012802,0.20425,-0.08306,0,0.25189,0.067362,0
0,0.505,0.017153,66.356,0.505,0.013152,0.20207,-0.083453,0,0.25101,0.06946,0
0,0.505,0.017079,66.094,0.505,0.011889,0.2098,-0.081862,0,0.25407,0.062027,0
0,0.505,0.017293,66.742,0.505,0.021028,0.090422,-0.11211,0,0.17389,0.17326,0
0,0.505,0.017297,66.776,0.505,0.021186,0.095323,-0.11012,0,0.17874,0.16914,0
0,0.505,0.017319,66.841,0.505,0.018554,0.16207,-0.089978,0,0.2301,0.10905,0
0,0.505,0.01733,66.884,0.505,0.019613,0.15026,-0.092416,0,0.22268,0.12014,0
0,0.505,0.017333,66.892,0.505,0.020093,0.14366,-0.093999,0,0.21824,0.1262,0
0,0.505,0.017335,66.884,0.505,0.020209,0.14188,-0.094454,0,0.21702,0.12781,0
0,0.505,0.017336,66.875,0.505,0.020451,0.13791,-0.09552,0,0.21416,0.13136,0
0,0.505,0.017331,66.849,0.505,0.021209,0.11921,-0.10122,0,0.20017,0.14815,0
0,0.505,0.017332,66.84,0.505,0.021222,0.11846,-0.10149,0,0.19954,0.14882,0
0,0.505,0.017214,66.524,0.505,0.018592,0.059799,-0.12641,0,0.13705,0.19917,0
0,0.505,0.016434,64.356,0.505,0.0072415,0.23498,-0.069467,0,0.26214,0.038199,0
0,0.505,0.016442,64.376,0.505,0.0072746,0.23489,-0.069623,0,0.2621,0.038361,0
0,0.505,0.015877,63.278,0.505,0.005316,0.23887,-0.059032,0,0.26472,0.02966,0
0,0.505,0.016167,63.821,0.505,0.006241,0.23811,-0.064632,0,0.2635,0.033604,0
0,0.505,0.016173,63.83,0.505,0.0062603,0.23805,-0.064732,0,0.26347,0.03369,0
0,0.505,0.015009,62.155,0.505,0.0033167,0.22702,-0.042882,0,0.26716,0.020411,0
0,0.505,0.017116,66.238,0.505,0.012526,0.2059,-0.082694,0,0.25257,0.065723,0
0,0.505,0.017187,66.439,0.505,0.013722,0.19857,-0.084141,0,0.24946,0.073026,0
0,0.505,0.017188,66.446,0.505,0.013769,0.19827,-0.084189,0,0.24933,0.073321,0
0,0.505,0.016782,65.24,0.505,0.0091953,0.22533,-0.076153,0,0.25937,0.04778,0
0,0.505,0.016848,65.442,0.505,0.0096306,0.22303,-0.07735,0,0.25867,0.049854,0
0,0.505,0.016673,64.945,0.505,0.0084215,0.22968,-0.073867,0,0.26054,0.043917,0
0,0.505,0.016742,65.113,0.505,0.0088295,0.22746,-0.075127,0,0.25986,0.045972,0
0,0.505,0.016603,64.753,0.505,0.0080428,0.23139,-0.072498,0,0.26115,0.042065,0
0,0.505,0.014728,61.994,0.505,0.0028129,0.22076,-0.037996,0,0.26766,0.018259,0
0,0.505,0.017066,66.258,0.505,-0.0090991,-0.022716,-0.14731,0,-0.061175,0.22929,0
0,0.505,0.017068,66.259,0.505,-0.0091378,-0.022828,-0.14726,0,-0.061458,0.22922,0
0,0.505,0.017116,66.314,0.505,-0.010611,-0.027124,-0.14505,0,-0.07188,0.22677,0
0,0.505,0.017076,66.25,0.505,0.0077843,0.015906,-0.15047,0,0.050957,0.23162,0
0,0.505,0.017079,66.228,0.505,0.0074099,0.014991,-0.15081,0,0.048432,0.23208,0
0,0.505,0.017098,66.275,0.505,0.0097246,0.02098,-0.14832,0,0.064345,0.22866,0
0,0.505,0.017083,66.281,0.505,0.0093254,0.019885,-0.14883,0,0.061542,0.22934,0
0,0.505,0.017045,66.189,0.505,-0.00026946,-0.002189,-0.1536,0,-0.0021023,0.23651,0
0,0.505,0.017053,66.172,0.505,-0.00072921,-0.0031537,-0.15357,0,-0.0051066,0.23644,0
0,0.505,0.017068,66.181,0.505,0.00010905,-0.0013631,-0.1536,0,0.00027681,0.23637,0
0,0.505,0.017034,66.177,0.505,0.00077418,6.9057e-05,-0.15362,0,0.0047887,0.23637,0
0,0.505,0.017051,66.172,0.505,0.00055722,-0.00040933,-0.15362,0,0.0033008,0.23635,0
0,0.505,0.017066,66.176,0.505,0.0013822,0.0013656,-0.15355,0,0.0087665,0.23625,0
0,0.505,0.017066,66.175,0.505,0.0013691,0.0013359,-0.15355,0,0.0086802,0.23625,0
0,0.505,0.017053,66.176,0.505,-0.00082706,-0.0033708,-0.15355,0,-0.0057738,0.23642,0
0,0.505,0.017063,66.172,0.505,-0.00097805,-0.0037011,-0.15352,0,-0.0067551,0.23639,0
0,0.505,0.017058,66.181,0.505,-0.0023509,-0.0066832,-0.1532,0,-0.015692,0.236,0
0,0.505,0.017056,66.186,0.505,-0.0024929,-0.0069858,-0.15316,0,-0.016615,0.23596,0
0,0.505,0.017065,66.187,0.505,0.00028236,-0.00099785,-0.15361,0,0.0013752,0.23637,0
0,0.505,0.017057,66.213,0.505,0.0048739,0.0090353,-0.15252,0,0.031373,0.23466,0
0,0.505,0.017102,66.312,0.505,0.010348,0.022762,-0.14745,0,0.068593,0.22755,0
0,0.505,0.0171,66.281,0.505,0.0099116,0.021488,-0.14807,0,0.065639,0.22833,0
0,0.505,0.017087,66.26,0.505,0.0090167,0.019044,-0.1492,0,0.059394,0.22984,0
0,0.505,0.017084,66.265,0.505,0.0088168,0.01853,-0.14943,0,0.058014,0.23016,0
0,0.505,0.017086,66.25,0.505,0.0085654,0.017891,-0.1497,0,0.056293,0.23052,0
0,0.505,0.017081,66.255,0.505,0.0083015,0.01721,-0.14997,0,0.054482,0.2309,0
0,0.505,0.017082,66.242,0.505,0.0080919,0.016663,-0.15018,0,0.053047,0.23119,0
0,0.505,0.017076,66.232,0.505,0.0072652,0.014632,-0.15093,0,0.047453,0.23226,0
0,0.505,0.017097,66.283,0.505,0.0098344,0.021275,-0.14818,0,0.065107,0.22848,0
0,0.505,0.017067,66.195,0.505,0.0026599,0.0041216,-0.15332,0,0.016738,0.23596,0
0,0.505,0.017067,66.189,0.505,0.0025642,0.0039186,-0.15334,0,0.016138,0.23597,0
0,0.505,0.017064,66.19,0.505,0.0027356,0.0042801,-0.1533,0,0.017236,0.23597,0
0,0.505,0.01707,66.199,0.505,0.0044282,0.0080525,-0.15272,0,0.028511,0.23498,0
0,0.505,0.017073,66.202,0.505,0.0042912,0.0077387,-0.15276,0,0.027631,0.23506,0
0,0.505,0.017068,66.195,0.505,0.0040202,0.0071251,-0.15289,0,0.025976,0.23521,0
0,0.505,0.017055,66.209,0.505,0.0036915,0.0063912,-0.15302,0,0.023895,0.2354,0
0,0.505,0.017045,66.195,0.505,0.0020322,0.0027581,-0.15345,0,0.012928,0.23613,0
0,0.505,0.017066,66.175,0.505,0.0013992,0.0014032,-0.15355,0,0.0088792,0.23625,0
0,0.505,0.01705,66.202,0.505,0.0035342,0.0060609,-0.15308,0,0.022866,0.23557,0
0,0.505,0.017018,66.188,0.505,0.0031698,0.0052338,-0.15325,0,0.020303,0.23582,0
0,0.505,0.017053,66.197,0.505,-0.0019328,-0.0057719,-0.15331,0,-0.012963,0.23613,0
0,0.505,0.01707,66.238,0.505,0.0067441,0.013379,-0.15135,0,0.043958,0.23288,0
0,0.505,0.017075,66.209,0.505,0.0062311,0.012152,-0.15173,0,0.04054,0.23345,0
0,0.505,0.017077,66.225,0.505,0.0071506,0.014343,-0.15103,0,0.04668,0.2324,0
0,0.505,0.0171,66.299,0.505,0.010858,0.02425,-0.14671,0,0.072242,0.2267,0
0,0.505,0.017106,66.298,0.505,0.010703,0.023782,-0.14693,0,0.071116,0.22697,0
0,0.505,0.017121,66.323,0.505,0.012399,0.029156,-0.14403,0,0.083633,0.22323,0
0,0.505,0.01712,66.322,0.505,0.01238,0.029084,-0.14407,0,0.083493,0.22328,0
0,0.505,0.017118,66.308,0.505,0.011377,0.025833,-0.14586,0,0.075986,0.22565,0
0,0.505,0.017116,66.298,0.505,0.011191,0.025275,-0.14617,0,0.074652,0.22603,0
0,0.505,0.01712,66.317,0.505,0.012317,0.02887,-0.14419,0,0.083018,0.22345,0
0,0.505,0.01711,66.311,0.505,0.011893,0.027466,-0.14499,0,0.079833,0.22455,0
0,0.505,0.017176,66.476,0.505,0.017064,0.049596,-0.13202,0,0.12173,0.20727,0
0,0.505,0.017176,66.463,0.505,0.016877,0.048495,-0.13263,0,0.11999,0.20812,0
0,0.505,0.017186,66.492,0.505,0.017331,0.051148,-0.13112,0,0.12429,0.20598,0
0,0.505,0.017166,66.432,0.505,0.016359,0.045675,-0.13427,0,0.11549,0.21056,0
0,0.505,0.017166,66.432,0.505,0.016344,0.045596,-0.13432,0,0.11536,0.21063,0
0,0.505,0.017157,66.422,0.505,0.015583,0.041858,-0.13652,0,0.10856,0.21362,0
0,0.505,0.017156,66.416,0.505,0.015463,0.041277,-0.13685,0,0.10757,0.21405,0
0,0.505,0.017149,66.406,0.505,0.015011,0.039228,-0.13807,0,0.10383,0.21565,0
0,0.505,0.017146,66.408,0.505,0.014757,0.038154,-0.13873,0,0.10177,0.21651,0
0,0.505,0.017119,66.304,0.505,0.011478,0.026143,-0.14569,0,0.076725,0.22544,0
0,0.505,0.017159,66.425,0.505,0.015979,0.043756,-0.1354,0,0.11202,0.21216,0
0,0.505,0.017161,66.422,0.505,0.015898,0.043351,-0.13563,0,0.11129,0.2125,0
0,0.505,0.017149,66.416,0.505,0.015172,0.039972,-0.13764,0,0.10515,0.21508,0
0,0.505,0.017174,66.47,0.505,0.016691,0.047477,-0.13323,0,0.11834,0.20906,0
0,0.505,0.017233,66.613,0.505,0.015035,0.19006,-0.085452,0,0.24559,0.081386,0
0,0.505,0.017192,66.454,0.505,0.013855,0.19772,-0.084289,0,0.24908,0.073862,0
0,0.505,0.017332,66.894,0.505,0.020308,0.14035,-0.094844,0,0.21596,0.12921,0
0,0.505,0.017201,66.506,0.505,0.017874,0.054638,-0.12919,0,0.12952,0.20333,0
0,0.505,0.017166,66.428,0.505,0.016295,0.045353,-0.13446,0,0.11492,0.21084,0
0,0.505,0.017215,66.524,0.505,0.01852,0.059244,-0.1267,0,0.13621,0.19965,0
0,0.505,0.017233,66.599,0.505,0.019466,0.067428,-0.1225,0,0.14739,0.19276,0
