"cvar","mu","phivar","pressure","rho","str","velocity:0","velocity:1","Label","Points:0","Points:1","Points:2"
0,0.505,0.016486,66.598,0.505,-0.00020092,-0.0031233,-7.3504e-05,0,-0.27529,0,0
0,0.505,0.016467,66.601,0.505,-0.00019511,0.0035598,-8.5537e-05,0,0.27518,0,0
0,0.505,0.016935,66.597,0.505,-0.0018945,-0.0080357,-0.0094807,0,-0.18265,0.1645,0
0,0.505,0.016934,66.613,0.505,-0.0019003,-0.0081666,-0.0093277,0,-0.18514,0.16217,0
0,0.505,0.016935,66.65,0.505,-0.0018898,-0.0098055,-0.0077132,0,-0.20941,0.13752,0
0,0.505,0.016935,66.653,0.505,-0.0018886,-0.0098395,-0.0076808,0,-0.2098,0.13708,0
0,0.505,0.01693,66.682,0.505,-0.0018399,-0.010795,-0.0069319,0,-0.21933,0.12606,0
0,0.505,0.016928,66.685,0.505,-0.0018331,-0.010912,-0.0068528,0,-0.2205,0.12472,0
0,0.505,0.016928,66.685,0.505,-0.0018255,-0.011035,-0.0067779,0,-0.22137,0.12327,0
0,0.505,0.016934,66.681,0.505,-0.001814,-0.011216,-0.0066629,0,-0.22281,0.12143,0
0,0.505,0.016933,66.681,0.505,-0.001805,-0.011351,-0.0065829,0,-0.22393,0.11999,0
0,0.505,0.016924,66.7,0.505,-0.001772,-0.011796,-0.00632,0,-0.22751,0.11501,0
0,0.505,0.016925,66.696,0.505,-0.0017664,-0.011866,-0.0062867,0,-0.22799,0.11429,0
0,0.505,0.016924,66.709,0.505,-0.0017462,-0.01212,-0.0061589,0,-0.22971,0.11175,0
0,0.505,0.016935,66.653,0.505,-0.0018878,-0.0098582,-0.0076642,0,-0.21,0.13685,0
0,0.505,0.016933,66.667,0.505,-0.0018782,-0.010082,-0.0074748,0,-0.2124,0.13423,0
0,0.505,0.016545,66.455,0.505,-0.00022054,-0.0079371,-0.00051956,0,-0.27459,0.004263,0
0,0.505,0.016545,66.465,0.505,-0.00021808,-0.0075283,-0.00047307,0,-0.27465,0.0039885,0
0,0.505,0.016607,66.319,0.505,-0.00029771,-0.015238,-0.001867,0,-0.27334,0.010957,0
0,0.505,0.016571,66.35,0.505,-0.00026178,-0.012986,-0.0012895,0,-0.27386,0.0083299,0
0,0.505,0.016531,66.489,0.505,-0.00021473,-0.0066286,-0.00039717,0,-0.27477,0.0031801,0
0,0.505,0.016549,66.437,0.505,-0.00022774,-0.0087141,-0.00064963,0,-0.27446,0.0049253,0
0,0.505,0.016688,66.337,0.505,-0.0004122,-0.018892,-0.0033017,0,-0.27183,0.017813,0
0,0.505,0.016661,66.324,0.505,-0.00036941,-0.017991,-0.0028086,0,-0.27241,0.015395,0
0,0.505,0.016699,66.348,0.505,-0.00043116,-0.019228,-0.0034894,0,-0.27159,0.018844,0
0,0.505,0.016621,66.313,0.505,-0.00031167,-0.016015,-0.002065,0,-0.27319,0.0119,0
0,0.505,0.016733,66.389,0.505,-0.00049447,-0.019905,-0.0040618,0,-0.27071,0.022234,0
0,0.505,0.016713,66.357,0.505,-0.00045485,-0.019464,-0.0037086,0,-0.27126,0.020098,0
0,0.505,0.016631,66.311,0.505,-0.00032618,-0.016479,-0.0022506,0,-0.27299,0.012755,0
0,0.505,0.016855,66.566,0.505,-0.00079988,-0.019703,-0.0056292,0,-0.26593,0.038654,0
0,0.505,0.016834,66.542,0.505,-0.00075121,-0.019945,-0.0054835,0,-0.26681,0.035914,0
0,0.505,0.016826,66.525,0.505,-0.00072645,-0.020058,-0.0053982,0,-0.26722,0.034568,0
0,0.505,0.016864,66.641,0.505,-0.00091107,-0.019014,-0.0058101,0,-0.26365,0.045008,0
0,0.505,0.016865,66.624,0.505,-0.00087679,-0.019235,-0.0057717,0,-0.26437,0.043049,0
0,0.505,0.016872,66.669,0.505,-0.0010117,-0.018307,-0.0058387,0,-0.26152,0.051037,0
0,0.505,0.016868,66.666,0.505,-0.00099082,-0.018446,-0.0058323,0,-0.262,0.049743,0
0,0.505,0.01686,66.656,0.505,-0.00093491,-0.018826,-0.0058173,0,-0.26318,0.046397,0
0,0.505,0.016899,66.704,0.505,-0.0011683,-0.017163,-0.0057708,0,-0.25743,0.061214,0
0,0.505,0.016898,66.704,0.505,-0.0011556,-0.01726,-0.0057822,0,-0.25781,0.060344,0
0,0.505,0.016896,66.694,0.505,-0.0011322,-0.017439,-0.0058045,0,-0.25844,0.05878,0
0,0.505,0.016909,66.719,0.505,-0.0013059,-0.01613,-0.0056312,0,-0.25305,0.070969,0
0,0.505,0.016909,66.718,0.505,-0.0013002,-0.016172,-0.0056352,0,-0.25324,0.070556,0
0,0.505,0.01689,66.691,0.505,-0.0011019,-0.017657,-0.0058212,0,-0.25925,0.056779,0
0,0.505,0.016887,66.683,0.505,-0.0010801,-0.017814,-0.0058291,0,-0.25982,0.055362,0
0,0.505,0.01686,66.578,0.505,-0.00081577,-0.019626,-0.0056734,0,-0.26565,0.039558,0
0,0.505,0.01678,66.463,0.505,-0.00062164,-0.020288,-0.0049253,0,-0.26891,0.028919,0
0,0.505,0.016778,66.458,0.505,-0.00061459,-0.020276,-0.0048836,0,-0.26902,0.028545,0
0,0.505,0.016863,66.583,0.505,-0.00082268,-0.019593,-0.00569,0,-0.26549,0.039953,0
0,0.505,0.016807,66.506,0.505,-0.00068602,-0.02018,-0.0052286,0,-0.26788,0.032345,0
0,0.505,0.016782,66.466,0.505,-0.000626,-0.020288,-0.0049492,0,-0.26885,0.029152,0
0,0.505,0.016745,66.406,0.505,-0.00052249,-0.02008,-0.0042887,0,-0.27033,0.023726,0
0,0.505,0.016755,66.434,0.505,-0.00055825,-0.020206,-0.0045287,0,-0.26986,0.025586,0
0,0.505,0.016916,66.727,0.505,-0.0015084,-0.014498,-0.0055536,0,-0.2449,0.087238,0
0,0.505,0.016914,66.732,0.505,-0.0014793,-0.014741,-0.0055408,0,-0.24625,0.084749,0
0,0.505,0.016914,66.73,0.505,-0.0014588,-0.014912,-0.0055453,0,-0.24716,0.083012,0
0,0.505,0.016911,66.729,0.505,-0.001408,-0.015323,-0.005562,0,-0.24928,0.078864,0
0,0.505,0.01691,66.729,0.505,-0.0013951,-0.015424,-0.0055652,0,-0.24978,0.077851,0
0,0.505,0.016882,66.681,0.505,-0.0010468,-0.018058,-0.0058339,0,-0.26069,0.053217,0
0,0.505,0.016866,66.656,0.505,-0.00096807,-0.018603,-0.0058319,0,-0.26248,0.048386,0
0,0.505,0.016925,66.701,0.505,-0.0017258,-0.012364,-0.0060527,0,-0.23146,0.10919,0
0,0.505,0.016925,66.703,0.505,-0.0017207,-0.012424,-0.0060272,0,-0.23187,0.10857,0
0,0.505,0.016925,66.701,0.505,-0.0017103,-0.012543,-0.0059817,0,-0.23269,0.10734,0
0,0.505,0.016922,66.718,0.505,-0.0016622,-0.013059,-0.0057982,0,-0.23615,0.10198,0
0,0.505,0.016921,66.716,0.505,-0.0016407,-0.013277,-0.0057408,0,-0.23757,0.099693,0
0,0.505,0.016913,66.732,0.505,-0.0014378,-0.015082,-0.0055442,0,-0.24805,0.081291,0
0,0.505,0.01692,66.72,0.505,-0.0015941,-0.013727,-0.0056415,0,-0.2404,0.095049,0
0,0.505,0.016921,66.719,0.505,-0.0015694,-0.01396,-0.0056088,0,-0.24179,0.092744,0
0,0.505,0.01692,66.72,0.505,-0.0015987,-0.013683,-0.0056504,0,-0.24014,0.095488,0
0,0.505,0.016924,66.709,0.505,-0.0016838,-0.012832,-0.0058736,0,-0.23466,0.10432,0
0,0.505,0.016933,66.651,0.505,-0.0018967,-0.0096122,-0.0078793,0,-0.2073,0.1401,0
0,0.505,0.016932,66.667,0.505,-0.0018734,-0.010179,-0.0073922,0,-0.21345,0.13295,0
0,0.505,0.016936,66.634,0.505,-0.0019116,-0.0087101,-0.0087407,0,-0.19459,0.15331,0
0,0.505,0.016939,66.628,0.505,-0.0019117,-0.0088454,-0.0086137,0,-0.19664,0.15138,0
0,0.505,0.016939,66.634,0.505,-0.0019117,-0.0088911,-0.0085631,0,-0.19738,0.15065,0
0,0.505,0.016939,66.616,0.505,-0.0019105,-0.0085724,-0.0088924,0,-0.19219,0.15544,0
0,0.505,0.01694,66.63,0.505,-0.0019105,-0.0089957,-0.0084611,0,-0.19896,0.14906,0
0,0.505,0.016937,66.637,0.505,-0.0019095,-0.009092,-0.0083652,0,-0.20042,0.14759,0
0,0.505,0.016937,66.64,0.505,-0.0019089,-0.0091295,-0.0083326,0,-0.20094,0.14705,0
0,0.505,0.016938,66.636,0.505,-0.0019059,-0.0092767,-0.0081934,0,-0.20273,0.14492,0
0,0.505,0.016941,66.609,0.505,-0.0019061,-0.0083466,-0.009134,0,-0.18816,0.1592,0
0,0.505,0.016941,66.608,0.505,-0.0019063,-0.0083535,-0.0091258,0,-0.18829,0.15907,0
0,0.505,0.016941,66.608,0.505,-0.0019073,-0.0084022,-0.0090731,0,-0.18917,0.15824,0
0,0.505,0.016941,66.607,0.505,-0.0019057,-0.0083348,-0.0091478,0,-0.18794,0.15939,0
0,0.505,0.01693,66.691,0.505,-0.0017956,-0.011483,-0.0064974,0,-0.2251,0.11833,0
0,0.505,0.016927,66.694,0.505,-0.0017765,-0.011738,-0.0063567,0,-0.22705,0.11564,0
0,0.505,0.016917,66.728,0.505,-0.0015194,-0.014404,-0.0055558,0,-0.24437,0.088209,0
0,0.505,0.01691,66.722,0.505,-0.0013505,-0.015783,-0.0055963,0,-0.25144,0.074374,0
0,0.505,0.016903,66.72,0.505,-0.0012566,-0.016494,-0.0056824,0,-0.25471,0.067349,0
0,0.505,0.016902,66.716,0.505,-0.00124,-0.016618,-0.005698,0,-0.25525,0.06617,0
0,0.505,0.016901,66.717,0.505,-0.0012072,-0.016867,-0.0057329,0,-0.25628,0.063883,0
0,0.505,0.01691,66.723,0.505,-0.0013567,-0.015735,-0.0055936,0,-0.25122,0.07484,0
0,0.505,0.016921,66.721,0.505,-0.0015556,-0.014088,-0.0055906,0,-0.24256,0.091463,0
0,0.505,0.016921,66.722,0.505,-0.0015577,-0.014068,-0.005592,0,-0.24246,0.091661,0
0,0.505,0.01692,66.719,0.505,-0.0016292,-0.013392,-0.0057103,0,-0.23829,0.098518,0
0,0.505,0.016924,66.711,0.505,-0.0016928,-0.012736,-0.0059028,0,-0.23403,0.10532,0
0,0.505,0.016932,66.677,0.505,-0.0018582,-0.010476,-0.0071622,0,-0.21634,0.12947,0
0,0.505,0.016932,66.678,0.505,-0.0018506,-0.01062,-0.0070609,0,-0.21773,0.12803,0
0,0.505,0.016939,66.595,0.505,-0.0018744,-0.0076879,-0.0098469,0,-0.17603,0.16983,0
0,0.505,0.01694,66.6,0.505,-0.0018789,-0.0077554,-0.0097717,0,-0.17728,0.16879,0
0,0.505,0.016946,66.58,0.505,-0.0018612,-0.0075064,-0.010035,0,-0.17259,0.17267,0
0,0.505,0.016946,66.583,0.505,-0.0018635,-0.0075334,-0.010003,0,-0.17311,0.17225,0
0,0.505,0.016933,66.582,0.505,-0.0018501,-0.0073686,-0.010193,0,-0.17009,0.1747,0
0,0.505,0.016944,66.574,0.505,-0.0018285,-0.0071493,-0.01044,0,-0.1655,0.17806,0
0,0.505,0.016944,66.576,0.505,-0.0018307,-0.0071696,-0.010416,0,-0.16592,0.17777,0
0,0.505,0.016946,66.561,0.505,-0.0017477,-0.0064341,-0.011144,0,-0.15236,0.18719,0
0,0.505,0.016943,66.575,0.505,-0.0017715,-0.0066214,-0.010964,0,-0.15589,0.18491,0
0,0.505,0.016931,66.674,0.505,-0.0018655,-0.010341,-0.0072669,0,-0.21502,0.13101,0
0,0.505,0.016937,66.639,0.505,-0.001902,-0.0094382,-0.0080364,0,-0.20488,0.14253,0
0,0.505,0.016937,66.641,0.505,-0.001904,-0.00937,-0.0081013,0,-0.2039,0.14358,0
0,0.505,0.016938,66.639,0.505,-0.0019034,-0.00939,-0.0080821,0,-0.2042,0.14326,0
0,0.505,0.016934,66.597,0.505,-0.0018936,-0.008013,-0.0095034,0,-0.18221,0.16488,0
0,0.505,0.016938,66.617,0.505,-0.0019101,-0.0085399,-0.0089233,0,-0.19166,0.15595,0
0,0.505,0.016939,66.61,0.505,-0.001885,-0.0078578,-0.0096655,0,-0.17921,0.16731,0
0,0.505,0.016936,66.596,0.505,-0.0018926,-0.0079943,-0.0095216,0,-0.18186,0.16519,0
0,0.505,0.016944,66.557,0.505,-0.0016688,-0.0058833,-0.011682,0,-0.14173,0.19381,0
0,0.505,0.016945,66.548,0.505,-0.0016829,-0.0059714,-0.011598,0,-0.14363,0.19275,0
0,0.505,0.01695,66.56,0.505,-0.0016391,-0.0056953,-0.01183,0,-0.13825,0.19561,0
0,0.505,0.016948,66.554,0.505,-0.0016486,-0.0057562,-0.011786,0,-0.13936,0.19505,0
0,0.505,0.01695,66.559,0.505,-0.0016335,-0.0056581,-0.011858,0,-0.13764,0.19598,0
0,0.505,0.016946,66.562,0.505,-0.0017456,-0.006418,-0.01116,0,-0.15204,0.18739,0
0,0.505,0.016944,66.572,0.505,-0.0017841,-0.0067322,-0.010858,0,-0.15781,0.18354,0
0,0.505,0.016939,66.583,0.505,-0.0017936,-0.0068185,-0.010776,0,-0.15934,0.18242,0
0,0.505,0.016936,66.55,0.505,-0.0016937,-0.0060365,-0.011539,0,-0.14505,0.19189,0
0,0.505,0.016941,66.55,0.505,-0.001703,-0.0061051,-0.011473,0,-0.14636,0.19108,0
0,0.505,0.016939,66.56,0.505,-0.0017181,-0.0062088,-0.011362,0,-0.14835,0.18975,0
0,0.505,0.016947,66.559,0.505,-0.001743,-0.0064,-0.011179,0,-0.1517,0.18761,0
0,0.505,0.016933,66.581,0.505,-0.0018462,-0.0073241,-0.010241,0,-0.16914,0.17544,0
0,0.505,0.016945,66.525,0.505,-9.4296e-05,0.00065505,-0.013665,0,-0.011647,0.23226,0
0,0.505,0.016937,66.528,0.505,-0.00010566,0.00060419,-0.013677,0,-0.012472,0.23222,0
0,0.505,0.016939,66.522,0.505,-0.00012351,0.00053043,-0.013691,0,-0.013776,0.23216,0
0,0.505,0.016938,66.528,0.505,-0.00015432,0.00040702,-0.013708,0,-0.016007,0.23205,0
0,0.505,0.01695,66.53,0.505,-0.0010476,-0.0028716,-0.013214,0,-0.083719,0.21971,0
0,0.505,0.016948,66.537,0.505,-0.0010601,-0.0029201,-0.013205,0,-0.084664,0.21941,0
0,0.505,0.016939,66.53,0.505,-0.0010174,-0.0027491,-0.013256,0,-0.081288,0.22035,0
0,0.505,0.016939,66.52,0.505,-0.00099626,-0.0026742,-0.013285,0,-0.07949,0.22094,0
0,0.505,0.016952,66.53,0.505,-0.0011046,-0.0031051,-0.013165,0,-0.08816,0.21828,0
0,0.505,0.016936,66.531,0.505,-0.0011402,-0.0032361,-0.01315,0,-0.091024,0.21724,0
0,0.505,0.01695,66.533,0.505,-0.0010968,-0.0030724,-0.013173,0,-0.087548,0.21849,0
0,0.505,0.016947,66.541,0.505,-0.0014777,-0.0047554,-0.012501,0,-0.12122,0.20479,0
0,0.505,0.016948,66.541,0.505,-0.0014793,-0.0047638,-0.012497,0,-0.12137,0.20472,0
0,0.505,0.01695,66.549,0.505,-0.001511,-0.0049362,-0.012392,0,-0.12453,0.20318,0
0,0.505,0.016951,66.544,0.505,-0.0015265,-0.0050153,-0.012334,0,-0.12612,0.20238,0
0,0.505,0.016944,66.548,0.505,-0.0015432,-0.0051009,-0.012278,0,-0.12789,0.20153,0
0,0.505,0.016947,66.553,0.505,-0.001575,-0.0052743,-0.012147,0,-0.13123,0.19966,0
0,0.505,0.016946,66.551,0.505,-0.001584,-0.0053295,-0.012106,0,-0.13218,0.19906,0
0,0.505,0.01694,66.564,0.505,-0.001605,-0.0054681,-0.012008,0,-0.13445,0.19777,0
0,0.505,0.016947,66.547,0.505,-0.0014327,-0.0045221,-0.012631,0,-0.1169,0.20684,0
0,0.505,0.016945,66.55,0.505,-0.0014436,-0.0045782,-0.012603,0,-0.11793,0.20635,0
0,0.505,0.016947,66.541,0.505,-0.0014771,-0.0047521,-0.012503,0,-0.12116,0.20482,0
0,0.505,0.01695,66.547,0.505,-0.0015645,-0.0052184,-0.012189,0,-0.13014,0.20025,0
0,0.505,0.016944,66.573,0.505,-0.0018344,-0.0072079,-0.010373,0,-0.16671,0.17721,0
0,0.505,0.016946,66.582,0.505,-0.0018644,-0.0075459,-0.0099898,0,-0.17337,0.17203,0
0,0.505,0.016939,66.579,0.505,-0.0018011,-0.0068876,-0.01071,0,-0.16058,0.18151,0
0,0.505,0.016936,66.585,0.505,-0.0018141,-0.007004,-0.010582,0,-0.16283,0.17992,0
0,0.505,0.016945,66.518,0.505,-1.0002e-05,0.0010179,-0.013634,0,-0.0054833,0.23249,0
0,0.505,0.016945,66.517,0.505,-1.3551e-05,0.0010035,-0.013634,0,-0.0057402,0.23248,0
0,0.505,0.016936,66.527,0.505,3.7856e-05,0.0012008,-0.013605,0,-0.0019606,0.23255,0
0,0.505,0.016946,66.516,0.505,-4.2273e-06,0.0010404,-0.01363,0,-0.0050638,0.23249,0
0,0.505,0.016952,66.52,0.505,0.00041848,0.0028249,-0.013296,0,0.026565,0.23127,0
0,0.505,0.016934,66.535,0.505,0.00037298,0.0026206,-0.013344,0,0.023207,0.23153,0
0,0.505,0.016926,66.528,0.505,0.00035089,0.0025321,-0.013372,0,0.021537,0.23181,0
0,0.505,0.016945,66.524,0.505,0.00026277,0.0021563,-0.013411,0,0.014626,0.23207,0
0,0.505,0.016928,66.527,0.505,0.00023334,0.0020341,-0.013443,0,0.012585,0.23216,0
0,0.505,0.016948,66.521,0.505,0.00019625,0.0018787,-0.013467,0,0.0098609,0.23224,0
0,0.505,0.016955,66.525,0.505,5.9249e-05,0.0012919,-0.013574,0,-0.00043664,0.23246,0
0,0.505,0.016956,66.531,0.505,8.5194e-05,0.0014086,-0.013551,0,0.0014179,0.23244,0
0,0.505,0.016917,66.519,0.505,0.00012547,0.0015829,-0.013552,0,0.0046375,0.23244,0
0,0.505,0.016918,66.519,0.505,0.00012448,0.0015789,-0.013552,0,0.0045622,0.23244,0
0,0.505,0.016951,66.526,0.505,0.00017986,0.0018074,-0.013478,0,0.0086405,0.2323,0
0,0.505,0.016953,66.534,0.505,-5.7649e-05,0.00081564,-0.013631,0,-0.0089863,0.23237,0
0,0.505,0.016944,66.516,0.505,-0.00024884,3.4966e-05,-0.013724,0,-0.022892,0.23156,0
0,0.505,0.016943,66.518,0.505,-0.0002528,1.9612e-05,-0.013725,0,-0.023179,0.23154,0
0,0.505,0.016944,66.517,0.505,-0.00025537,9.7897e-06,-0.013724,0,-0.023365,0.23152,0
0,0.505,0.016939,66.528,0.505,-0.0003017,-0.00017238,-0.013719,0,-0.026746,0.23122,0
0,0.505,0.01694,66.528,0.505,-0.00020369,0.0002136,-0.013717,0,-0.019601,0.23181,0
0,0.505,0.01694,66.543,0.505,0.0012147,0.0060736,-0.012883,0,0.092636,0.21663,0
0,0.505,0.016933,66.541,0.505,0.0011949,0.0059787,-0.012913,0,0.090777,0.21726,0
0,0.505,0.016934,66.534,0.505,0.0011744,0.0058926,-0.012931,0,0.088882,0.21779,0
0,0.505,0.016935,66.53,0.505,0.0011516,0.005793,-0.01295,0,0.086735,0.21854,0
0,0.505,0.01694,66.542,0.505,0.0013154,0.0065433,-0.012733,0,0.10217,0.21301,0
0,0.505,0.016941,66.544,0.505,0.0012883,0.006422,-0.012771,0,0.099531,0.21404,0
0,0.505,0.016941,66.541,0.505,0.0013579,0.0067484,-0.012659,0,0.10639,0.2113,0
0,0.505,0.016941,66.54,0.505,0.0013531,0.0067241,-0.012668,0,0.10592,0.2115,0
0,0.505,0.016939,66.543,0.505,0.0013233,0.0065814,-0.012721,0,0.10294,0.21269,0
0,0.505,0.016935,66.581,0.505,0.0017761,0.009769,-0.010781,0,0.1644,0.17863,0
0,0.505,0.016934,66.581,0.505,0.0017753,0.0097568,-0.010793,0,0.16418,0.17879,0
0,0.505,0.016937,66.575,0.505,0.0017389,0.0092655,-0.01118,0,0.15611,0.18453,0
0,0.505,0.016933,66.574,0.505,0.0017328,0.0091901,-0.011239,0,0.15481,0.1854,0
0,0.505,0.016941,66.591,0.505,0.0017647,0.0096071,-0.01091,0,0.16149,0.18078,0
0,0.505,0.016941,66.591,0.505,0.0017614,0.0095598,-0.01095,0,0.16069,0.18131,0
0,0.505,0.016935,66.58,0.505,0.0017778,0.0097988,-0.010754,0,0.16494,0.17822,0
0,0.505,0.016938,66.59,0.505,0.00175,0.0094001,-0.011067,0,0.15835,0.183,0
0,0.505,0.016937,66.59,0.505,0.0017461,0.0093495,-0.011108,0,0.15756,0.18359,0
0,0.505,0.016941,66.577,0.505,0.001664,0.0085591,-0.011691,0,0.14308,0.19295,0
0,0.505,0.016945,66.564,0.505,0.001648,0.0084304,-0.011783,0,0.1408,0.19431,0
0,0.505,0.016947,66.554,0.505,0.001606,0.0081279,-0.011978,0,0.13465,0.19783,0
0,0.505,0.016947,66.554,0.505,0.0016046,0.0081186,-0.011984,0,0.13444,0.19793,0
0,0.505,0.016942,66.558,0.505,0.0016369,0.0083411,-0.011843,0,0.13916,0.19529,0
0,0.505,0.016936,66.559,0.505,0.0016258,0.0082562,-0.011903,0,0.1375,0.19629,0
0,0.505,0.016943,66.565,0.505,0.0016442,0.008399,-0.011803,0,0.14025,0.19462,0
0,0.505,0.01694,66.537,0.505,0.0013916,0.0069104,-0.012597,0,0.10991,0.20994,0
0,0.505,0.01694,66.537,0.505,0.0013896,0.0069005,-0.0126,0,0.1097,0.21004,0
0,0.505,0.016941,66.557,0.505,0.0015095,0.0075301,-0.012309,0,0.12282,0.20373,0
0,0.505,0.016936,66.549,0.505,0.0014831,0.0073923,-0.012381,0,0.11975,0.20519,0
0,0.505,0.016937,66.547,0.505,0.0014725,0.0073306,-0.012407,0,0.11856,0.20574,0
0,0.505,0.016948,66.553,0.505,0.0015464,0.0077547,-0.012195,0,0.1271,0.20173,0
0,0.505,0.016941,66.557,0.505,0.0015195,0.0075879,-0.012283,0,0.12398,0.20319,0
0,0.505,0.016948,66.553,0.505,0.001551,0.0077841,-0.012179,0,0.12766,0.20144,0
0,0.505,0.016948,66.552,0.505,0.0015792,0.007961,-0.012076,0,0.13119,0.19962,0
0,0.505,0.016948,66.552,0.505,0.0015776,0.0079504,-0.012081,0,0.13098,0.19973,0
0,0.505,0.016948,66.551,0.505,0.0015927,0.0080449,-0.012027,0,0.13291,0.19873,0
0,0.505,0.016939,66.57,0.505,0.001719,0.0090557,-0.01135,0,0.15202,0.18732,0
0,0.505,0.016939,66.57,0.505,0.0017179,0.0090442,-0.011357,0,0.15181,0.18746,0
0,0.505,0.016934,66.613,0.505,0.0018129,0.011143,-0.0095495,0,0.18635,0.16108,0
0,0.505,0.016935,66.61,0.505,0.0018132,0.011098,-0.009589,0,0.18574,0.16165,0
0,0.505,0.01693,66.623,0.505,0.001811,0.01132,-0.009379,0,0.18921,0.15843,0
0,0.505,0.016934,66.611,0.505,0.0018125,0.011192,-0.0095054,0,0.18712,0.16038,0
0,0.505,0.016933,66.618,0.505,0.0018084,0.011446,-0.0092649,0,0.19108,0.15665,0
0,0.505,0.016932,66.622,0.505,0.0018137,0.010951,-0.0097249,0,0.18366,0.1635,0
0,0.505,0.016937,66.612,0.505,0.001809,0.010571,-0.010065,0,0.17762,0.1686,0
0,0.505,0.016936,66.61,0.505,0.0018064,0.01046,-0.010163,0,0.17598,0.17005,0
0,0.505,0.016937,66.591,0.505,0.0017985,0.010217,-0.010379,0,0.17216,0.17298,0
0,0.505,0.016934,66.598,0.505,0.001794,0.010099,-0.01048,0,0.17024,0.17444,0
0,0.505,0.016932,66.541,0.505,-0.0012904,-0.0038604,-0.012961,0,-0.10389,0.21226,0
0,0.505,0.016934,66.536,0.505,-0.0013146,-0.0039572,-0.012905,0,-0.10614,0.21132,0
0,0.505,0.016935,66.527,0.505,-0.0011531,-0.0032789,-0.013138,0,-0.092129,0.21688,0
0,0.505,0.016929,66.529,0.505,-0.001179,-0.0033749,-0.013115,0,-0.094418,0.21601,0
0,0.505,0.016941,66.528,0.505,-0.0012052,-0.0034771,-0.013069,0,-0.096714,0.21514,0
0,0.505,0.016947,66.533,0.505,-0.0012143,-0.0035165,-0.01305,0,-0.097502,0.21486,0
0,0.505,0.016949,66.531,0.505,-0.00089876,-0.0023479,-0.01334,0,-0.071545,0.22323,0
0,0.505,0.016948,66.524,0.505,-0.00093231,-0.0024617,-0.013328,0,-0.074067,0.22258,0
0,0.505,0.016933,66.519,0.505,-0.00097758,-0.0026037,-0.013309,0,-0.077935,0.22145,0
0,0.505,0.016937,66.523,0.505,-0.00095247,-0.002527,-0.013326,0,-0.075755,0.22205,0
0,0.505,0.016952,66.538,0.505,-0.00088313,-0.0022943,-0.013343,0,-0.07035,0.2235,0
0,0.505,0.016944,66.553,0.505,-0.0014079,-0.0043939,-0.012698,0,-0.1146,0.20796,0
0,0.505,0.016945,66.552,0.505,-0.0013914,-0.0043105,-0.012738,0,-0.11306,0.20863,0
0,0.505,0.016933,66.548,0.505,-0.0013535,-0.00412,-0.012828,0,-0.10965,0.21,0
0,0.505,0.01694,66.548,0.505,-0.00137,-0.0042016,-0.012786,0,-0.11116,0.20941,0
0,0.505,0.016934,66.537,0.505,-0.00133,-0.0040258,-0.012878,0,-0.10752,0.21075,0
0,0.505,0.016945,66.537,0.505,-0.0012665,-0.0037519,-0.012985,0,-0.10176,0.21308,0
0,0.505,0.01695,66.531,0.505,-0.0012276,-0.003576,-0.013031,0,-0.098578,0.21441,0
0,0.505,0.016946,66.543,0.505,-0.0012522,-0.003686,-0.013003,0,-0.10055,0.2136,0
0,0.505,0.016939,66.526,0.505,0.00085759,0.0045856,-0.013137,0,0.061468,0.22561,0
0,0.505,0.016934,66.529,0.505,0.00083649,0.0044985,-0.013149,0,0.059705,0.226,0
0,0.505,0.016943,66.546,0.505,0.0012524,0.0062571,-0.012824,0,0.096117,0.21539,0
0,0.505,0.016944,66.544,0.505,0.0012353,0.0061761,-0.012849,0,0.094491,0.21599,0
0,0.505,0.016937,66.544,0.505,0.0014296,0.0070966,-0.012522,0,0.11403,0.2081,0
0,0.505,0.016938,66.545,0.505,0.0014226,0.0070595,-0.012537,0,0.1133,0.20844,0
0,0.505,0.016937,66.557,0.505,0.001452,0.0072221,-0.012466,0,0.11635,0.20692,0
0,0.505,0.01694,66.536,0.505,0.0013995,0.0069486,-0.012582,0,0.11078,0.20957,0
0,0.505,0.016943,66.542,0.505,0.0012758,0.0063635,-0.012787,0,0.098318,0.21452,0
0,0.505,0.016935,66.518,0.505,0.00053529,0.0032893,-0.013257,0,0.035652,0.2303,0
0,0.505,0.016933,66.514,0.505,0.00052217,0.0032361,-0.013269,0,0.034573,0.23048,0
0,0.505,0.016942,66.521,0.505,0.00057953,0.0034724,-0.01323,0,0.039082,0.22982,0
0,0.505,0.016942,66.514,0.505,0.00056194,0.0034001,-0.013239,0,0.037714,0.23002,0
0,0.505,0.016942,66.515,0.505,0.00066513,0.0038248,-0.013196,0,0.045827,0.22872,0
0,0.505,0.016937,66.528,0.505,0.00062234,0.0036525,-0.013211,0,0.042443,0.22927,0
0,0.505,0.016942,66.515,0.505,0.00066602,0.0038283,-0.013195,0,0.045897,0.2287,0
0,0.505,0.016942,66.515,0.505,0.00066562,0.0038267,-0.013196,0,0.045865,0.22871,0
0,0.505,0.016943,66.518,0.505,0.00059033,0.0035182,-0.013223,0,0.039921,0.22968,0
0,0.505,0.016938,66.528,0.505,0.00070849,0.0039978,-0.01318,0,0.049288,0.22812,0
0,0.505,0.016942,66.518,0.505,0.00076113,0.0042056,-0.013165,0,0.053544,0.2273,0
0,0.505,0.016941,66.52,0.505,0.00075141,0.0041676,-0.013166,0,0.052751,0.22745,0
0,0.505,0.016952,66.519,0.505,0.00042321,0.002845,-0.013293,0,0.026907,0.23124,0
0,0.505,0.016952,66.52,0.505,0.00042161,0.0028384,-0.013293,0,0.026787,0.23125,0
0,0.505,0.016936,66.525,0.505,0.00047098,0.0030407,-0.013285,0,0.030482,0.23085,0
0,0.505,0.01693,66.518,0.505,0.00048988,0.0031163,-0.013285,0,0.032004,0.23073,0
0,0.505,0.016941,66.531,0.505,0.00089359,0.0047354,-0.013118,0,0.064423,0.22489,0
0,0.505,0.016937,66.535,0.505,0.00087878,0.0046716,-0.013126,0,0.063213,0.22522,0
0,0.505,0.01695,66.524,0.505,0.00017164,0.0017762,-0.013485,0,0.0080535,0.23234,0
0,0.505,0.01694,66.522,0.505,-0.0005835,-0.001212,-0.013587,0,-0.047742,0.22833,0
0,0.505,0.01694,66.527,0.505,-0.00060025,-0.0012709,-0.013572,0,-0.048957,0.22809,0
0,0.505,0.016936,66.515,0.505,-0.00053272,-0.0010341,-0.013632,0,-0.043835,0.2289,0
0,0.505,0.016933,66.518,0.505,-0.00054788,-0.0010815,-0.013622,0,-0.045019,0.22871,0
0,0.505,0.016942,66.51,0.505,-0.00048998,-0.00088582,-0.013652,0,-0.040471,0.22942,0
0,0.505,0.016943,66.524,0.505,-0.00044184,-0.00070967,-0.013671,0,-0.036975,0.23,0
0,0.505,0.016943,66.51,0.505,-0.00048174,-0.00085654,-0.013657,0,-0.03986,0.22951,0
0,0.505,0.016946,66.516,0.505,-0.0003679,-0.00042905,-0.013698,0,-0.03158,0.23069,0
0,0.505,0.016944,66.524,0.505,-0.00039595,-0.00053565,-0.013688,0,-0.033622,0.23046,0
0,0.505,0.016946,66.517,0.505,-0.00041483,-0.00060729,-0.01368,0,-0.034994,0.23027,0
0,0.505,0.016944,66.522,0.505,-0.00034922,-0.00035688,-0.013704,0,-0.030212,0.23084,0
0,0.505,0.016945,66.518,0.505,-0.000336,-0.00030471,-0.013708,0,-0.02924,0.23096,0
0,0.505,0.016949,66.524,0.505,-0.00067347,-0.0015445,-0.013514,0,-0.05424,0.22709,0
0,0.505,0.01693,66.53,0.505,-0.0007068,-0.0016601,-0.013512,0,-0.056667,0.22658,0
0,0.505,0.016923,66.517,0.505,-0.00074406,-0.0017775,-0.013489,0,-0.059687,0.22587,0
0,0.505,0.016942,66.511,0.505,-0.00048688,-0.00087533,-0.013654,0,-0.040229,0.22946,0
0,0.505,0.016941,66.534,0.505,-0.00078655,-0.0019294,-0.013421,0,-0.06301,0.22515,0
0,0.505,0.016946,66.528,0.505,-0.00081122,-0.0020221,-0.013398,0,-0.064886,0.22476,0
0,0.505,0.016922,66.518,0.505,-0.00074642,-0.0017847,-0.013487,0,-0.059877,0.22583,0
0,0.505,0.016924,66.518,0.505,-0.00074935,-0.0017947,-0.013483,0,-0.060108,0.22577,0
0,0.505,0.016952,66.529,0.505,-0.00064285,-0.0014322,-0.013528,0,-0.052058,0.22751,0
0,0.505,0.016951,66.534,0.505,-0.00065527,-0.001481,-0.013519,0,-0.052941,0.22736,0
0,0.505,0.016943,66.537,0.505,-0.00083371,-0.0021042,-0.013383,0,-0.066581,0.22438,0
0,0.505,0.01695,66.532,0.505,-0.0008581,-0.0021986,-0.013364,0,-0.068423,0.22394,0
0,0.505,0.016941,66.522,0.505,-0.00017493,0.00032691,-0.013712,0,-0.017498,0.23194,0
0,0.505,0.016943,66.54,0.505,0.00092106,0.0048559,-0.013103,0,0.066641,0.22434,0
0,0.505,0.016932,66.526,0.505,0.00096319,0.0050257,-0.013104,0,0.070217,0.22358,0
0,0.505,0.016937,66.526,0.505,0.00095714,0.0050013,-0.013102,0,0.069692,0.2237,0
0,0.505,0.016937,66.523,0.505,0.0008203,0.0044337,-0.013152,0,0.058366,0.2263,0
0,0.505,0.016937,66.53,0.505,0.00079415,0.0043343,-0.013157,0,0.056222,0.22678,0
0,0.505,0.016942,66.518,0.505,0.0007438,0.0041369,-0.013168,0,0.052131,0.22757,0
0,0.505,0.01694,66.525,0.505,0.00030202,0.0023191,-0.013389,0,0.017518,0.23208,0
0,0.505,0.016949,66.533,0.505,0.00028491,0.0022508,-0.01339,0,0.016214,0.23204,0
0,0.505,0.016947,66.525,0.505,0.0010234,0.0052706,-0.013052,0,0.075394,0.2222,0
0,0.505,0.016947,66.531,0.505,0.0010065,0.0052028,-0.013061,0,0.073928,0.22258,0
0,0.505,0.01694,66.523,0.505,0.00097603,0.0050795,-0.013091,0,0.071324,0.22329,0
0,0.505,0.016913,66.724,0.505,0.0011771,0.017399,-0.0063995,0,0.24837,0.080845,0
0,0.505,0.016914,66.723,0.505,0.0011996,0.017238,-0.0064096,0,0.24753,0.08245,0
0,0.505,0.016919,66.722,0.505,0.0012347,0.016984,-0.0064287,0,0.24616,0.085113,0
0,0.505,0.01692,66.725,0.505,0.0012532,0.016843,-0.0064479,0,0.24546,0.086526,0
0,0.505,0.016636,66.278,0.505,-2.6243e-05,0.019263,-0.0029091,0,0.27266,0.0148,0
0,0.505,0.01666,66.306,0.505,4.0203e-05,0.020691,-0.0036445,0,0.27181,0.01812,0
0,0.505,0.016661,66.311,0.505,4.8235e-05,0.020854,-0.003725,0,0.27171,0.018514,0
0,0.505,0.016602,66.275,0.505,-6.6495e-05,0.017579,-0.0023237,0,0.27315,0.012299,0
0,0.505,0.016481,66.529,0.505,-0.00018746,0.0056755,-0.00025901,0,0.27509,0.0019318,0
0,0.505,0.016495,66.474,0.505,-0.00017961,0.0076789,-0.00042379,0,0.27498,0.0037194,0
0,0.505,0.01651,66.417,0.505,-0.00016514,0.0096854,-0.0006979,0,0.27474,0.0050479,0
0,0.505,0.016528,66.334,0.505,-0.00014382,0.012918,-0.0011225,0,0.27421,0.0072834,0
0,0.505,0.016666,66.312,0.505,5.4105e-05,0.020919,-0.0037768,0,0.27164,0.018778,0
0,0.505,0.016723,66.343,0.505,0.00012952,0.021874,-0.0044584,0,0.27067,0.022288,0
0,0.505,0.01656,66.296,0.505,-0.00011528,0.015031,-0.0016159,0,0.27381,0.0092458,0
0,0.505,0.016591,66.276,0.505,-9.0886e-05,0.01669,-0.0019939,0,0.27342,0.01092,0
0,0.505,0.016868,66.641,0.505,0.00067072,0.020713,-0.0064853,0,0.26222,0.049382,0
0,0.505,0.016892,66.641,0.505,0.00069501,0.020576,-0.0064996,0,0.26168,0.050874,0
0,0.505,0.016858,66.601,0.505,0.00059368,0.021178,-0.0064246,0,0.26361,0.045439,0
0,0.505,0.016857,66.604,0.505,0.00059955,0.021137,-0.0064305,0,0.26352,0.045752,0
0,0.505,0.016883,66.674,0.505,0.00081081,0.019856,-0.0064934,0,0.25918,0.057401,0
0,0.505,0.016884,66.675,0.505,0.00081491,0.019829,-0.0064911,0,0.25908,0.057621,0
0,0.505,0.016885,66.675,0.505,0.00082574,0.019761,-0.0064898,0,0.25879,0.058269,0
0,0.505,0.016891,66.689,0.505,0.00087721,0.019432,-0.0064707,0,0.25744,0.061359,0
0,0.505,0.016849,66.568,0.505,0.00051225,0.021595,-0.0062676,0,0.26513,0.041174,0
0,0.505,0.016856,66.599,0.505,0.00058761,0.021214,-0.0064164,0,0.26373,0.045112,0
0,0.505,0.016838,66.553,0.505,0.00047998,0.021759,-0.0062102,0,0.26559,0.039509,0
0,0.505,0.016883,66.669,0.505,0.00074814,0.020237,-0.0064861,0,0.26053,0.054051,0
0,0.505,0.016894,66.691,0.505,0.00089495,0.019321,-0.0064683,0,0.25699,0.062425,0
0,0.505,0.0169,66.652,0.505,0.0007225,0.020416,-0.0065056,0,0.26106,0.052569,0
0,0.505,0.01691,66.712,0.505,0.0010602,0.018224,-0.0064065,0,0.25224,0.072984,0
0,0.505,0.016905,66.724,0.505,0.0011148,0.017837,-0.0063955,0,0.25048,0.076589,0
0,0.505,0.01691,66.712,0.505,0.0010567,0.018248,-0.0064061,0,0.25235,0.072751,0
0,0.505,0.01691,66.71,0.505,0.0010476,0.01831,-0.0064093,0,0.25263,0.072153,0
0,0.505,0.016905,66.709,0.505,0.000998,0.01864,-0.0064216,0,0.25416,0.068875,0
0,0.505,0.016776,66.444,0.505,0.00027479,0.022332,-0.0054464,0,0.26859,0.029605,0
0,0.505,0.016792,66.486,0.505,0.00034288,0.022191,-0.0057483,0,0.26763,0.032674,0
0,0.505,0.01677,66.425,0.505,0.00025339,0.022287,-0.0053132,0,0.26887,0.028563,0
0,0.505,0.016803,66.509,0.505,0.00037751,0.022145,-0.0058903,0,0.26724,0.034319,0
0,0.505,0.016821,66.536,0.505,0.00043481,0.021913,-0.0060751,0,0.26636,0.037142,0
0,0.505,0.016749,66.353,0.505,0.000158,0.02205,-0.0046879,0,0.27026,0.023772,0
0,0.505,0.016773,66.38,0.505,0.00019174,0.022253,-0.0049419,0,0.26978,0.02554,0
0,0.505,0.016897,66.702,0.505,0.00093837,0.019031,-0.0064459,0,0.25584,0.065107,0
0,0.505,0.016904,66.704,0.505,0.00097761,0.018779,-0.0064362,0,0.25474,0.067574,0
0,0.505,0.016923,66.715,0.505,0.0014698,0.015099,-0.0068352,0,0.23465,0.10443,0
0,0.505,0.016926,66.705,0.505,0.0014998,0.014846,-0.0069321,0,0.23276,0.1073,0
0,0.505,0.016926,66.706,0.505,0.0015031,0.014819,-0.0069422,0,0.23256,0.10761,0
0,0.505,0.016927,66.701,0.505,0.0015143,0.014724,-0.0069842,0,0.23178,0.10874,0
0,0.505,0.016927,66.703,0.505,0.001534,0.014553,-0.0070534,0,0.23042,0.11074,0
0,0.505,0.016911,66.727,0.505,0.0013048,0.016424,-0.0065049,0,0.24322,0.09041,0
0,0.505,0.016911,66.726,0.505,0.0013084,0.016396,-0.0065097,0,0.24305,0.090677,0
0,0.505,0.016912,66.721,0.505,0.0013537,0.016048,-0.0065676,0,0.24094,0.094176,0
0,0.505,0.016913,66.72,0.505,0.0013631,0.015972,-0.0065854,0,0.24046,0.094946,0
0,0.505,0.016906,66.725,0.505,0.0011382,0.017673,-0.0063981,0,0.24971,0.078152,0
0,0.505,0.016934,66.671,0.505,0.0016768,0.013299,-0.0077302,0,0.21777,0.12771,0
0,0.505,0.016933,66.672,0.505,0.0016858,0.013218,-0.0077839,0,0.21677,0.12896,0
0,0.505,0.016932,66.68,0.505,0.0016642,0.013415,-0.0076548,0,0.21917,0.12597,0
0,0.505,0.016927,66.7,0.505,0.001591,0.014057,-0.0072863,0,0.22608,0.1169,0
0,0.505,0.016929,66.69,0.505,0.0016108,0.013884,-0.0073784,0,0.22438,0.1192,0
0,0.505,0.016932,66.68,0.505,0.0016348,0.013676,-0.0075002,0,0.22216,0.12213,0
0,0.505,0.016932,66.68,0.505,0.0016415,0.013617,-0.0075328,0,0.22152,0.12296,0
0,0.505,0.016932,66.678,0.505,0.001644,0.013594,-0.0075457,0,0.22127,0.12329,0
0,0.505,0.016933,66.66,0.505,0.0017053,0.013028,-0.0079183,0,0.21424,0.13185,0
0,0.505,0.016933,66.654,0.505,0.001713,0.012951,-0.0079752,0,0.21314,0.1331,0
0,0.505,0.01693,66.658,0.505,0.0017287,0.012796,-0.0080934,0,0.21091,0.13575,0
0,0.505,0.016932,66.648,0.505,0.0017366,0.012707,-0.0081693,0,0.20966,0.13715,0
0,0.505,0.016921,66.717,0.505,0.0014114,0.015585,-0.0066891,0,0.23794,0.099133,0
0,0.505,0.016921,66.72,0.505,0.0014341,0.015394,-0.0067401,0,0.23671,0.10116,0
0,0.505,0.016923,66.714,0.505,0.0014572,0.015202,-0.0068024,0,0.23538,0.10326,0
0,0.505,0.016927,66.702,0.505,0.0015393,0.014507,-0.007073,0,0.23005,0.11128,0
0,0.505,0.016926,66.704,0.505,0.0015633,0.014298,-0.0071677,0,0.22827,0.11383,0
0,0.505,0.016911,66.725,0.505,0.0013005,0.01646,-0.0065003,0,0.24343,0.090067,0
0,0.505,0.01692,66.72,0.505,0.0013957,0.015715,-0.0066525,0,0.23878,0.097768,0
0,0.505,0.01693,66.606,0.505,0.001813,0.010818,-0.0098446,0,0.18169,0.16517,0
0,0.505,0.016932,66.601,0.505,0.0018125,0.01078,-0.0098828,0,0.18105,0.16575,0
0,0.505,0.016937,66.606,0.505,0.0018107,0.010668,-0.0099793,0,0.17916,0.16741,0
0,0.505,0.016935,66.59,0.505,0.0017855,0.0099314,-0.01063,0,0.16738,0.17648,0
0,0.505,0.016937,66.587,0.505,0.0017897,0.010015,-0.010561,0,0.16877,0.17548,0
0,0.505,0.016937,66.596,0.505,0.0018006,0.010275,-0.010329,0,0.17308,0.17228,0
0,0.505,0.016938,66.594,0.505,0.001802,0.010313,-0.010298,0,0.1737,0.17185,0
0,0.505,0.01694,66.569,0.505,0.0017133,0.0090002,-0.01139,0,0.15101,0.18798,0
0,0.505,0.01694,66.627,0.505,0.0017888,0.012002,-0.008786,0,0.19915,0.14877,0
0,0.505,0.016936,66.634,0.505,0.0017945,0.011879,-0.0088866,0,0.19734,0.15058,0
0,0.505,0.016936,66.628,0.505,0.0017982,0.011786,-0.0089656,0,0.19602,0.15189,0
0,0.505,0.016933,66.632,0.505,0.0018019,0.01169,-0.0090458,0,0.19465,0.15324,0
0,0.505,0.016934,66.621,0.505,0.0018053,0.011575,-0.0091531,0,0.19294,0.15488,0
0,0.505,0.016932,66.623,0.505,0.0018071,0.011505,-0.0092124,0,0.19194,0.15583,0
0,0.505,0.016934,66.634,0.505,0.0017656,0.01236,-0.008461,0,0.20484,0.14285,0
0,0.505,0.016936,66.637,0.505,0.0017747,0.012236,-0.0085706,0,0.20283,0.14499,0
0,0.505,0.016931,66.641,0.505,0.0017619,0.012407,-0.0084109,0,0.20563,0.142,0
0,0.505,0.016941,66.629,0.505,0.0017826,0.012115,-0.0086841,0,0.20087,0.14702,0
0,0.505,0.01694,66.632,0.505,0.0017858,0.012065,-0.0087293,0,0.20009,0.14783,0
0,0.505,0.01694,66.574,0.505,0.0017011,0.0088839,-0.011475,0,0.1489,0.18934,0
0,0.505,0.01694,66.574,0.505,0.001698,0.0088558,-0.011497,0,0.14839,0.18965,0
0,0.505,0.01694,66.579,0.505,0.0016831,0.0087194,-0.011586,0,0.14598,0.19117,0
0,0.505,0.016942,66.574,0.505,0.0016745,0.0086482,-0.011635,0,0.14467,0.19198,0
0,0.505,0.016936,66.531,0.505,0.0011341,0.0057284,-0.012967,0,0.085079,0.2191,0
0,0.505,0.016939,66.525,0.505,0.0010973,0.0055699,-0.013006,0,0.081953,0.22017,0
0,0.505,0.016938,66.528,0.505,0.0010909,0.0055427,-0.013014,0,0.08141,0.22036,0
0,0.505,0.016939,66.525,0.505,0.0010492,0.0053731,-0.013045,0,0.077704,0.22157,0
0,0.505,0.01694,66.524,0.505,0.0010819,0.0055076,-0.01302,0,0.080629,0.22061,0
0,0.505,0.016901,66.524,0.505,0.00032857,0.0024322,-0.013409,0,0.019701,0.23199,0
0,0.505,0.016931,66.652,0.505,0.0017464,0.012593,-0.0082562,0,0.20817,0.13894,0
0,0.505,0.016934,66.637,0.505,0.0017561,0.012476,-0.0083541,0,0.20659,0.14083,0
0,0.505,0.016929,66.691,0.505,0.0016172,0.013829,-0.0074085,0,0.22383,0.11994,0
0,0.505,0.016928,66.699,0.505,0.0015761,0.014186,-0.0072214,0,0.22727,0.11524,0
0,0.505,0.016931,66.656,0.505,0.0017247,0.012834,-0.0080615,0,0.21145,0.13507,0
0,0.505,0.016935,66.659,0.505,0.001699,0.013091,-0.0078761,0,0.21507,0.13088,0
