"cvar","mu","phivar","pressure","rho","str","velocity:0","velocity:1","Label","Points:0","Points:1","Points:2"
0,0.505,0.016632,66.702,0.505,-0.00023133,-0.0019402,-4.861e-05,0,-0.27534,0,0
0,0.505,0.016607,66.693,0.505,-0.0002276,0.0023381,-5.8461e-05,0,0.27526,0,0
0,0.505,0.016691,66.555,0.505,-0.00026857,-0.0079299,-0.00082372,0,-0.27397,0.0083068,0
0,0.505,0.016676,66.606,0.505,-0.00024665,-0.0052147,-0.00039764,0,-0.27459,0.00474,0
0,0.505,0.016666,66.63,0.505,-0.00024025,-0.0041828,-0.00026781,0,-0.27483,0.0033196,0
0,0.505,0.016674,66.619,0.505,-0.00024204,-0.0046564,-0.00031028,0,-0.27473,0.0040127,0
0,0.505,0.016769,66.556,0.505,-0.00036526,-0.011506,-0.0021313,0,-0.2718,0.018297,0
0,0.505,0.016749,66.547,0.505,-0.00033402,-0.010898,-0.0017719,0,-0.27251,0.015385,0
0,0.505,0.016728,66.532,0.505,-0.00030392,-0.009894,-0.0013785,0,-0.27317,0.012366,0
0,0.505,0.016724,66.533,0.505,-0.00029895,-0.0097443,-0.0013139,0,-0.27328,0.011886,0
0,0.505,0.016719,66.533,0.505,-0.00029384,-0.0094683,-0.0012397,0,-0.27337,0.011322,0
0,0.505,0.016773,66.56,0.505,-0.0003713,-0.011603,-0.0021908,0,-0.27168,0.018839,0
0,0.505,0.016804,66.605,0.505,-0.00043191,-0.012068,-0.0026986,0,-0.27028,0.024226,0
0,0.505,0.016794,66.592,0.505,-0.00040938,-0.011961,-0.0025248,0,-0.27081,0.02223,0
0,0.505,0.016901,66.783,0.505,-0.00088368,-0.0093903,-0.0028674,0,-0.25343,0.070227,0
0,0.505,0.016896,66.788,0.505,-0.00086131,-0.0095662,-0.0029342,0,-0.2547,0.067446,0
0,0.505,0.016902,66.784,0.505,-0.00091411,-0.0091364,-0.0027952,0,-0.25161,0.074105,0
0,0.505,0.0169,66.784,0.505,-0.00089066,-0.009334,-0.0028514,0,-0.25303,0.071087,0
0,0.505,0.016896,66.776,0.505,-0.00080416,-0.01004,-0.0030963,0,-0.25769,0.060723,0
0,0.505,0.016896,66.776,0.505,-0.00080127,-0.010064,-0.0031046,0,-0.25784,0.060385,0
0,0.505,0.01687,66.756,0.505,-0.00067072,-0.01107,-0.0033514,0,-0.26324,0.046388,0
0,0.505,0.016872,66.75,0.505,-0.00066215,-0.011149,-0.0033624,0,-0.26353,0.045538,0
0,0.505,0.016876,66.738,0.505,-0.0006362,-0.011343,-0.0033719,0,-0.26446,0.043025,0
0,0.505,0.01691,66.767,0.505,-0.001089,-0.0074305,-0.0027384,0,-0.23751,0.099774,0
0,0.505,0.016908,66.771,0.505,-0.0010807,-0.0075253,-0.0027148,0,-0.23839,0.098351,0
0,0.505,0.016909,66.773,0.505,-0.0010642,-0.0077074,-0.0026863,0,-0.24008,0.095577,0
0,0.505,0.016901,66.788,0.505,-0.00094103,-0.0088971,-0.0027372,0,-0.24991,0.077631,0
0,0.505,0.016902,66.784,0.505,-0.00092088,-0.0090788,-0.0027831,0,-0.25119,0.074965,0
0,0.505,0.016904,66.788,0.505,-0.00096668,-0.0086705,-0.0026894,0,-0.24818,0.081099,0
0,0.505,0.016903,66.786,0.505,-0.00095134,-0.008808,-0.0027218,0,-0.24924,0.078994,0
0,0.505,0.016674,66.614,0.505,-0.00024327,-0.0048578,-0.00033451,0,-0.27469,0.0042352,0
0,0.505,0.016857,66.683,0.505,-0.00056189,-0.011829,-0.0032854,0,-0.26691,0.035877,0
0,0.505,0.016854,66.677,0.505,-0.00055451,-0.011872,-0.0032667,0,-0.26711,0.035201,0
0,0.505,0.016864,66.689,0.505,-0.0005762,-0.011743,-0.003313,0,-0.26647,0.037239,0
0,0.505,0.016876,66.715,0.505,-0.00061011,-0.011546,-0.0033661,0,-0.26537,0.040497,0
0,0.505,0.016871,66.708,0.505,-0.00059986,-0.011604,-0.0033535,0,-0.26575,0.03951,0
0,0.505,0.016886,66.767,0.505,-0.00075024,-0.010464,-0.0032235,0,-0.26015,0.054699,0
0,0.505,0.016884,66.768,0.505,-0.00073693,-0.010571,-0.0032494,0,-0.26074,0.053238,0
0,0.505,0.016879,66.763,0.505,-0.00072299,-0.010679,-0.0032751,0,-0.2613,0.051765,0
0,0.505,0.016895,66.774,0.505,-0.000796,-0.010108,-0.0031198,0,-0.25808,0.059789,0
0,0.505,0.016889,66.775,0.505,-0.0007696,-0.010313,-0.0031827,0,-0.2593,0.056825,0
0,0.505,0.016874,66.764,0.505,-0.00070382,-0.010818,-0.0033005,0,-0.26206,0.049749,0
0,0.505,0.016873,66.754,0.505,-0.00068268,-0.010981,-0.0033364,0,-0.2628,0.047609,0
0,0.505,0.016897,66.787,0.505,-0.00083194,-0.0098093,-0.0030184,0,-0.25631,0.063947,0
0,0.505,0.016777,66.563,0.505,-0.00037847,-0.011663,-0.0022559,0,-0.27151,0.019468,0
0,0.505,0.016807,66.62,0.505,-0.00044751,-0.012098,-0.0027964,0,-0.26995,0.025578,0
0,0.505,0.016825,66.644,0.505,-0.00049414,-0.012088,-0.0030488,0,-0.26877,0.029704,0
0,0.505,0.016821,66.64,0.505,-0.00048526,-0.012098,-0.0030065,0,-0.26899,0.028908,0
0,0.505,0.016817,66.627,0.505,-0.00047117,-0.012094,-0.002932,0,-0.26935,0.027658,0
0,0.505,0.016837,66.666,0.505,-0.0005234,-0.011999,-0.0031639,0,-0.26798,0.032318,0
0,0.505,0.016927,66.686,0.505,-0.0012396,-0.0047024,-0.0047743,0,-0.19746,0.15044,0
0,0.505,0.016928,66.682,0.505,-0.0012394,-0.0047597,-0.0046997,0,-0.19904,0.14884,0
0,0.505,0.016924,66.665,0.505,-0.0012296,-0.0043252,-0.005337,0,-0.18521,0.16195,0
0,0.505,0.016929,66.661,0.505,-0.0012335,-0.0044114,-0.0052073,0,-0.18793,0.15925,0
0,0.505,0.016926,66.669,0.505,-0.0012372,-0.0045182,-0.0050381,0,-0.19174,0.15573,0
0,0.505,0.016927,66.669,0.505,-0.0012376,-0.0045341,-0.0050172,0,-0.19223,0.15526,0
0,0.505,0.016929,66.662,0.505,-0.0012339,-0.0044192,-0.0051941,0,-0.18822,0.159,0
0,0.505,0.016925,66.649,0.505,-0.0012248,-0.0042499,-0.0054688,0,-0.18227,0.16467,0
0,0.505,0.016925,66.649,0.505,-0.0012254,-0.0042589,-0.0054559,0,-0.18261,0.16439,0
0,0.505,0.016929,66.662,0.505,-0.0012341,-0.0044238,-0.0051862,0,-0.18839,0.15883,0
0,0.505,0.016929,66.662,0.505,-0.0012351,-0.0044553,-0.0051371,0,-0.1895,0.15779,0
0,0.505,0.016927,66.68,0.505,-0.0012395,-0.0046784,-0.0048121,0,-0.19669,0.15119,0
0,0.505,0.016923,66.702,0.505,-0.0012291,-0.0052356,-0.0041226,0,-0.21004,0.13669,0
0,0.505,0.016921,66.717,0.505,-0.0012239,-0.0053689,-0.0039809,0,-0.21249,0.13403,0
0,0.505,0.01692,66.717,0.505,-0.0012215,-0.0054237,-0.0039234,0,-0.21349,0.1328,0
0,0.505,0.016927,66.649,0.505,-0.0012243,-0.0042431,-0.0054789,0,-0.182,0.16491,0
0,0.505,0.016925,66.691,0.505,-0.001239,-0.0048307,-0.0046066,0,-0.20102,0.14684,0
0,0.505,0.016926,66.687,0.505,-0.0012378,-0.0049127,-0.0045032,0,-0.20284,0.14468,0
0,0.505,0.016922,66.702,0.505,-0.0012294,-0.0052267,-0.0041326,0,-0.20988,0.13688,0
0,0.505,0.016922,66.7,0.505,-0.00123,-0.0052107,-0.0041526,0,-0.20955,0.13725,0
0,0.505,0.016924,66.69,0.505,-0.0012361,-0.0049979,-0.0043925,0,-0.20491,0.14237,0
0,0.505,0.01692,66.701,0.505,-0.0012335,-0.0050966,-0.0042765,0,-0.20738,0.13991,0
0,0.505,0.016925,66.692,0.505,-0.001237,-0.004962,-0.0044373,0,-0.20398,0.14338,0
0,0.505,0.016925,66.69,0.505,-0.0012367,-0.0049725,-0.0044242,0,-0.20427,0.14307,0
0,0.505,0.016925,66.686,0.505,-0.0012388,-0.0046057,-0.0049027,0,-0.19466,0.1531,0
0,0.505,0.016926,66.688,0.505,-0.0012392,-0.0048104,-0.0046305,0,-0.20049,0.14739,0
0,0.505,0.016907,66.779,0.505,-0.0010109,-0.0082621,-0.0026518,0,-0.24485,0.087353,0
0,0.505,0.016905,66.785,0.505,-0.00099154,-0.0084439,-0.0026591,0,-0.24636,0.08457,0
0,0.505,0.016905,66.784,0.505,-0.00098151,-0.0085374,-0.0026745,0,-0.24711,0.083137,0
0,0.505,0.016911,66.772,0.505,-0.0010383,-0.0079929,-0.0026574,0,-0.24255,0.091486,0
0,0.505,0.016911,66.772,0.505,-0.0010362,-0.0080146,-0.0026568,0,-0.24273,0.091158,0
0,0.505,0.016908,66.774,0.505,-0.0010599,-0.007755,-0.0026783,0,-0.2405,0.094881,0
0,0.505,0.016913,66.758,0.505,-0.0011143,-0.0071313,-0.0028274,0,-0.2346,0.10438,0
0,0.505,0.016911,66.768,0.505,-0.0011003,-0.0073002,-0.0027699,0,-0.23625,0.10181,0
0,0.505,0.016911,66.772,0.505,-0.0010388,-0.0079878,-0.002658,0,-0.24251,0.09156,0
0,0.505,0.016923,66.731,0.505,-0.0011832,-0.0061648,-0.0033291,0,-0.22408,0.11972,0
0,0.505,0.01692,66.74,0.505,-0.0011782,-0.0062431,-0.0032705,0,-0.22515,0.1182,0
0,0.505,0.016916,66.735,0.505,-0.0011948,-0.0059572,-0.003475,0,-0.22149,0.12303,0
0,0.505,0.016922,66.732,0.505,-0.0011887,-0.0060681,-0.0033953,0,-0.22285,0.1213,0
0,0.505,0.016907,66.779,0.505,-0.0010155,-0.0082183,-0.0026478,0,-0.24448,0.088036,0
0,0.505,0.016915,66.752,0.505,-0.0011386,-0.0068175,-0.002956,0,-0.23141,0.10921,0
0,0.505,0.016914,66.754,0.505,-0.0011347,-0.0068702,-0.0029317,0,-0.23195,0.10841,0
0,0.505,0.016917,66.744,0.505,-0.0011667,-0.0064176,-0.0031633,0,-0.22721,0.11537,0
0,0.505,0.016914,66.749,0.505,-0.0011646,-0.0064467,-0.0031422,0,-0.22758,0.11486,0
0,0.505,0.016913,66.759,0.505,-0.0011496,-0.0066628,-0.0030267,0,-0.22979,0.1116,0
0,0.505,0.016918,66.732,0.505,-0.0012033,-0.0057968,-0.0035918,0,-0.21933,0.12598,0
0,0.505,0.016916,66.736,0.505,-0.0011993,-0.0058723,-0.0035324,0,-0.22056,0.12457,0
0,0.505,0.01692,66.727,0.505,-0.0012133,-0.0056041,-0.0037564,0,-0.21638,0.12934,0
0,0.505,0.01692,66.728,0.505,-0.001209,-0.0056962,-0.0036805,0,-0.21781,0.12784,0
0,0.505,0.01692,66.724,0.505,-0.0012171,-0.0055244,-0.0038289,0,-0.21511,0.13081,0
0,0.505,0.016913,66.759,0.505,-0.0011184,-0.0070808,-0.0028426,0,-0.23412,0.10516,0
0,0.505,0.016915,66.752,0.505,-0.0011265,-0.0069782,-0.002888,0,-0.23305,0.10676,0
0,0.505,0.016915,66.746,0.505,-0.001162,-0.006484,-0.0031239,0,-0.22796,0.11429,0
0,0.505,0.016897,66.784,0.505,-0.00084731,-0.0096806,-0.0029718,0,-0.25547,0.065772,0
0,0.505,0.016941,66.614,0.505,-0.0010593,-0.0030007,-0.0071746,0,-0.13821,0.19542,0
0,0.505,0.01694,66.61,0.505,-0.0010632,-0.0030224,-0.0071561,0,-0.13891,0.19506,0
0,0.505,0.016935,66.614,0.505,-0.0010786,-0.0031065,-0.0070716,0,-0.14176,0.19358,0
0,0.505,0.016935,66.603,0.505,-0.0010892,-0.0031611,-0.007003,0,-0.144,0.19233,0
0,0.505,0.016928,66.604,0.505,-0.0010946,-0.0031865,-0.0069721,0,-0.1451,0.19167,0
0,0.505,0.016933,66.604,0.505,-0.0010993,-0.0032173,-0.0069334,0,-0.14613,0.19104,0
0,0.505,0.016934,66.63,0.505,-0.0011444,-0.0035072,-0.0065524,0,-0.15588,0.18471,0
0,0.505,0.016934,66.627,0.505,-0.0011534,-0.0035762,-0.0064673,0,-0.15803,0.18318,0
0,0.505,0.016929,66.662,0.505,-0.0012188,-0.004172,-0.0055881,0,-0.17926,0.1671,0
0,0.505,0.016934,66.635,0.505,-0.0012021,-0.0039752,-0.0058791,0,-0.17233,0.17271,0
0,0.505,0.016934,66.639,0.505,-0.0012045,-0.0039974,-0.0058404,0,-0.17315,0.17204,0
0,0.505,0.01693,66.633,0.505,-0.0011631,-0.0036511,-0.006373,0,-0.16046,0.1814,0
0,0.505,0.016927,66.639,0.505,-0.0011721,-0.0037188,-0.0062704,0,-0.16288,0.17969,0
0,0.505,0.016931,66.617,0.505,-0.0010375,-0.0028647,-0.0073043,0,-0.13438,0.19758,0
0,0.505,0.016941,66.613,0.505,-0.0010571,-0.0029872,-0.0071875,0,-0.13782,0.19565,0
0,0.505,0.016937,66.615,0.505,-0.0011251,-0.0033824,-0.0067152,0,-0.15149,0.18755,0
0,0.505,0.016937,66.618,0.505,-0.0011278,-0.0033991,-0.0066915,0,-0.15206,0.18717,0
0,0.505,0.016937,66.618,0.505,-0.00113,-0.0034135,-0.0066728,0,-0.15259,0.18683,0
0,0.505,0.016938,66.598,0.505,-0.00092951,-0.0023233,-0.0077539,0,-0.11706,0.20654,0
0,0.505,0.016937,66.6,0.505,-0.00093453,-0.0023472,-0.0077385,0,-0.11781,0.20618,0
0,0.505,0.016937,66.602,0.505,-0.00099815,-0.0026543,-0.007498,0,-0.12781,0.20134,0
0,0.505,0.016941,66.601,0.505,-0.001009,-0.0027072,-0.0074463,0,-0.12961,0.20032,0
0,0.505,0.016937,66.609,0.505,-0.0010184,-0.0027514,-0.0074032,0,-0.13116,0.19948,0
0,0.505,0.016943,66.599,0.505,-0.00098975,-0.0026171,-0.0075298,0,-0.12642,0.20201,0
0,0.505,0.016937,66.598,0.505,-0.00095639,-0.0024517,-0.0076634,0,-0.12112,0.20463,0
0,0.505,0.016938,66.597,0.505,-0.00095819,-0.0024606,-0.0076561,0,-0.1214,0.20448,0
0,0.505,0.016936,66.607,0.505,-0.0010265,-0.0027964,-0.0073626,0,-0.1325,0.19865,0
0,0.505,0.01693,66.616,0.505,-0.0011103,-0.0032823,-0.0068391,0,-0.1484,0.18951,0
0,0.505,0.016945,66.587,0.505,-0.00042397,-0.00043285,-0.0084511,0,-0.051691,0.22732,0
0,0.505,0.016944,66.592,0.505,-0.0004347,-0.00047715,-0.0084417,0,-0.052902,0.22711,0
0,0.505,0.016929,66.575,0.505,-0.00036838,-0.00022899,-0.0085178,0,-0.045169,0.22845,0
0,0.505,0.016935,66.578,0.505,-0.000387,-0.00029662,-0.0084957,0,-0.047426,0.22814,0
0,0.505,0.016942,66.574,0.505,-0.000287,5.1972e-05,-0.0085581,0,-0.035412,0.22997,0
0,0.505,0.016939,66.579,0.505,-0.00029924,5.2145e-06,-0.0085532,0,-0.036838,0.22977,0
0,0.505,0.016939,66.574,0.505,-0.00017047,0.00051603,-0.0085995,0,-0.021926,0.23138,0
0,0.505,0.016937,66.578,0.505,-0.00018079,0.00047436,-0.0086002,0,-0.023115,0.2313,0
0,0.505,0.016936,66.581,0.505,-0.00014996,0.00060073,-0.0085975,0,-0.019545,0.23155,0
0,0.505,0.016937,66.577,0.505,-0.00013695,0.00065408,-0.0085948,0,-0.018031,0.23166,0
0,0.505,0.016935,66.578,0.505,-8.8559e-05,0.00085463,-0.0085664,0,-0.012444,0.23197,0
0,0.505,0.016936,66.577,0.505,-9.2093e-05,0.0008393,-0.0085699,0,-0.012856,0.23195,0
0,0.505,0.016933,66.584,0.505,-0.00011903,0.00072684,-0.00859,0,-0.015967,0.2318,0
0,0.505,0.016935,66.584,0.505,-0.00021143,0.00035074,-0.0085923,0,-0.026664,0.23097,0
0,0.505,0.016941,66.573,0.505,-0.00023768,0.00024604,-0.0085821,0,-0.029701,0.23066,0
0,0.505,0.016938,66.575,0.505,-0.00018744,0.00044827,-0.0085983,0,-0.023878,0.23122,0
0,0.505,0.016941,66.575,0.505,-0.00024118,0.0002318,-0.0085806,0,-0.030111,0.23061,0
0,0.505,0.016938,66.569,0.505,-0.00031734,-6.1521e-05,-0.0085469,0,-0.038921,0.22942,0
0,0.505,0.016942,66.573,0.505,-0.00024614,0.00021197,-0.0085785,0,-0.030689,0.23054,0
0,0.505,0.016938,66.583,0.505,-0.0002706,0.0001163,-0.0085665,0,-0.03352,0.23022,0
0,0.505,0.016936,66.572,0.505,-0.0003277,-9.9199e-05,-0.0085418,0,-0.040104,0.22925,0
0,0.505,0.01694,66.576,0.505,0.00010789,0.0017422,-0.008398,0,0.010772,0.23194,0
0,0.505,0.016944,66.584,0.505,9.0362e-05,0.0016581,-0.0084162,0,0.0086725,0.23204,0
0,0.505,0.016941,66.581,0.505,8.1568e-05,0.0016227,-0.0084272,0,0.0076642,0.23211,0
0,0.505,0.016913,66.577,0.505,5.6911e-05,0.0015094,-0.0084769,0,0.0047348,0.23221,0
0,0.505,0.016949,66.586,0.505,3.0806e-05,0.0013898,-0.0084747,0,0.0014213,0.23221,0
0,0.505,0.016947,66.577,0.505,1.0164e-05,0.0012896,-0.0084969,0,-0.00094077,0.23223,0
0,0.505,0.016931,66.576,0.505,-0.00064789,-0.0011829,-0.0083048,0,-0.079086,0.22085,0
0,0.505,0.016933,66.587,0.505,-0.00066456,-0.0012395,-0.0082727,0,-0.081321,0.22011,0
0,0.505,0.016934,66.579,0.505,-0.00062076,-0.0011019,-0.0083274,0,-0.075423,0.2219,0
0,0.505,0.016928,66.575,0.505,-0.00064007,-0.0011537,-0.0083167,0,-0.078062,0.22119,0
0,0.505,0.016936,66.595,0.505,-0.00054756,-0.00085303,-0.0083565,0,-0.066551,0.22413,0
0,0.505,0.016945,66.588,0.505,-0.00056786,-0.00093187,-0.0083384,0,-0.068972,0.22356,0
0,0.505,0.016947,66.591,0.505,-0.00057919,-0.00097419,-0.0083278,0,-0.07035,0.22324,0
0,0.505,0.016935,66.587,0.505,-0.00051815,-0.00074544,-0.0083828,0,-0.063032,0.2249,0
0,0.505,0.016939,66.583,0.505,-0.00052896,-0.0007862,-0.0083712,0,-0.064333,0.22463,0
0,0.505,0.016945,66.587,0.505,-0.00058628,-0.00099648,-0.0083281,0,-0.071207,0.22305,0
0,0.505,0.016915,66.578,0.505,-0.00049216,-0.00065512,-0.008435,0,-0.05982,0.22562,0
0,0.505,0.016922,66.577,0.505,-0.00050192,-0.00068723,-0.0084172,0,-0.06103,0.22533,0
0,0.505,0.016942,66.58,0.505,-0.00061122,-0.0010743,-0.008325,0,-0.074165,0.2223,0
0,0.505,0.016937,66.567,0.505,-0.00033391,-0.00011956,-0.0085371,0,-0.040874,0.22913,0
0,0.505,0.016932,66.571,0.505,-0.00035547,-0.00019192,-0.0085271,0,-0.043567,0.22871,0
0,0.505,0.016935,66.585,0.505,-0.00040083,-0.00034507,-0.0084812,0,-0.049018,0.22782,0
0,0.505,0.01694,66.579,0.505,-0.00045045,-0.0005297,-0.0084418,0,-0.054683,0.22675,0
0,0.505,0.016926,66.584,0.505,-0.00046641,-0.00058224,-0.0084468,0,-0.056526,0.22636,0
0,0.505,0.016918,66.576,0.505,-0.00048432,-0.00063378,-0.0084406,0,-0.058821,0.22583,0
0,0.505,0.01693,66.636,0.505,-0.0011588,-0.0036174,-0.0064155,0,-0.15936,0.1822,0
0,0.505,0.016934,66.63,0.505,-0.001181,-0.0037947,-0.0061726,0,-0.16539,0.17795,0
0,0.505,0.016933,66.633,0.505,-0.0011829,-0.0038098,-0.0061482,0,-0.16598,0.17754,0
0,0.505,0.016933,66.629,0.505,-0.0011864,-0.0038374,-0.006103,0,-0.1671,0.17675,0
0,0.505,0.016924,66.636,0.505,-0.0011955,-0.0039088,-0.0059862,0,-0.17009,0.17453,0
0,0.505,0.016934,66.638,0.505,-0.0012054,-0.0040079,-0.0058254,0,-0.17356,0.17171,0
0,0.505,0.016928,66.649,0.505,-0.0012117,-0.0040808,-0.0057257,0,-0.17607,0.16964,0
0,0.505,0.01694,66.605,0.505,-0.00097759,-0.0025606,-0.0075814,0,-0.12444,0.203,0
0,0.505,0.016938,66.595,0.505,-0.0009514,-0.0024282,-0.0076807,0,-0.12037,0.20498,0
0,0.505,0.016927,66.589,0.505,-0.00086205,-0.0020155,-0.0079612,0,-0.10736,0.21057,0
0,0.505,0.016927,66.6,0.505,-0.00087908,-0.0020784,-0.0079122,0,-0.1098,0.20972,0
0,0.505,0.016926,66.594,0.505,-0.00083687,-0.0019178,-0.0080289,0,-0.10372,0.21208,0
0,0.505,0.016928,66.588,0.505,-0.00085481,-0.0019847,-0.007977,0,-0.10635,0.21099,0
0,0.505,0.016939,66.598,0.505,-0.00081266,-0.0018085,-0.0080621,0,-0.10042,0.21343,0
0,0.505,0.016936,66.59,0.505,-0.0008248,-0.0018642,-0.0080433,0,-0.10202,0.21274,0
0,0.505,0.016941,66.582,0.505,-0.00078683,-0.001694,-0.0081074,0,-0.097119,0.21477,0
0,0.505,0.016943,66.583,0.505,-0.00078885,-0.0017026,-0.0081013,0,-0.097395,0.21467,0
0,0.505,0.01693,66.582,0.505,-0.00075214,-0.0015689,-0.0081753,0,-0.092329,0.21658,0
0,0.505,0.016925,66.583,0.505,-0.00076568,-0.0016154,-0.0081607,0,-0.094211,0.21587,0
0,0.505,0.016932,66.587,0.505,-0.00074068,-0.0015352,-0.0081894,0,-0.09079,0.21708,0
0,0.505,0.016946,66.587,0.505,-0.0007209,-0.0014683,-0.0081966,0,-0.088285,0.21799,0
0,0.505,0.016943,66.591,0.505,-0.00071277,-0.0014338,-0.008207,0,-0.087282,0.21833,0
0,0.505,0.016924,66.635,0.505,-0.0011931,-0.0038882,-0.0060177,0,-0.16924,0.17519,0
0,0.505,0.01693,66.654,0.505,-0.0012149,-0.0041204,-0.0056642,0,-0.17741,0.16852,0
0,0.505,0.016936,66.587,0.505,0.00053181,0.003571,-0.0081906,0,0.06471,0.22457,0
0,0.505,0.016931,66.592,0.505,0.00051882,0.0035134,-0.0081924,0,0.062977,0.22504,0
0,0.505,0.016938,66.601,0.505,0.00073917,0.0044292,-0.0081271,0,0.09446,0.21578,0
0,0.505,0.016935,66.599,0.505,0.00072405,0.0043524,-0.008147,0,0.092236,0.21655,0
0,0.505,0.016937,66.602,0.505,0.00074743,0.0044676,-0.0081184,0,0.095735,0.21531,0
0,0.505,0.016941,66.582,0.505,0.00061089,0.0038946,-0.0081909,0,0.075643,0.22189,0
0,0.505,0.016942,66.589,0.505,0.00059671,0.0038375,-0.0081893,0,0.073634,0.22241,0
0,0.505,0.016935,66.582,0.505,0.00063776,0.0040002,-0.0081922,0,0.079561,0.22071,0
0,0.505,0.016934,66.582,0.505,0.00062275,0.00394,-0.0081965,0,0.07737,0.22142,0
0,0.505,0.016934,66.583,0.505,0.00065577,0.0040713,-0.0081857,0,0.082088,0.21986,0
0,0.505,0.016933,66.589,0.505,0.00064823,0.0040396,-0.008192,0,0.081053,0.22023,0
0,0.505,0.016931,66.579,0.505,0.00056974,0.0037282,-0.0082078,0,0.069869,0.22344,0
0,0.505,0.016937,66.593,0.505,0.00054453,0.0036278,-0.0081895,0,0.066394,0.22414,0
0,0.505,0.016931,66.579,0.505,0.00057113,0.003734,-0.0082076,0,0.070064,0.22339,0
0,0.505,0.01693,66.579,0.505,0.00057019,0.00373,-0.0082084,0,0.069932,0.22342,0
0,0.505,0.016933,66.58,0.505,0.00050024,0.0034369,-0.0081966,0,0.060478,0.2256,0
0,0.505,0.01693,66.582,0.505,0.00049301,0.0034063,-0.0081987,0,0.059492,0.22582,0
0,0.505,0.016932,66.579,0.505,0.00048748,0.0033838,-0.0081977,0,0.058744,0.22598,0
0,0.505,0.016931,66.589,0.505,0.00067427,0.0041497,-0.0081758,0,0.084642,0.21898,0
0,0.505,0.016928,66.589,0.505,0.00069901,0.0042434,-0.0081678,0,0.088448,0.21769,0
0,0.505,0.016929,66.587,0.505,0.00068831,0.0041975,-0.0081703,0,0.086812,0.21826,0
0,0.505,0.016929,66.598,0.505,0.00071447,0.0043065,-0.0081594,0,0.090776,0.21704,0
0,0.505,0.016937,66.603,0.505,-0.0009031,-0.0021969,-0.0078381,0,-0.1132,0.20834,0
0,0.505,0.016937,66.604,0.505,-0.00091176,-0.0022381,-0.0078114,0,-0.11447,0.20779,0
0,0.505,0.016936,66.573,0.505,0.00039337,0.0030047,-0.0081955,0,0.046311,0.22839,0
0,0.505,0.016935,66.576,0.505,0.00038825,0.0029836,-0.0081963,0,0.045646,0.22852,0
0,0.505,0.016943,66.586,0.505,-0.00068052,-0.0013048,-0.0082425,0,-0.083344,0.21958,0
0,0.505,0.016941,66.595,0.505,-0.00069186,-0.001348,-0.0082302,0,-0.084697,0.21916,0
0,0.505,0.016932,66.599,0.505,-0.00088761,-0.0021195,-0.0078843,0,-0.11102,0.20924,0
0,0.505,0.016944,66.583,0.505,-0.00079184,-0.0017158,-0.0080954,0,-0.097776,0.21451,0
0,0.505,0.016636,66.576,0.505,-0.00020899,0.0061892,-0.00045215,0,0.27488,0.0048989,0
0,0.505,0.016648,66.52,0.505,-0.00019436,0.0084008,-0.00075274,0,0.27433,0.007256,0
0,0.505,0.016618,66.644,0.505,-0.00022241,0.0037681,-0.00017961,0,0.27519,0.001999,0
0,0.505,0.016627,66.611,0.505,-0.00021751,0.0050166,-0.00028637,0,0.2751,0.0037044,0
0,0.505,0.016931,66.641,0.505,0.0010556,0.0065332,-0.0067573,0,0.16151,0.18062,0
0,0.505,0.016931,66.641,0.505,0.0010535,0.0064991,-0.0067906,0,0.16053,0.18126,0
0,0.505,0.016927,66.63,0.505,0.001063,0.0066476,-0.0066375,0,0.16538,0.17774,0
0,0.505,0.016926,66.632,0.505,0.0010615,0.0066201,-0.0066698,0,0.16441,0.17848,0
0,0.505,0.016928,66.641,0.505,0.0010479,0.0064099,-0.0068675,0,0.15837,0.1828,0
0,0.505,0.016926,66.645,0.505,0.0010732,0.0068707,-0.0063834,0,0.17309,0.17213,0
0,0.505,0.016926,66.642,0.505,0.0010725,0.006851,-0.0064047,0,0.17245,0.17262,0
0,0.505,0.016928,66.636,0.505,0.0010678,0.0067375,-0.0065338,0,0.16852,0.1755,0
0,0.505,0.016927,66.638,0.505,0.0010661,0.0067028,-0.0065701,0,0.16737,0.17633,0
0,0.505,0.016924,66.648,0.505,0.0010702,0.0067845,-0.0064754,0,0.17023,0.1743,0
0,0.505,0.016927,66.644,0.505,0.0010736,0.0068837,-0.0063706,0,0.17353,0.17183,0
0,0.505,0.016928,66.663,0.505,0.0010764,0.0070098,-0.0062292,0,0.17752,0.16854,0
0,0.505,0.016927,66.662,0.505,0.0010756,0.0069615,-0.0062822,0,0.176,0.16988,0
0,0.505,0.016928,66.658,0.505,0.0010769,0.0070573,-0.0061777,0,0.17919,0.16724,0
0,0.505,0.016925,66.664,0.505,0.0010758,0.0072659,-0.0059304,0,0.18691,0.16045,0
0,0.505,0.016925,66.665,0.505,0.0010761,0.0072514,-0.0059475,0,0.18634,0.16097,0
0,0.505,0.016923,66.675,0.505,0.0010773,0.0071715,-0.006044,0,0.18361,0.16339,0
0,0.505,0.01692,66.66,0.505,0.0010776,0.0071183,-0.0061059,0,0.18175,0.16498,0
0,0.505,0.016923,66.654,0.505,0.0010774,0.0070983,-0.0061335,0,0.18091,0.16574,0
0,0.505,0.016926,66.632,0.505,0.0010607,0.0066082,-0.0066846,0,0.164,0.17877,0
0,0.505,0.016925,66.623,0.505,0.0010383,0.0062791,-0.0069976,0,0.15477,0.18525,0
0,0.505,0.01693,66.619,0.505,0.0010308,0.0062037,-0.0070766,0,0.15202,0.18714,0
0,0.505,0.016926,66.672,0.505,0.001072,0.0073718,-0.0057876,0,0.19126,0.15636,0
0,0.505,0.016923,66.676,0.505,0.0010741,0.0073186,-0.005854,0,0.18921,0.15829,0
0,0.505,0.016673,66.493,0.505,-0.00017357,0.0099187,-0.0011216,0,0.27387,0.0094467,0
0,0.505,0.016692,66.484,0.505,-0.00015993,0.010836,-0.0013394,0,0.27354,0.010882,0
0,0.505,0.016737,66.509,0.505,-7.1596e-05,0.013432,-0.0024653,0,0.27186,0.018356,0
0,0.505,0.016737,66.511,0.505,-6.9813e-05,0.01347,-0.0024842,0,0.27182,0.018495,0
0,0.505,0.01678,66.53,0.505,-1.7051e-05,0.014117,-0.0029598,0,0.27075,0.022305,0
0,0.505,0.01679,66.532,0.505,-8.248e-06,0.014168,-0.0030294,0,0.27056,0.023015,0
0,0.505,0.016724,66.488,0.505,-0.00011783,0.012486,-0.0019523,0,0.27277,0.014791,0
0,0.505,0.016698,66.483,0.505,-0.00014687,0.011296,-0.0015198,0,0.27332,0.012015,0
0,0.505,0.016904,66.769,0.505,0.00067473,0.011096,-0.0037262,0,0.2476,0.082412,0
0,0.505,0.016908,66.767,0.505,0.00069494,0.010949,-0.0037222,0,0.24639,0.084743,0
0,0.505,0.016888,66.756,0.505,0.0004619,0.012525,-0.0039478,0,0.25761,0.061138,0
0,0.505,0.016891,66.756,0.505,0.00047911,0.01242,-0.0039299,0,0.25693,0.06273,0
0,0.505,0.016892,66.762,0.505,0.0005016,0.012273,-0.0038951,0,0.25601,0.064868,0
0,0.505,0.016898,66.761,0.505,0.00053256,0.012078,-0.0038587,0,0.25468,0.067854,0
0,0.505,0.0169,66.765,0.505,0.00057858,0.01177,-0.0037975,0,0.25253,0.07247,0
0,0.505,0.016901,66.766,0.505,0.00058523,0.011725,-0.0037932,0,0.25223,0.073145,0
0,0.505,0.016867,66.703,0.505,0.00029089,0.013561,-0.0040854,0,0.26343,0.046184,0
0,0.505,0.016874,66.724,0.505,0.00032944,0.013332,-0.0040821,0,0.26234,0.049233,0
0,0.505,0.016888,66.723,0.505,0.00033903,0.013281,-0.0040781,0,0.262,0.050148,0
0,0.505,0.016899,66.733,0.505,0.00036668,0.013125,-0.0040583,0,0.26105,0.052783,0
0,0.505,0.016864,66.701,0.505,0.00028042,0.013619,-0.0040834,0,0.26373,0.045375,0
0,0.505,0.016881,66.746,0.505,0.00042157,0.012776,-0.0040015,0,0.25923,0.057422,0
0,0.505,0.016882,66.746,0.505,0.00042512,0.012755,-0.0039982,0,0.25909,0.057734,0
0,0.505,0.016885,66.743,0.505,0.00037872,0.013039,-0.004037,0,0.26067,0.053862,0
0,0.505,0.016883,66.742,0.505,0.00041402,0.012823,-0.0040088,0,0.25948,0.056779,0
0,0.505,0.016898,66.763,0.505,0.00054052,0.012023,-0.0038445,0,0.25433,0.068634,0
0,0.505,0.0169,66.761,0.505,0.00056057,0.011892,-0.0038207,0,0.25338,0.070663,0
0,0.505,0.016923,66.724,0.505,0.00098876,0.0083286,-0.0047276,0,0.21778,0.12764,0
0,0.505,0.016922,66.726,0.505,0.00099402,0.0082751,-0.0047716,0,0.21686,0.12878,0
0,0.505,0.016924,66.716,0.505,0.0010018,0.0081957,-0.0048454,0,0.21529,0.13056,0
0,0.505,0.016924,66.717,0.505,0.0010065,0.0081449,-0.0048871,0,0.21432,0.13169,0
0,0.505,0.016924,66.713,0.505,0.0010188,0.0080197,-0.0050064,0,0.2115,0.13494,0
0,0.505,0.016924,66.715,0.505,0.0010211,0.0079993,-0.0050301,0,0.211,0.13557,0
0,0.505,0.016926,66.703,0.505,0.0010421,0.0077794,-0.0052731,0,0.20568,0.14185,0
0,0.505,0.016927,66.696,0.505,0.0010444,0.007756,-0.0053089,0,0.20489,0.14271,0
0,0.505,0.016925,66.7,0.505,0.0010501,0.0076913,-0.0053832,0,0.20286,0.14486,0
0,0.505,0.016921,66.731,0.505,0.00096551,0.0085676,-0.0045436,0,0.22162,0.12278,0
0,0.505,0.016922,66.729,0.505,0.00096767,0.0085451,-0.0045595,0,0.22129,0.12321,0
0,0.505,0.016921,66.732,0.505,0.00098019,0.0084173,-0.0046558,0,0.21928,0.12578,0
0,0.505,0.016913,66.756,0.505,0.00084511,0.0097157,-0.0039367,0,0.23541,0.10322,0
0,0.505,0.016913,66.757,0.505,0.00085232,0.0096532,-0.0039563,0,0.23478,0.10423,0
0,0.505,0.016916,66.748,0.505,0.00087329,0.0094654,-0.0040341,0,0.23278,0.10724,0
0,0.505,0.016916,66.748,0.505,0.00087445,0.009455,-0.0040381,0,0.23267,0.10741,0
0,0.505,0.016917,66.746,0.505,0.00087858,0.0094172,-0.0040565,0,0.23225,0.10804,0
0,0.505,0.016917,66.749,0.505,0.00089499,0.0092626,-0.0041256,0,0.23054,0.11055,0
0,0.505,0.016917,66.747,0.505,0.00089925,0.0092213,-0.004146,0,0.23008,0.11122,0
0,0.505,0.016916,66.75,0.505,0.00091435,0.0090756,-0.0042202,0,0.22839,0.11365,0
0,0.505,0.016922,66.73,0.505,0.00095972,0.0086274,-0.0045035,0,0.22248,0.12166,0
0,0.505,0.01692,66.738,0.505,0.00094971,0.008727,-0.0044307,0,0.22394,0.11976,0
0,0.505,0.01692,66.738,0.505,0.00094611,0.0087619,-0.004408,0,0.22442,0.11911,0
0,0.505,0.016927,66.641,0.505,0.0010453,0.0063718,-0.0069023,0,0.15742,0.18352,0
0,0.505,0.016927,66.623,0.505,0.0010406,0.0063099,-0.0069679,0,0.15564,0.18468,0
0,0.505,0.01693,66.62,0.505,0.0010301,0.0061969,-0.0070836,0,0.15177,0.18731,0
0,0.505,0.01693,66.619,0.505,0.00103,0.0061955,-0.0070851,0,0.15172,0.18734,0
0,0.505,0.01693,66.631,0.505,0.0010103,0.0059953,-0.007256,0,0.14593,0.19102,0
0,0.505,0.016932,66.626,0.505,0.0010044,0.0059426,-0.0072984,0,0.14439,0.19197,0
0,0.505,0.016931,66.627,0.505,0.0010206,0.0061002,-0.00717,0,0.14886,0.18919,0
0,0.505,0.016932,66.628,0.505,0.00099915,0.0058942,-0.0073349,0,0.14301,0.1928,0
0,0.505,0.016937,66.615,0.505,0.00098886,0.0058046,-0.0074121,0,0.1405,0.19431,0
0,0.505,0.016936,66.616,0.505,0.00098767,0.0057938,-0.0074206,0,0.1402,0.19448,0
0,0.505,0.016928,66.613,0.505,0.00097648,0.0057008,-0.0075006,0,0.13738,0.19619,0
0,0.505,0.016937,66.61,0.505,0.00096598,0.0056306,-0.0075507,0,0.13482,0.19756,0
0,0.505,0.016935,66.612,0.505,0.0009854,0.0057741,-0.0074374,0,0.13962,0.19483,0
0,0.505,0.016939,66.606,0.505,0.00094886,0.0055197,-0.007628,0,0.13109,0.19949,0
0,0.505,0.01694,66.606,0.505,0.00094836,0.0055166,-0.0076304,0,0.13098,0.19954,0
0,0.505,0.01693,66.626,0.505,0.0010181,0.0060743,-0.0071946,0,0.14813,0.18964,0
0,0.505,0.016929,66.602,0.505,0.00088974,0.0051596,-0.0078555,0,0.11945,0.20511,0
0,0.505,0.01693,66.601,0.505,0.00088551,0.0051339,-0.0078662,0,0.11867,0.20547,0
0,0.505,0.016897,66.774,0.505,0.0006166,0.011503,-0.0037595,0,0.25069,0.076306,0
0,0.505,0.016897,66.773,0.505,0.00063492,0.011376,-0.0037481,0,0.24976,0.078166,0
0,0.505,0.016822,66.63,0.505,0.00011605,0.014276,-0.003733,0,0.26785,0.032388,0
0,0.505,0.016832,66.648,0.505,0.00014465,0.014231,-0.0038334,0,0.26734,0.034497,0
0,0.505,0.01686,66.672,0.505,0.00021232,0.01397,-0.0040016,0,0.26562,0.039865,0
0,0.505,0.016865,66.678,0.505,0.00022502,0.013904,-0.0040138,0,0.26534,0.040884,0
0,0.505,0.016817,66.56,0.505,2.3499e-05,0.014346,-0.0032627,0,0.26986,0.025587,0
0,0.505,0.016738,66.511,0.505,-6.8767e-05,0.013489,-0.0024957,0,0.2718,0.018576,0
0,0.505,0.016745,66.513,0.505,-6.0212e-05,0.013594,-0.0025739,0,0.27162,0.019194,0
0,0.505,0.016842,66.663,0.505,0.00017502,0.0141,-0.0039151,0,0.26661,0.036825,0
0,0.505,0.016815,66.606,0.505,7.89e-05,0.014371,-0.0035824,0,0.26865,0.029787,0
0,0.505,0.016865,66.692,0.505,0.00026599,0.013692,-0.0040678,0,0.26415,0.04421,0
0,0.505,0.016864,66.699,0.505,0.00027781,0.01363,-0.0040814,0,0.26381,0.045173,0
0,0.505,0.01681,66.586,0.505,5.7625e-05,0.014338,-0.003457,0,0.26908,0.028183,0
0,0.505,0.016908,66.77,0.505,0.00070969,0.010836,-0.0037299,0,0.24554,0.086448,0
0,0.505,0.016901,66.768,0.505,0.00073804,0.010602,-0.0037451,0,0.2437,0.089659,0
0,0.505,0.016903,66.762,0.505,0.00078312,0.010246,-0.003791,0,0.24047,0.094961,0
0,0.505,0.016909,66.763,0.505,0.00080302,0.010084,-0.0038293,0,0.23892,0.097565,0
0,0.505,0.016902,66.77,0.505,0.00065701,0.011221,-0.00373,0,0.2486,0.080497,0
0,0.505,0.016901,66.771,0.505,0.00074319,0.010558,-0.0037482,0,0.24333,0.090274,0
0,0.505,0.016902,66.769,0.505,0.00074737,0.010525,-0.0037526,0,0.24304,0.090745,0
0,0.505,0.016903,66.765,0.505,0.00077524,0.010311,-0.0037768,0,0.24107,0.09399,0
0,0.505,0.016911,66.76,0.505,0.00081489,0.0099813,-0.0038581,0,0.23797,0.099118,0
0,0.505,0.01691,66.762,0.505,0.00082858,0.0098603,-0.0038875,0,0.23685,0.10096,0
0,0.505,0.016918,66.745,0.505,0.00092343,0.0089859,-0.0042707,0,0.22731,0.11516,0
0,0.505,0.016917,66.746,0.505,0.0009326,0.0088965,-0.0043222,0,0.22619,0.11672,0
0,0.505,0.016924,66.689,0.505,0.0010627,0.0075281,-0.0055839,0,0.19736,0.15045,0
0,0.505,0.016925,66.682,0.505,0.0010649,0.0074959,-0.0056241,0,0.19616,0.15163,0
0,0.505,0.016926,66.674,0.505,0.0010702,0.0074114,-0.0057395,0,0.19277,0.15492,0
0,0.505,0.016925,66.675,0.505,0.0010712,0.0073902,-0.0057649,0,0.19195,0.1557,0
0,0.505,0.016924,66.686,0.505,0.0010675,0.0074574,-0.0056734,0,0.19467,0.15311,0
0,0.505,0.016927,66.69,0.505,0.0010549,0.0076333,-0.0054551,0,0.20097,0.14681,0
0,0.505,0.016925,66.692,0.505,0.0010571,0.0076073,-0.0054881,0,0.20011,0.1477,0
0,0.505,0.016926,66.686,0.505,0.0010593,0.0075776,-0.0055282,0,0.19904,0.14877,0
0,0.505,0.016928,66.699,0.505,0.0010386,0.0078164,-0.0052332,0,0.20661,0.14073,0
0,0.505,0.016937,66.594,0.505,0.00081171,0.0047628,-0.0080313,0,0.1059,0.2113,0
0,0.505,0.016935,66.597,0.505,0.0007912,0.0046661,-0.0080648,0,0.10257,0.21262,0
0,0.505,0.016934,66.593,0.505,0.00083439,0.0048676,-0.0079939,0,0.10975,0.20982,0
0,0.505,0.016934,66.593,0.505,0.00083339,0.0048633,-0.0079957,0,0.10957,0.20989,0
0,0.505,0.016936,66.592,0.505,0.00082262,0.0048137,-0.0080137,0,0.10775,0.21059,0
0,0.505,0.016932,66.604,0.505,0.00085257,0.0049525,-0.0079574,0,0.11298,0.20837,0
0,0.505,0.016936,66.598,0.505,0.00076414,0.0045431,-0.0080983,0,0.098295,0.2143,0
0,0.505,0.016935,66.596,0.505,0.00078855,0.0046533,-0.0080685,0,0.10215,0.21279,0
0,0.505,0.016935,66.6,0.505,0.00076958,0.0045685,-0.008093,0,0.099152,0.21396,0
0,0.505,0.016937,66.594,0.505,0.00081251,0.0047669,-0.0080301,0,0.10604,0.21124,0
0,0.505,0.016936,66.61,0.505,0.00090777,0.0052555,-0.0077957,0,0.12291,0.20347,0
0,0.505,0.016941,66.605,0.505,0.0009302,0.0053985,-0.0077104,0,0.1272,0.20148,0
0,0.505,0.016936,66.61,0.505,0.00091211,0.0052814,-0.0077819,0,0.12373,0.20308,0
0,0.505,0.016932,66.579,0.505,0.00027029,0.002481,-0.0082588,0,0.030491,0.2306,0
0,0.505,0.016945,66.574,0.505,0.00024638,0.0023762,-0.0082597,0,0.027585,0.23092,0
0,0.505,0.016931,66.569,0.505,0.00030395,0.0026157,-0.0082417,0,0.034854,0.2302,0
0,0.505,0.016928,66.574,0.505,0.00027888,0.0025177,-0.0082597,0,0.031614,0.23051,0
0,0.505,0.016933,66.571,0.505,0.00030818,0.0026341,-0.0082364,0,0.035422,0.23011,0
0,0.505,0.016936,66.573,0.505,0.0004409,0.0031999,-0.0081928,0,0.052538,0.22726,0
0,0.505,0.016936,66.573,0.505,0.00044074,0.0031992,-0.0081929,0,0.052516,0.22726,0
0,0.505,0.016932,66.587,0.505,0.00046701,0.0033049,-0.008194,0,0.056001,0.22658,0
0,0.505,0.016936,66.573,0.505,0.00044111,0.0032008,-0.0081929,0,0.052566,0.22725,0
0,0.505,0.016932,66.584,0.505,0.00041452,0.003092,-0.0081934,0,0.049071,0.22791,0
0,0.505,0.016936,66.569,0.505,0.00031679,0.0026725,-0.0082281,0,0.036506,0.22997,0
0,0.505,0.01694,66.574,0.505,-3.6019e-05,0.0011002,-0.0085367,0,-0.0063139,0.2322,0
0,0.505,0.016947,66.588,0.505,-5.8464e-05,0.00099757,-0.0085284,0,-0.0089554,0.23212,0
0,0.505,0.016938,66.578,0.505,-8.6315e-05,0.00086544,-0.0085631,0,-0.012184,0.23199,0
0,0.505,0.016939,66.577,0.505,-2.8577e-05,0.0011324,-0.0085355,0,-0.0054536,0.23224,0
0,0.505,0.016935,66.579,0.505,1.2167e-06,0.0012494,-0.0085148,0,-0.0019612,0.23229,0
0,0.505,0.016941,66.572,0.505,-1.6383e-05,0.0011812,-0.0085261,0,-0.0040371,0.23225,0
0,0.505,0.016945,66.59,0.505,0.00015452,0.0019517,-0.0083373,0,0.016157,0.23177,0
0,0.505,0.016938,66.577,0.505,0.00013499,0.0018629,-0.0083652,0,0.0139,0.23183,0
0,0.505,0.016917,66.577,0.505,5.1014e-05,0.0014843,-0.0084823,0,0.0040132,0.23223,0
0,0.505,0.016926,66.707,0.505,0.0010258,0.0079513,-0.0050867,0,0.20982,0.13689,0
0,0.505,0.016931,66.611,0.505,0.00087076,0.0050546,-0.0079121,0,0.11607,0.20685,0
0,0.505,0.016941,66.604,0.505,0.00094295,0.0054815,-0.0076545,0,0.12985,0.20012,0
0,0.505,0.016941,66.605,0.505,0.00093135,0.0054059,-0.0077056,0,0.12743,0.20136,0
0,0.505,0.016937,66.61,0.505,0.00096371,0.0056154,-0.0075624,0,0.13429,0.19783,0
0,0.505,0.01692,66.581,0.505,0.00019242,0.0021223,-0.0083335,0,0.02105,0.23164,0
0,0.505,0.0169,66.578,0.505,0.00018197,0.0020703,-0.0083591,0,0.019657,0.23178,0
0,0.505,0.016931,66.579,0.505,0.00016952,0.0020144,-0.0083417,0,0.018004,0.23184,0
0,0.505,0.016945,66.578,0.505,0.00023963,0.0023452,-0.0082628,0,0.026748,0.23101,0
0,0.505,0.016946,66.577,0.505,0.00023629,0.0023286,-0.0082639,0,0.026341,0.23104,0
0,0.505,0.016936,66.573,0.505,0.0003819,0.0029574,-0.0081975,0,0.044836,0.22864,0
0,0.505,0.016934,66.582,0.505,0.0003617,0.0028728,-0.0081999,0,0.042228,0.22905,0
0,0.505,0.016939,66.575,0.505,0.00034665,0.0028063,-0.0082052,0,0.04029,0.22937,0
0,0.505,0.01693,66.59,0.505,0.00020979,0.0021975,-0.0083021,0,0.023174,0.23127,0
0,0.505,0.016937,66.58,0.505,0.00033533,0.0027545,-0.0082126,0,0.038856,0.22961,0
0,0.505,0.016927,66.579,0.505,0.00012298,0.0018105,-0.0083842,0,0.012557,0.23188,0
0,0.505,0.016931,66.601,0.505,0.00085934,0.0049889,-0.0079429,0,0.11412,0.20784,0
0,0.505,0.016926,66.662,0.505,0.0010763,0.0072382,-0.0059634,0,0.18589,0.16138,0
0,0.505,0.016925,66.712,0.505,0.0010323,0.0078805,-0.0051595,0,0.20824,0.13879,0
0,0.505,0.016925,66.711,0.505,0.001012,0.0080883,-0.0049414,0,0.21305,0.13313,0
