"cvar","mu","phivar","pressure","rho","str","velocity:0","velocity:1","Label","Points:0","Points:1","Points:2"
0,0.505,0.016659,66.724,0.505,-0.0002386,-0.0017225,-4.4138e-05,0,-0.27535,0,0
0,0.505,0.016633,66.716,0.505,-0.00023526,0.0021145,-5.3282e-05,0,0.27526,0,0
0,0.505,0.016744,66.576,0.505,-0.00029833,-0.0085973,-0.0011746,0,-0.27329,0.011882,0
0,0.505,0.01674,66.576,0.505,-0.00029448,-0.0083911,-0.0011182,0,-0.27337,0.0114,0
0,0.505,0.016789,66.603,0.505,-0.00036703,-0.010247,-0.0019956,0,-0.27156,0.019334,0
0,0.505,0.016786,66.602,0.505,-0.00036205,-0.010208,-0.0019502,0,-0.27169,0.018837,0
0,0.505,0.016828,66.676,0.505,-0.00046203,-0.010602,-0.0026584,0,-0.269,0.028903,0
0,0.505,0.016824,66.662,0.505,-0.0004478,-0.010605,-0.002586,0,-0.26941,0.027464,0
0,0.505,0.016859,66.708,0.505,-0.00052402,-0.010376,-0.0028726,0,-0.26708,0.035344,0
0,0.505,0.016842,66.699,0.505,-0.00049537,-0.010503,-0.0027878,0,-0.268,0.032309,0
0,0.505,0.016866,66.715,0.505,-0.00053862,-0.010284,-0.0028984,0,-0.26658,0.036915,0
0,0.505,0.016861,66.712,0.505,-0.000529,-0.010345,-0.0028834,0,-0.26692,0.035866,0
0,0.505,0.01669,66.66,0.505,-0.00024657,-0.0037219,-0.00024332,0,-0.27484,0.0033466,0
0,0.505,0.016713,66.596,0.505,-0.00027152,-0.0070057,-0.00073827,0,-0.27398,0.0083013,0
0,0.505,0.0167,66.639,0.505,-0.00025197,-0.0045929,-0.00035443,0,-0.27461,0.0047057,0
0,0.505,0.016765,66.59,0.505,-0.00032925,-0.0096003,-0.0015795,0,-0.27252,0.015382,0
0,0.505,0.016746,66.576,0.505,-0.00030202,-0.0087063,-0.0012226,0,-0.2732,0.012287,0
0,0.505,0.016783,66.598,0.505,-0.0003578,-0.010141,-0.0019084,0,-0.27179,0.018404,0
0,0.505,0.016697,66.646,0.505,-0.00024915,-0.0042969,-0.00030122,0,-0.2747,0.0042297,0
0,0.505,0.016698,66.65,0.505,-0.0002481,-0.0041273,-0.0002804,0,-0.27474,0.0040172,0
0,0.505,0.016832,66.68,0.505,-0.00047104,-0.010588,-0.0026988,0,-0.26874,0.029825,0
0,0.505,0.016814,66.644,0.505,-0.00041642,-0.0106,-0.002403,0,-0.27027,0.024336,0
0,0.505,0.016805,66.632,0.505,-0.00039552,-0.01051,-0.002243,0,-0.27082,0.022228,0
0,0.505,0.016874,66.734,0.505,-0.00056214,-0.010137,-0.0029305,0,-0.26577,0.039496,0
0,0.505,0.016817,66.657,0.505,-0.00042896,-0.010618,-0.0024808,0,-0.26996,0.025575,0
0,0.505,0.016878,66.762,0.505,-0.00059392,-0.0098979,-0.0029355,0,-0.26447,0.043016,0
0,0.505,0.016879,66.741,0.505,-0.00057233,-0.010076,-0.0029395,0,-0.26533,0.040619,0
0,0.505,0.016874,66.772,0.505,-0.00061773,-0.0097101,-0.0029159,0,-0.26349,0.045659,0
0,0.505,0.016872,66.777,0.505,-0.00062408,-0.0096486,-0.0029045,0,-0.26325,0.046381,0
0,0.505,0.0169,66.799,0.505,-0.00080897,-0.0081245,-0.0023777,0,-0.25347,0.070139,0
0,0.505,0.016896,66.804,0.505,-0.00079026,-0.0082777,-0.0024459,0,-0.2547,0.067465,0
0,0.505,0.0169,66.803,0.505,-0.00085911,-0.0076749,-0.0022362,0,-0.24994,0.07757,0
0,0.505,0.016901,66.8,0.505,-0.00084215,-0.0078347,-0.0022845,0,-0.25118,0.07499,0
0,0.505,0.0169,66.8,0.505,-0.00081584,-0.0080667,-0.0023583,0,-0.25302,0.071109,0
0,0.505,0.016897,66.801,0.505,-0.00077718,-0.0083893,-0.0024889,0,-0.25552,0.065669,0
0,0.505,0.016908,66.781,0.505,-0.00098835,-0.0063432,-0.0021942,0,-0.23749,0.099787,0
0,0.505,0.016906,66.785,0.505,-0.00098086,-0.0064323,-0.0021731,0,-0.23841,0.098303,0
0,0.505,0.016907,66.787,0.505,-0.00096682,-0.0065927,-0.0021516,0,-0.24007,0.095591,0
0,0.505,0.016904,66.799,0.505,-0.00089493,-0.0073436,-0.0021641,0,-0.2471,0.083164,0
0,0.505,0.016902,66.803,0.505,-0.0008815,-0.007469,-0.0021834,0,-0.2482,0.081045,0
0,0.505,0.016901,66.8,0.505,-0.00083559,-0.0078929,-0.0022994,0,-0.25164,0.074032,0
0,0.505,0.016884,66.787,0.505,-0.00068186,-0.0091927,-0.0027861,0,-0.26074,0.053239,0
0,0.505,0.016881,66.782,0.505,-0.00067111,-0.0092804,-0.0028115,0,-0.26124,0.051934,0
0,0.505,0.016886,66.785,0.505,-0.00069213,-0.0091056,-0.0027605,0,-0.26022,0.054535,0
0,0.505,0.016888,66.793,0.505,-0.00071035,-0.0089563,-0.0027119,0,-0.2593,0.056832,0
0,0.505,0.016894,66.792,0.505,-0.00073511,-0.0087544,-0.0026379,0,-0.25798,0.060025,0
0,0.505,0.016895,66.793,0.505,-0.00073946,-0.0087164,-0.0026224,0,-0.25775,0.060598,0
0,0.505,0.016895,66.793,0.505,-0.00073792,-0.0087297,-0.0026279,0,-0.25784,0.060391,0
0,0.505,0.016876,66.784,0.505,-0.00065298,-0.0094182,-0.0028444,0,-0.26207,0.049747,0
0,0.505,0.016874,66.774,0.505,-0.00063294,-0.0095798,-0.0028888,0,-0.26287,0.047421,0
0,0.505,0.016905,66.793,0.505,-0.00092049,-0.0070946,-0.0021339,0,-0.24483,0.087376,0
0,0.505,0.016903,66.8,0.505,-0.00090318,-0.0072633,-0.0021473,0,-0.24639,0.08452,0
0,0.505,0.016911,66.773,0.505,-0.0010136,-0.0060305,-0.0022852,0,-0.23414,0.10512,0
0,0.505,0.016912,66.771,0.505,-0.0010103,-0.0060732,-0.0022727,0,-0.23459,0.10439,0
0,0.505,0.016913,66.766,0.505,-0.0010202,-0.0059438,-0.0023233,0,-0.23313,0.10661,0
0,0.505,0.01691,66.781,0.505,-0.00099788,-0.0062295,-0.0022203,0,-0.23627,0.10176,0
0,0.505,0.016902,66.801,0.505,-0.00086868,-0.007589,-0.0022175,0,-0.24923,0.079021,0
0,0.505,0.016897,66.803,0.505,-0.00076465,-0.0084988,-0.0025354,0,-0.25631,0.063958,0
0,0.505,0.016927,66.676,0.505,-0.0010971,-0.0034746,-0.0048289,0,-0.17927,0.16705,0
0,0.505,0.016925,66.662,0.505,-0.0011022,-0.0035349,-0.0047251,0,-0.18204,0.16484,0
0,0.505,0.016928,66.668,0.505,-0.0010935,-0.0034315,-0.004899,0,-0.17745,0.16845,0
0,0.505,0.016924,66.663,0.505,-0.0011026,-0.0035401,-0.0047164,0,-0.18229,0.16462,0
0,0.505,0.016924,66.663,0.505,-0.0011031,-0.003547,-0.0047052,0,-0.1826,0.16436,0
0,0.505,0.016922,66.679,0.505,-0.001107,-0.003602,-0.0045918,0,-0.18523,0.1619,0
0,0.505,0.016927,66.675,0.505,-0.0011107,-0.0036739,-0.0044714,0,-0.18793,0.15922,0
0,0.505,0.016933,66.654,0.505,-0.001084,-0.0033275,-0.0050624,0,-0.17317,0.17199,0
0,0.505,0.016932,66.652,0.505,-0.001085,-0.003337,-0.0050475,0,-0.17361,0.17163,0
0,0.505,0.016929,66.631,0.505,-0.00093404,-0.0023661,-0.006428,0,-0.13437,0.19753,0
0,0.505,0.01694,66.627,0.505,-0.0009519,-0.0024772,-0.006316,0,-0.13788,0.19557,0
0,0.505,0.016931,66.618,0.505,-0.00098915,-0.0026708,-0.0060836,0,-0.14607,0.19103,0
0,0.505,0.016928,66.63,0.505,-0.00099932,-0.0027278,-0.0059918,0,-0.14842,0.18946,0
0,0.505,0.016932,66.643,0.505,-0.0010298,-0.0029172,-0.0057261,0,-0.15589,0.18466,0
0,0.505,0.016933,66.641,0.505,-0.0010381,-0.0029772,-0.0056458,0,-0.15808,0.1831,0
0,0.505,0.016935,66.632,0.505,-0.0010172,-0.0028403,-0.0058352,0,-0.15266,0.18675,0
0,0.505,0.016929,66.649,0.505,-0.0010427,-0.0030105,-0.0055998,0,-0.15938,0.18215,0
0,0.505,0.016929,66.647,0.505,-0.0010465,-0.003038,-0.0055619,0,-0.16043,0.18138,0
0,0.505,0.016923,66.649,0.505,-0.0010738,-0.0032366,-0.0052281,0,-0.16928,0.17513,0
0,0.505,0.016923,66.65,0.505,-0.0010758,-0.0032533,-0.0051993,0,-0.17009,0.17449,0
0,0.505,0.016931,66.647,0.505,-0.0010645,-0.0031716,-0.0053509,0,-0.166,0.17748,0
0,0.505,0.016932,66.643,0.505,-0.0010678,-0.0031962,-0.0053054,0,-0.1672,0.17663,0
0,0.505,0.016926,66.663,0.505,-0.0010906,-0.0033972,-0.0049574,0,-0.17608,0.16959,0
0,0.505,0.016932,66.644,0.505,-0.0010626,-0.0031583,-0.0053754,0,-0.16537,0.17792,0
0,0.505,0.016933,66.628,0.505,-0.00097083,-0.0025788,-0.00621,0,-0.14177,0.19353,0
0,0.505,0.016934,66.617,0.505,-0.00098078,-0.0026267,-0.0061438,0,-0.1441,0.19223,0
0,0.505,0.016927,66.618,0.505,-0.00098523,-0.002646,-0.0061174,0,-0.14511,0.19161,0
0,0.505,0.016935,66.633,0.505,-0.0010149,-0.0028271,-0.0058541,0,-0.15207,0.18712,0
0,0.505,0.016936,66.629,0.505,-0.0010122,-0.0028116,-0.0058786,0,-0.15144,0.18753,0
0,0.505,0.016933,66.649,0.505,-0.0010816,-0.0033073,-0.0051021,0,-0.17227,0.17272,0
0,0.505,0.016925,66.653,0.505,-0.0010548,-0.0030951,-0.0054648,0,-0.1629,0.17964,0
0,0.505,0.016936,66.624,0.505,-0.00091688,-0.002266,-0.0065219,0,-0.13115,0.19944,0
0,0.505,0.016934,66.621,0.505,-0.00092465,-0.0023087,-0.0064806,0,-0.13258,0.19855,0
0,0.505,0.01694,66.627,0.505,-0.00095358,-0.0024873,-0.0063057,0,-0.13821,0.19537,0
0,0.505,0.01694,66.624,0.505,-0.00095652,-0.0025032,-0.0062914,0,-0.1388,0.19507,0
0,0.505,0.016935,66.616,0.505,-0.00089877,-0.0021809,-0.0066119,0,-0.1278,0.20129,0
0,0.505,0.01694,66.615,0.505,-0.00090783,-0.0022244,-0.006566,0,-0.12948,0.20035,0
0,0.505,0.016927,66.676,0.505,-0.0011111,-0.0036807,-0.0044583,0,-0.18824,0.15896,0
0,0.505,0.016922,66.704,0.505,-0.0011144,-0.0041732,-0.0037133,0,-0.20493,0.14232,0
0,0.505,0.016918,66.714,0.505,-0.0011123,-0.0042587,-0.0036056,0,-0.2074,0.13985,0
0,0.505,0.016923,66.703,0.505,-0.0011149,-0.0041514,-0.0037424,0,-0.20429,0.14302,0
0,0.505,0.016924,66.702,0.505,-0.0011167,-0.0040121,-0.0039339,0,-0.20051,0.14733,0
0,0.505,0.016923,66.704,0.505,-0.0011166,-0.0040296,-0.0039116,0,-0.20104,0.14679,0
0,0.505,0.016924,66.701,0.505,-0.0011157,-0.0041003,-0.0038156,0,-0.20286,0.14462,0
0,0.505,0.016923,66.705,0.505,-0.0011151,-0.0041425,-0.0037544,0,-0.204,0.14333,0
0,0.505,0.016924,66.699,0.505,-0.0011169,-0.0039197,-0.0040675,0,-0.19748,0.15038,0
0,0.505,0.016926,66.696,0.505,-0.0011168,-0.0039692,-0.0039979,0,-0.19907,0.14878,0
0,0.505,0.01692,66.715,0.505,-0.001109,-0.0043718,-0.0034721,0,-0.2099,0.13682,0
0,0.505,0.016921,66.715,0.505,-0.0011087,-0.0043792,-0.0034632,0,-0.21006,0.13664,0
0,0.505,0.016923,66.699,0.505,-0.0011159,-0.0038372,-0.0041867,0,-0.19468,0.15304,0
0,0.505,0.016925,66.694,0.505,-0.0011167,-0.0038993,-0.0041031,0,-0.19671,0.15114,0
0,0.505,0.016925,66.683,0.505,-0.0011146,-0.0037767,-0.0042939,0,-0.19224,0.15522,0
0,0.505,0.01692,66.713,0.505,-0.0011094,-0.0043585,-0.00349,0,-0.20959,0.13718,0
0,0.505,0.016943,66.597,0.505,-0.00071134,-0.0013338,-0.0071688,0,-0.097376,0.21463,0
0,0.505,0.016943,66.596,0.505,-0.00071283,-0.0013402,-0.007166,0,-0.097587,0.21454,0
0,0.505,0.016925,66.597,0.505,-0.00069049,-0.0012582,-0.0072223,0,-0.094166,0.21584,0
0,0.505,0.016942,66.596,0.505,-0.00071034,-0.0013296,-0.0071719,0,-0.097223,0.21468,0
0,0.505,0.016938,66.613,0.505,-0.00073257,-0.0014266,-0.0071365,0,-0.10039,0.21339,0
0,0.505,0.016932,66.615,0.505,-0.00079967,-0.001701,-0.0069765,0,-0.111,0.2092,0
0,0.505,0.016936,66.618,0.505,-0.00081397,-0.0017736,-0.0069323,0,-0.11324,0.20828,0
0,0.505,0.016935,66.614,0.505,-0.00086135,-0.0020004,-0.0067684,0,-0.12111,0.20459,0
0,0.505,0.016936,66.612,0.505,-0.00086345,-0.0020108,-0.0067594,0,-0.12147,0.2044,0
0,0.505,0.016941,66.614,0.505,-0.00089175,-0.0021505,-0.0066396,0,-0.1265,0.20192,0
0,0.505,0.016937,66.613,0.505,-0.00083766,-0.0018877,-0.0068532,0,-0.11711,0.20647,0
0,0.505,0.016936,66.615,0.505,-0.00084174,-0.001907,-0.0068401,0,-0.11779,0.20614,0
0,0.505,0.016938,66.62,0.505,-0.00088033,-0.002098,-0.0066904,0,-0.12443,0.20296,0
0,0.505,0.016906,66.793,0.505,-0.00092406,-0.0070593,-0.0021291,0,-0.2445,0.087988,0
0,0.505,0.016907,66.788,0.505,-0.00096274,-0.0066396,-0.0021445,0,-0.24052,0.094834,0
0,0.505,0.01691,66.787,0.505,-0.00094473,-0.0068469,-0.0021317,0,-0.24249,0.091577,0
0,0.505,0.01691,66.787,0.505,-0.00094393,-0.0068556,-0.0021309,0,-0.24257,0.091437,0
0,0.505,0.016909,66.786,0.505,-0.00094032,-0.0068934,-0.002131,0,-0.24293,0.090805,0
0,0.505,0.016918,66.737,0.505,-0.0010986,-0.0046329,-0.0031896,0,-0.21513,0.13076,0
0,0.505,0.016919,66.74,0.505,-0.0010954,-0.0047027,-0.0031234,0,-0.21639,0.1293,0
0,0.505,0.016919,66.73,0.505,-0.0011044,-0.0044958,-0.0033308,0,-0.21251,0.13398,0
0,0.505,0.016918,66.73,0.505,-0.0011024,-0.0045433,-0.0032781,0,-0.2135,0.13276,0
0,0.505,0.016913,66.766,0.505,-0.0010313,-0.0057895,-0.0023883,0,-0.2314,0.10921,0
0,0.505,0.016912,66.769,0.505,-0.0010278,-0.0058397,-0.002365,0,-0.23197,0.10836,0
0,0.505,0.016921,66.745,0.505,-0.0010696,-0.0052052,-0.0027275,0,-0.22412,0.11965,0
0,0.505,0.016918,66.754,0.505,-0.0010654,-0.005274,-0.0026743,0,-0.22516,0.11816,0
0,0.505,0.016914,66.749,0.505,-0.0010835,-0.0049405,-0.0029171,0,-0.22058,0.12453,0
0,0.505,0.016914,66.749,0.505,-0.0010796,-0.0050178,-0.0028634,0,-0.22152,0.12297,0
0,0.505,0.016916,66.745,0.505,-0.001087,-0.004873,-0.0029722,0,-0.21933,0.12595,0
0,0.505,0.016919,66.742,0.505,-0.0010917,-0.0047853,-0.0030528,0,-0.21784,0.12779,0
0,0.505,0.016927,66.676,0.505,-0.0011112,-0.0036847,-0.0044505,0,-0.18842,0.15877,0
0,0.505,0.016927,66.676,0.505,-0.0011123,-0.0037126,-0.0044022,0,-0.18959,0.15767,0
0,0.505,0.016924,66.683,0.505,-0.0011142,-0.0037635,-0.0043129,0,-0.19176,0.15567,0
0,0.505,0.016945,66.601,0.505,-0.00065109,-0.001134,-0.007246,0,-0.088321,0.21793,0
0,0.505,0.016932,66.602,0.505,-0.00066811,-0.0011897,-0.0072444,0,-0.090739,0.21705,0
0,0.505,0.016942,66.605,0.505,-0.00064317,-0.0011004,-0.0072545,0,-0.087225,0.2183,0
0,0.505,0.016936,66.58,0.505,-0.00030803,3.1759e-05,-0.0075546,0,-0.040976,0.22907,0
0,0.505,0.016931,66.583,0.505,-0.000326,-2.7723e-05,-0.0075446,0,-0.043507,0.22867,0
0,0.505,0.016934,66.585,0.505,-0.0003016,5.2367e-05,-0.0075599,0,-0.040077,0.22921,0
0,0.505,0.016936,66.588,0.505,-8.8793e-05,0.00089883,-0.0075771,0,-0.012316,0.23193,0
0,0.505,0.016934,66.589,0.505,-8.9743e-05,0.00089421,-0.0075786,0,-0.012441,0.23192,0
0,0.505,0.016934,66.597,0.505,-0.00019854,0.0004516,-0.007607,0,-0.02665,0.23092,0
0,0.505,0.01694,66.586,0.505,-0.00022281,0.00035427,-0.0075982,0,-0.029818,0.23059,0
0,0.505,0.016939,66.586,0.505,-0.00016054,0.00060494,-0.0076099,0,-0.021694,0.23134,0
0,0.505,0.016936,66.591,0.505,-0.0001714,0.00056129,-0.0076119,0,-0.023106,0.23125,0
0,0.505,0.016936,66.592,0.505,-0.00014408,0.00067269,-0.0076066,0,-0.019534,0.2315,0
0,0.505,0.016935,66.59,0.505,-1.0362e-05,0.0012426,-0.0075209,0,-0.0019632,0.23223,0
0,0.505,0.01694,66.584,0.505,-2.4055e-05,0.0011902,-0.0075328,0,-0.0037921,0.2322,0
0,0.505,0.016929,66.588,0.505,-0.00033818,-6.1337e-05,-0.0075334,0,-0.04521,0.2284,0
0,0.505,0.016934,66.59,0.505,-0.00035386,-0.00011791,-0.0075108,0,-0.047353,0.2281,0
0,0.505,0.016935,66.597,0.505,-0.00036683,-0.00016279,-0.0074938,0,-0.049038,0.22776,0
0,0.505,0.016945,66.598,0.505,-0.00038653,-0.00023663,-0.0074636,0,-0.051607,0.22728,0
0,0.505,0.016927,66.596,0.505,-0.00042461,-0.00036979,-0.0074587,0,-0.056498,0.22631,0
0,0.505,0.01692,66.589,0.505,-0.00043927,-0.00041071,-0.0074533,0,-0.058616,0.22582,0
0,0.505,0.016944,66.605,0.505,-0.00039668,-0.00027886,-0.0074536,0,-0.052899,0.22705,0
0,0.505,0.01694,66.591,0.505,-0.00041156,-0.00032803,-0.0074542,0,-0.054798,0.22667,0
0,0.505,0.016937,66.596,0.505,-0.00025099,0.00024305,-0.0075833,0,-0.033502,0.23017,0
0,0.505,0.016941,66.587,0.505,-0.00026651,0.000182,-0.0075748,0,-0.035521,0.2299,0
0,0.505,0.016937,66.582,0.505,-0.00029089,9.1011e-05,-0.0075655,0,-0.038698,0.2294,0
0,0.505,0.016938,66.591,0.505,-0.00027634,0.00014444,-0.0075706,0,-0.036811,0.22972,0
0,0.505,0.016935,66.588,0.505,-9.1239e-05,0.00088779,-0.0075801,0,-0.012638,0.23191,0
0,0.505,0.016933,66.596,0.505,-0.00011671,0.00078241,-0.0075986,0,-0.015961,0.23174,0
0,0.505,0.016937,66.588,0.505,-0.00013364,0.00071486,-0.0076041,0,-0.018163,0.23159,0
0,0.505,0.016944,66.599,0.505,-6.3108e-05,0.0010211,-0.0075429,0,-0.0089506,0.23206,0
0,0.505,0.01694,66.586,0.505,-0.00022488,0.00034582,-0.0075973,0,-0.030091,0.23056,0
0,0.505,0.016941,66.585,0.505,-0.00022781,0.00033405,-0.007596,0,-0.030476,0.23052,0
0,0.505,0.016938,66.588,0.505,-0.00017837,0.00053387,-0.0076106,0,-0.024009,0.23116,0
0,0.505,0.016916,66.591,0.505,-0.00044759,-0.00043268,-0.0074469,0,-0.059813,0.22557,0
0,0.505,0.016944,66.6,0.505,-0.00051579,-0.00067743,-0.0073597,0,-0.06911,0.22348,0
0,0.505,0.016946,66.603,0.505,-0.00052488,-0.00071074,-0.0073513,0,-0.070357,0.22319,0
0,0.505,0.016942,66.599,0.505,-0.00061425,-0.00098738,-0.0072815,0,-0.083261,0.21955,0
0,0.505,0.01694,66.608,0.505,-0.00062507,-0.0010274,-0.007272,0,-0.084713,0.2191,0
0,0.505,0.01693,66.596,0.505,-0.00067903,-0.0012203,-0.0072326,0,-0.092383,0.21651,0
0,0.505,0.016944,66.599,0.505,-0.00053058,-0.0007281,-0.0073517,0,-0.071132,0.22302,0
0,0.505,0.016942,66.592,0.505,-0.00055349,-0.00079746,-0.0073487,0,-0.074194,0.22224,0
0,0.505,0.016929,66.586,0.505,-0.00057915,-0.00086262,-0.0073431,0,-0.078098,0.22113,0
0,0.505,0.016931,66.587,0.505,-0.00058523,-0.00088429,-0.0073344,0,-0.078995,0.22084,0
0,0.505,0.016935,66.591,0.505,-0.00056128,-0.00081856,-0.0073514,0,-0.075349,0.22187,0
0,0.505,0.016912,66.773,0.505,-0.0010407,-0.0056524,-0.0024506,0,-0.2298,0.11155,0
0,0.505,0.016914,66.76,0.505,-0.0010516,-0.005489,-0.0025405,0,-0.22795,0.11429,0
0,0.505,0.016915,66.758,0.505,-0.0010554,-0.0054332,-0.0025743,0,-0.22724,0.1153,0
0,0.505,0.016913,66.762,0.505,-0.0010536,-0.0054576,-0.0025561,0,-0.22759,0.11482,0
0,0.505,0.016921,66.745,0.505,-0.0010745,-0.0051161,-0.0027906,0,-0.22286,0.12126,0
0,0.505,0.016925,66.608,0.505,-0.00075421,-0.0015231,-0.0071095,0,-0.10369,0.21204,0
0,0.505,0.016928,66.603,0.505,-0.00077082,-0.0015835,-0.0070604,0,-0.1064,0.21092,0
0,0.505,0.016924,66.637,0.505,0.00090362,0.0056871,-0.0062125,0,0.15476,0.18522,0
0,0.505,0.016928,66.634,0.505,0.00089793,0.0056306,-0.0062761,0,0.15236,0.18687,0
0,0.505,0.016926,66.637,0.505,0.00090531,0.0057108,-0.0061885,0,0.15552,0.18471,0
0,0.505,0.016927,66.655,0.505,0.00091186,0.0058017,-0.0060919,0,0.15839,0.18276,0
0,0.505,0.016926,66.655,0.505,0.00090957,0.005767,-0.0061251,0,0.15739,0.1835,0
0,0.505,0.016929,66.655,0.505,0.00091654,0.0058771,-0.0060236,0,0.1605,0.18124,0
0,0.505,0.016929,66.642,0.505,0.00088831,0.0055328,-0.0063709,0,0.14886,0.18915,0
0,0.505,0.016929,66.641,0.505,0.00088591,0.0055081,-0.0063954,0,0.14807,0.18964,0
0,0.505,0.016933,66.609,0.505,0.00072487,0.0044461,-0.0071176,0,0.10977,0.20976,0
0,0.505,0.016932,66.609,0.505,0.00072346,0.0044401,-0.0071201,0,0.10949,0.20988,0
0,0.505,0.016931,66.617,0.505,0.00074693,0.0045543,-0.0070723,0,0.11415,0.20778,0
0,0.505,0.016931,66.619,0.505,0.00074043,0.004519,-0.0070861,0,0.1129,0.20836,0
0,0.505,0.016929,66.616,0.505,0.00077,0.0046831,-0.0070047,0,0.1187,0.20541,0
0,0.505,0.01693,66.626,0.505,0.00075651,0.00461,-0.007046,0,0.116,0.20684,0
0,0.505,0.016928,66.617,0.505,0.00077325,0.0047029,-0.0069967,0,0.11938,0.2051,0
0,0.505,0.016935,66.607,0.505,0.00070818,0.0043697,-0.0071441,0,0.10656,0.211,0
0,0.505,0.016935,66.608,0.505,0.000705,0.004355,-0.0071489,0,0.10595,0.21123,0
0,0.505,0.016935,66.608,0.505,0.00070475,0.0043537,-0.0071493,0,0.1059,0.21125,0
0,0.505,0.016934,66.611,0.505,0.00068618,0.0042668,-0.0071768,0,0.10249,0.21261,0
0,0.505,0.016942,66.597,0.505,6.8427e-05,0.0016015,-0.00743,0,0.0086789,0.23198,0
0,0.505,0.016939,66.594,0.505,5.9901e-05,0.001568,-0.0074409,0,0.0075702,0.23206,0
0,0.505,0.016936,66.59,0.505,0.00010634,0.0017765,-0.0073883,0,0.013725,0.23178,0
0,0.505,0.016926,66.591,0.505,9.707e-05,0.0017358,-0.0074034,0,0.01255,0.23182,0
0,0.505,0.016937,66.588,0.505,8.5437e-05,0.0016832,-0.0074136,0,0.010989,0.23187,0
0,0.505,0.016897,66.789,0.505,0.00053955,0.010169,-0.0032868,0,0.24977,0.078169,0
0,0.505,0.016901,66.786,0.505,0.00055862,0.010033,-0.0032662,0,0.24865,0.080414,0
0,0.505,0.016892,66.78,0.505,0.00041937,0.010993,-0.0034477,0,0.25605,0.064812,0
0,0.505,0.016898,66.778,0.505,0.00044826,0.010807,-0.0034068,0,0.25466,0.067917,0
0,0.505,0.016898,66.779,0.505,0.0004543,0.010765,-0.0033944,0,0.25436,0.068578,0
0,0.505,0.016899,66.777,0.505,0.00046961,0.010662,-0.0033724,0,0.25356,0.070304,0
0,0.505,0.016887,66.763,0.505,0.00030926,0.011691,-0.0036009,0,0.26069,0.053819,0
0,0.505,0.016885,66.76,0.505,0.00033828,0.01151,-0.0035708,0,0.2596,0.056493,0
0,0.505,0.016883,66.765,0.505,0.00035203,0.011425,-0.0035546,0,0.25907,0.05781,0
0,0.505,0.016888,66.775,0.505,0.00038377,0.011224,-0.003503,0,0.25764,0.061087,0
0,0.505,0.016891,66.774,0.505,0.00040038,0.011121,-0.003482,0,0.25691,0.062798,0
0,0.505,0.016868,66.715,0.505,0.00020266,0.012314,-0.0036431,0,0.26435,0.043679,0
0,0.505,0.016866,66.724,0.505,0.0002182,0.012231,-0.0036585,0,0.26386,0.04509,0
0,0.505,0.016876,66.746,0.505,0.00026519,0.011956,-0.003651,0,0.26236,0.049198,0
0,0.505,0.016889,66.744,0.505,0.0002726,0.011917,-0.0036459,0,0.26206,0.049988,0
0,0.505,0.01687,66.73,0.505,0.00023539,0.012138,-0.00366,0,0.26329,0.04657,0
0,0.505,0.016899,66.754,0.505,0.00029936,0.011764,-0.0036207,0,0.26104,0.052831,0
0,0.505,0.016882,66.765,0.505,0.00034764,0.01145,-0.0035596,0,0.25926,0.057381,0
0,0.505,0.016903,66.785,0.505,0.00057515,0.0099147,-0.0032592,0,0.24761,0.082404,0
0,0.505,0.016906,66.783,0.505,0.00059266,0.0097852,-0.0032521,0,0.24644,0.084653,0
0,0.505,0.016907,66.785,0.505,0.00060646,0.009677,-0.0032573,0,0.24556,0.086429,0
0,0.505,0.016901,66.783,0.505,0.00063126,0.0094686,-0.0032666,0,0.24376,0.089558,0
0,0.505,0.016924,66.722,0.505,0.00088976,0.0070646,-0.0045025,0,0.20985,0.13684,0
0,0.505,0.016923,66.726,0.505,0.00089559,0.0070022,-0.004571,0,0.20826,0.13875,0
0,0.505,0.016926,66.714,0.505,0.00090114,0.0069464,-0.0046392,0,0.20663,0.14068,0
0,0.505,0.016924,66.718,0.505,0.00090431,0.0069136,-0.0046765,0,0.20569,0.14181,0
0,0.505,0.016925,66.71,0.505,0.00090641,0.0068937,-0.0047098,0,0.20489,0.14268,0
0,0.505,0.016924,66.714,0.505,0.00091148,0.0068386,-0.0047774,0,0.20287,0.14482,0
0,0.505,0.016925,66.699,0.505,0.00091977,0.0067448,-0.0049108,0,0.19902,0.14877,0
0,0.505,0.016923,66.702,0.505,0.0009227,0.0067057,-0.00496,0,0.19737,0.15041,0
0,0.505,0.016925,66.704,0.505,0.00091571,0.0067912,-0.0048424,0,0.20101,0.14675,0
0,0.505,0.016924,66.706,0.505,0.00091772,0.0067693,-0.0048732,0,0.20013,0.14767,0
0,0.505,0.016922,66.731,0.505,0.00087248,0.0072348,-0.0043157,0,0.21434,0.13164,0
0,0.505,0.016923,66.726,0.505,0.00087756,0.0071838,-0.0043675,0,0.21305,0.13311,0
0,0.505,0.016925,66.675,0.505,0.000935,0.0062591,-0.0055706,0,0.17601,0.16983,0
0,0.505,0.016925,66.658,0.505,0.00093344,0.0061958,-0.0056491,0,0.17349,0.17182,0
0,0.505,0.016921,66.689,0.505,0.00093612,0.0064247,-0.0053644,0,0.1836,0.16336,0
0,0.505,0.016919,66.674,0.505,0.00093643,0.0063826,-0.0054179,0,0.18177,0.16493,0
0,0.505,0.016924,66.677,0.505,0.00093464,0.0064977,-0.0052677,0,0.18687,0.16047,0
0,0.505,0.016924,66.678,0.505,0.0009349,0.0064876,-0.005281,0,0.18634,0.16094,0
0,0.505,0.016924,66.689,0.505,0.00093037,0.0065946,-0.0051218,0,0.19196,0.15567,0
0,0.505,0.016924,66.686,0.505,0.00093106,0.0065808,-0.0051406,0,0.19131,0.15629,0
0,0.505,0.016933,66.627,0.505,0.00085803,0.0052473,-0.0066143,0,0.13975,0.19472,0
0,0.505,0.016926,66.628,0.505,0.0008497,0.0051783,-0.0066762,0,0.13735,0.19617,0
0,0.505,0.016936,66.624,0.505,0.00084076,0.00512,-0.0067195,0,0.13487,0.1975,0
0,0.505,0.016936,66.625,0.505,0.00083847,0.0051049,-0.0067315,0,0.13425,0.1978,0
0,0.505,0.016939,66.621,0.505,0.00082573,0.0050241,-0.0067899,0,0.13113,0.19943,0
0,0.505,0.016928,66.646,0.505,0.0008793,0.00544,-0.00645,0,0.14592,0.19098,0
0,0.505,0.016929,66.635,0.505,0.00089627,0.0056141,-0.0062946,0,0.15167,0.18734,0
0,0.505,0.016929,66.635,0.505,0.00089656,0.0056168,-0.0062912,0,0.15178,0.18728,0
0,0.505,0.016935,66.612,0.505,0.00066277,0.0041625,-0.0072018,0,0.098295,0.21425,0
0,0.505,0.016937,66.616,0.505,0.00064752,0.0040945,-0.0072181,0,0.095647,0.2153,0
0,0.505,0.016935,66.61,0.505,0.00068431,0.0042578,-0.0071791,0,0.10215,0.21275,0
0,0.505,0.016934,66.613,0.505,0.00066708,0.0041824,-0.0071984,0,0.099067,0.21395,0
0,0.505,0.016932,66.604,0.505,0.00056003,0.0037157,-0.0072738,0,0.080968,0.22019,0
0,0.505,0.016935,66.596,0.505,0.00054972,0.003677,-0.0072736,0,0.079302,0.22074,0
0,0.505,0.016929,66.601,0.505,0.00059598,0.003857,-0.0072587,0,0.086836,0.21819,0
0,0.505,0.016931,66.603,0.505,0.00058289,0.0038126,-0.0072617,0,0.084543,0.21896,0
0,0.505,0.01693,66.612,0.505,0.00061896,0.0039535,-0.0072514,0,0.09078,0.21699,0
0,0.505,0.016929,66.603,0.505,0.00060471,0.0038945,-0.0072578,0,0.088349,0.21767,0
0,0.505,0.016937,66.589,0.505,0.00037726,0.002969,-0.0072553,0,0.052488,0.22722,0
0,0.505,0.016937,66.588,0.505,0.00037616,0.0029644,-0.0072553,0,0.052326,0.22725,0
0,0.505,0.016939,66.605,0.505,0.00051463,0.0035368,-0.0072668,0,0.073567,0.22237,0
0,0.505,0.016928,66.594,0.505,0.00049165,0.0034422,-0.0072816,0,0.069931,0.22337,0
0,0.505,0.016934,66.598,0.505,0.00056746,0.0037472,-0.0072684,0,0.082123,0.21979,0
0,0.505,0.016933,66.596,0.505,0.00053757,0.0036283,-0.0072766,0,0.077293,0.22139,0
0,0.505,0.016939,66.597,0.505,0.00052797,0.0035912,-0.0072701,0,0.075709,0.22182,0
0,0.505,0.016938,66.615,0.505,0.00064073,0.0040633,-0.0072242,0,0.094458,0.21573,0
0,0.505,0.016935,66.613,0.505,0.00062685,0.0039914,-0.0072415,0,0.092144,0.21653,0
0,0.505,0.016935,66.589,0.505,0.00033634,0.0027968,-0.0072569,0,0.046412,0.22832,0
0,0.505,0.016934,66.592,0.505,0.0003308,0.0027732,-0.007258,0,0.045597,0.22847,0
0,0.505,0.016933,66.596,0.505,0.00030736,0.0026727,-0.0072591,0,0.04218,0.22901,0
0,0.505,0.016938,66.589,0.505,0.00029505,0.0026171,-0.0072608,0,0.040382,0.2293,0
0,0.505,0.016936,66.594,0.505,0.00028407,0.0025665,-0.0072651,0,0.038807,0.22957,0
0,0.505,0.016934,66.583,0.505,0.00026012,0.0024601,-0.0072826,0,0.03537,0.23007,0
0,0.505,0.016933,66.581,0.505,0.0002572,0.0024475,-0.0072862,0,0.034925,0.23015,0
0,0.505,0.016933,66.599,0.505,0.00035398,0.0028719,-0.0072548,0,0.049023,0.22786,0
0,0.505,0.016929,66.595,0.505,0.00042324,0.0031519,-0.0072682,0,0.059444,0.22578,0
0,0.505,0.016931,66.593,0.505,0.00041929,0.0031357,-0.0072668,0,0.058837,0.22591,0
0,0.505,0.016931,66.601,0.505,0.00040028,0.0030621,-0.0072599,0,0.05595,0.22653,0
0,0.505,0.016937,66.588,0.505,0.00037813,0.0029725,-0.0072553,0,0.05262,0.22719,0
0,0.505,0.016928,66.594,0.505,0.00049127,0.0034407,-0.0072818,0,0.069872,0.22339,0
0,0.505,0.016928,66.594,0.505,0.00049048,0.0034377,-0.0072813,0,0.06975,0.22341,0
0,0.505,0.016935,66.601,0.505,0.00045828,0.0033031,-0.0072616,0,0.064782,0.2245,0
0,0.505,0.01693,66.607,0.505,0.000446,0.0032477,-0.0072632,0,0.062924,0.225,0
0,0.505,0.016936,66.607,0.505,0.00046865,0.0033505,-0.0072609,0,0.066339,0.2241,0
0,0.505,0.016932,66.594,0.505,0.00042842,0.0031741,-0.0072667,0,0.060243,0.2256,0
0,0.505,0.016944,66.586,0.505,0.00020783,0.0022458,-0.0072976,0,0.027845,0.23084,0
0,0.505,0.016944,66.591,0.505,0.00019998,0.0022098,-0.0073003,0,0.026742,0.23095,0
0,0.505,0.016929,66.587,0.505,0.00023399,0.0023582,-0.0073019,0,0.031521,0.23046,0
0,0.505,0.016932,66.59,0.505,0.00022706,0.0023291,-0.0073004,0,0.030495,0.23054,0
0,0.505,0.016935,66.588,0.505,0.00032393,0.0027441,-0.0072587,0,0.044604,0.22863,0
0,0.505,0.016937,66.582,0.505,0.00026607,0.0024867,-0.0072775,0,0.03622,0.22996,0
0,0.505,0.016935,66.629,0.505,0.0008604,0.0052685,-0.0065961,0,0.14043,0.19431,0
0,0.505,0.016934,66.63,0.505,0.00085958,0.0052609,-0.0066023,0,0.1402,0.19444,0
0,0.505,0.01693,66.642,0.505,0.00086959,0.0053503,-0.0065226,0,0.14301,0.19277,0
0,0.505,0.016939,66.621,0.505,0.00082497,0.0050195,-0.0067937,0,0.13094,0.19952,0
0,0.505,0.016924,66.59,0.505,-0.00045795,-0.00046616,-0.0074267,0,-0.061261,0.22523,0
0,0.505,0.016936,66.599,0.505,-0.00047076,-0.00051169,-0.0073976,0,-0.063045,0.22484,0
0,0.505,0.016938,66.595,0.505,-0.00047931,-0.00054337,-0.0073889,0,-0.064205,0.22461,0
0,0.505,0.016934,66.607,0.505,-0.00049674,-0.00060421,-0.0073763,0,-0.066549,0.22407,0
0,0.505,0.016916,66.589,0.505,3.2698e-05,0.0014465,-0.0074919,0,0.0038808,0.23218,0
0,0.505,0.016947,66.598,0.505,1.5763e-05,0.0013677,-0.0074828,0,0.0014203,0.23216,0
0,0.505,0.016941,66.619,0.505,0.00080998,0.0049213,-0.0068633,0,0.12738,0.20134,0
0,0.505,0.01694,66.619,0.505,0.00080934,0.0049171,-0.006866,0,0.12723,0.20142,0
0,0.505,0.016935,66.625,0.505,0.00078956,0.0047897,-0.0069423,0,0.12294,0.20341,0
0,0.505,0.016912,66.589,0.505,3.9005e-05,0.001473,-0.007486,0,0.0047556,0.23216,0
0,0.505,0.016946,66.589,0.505,-3.4009e-06,0.0012738,-0.0075056,0,-0.0010638,0.23218,0
0,0.505,0.016938,66.586,0.505,-4.4346e-05,0.0011071,-0.007548,0,-0.0064548,0.23214,0
0,0.505,0.016938,66.589,0.505,-3.6662e-05,0.0011402,-0.0075455,0,-0.0054503,0.23219,0
0,0.505,0.016943,66.604,0.505,0.0001248,0.0018619,-0.0073615,0,0.016144,0.23171,0
0,0.505,0.016928,66.592,0.505,0.00013897,0.0019213,-0.0073681,0,0.018124,0.23179,0
0,0.505,0.016918,66.594,0.505,0.00015759,0.0020103,-0.0073632,0,0.020933,0.23161,0
0,0.505,0.0169,66.592,0.505,0.00014909,0.0019675,-0.0073853,0,0.019649,0.23174,0
0,0.505,0.016945,66.59,0.505,0.0001961,0.0021905,-0.0073008,0,0.026205,0.231,0
0,0.505,0.016929,66.602,0.505,0.0001737,0.0020793,-0.007332,0,0.023167,0.23122,0
0,0.505,0.016924,66.696,0.505,0.00092461,0.0066806,-0.004995,0,0.1962,0.15156,0
0,0.505,0.016925,66.688,0.505,0.0009295,0.006611,-0.0051006,0,0.19273,0.15493,0
0,0.505,0.016921,66.69,0.505,0.00093307,0.0065377,-0.0052001,0,0.18922,0.15826,0
0,0.505,0.016923,66.7,0.505,0.00092705,0.0066488,-0.0050399,0,0.19468,0.15308,0
0,0.505,0.016922,66.727,0.505,0.00088354,0.0071239,-0.0044274,0,0.21152,0.1349,0
0,0.505,0.016919,66.746,0.505,0.00084898,0.0074794,-0.0040981,0,0.2193,0.12574,0
0,0.505,0.016922,66.738,0.505,0.00085674,0.0073987,-0.0041666,0,0.21778,0.12762,0
0,0.505,0.016915,66.764,0.505,0.00078997,0.0080745,-0.0036908,0,0.22841,0.1136,0
0,0.505,0.016917,66.759,0.505,0.00079826,0.0079916,-0.0037387,0,0.22731,0.11514,0
0,0.505,0.016922,66.729,0.505,0.00088558,0.0071065,-0.0044493,0,0.21102,0.13553,0
0,0.505,0.016915,66.76,0.505,0.00075712,0.0083926,-0.003537,0,0.23236,0.10786,0
0,0.505,0.016915,66.763,0.505,0.00077259,0.0082444,-0.0036036,0,0.23057,0.1105,0
0,0.505,0.016909,66.776,0.505,0.00071296,0.0087888,-0.0033865,0,0.23688,0.1009,0
0,0.505,0.016912,66.77,0.505,0.00072806,0.0086552,-0.0034317,0,0.23541,0.10321,0
0,0.505,0.016912,66.771,0.505,0.00073428,0.0086007,-0.0034484,0,0.2348,0.10418,0
0,0.505,0.016915,66.762,0.505,0.00075334,0.0084276,-0.0035205,0,0.23279,0.10723,0
0,0.505,0.016902,66.779,0.505,0.00066508,0.0092005,-0.0032903,0,0.2411,0.093943,0
0,0.505,0.016903,66.777,0.505,0.00067251,0.0091381,-0.0033032,0,0.24047,0.094961,0
0,0.505,0.016908,66.778,0.505,0.00069001,0.0089926,-0.0033354,0,0.23895,0.097513,0
0,0.505,0.01691,66.774,0.505,0.00070097,0.0088964,-0.0033617,0,0.23797,0.099111,0
0,0.505,0.016901,66.784,0.505,0.00064053,0.0093914,-0.0032728,0,0.24303,0.09076,0
0,0.505,0.016865,66.7,0.505,0.00016123,0.012535,-0.0035993,0,0.26562,0.039941,0
0,0.505,0.016869,66.705,0.505,0.00017104,0.012483,-0.0036067,0,0.26538,0.040819,0
0,0.505,0.016643,66.671,0.505,-0.00023055,0.0034106,-0.00016407,0,0.2752,0.0020063,0
0,0.505,0.01666,66.61,0.505,-0.00021859,0.0055689,-0.00040922,0,0.2749,0.0048733,0
0,0.505,0.016671,66.56,0.505,-0.00020528,0.0075782,-0.00068521,0,0.27434,0.0072493,0
0,0.505,0.016651,66.642,0.505,-0.00022614,0.0045312,-0.00026094,0,0.27512,0.0037011,0
0,0.505,0.016694,66.535,0.505,-0.00018614,0.008971,-0.0010276,0,0.27388,0.0094853,0
0,0.505,0.016711,66.528,0.505,-0.00017424,0.0097681,-0.0012192,0,0.27356,0.010873,0
0,0.505,0.016716,66.527,0.505,-0.00016297,0.010162,-0.0013756,0,0.27335,0.011957,0
0,0.505,0.016791,66.57,0.505,-4.556e-05,0.012698,-0.0026831,0,0.27077,0.022305,0
0,0.505,0.016798,66.571,0.505,-3.9386e-05,0.012733,-0.0027319,0,0.27062,0.022859,0
0,0.505,0.016752,66.551,0.505,-9.6348e-05,0.012055,-0.0022178,0,0.27191,0.018205,0
0,0.505,0.016752,66.554,0.505,-9.3393e-05,0.012116,-0.002249,0,0.27184,0.018461,0
0,0.505,0.016741,66.532,0.505,-0.00013628,0.011249,-0.001775,0,0.27279,0.014787,0
0,0.505,0.016753,66.555,0.505,-9.1645e-05,0.012149,-0.0022683,0,0.27181,0.01861,0
0,0.505,0.016817,66.622,0.505,2.0596e-05,0.012882,-0.0031215,0,0.26912,0.0281,0
0,0.505,0.016823,66.642,0.505,4.1127e-05,0.01291,-0.0032407,0,0.26866,0.029823,0
0,0.505,0.016825,66.599,0.505,-9.0233e-06,0.012897,-0.0029547,0,0.26987,0.025594,0
0,0.505,0.016766,66.558,0.505,-7.6899e-05,0.012325,-0.002403,0,0.27147,0.019794,0
0,0.505,0.016837,66.68,0.505,0.00010012,0.012778,-0.0034575,0,0.26735,0.034533,0
0,0.505,0.016846,66.692,0.505,0.00012614,0.012662,-0.0035237,0,0.26666,0.036756,0
0,0.505,0.016829,66.663,0.505,7.3238e-05,0.012823,-0.0033674,0,0.26788,0.032326,0
0,0.505,0.016867,66.727,0.505,0.00022164,0.012216,-0.0036604,0,0.26374,0.045385,0
0,0.505,0.016922,66.73,0.505,0.0008682,0.0072815,-0.0042756,0,0.21534,0.13048,0
0,0.505,0.016921,66.74,0.505,0.00086136,0.0073514,-0.0042072,0,0.21689,0.12874,0
0,0.505,0.01692,66.744,0.505,0.00083789,0.0075932,-0.0040086,0,0.22129,0.12319,0
0,0.505,0.016918,66.752,0.505,0.00082168,0.0077585,-0.0038871,0,0.22396,0.11971,0
0,0.505,0.01692,66.744,0.505,0.00083032,0.0076721,-0.0039528,0,0.22256,0.12154,0
0,0.505,0.016919,66.745,0.505,0.00083583,0.0076147,-0.0039927,0,0.22164,0.12273,0
0,0.505,0.016918,66.752,0.505,0.00081858,0.0077888,-0.0038667,0,0.22442,0.11909,0
0,0.505,0.016915,66.762,0.505,0.00075417,0.00842,-0.0035235,0,0.2327,0.10736,0
0,0.505,0.016916,66.761,0.505,0.00077659,0.0082051,-0.0036233,0,0.23009,0.1112,0
0,0.505,0.016916,66.76,0.505,0.00080634,0.007912,-0.0037855,0,0.22622,0.11667,0
0,0.505,0.016901,66.786,0.505,0.00063638,0.0094248,-0.0032688,0,0.24335,0.09024,0
0,0.505,0.0169,66.782,0.505,0.00049527,0.010486,-0.0033376,0,0.25222,0.073182,0
0,0.505,0.016896,66.79,0.505,0.00052247,0.01029,-0.0033014,0,0.25073,0.076239,0
0,0.505,0.016899,66.782,0.505,0.00048838,0.010533,-0.0033435,0,0.25257,0.072404,0
0,0.505,0.016935,66.624,0.505,0.00079301,0.0048102,-0.0069314,0,0.12368,0.20306,0
0,0.505,0.01694,66.618,0.505,0.00081663,0.0049649,-0.0068327,0,0.12896,0.20054,0
0,0.505,0.016927,66.644,0.505,0.00092481,0.0060058,-0.0058814,0,0.16549,0.17762,0
0,0.505,0.016925,66.646,0.505,0.00092338,0.0059803,-0.0059136,0,0.16442,0.17844,0
0,0.505,0.016926,66.652,0.505,0.00092727,0.0060494,-0.0058238,0,0.16737,0.17629,0
0,0.505,0.01693,66.655,0.505,0.00091844,0.0059074,-0.0059924,0,0.16152,0.18057,0
0,0.505,0.016925,66.647,0.505,0.0009227,0.0059692,-0.0059283,0,0.16397,0.17876,0
0,0.505,0.016933,66.599,0.505,-0.00060074,-0.00093379,-0.0073059,0,-0.081335,0.22006,0
0,0.505,0.016935,66.605,0.505,-0.00074408,-0.0014785,-0.0071203,0,-0.10209,0.21266,0
0,0.505,0.016927,66.604,0.505,-0.00077676,-0.0016087,-0.0070474,0,-0.10733,0.21053,0
0,0.505,0.016927,66.615,0.505,-0.00079246,-0.0016661,-0.0070009,0,-0.10984,0.20965,0
0,0.505,0.016937,66.61,0.505,-0.0008555,-0.001973,-0.0067901,0,-0.12012,0.20505,0
0,0.505,0.016936,66.619,0.505,-0.00082132,-0.0018087,-0.0069088,0,-0.11444,0.20776,0
0,0.505,0.016921,66.668,0.505,0.00093639,0.0063663,-0.0054434,0,0.18088,0.16574,0
0,0.505,0.016926,66.671,0.505,0.00093603,0.0063351,-0.0054801,0,0.17921,0.1672,0
0,0.505,0.016925,66.655,0.505,0.00093266,0.0061722,-0.0056757,0,0.17252,0.17252,0
0,0.505,0.016923,66.662,0.505,0.00093066,0.0061165,-0.0057393,0,0.17023,0.17426,0
0,0.505,0.016924,66.676,0.505,0.00093513,0.0064782,-0.0052935,0,0.18593,0.16132,0
0,0.505,0.016927,66.65,0.505,0.00092864,0.0060767,-0.005793,0,0.16846,0.17551,0
0,0.505,0.016925,66.659,0.505,0.00093311,0.0061864,-0.005659,0,0.1731,0.17209,0
0,0.505,0.016926,66.677,0.505,0.00093567,0.0062969,-0.0055254,0,0.17749,0.16852,0
0,0.505,0.016931,66.64,0.505,0.00087401,0.0053917,-0.0064905,0,0.14433,0.19197,0
