"cvar","mu","phivar","pressure","rho","str","velocity:0","velocity:1","Label","Points:0","Points:1","Points:2"
0,0.505,0.0084542,62.369,0.505,0.00028215,-0.064425,-0.0010454,0,-0.26275,0,0
0,0.505,0.008211,62.223,0.505,0.00039396,0.070504,-0.0013471,0,0.26339,0,0
0,0.505,0.017975,68.876,0.505,-0.034452,-0.10269,-0.3395,0,-0.093673,0.22616,0
0,0.505,0.01797,68.836,0.505,-0.034837,-0.10432,-0.33789,0,-0.094996,0.22563,0
0,0.505,0.018002,68.964,0.505,-0.033483,-0.098694,-0.3433,0,-0.090589,0.22739,0
0,0.505,0.018032,69.07,0.505,-0.032083,-0.093246,-0.34853,0,-0.086147,0.22903,0
0,0.505,0.018019,68.996,0.505,-0.032885,-0.096418,-0.34559,0,-0.088666,0.22809,0
0,0.505,0.018004,68.985,0.505,-0.033266,-0.097824,-0.34415,0,-0.08991,0.22767,0
0,0.505,0.017944,68.775,0.505,-0.035481,-0.10711,-0.3352,0,-0.097264,0.22472,0
0,0.505,0.017916,68.613,0.505,-0.036982,-0.11397,-0.3285,0,-0.1026,0.22227,0
0,0.505,0.017903,68.591,0.505,-0.037328,-0.11555,-0.32688,0,-0.10384,0.22171,0
0,0.505,0.017932,68.703,0.505,-0.036151,-0.11009,-0.33227,0,-0.099614,0.22365,0
0,0.505,0.017926,68.678,0.505,-0.036432,-0.11139,-0.33101,0,-0.10065,0.22315,0
0,0.505,0.018071,69.153,0.505,-0.030933,-0.08893,-0.35257,0,-0.082397,0.23064,0
0,0.505,0.018062,69.114,0.505,-0.031333,-0.09043,-0.35117,0,-0.083672,0.23011,0
0,0.505,0.018115,69.242,0.505,-0.029717,-0.084589,-0.35655,0,-0.078616,0.2317,0
0,0.505,0.018143,69.446,0.505,-0.027107,-0.075707,-0.3643,0,-0.070898,0.23408,0
0,0.505,0.018134,69.362,0.505,-0.028137,-0.079141,-0.36136,0,-0.073917,0.23308,0
0,0.505,0.018121,69.267,0.505,-0.029316,-0.083224,-0.3578,0,-0.077418,0.23206,0
0,0.505,0.018116,69.247,0.505,-0.029646,-0.084347,-0.35678,0,-0.078406,0.23177,0
0,0.505,0.018181,69.504,0.505,-0.025771,-0.071461,-0.36794,0,-0.067015,0.23524,0
0,0.505,0.018178,69.501,0.505,-0.025897,-0.071832,-0.36761,0,-0.067374,0.23514,0
0,0.505,0.017869,68.511,0.505,-0.038179,-0.11972,-0.32272,0,-0.10689,0.22021,0
0,0.505,0.01786,68.451,0.505,-0.03862,-0.12197,-0.3205,0,-0.10867,0.21934,0
0,0.505,0.017736,67.945,0.505,-0.042943,-0.14812,-0.29473,0,-0.12701,0.20965,0
0,0.505,0.017735,67.937,0.505,-0.04299,-0.14848,-0.29438,0,-0.12725,0.2095,0
0,0.505,0.017768,68.154,0.505,-0.041547,-0.13859,-0.30394,0,-0.12061,0.21331,0
0,0.505,0.017759,68.086,0.505,-0.041995,-0.14154,-0.30109,0,-0.12261,0.21218,0
0,0.505,0.017739,67.952,0.505,-0.042855,-0.14752,-0.29533,0,-0.1266,0.20988,0
0,0.505,0.017834,68.394,0.505,-0.039378,-0.12591,-0.31648,0,-0.11183,0.21782,0
0,0.505,0.01783,68.334,0.505,-0.039849,-0.12855,-0.31392,0,-0.11373,0.21699,0
0,0.505,0.0179,68.572,0.505,-0.037493,-0.11635,-0.32608,0,-0.10444,0.22144,0
0,0.505,0.017848,68.413,0.505,-0.038946,-0.12369,-0.31882,0,-0.11002,0.21869,0
0,0.505,0.017407,66.296,0.505,-0.047846,-0.26361,-0.20299,0,-0.18796,0.16011,0
0,0.505,0.017387,66.254,0.505,-0.047615,-0.26961,-0.19958,0,-0.19058,0.1573,0
0,0.505,0.017436,66.584,0.505,-0.048354,-0.23989,-0.21762,0,-0.17751,0.17099,0
0,0.505,0.017429,66.548,0.505,-0.048317,-0.24363,-0.21512,0,-0.17925,0.1694,0
0,0.505,0.017365,66.013,0.505,-0.046348,-0.29251,-0.18813,0,-0.20008,0.14656,0
0,0.505,0.01737,65.949,0.505,-0.046007,-0.29734,-0.18604,0,-0.20171,0.14417,0
0,0.505,0.017383,66.072,0.505,-0.04689,-0.28405,-0.19218,0,-0.19659,0.15047,0
0,0.505,0.017366,66.047,0.505,-0.046571,-0.28923,-0.18964,0,-0.19873,0.14814,0
0,0.505,0.017429,66.441,0.505,-0.048224,-0.24991,-0.21119,0,-0.18205,0.16671,0
0,0.505,0.017428,66.422,0.505,-0.048195,-0.25116,-0.21043,0,-0.18265,0.16611,0
0,0.505,0.017432,66.452,0.505,-0.04824,-0.24897,-0.21179,0,-0.18163,0.16715,0
0,0.505,0.017411,66.396,0.505,-0.048088,-0.2559,-0.20744,0,-0.18479,0.16373,0
0,0.505,0.017408,66.311,0.505,-0.047879,-0.2627,-0.2035,0,-0.18757,0.16052,0
0,0.505,0.017382,66.179,0.505,-0.047312,-0.27627,-0.19602,0,-0.1932,0.15424,0
0,0.505,0.017385,66.149,0.505,-0.047248,-0.27751,-0.19544,0,-0.19372,0.15364,0
0,0.505,0.017437,66.508,0.505,0.048699,0.24675,-0.21352,0,0.18188,0.16676,0
0,0.505,0.017443,66.571,0.505,0.048748,0.24319,-0.21572,0,0.18023,0.16848,0
0,0.505,0.017442,66.599,0.505,0.048769,0.24128,-0.21691,0,0.17939,0.16928,0
0,0.505,0.018383,70.275,0.505,0.0070464,0.015066,-0.3984,0,0.018164,0.24383,0
0,0.505,0.018385,70.281,0.505,0.0066148,0.014072,-0.39862,0,0.017066,0.24403,0
0,0.505,0.018374,70.245,0.505,0.0087301,0.019299,-0.39739,0,0.022329,0.24363,0
0,0.505,0.018386,70.247,0.505,0.0079735,0.017356,-0.39786,0,0.02046,0.24368,0
0,0.505,0.018345,70.116,0.505,0.013095,0.030491,-0.39367,0,0.033413,0.24237,0
0,0.505,0.018352,70.176,0.505,0.011916,0.027382,-0.39482,0,0.03029,0.24281,0
0,0.505,0.018345,70.114,0.505,0.013175,0.030686,-0.39358,0,0.033631,0.24234,0
0,0.505,0.018336,70.095,0.505,0.014417,0.033951,-0.39209,0,0.036973,0.24192,0
0,0.505,0.018315,70.064,0.505,0.016005,0.038157,-0.38996,0,0.041005,0.24127,0
0,0.505,0.018334,70.084,0.505,0.014904,0.035159,-0.39145,0,0.038184,0.24169,0
0,0.505,0.018302,69.984,0.505,0.017492,0.042203,-0.38779,0,0.04482,0.24059,0
0,0.505,0.018308,69.992,0.505,0.017207,0.041389,-0.38822,0,0.044081,0.24074,0
0,0.505,0.018277,69.943,0.505,0.018916,0.046097,-0.38544,0,0.048633,0.23985,0
0,0.505,0.018299,69.961,0.505,0.017886,0.043318,-0.38717,0,0.045869,0.24039,0
0,0.505,0.018377,70.229,0.505,0.0091685,0.020484,-0.3971,0,0.023424,0.24347,0
0,0.505,0.018361,70.183,0.505,0.011273,0.025823,-0.39543,0,0.028711,0.24293,0
0,0.505,0.017295,65.493,0.505,0.041891,0.34257,-0.17015,0,0.21893,0.12,0
0,0.505,0.017296,65.523,0.505,0.042176,0.34035,-0.1707,0,0.21815,0.12121,0
0,0.505,0.017265,65.269,0.505,0.039526,0.35935,-0.16641,0,0.22473,0.11049,0
0,0.505,0.017268,65.304,0.505,0.039858,0.35717,-0.16681,0,0.22399,0.11176,0
0,0.505,0.017286,65.459,0.505,0.041428,0.34608,-0.16923,0,0.22016,0.11805,0
0,0.505,0.017322,65.648,0.505,0.043567,0.3286,-0.17418,0,0.21391,0.12754,0
0,0.505,0.017329,65.67,0.505,0.043849,0.32601,-0.17506,0,0.21295,0.12894,0
0,0.505,0.017236,65.148,0.505,0.037855,0.36973,-0.1646,0,0.22823,0.10432,0
0,0.505,0.017239,65.177,0.505,0.038172,0.36784,-0.16486,0,0.22761,0.10546,0
0,0.505,0.017253,65.228,0.505,0.038916,0.36328,-0.16566,0,0.22607,0.10819,0
0,0.505,0.017254,65.239,0.505,0.039034,0.36254,-0.16578,0,0.22583,0.10862,0
0,0.505,0.017343,65.81,0.505,0.045066,0.31382,-0.17937,0,0.20845,0.13517,0
0,0.505,0.017339,65.891,0.505,0.045528,0.30866,-0.1813,0,0.20672,0.13772,0
0,0.505,0.01736,65.903,0.505,0.045898,0.30421,-0.18321,0,0.20515,0.13996,0
0,0.505,0.01733,65.721,0.505,0.044221,0.32251,-0.17617,0,0.21165,0.13076,0
0,0.505,0.01734,65.753,0.505,0.04466,0.31807,-0.17779,0,0.20994,0.13305,0
0,0.505,0.017393,66.265,0.505,0.047961,0.27127,-0.19908,0,0.19212,0.15567,0
0,0.505,0.017406,66.295,0.505,0.048162,0.26643,-0.20181,0,0.19012,0.15794,0
0,0.505,0.017391,66.175,0.505,0.047687,0.27718,-0.19598,0,0.19451,0.15295,0
0,0.505,0.01743,66.467,0.505,0.048635,0.25026,-0.21133,0,0.18345,0.16518,0
0,0.505,0.017432,66.493,0.505,0.048673,0.24835,-0.2125,0,0.18259,0.16601,0
0,0.505,0.017497,66.908,0.505,0.048585,0.2143,-0.2358,0,0.16666,0.18079,0
0,0.505,0.017496,66.912,0.505,0.04858,0.21404,-0.236,0,0.16653,0.18091,0
0,0.505,0.017508,67.021,0.505,0.048424,0.20844,-0.24014,0,0.1638,0.18332,0
0,0.505,0.017512,67.036,0.505,0.048372,0.20692,-0.24132,0,0.16304,0.18392,0
0,0.505,0.017557,67.252,0.505,0.047651,0.19081,-0.25431,0,0.15474,0.19079,0
0,0.505,0.017561,67.262,0.505,0.047594,0.18986,-0.25511,0,0.15423,0.19117,0
0,0.505,0.017526,67.111,0.505,0.0482,0.20221,-0.24496,0,0.16091,0.18578,0
0,0.505,0.017531,67.132,0.505,0.048123,0.20039,-0.24641,0,0.16007,0.18655,0
0,0.505,0.017613,67.472,0.505,0.046635,0.17589,-0.26719,0,0.14679,0.19679,0
0,0.505,0.017614,67.481,0.505,0.046602,0.17546,-0.26756,0,0.14656,0.19696,0
0,0.505,0.017619,67.491,0.505,0.046538,0.17467,-0.26827,0,0.14613,0.19727,0
0,0.505,0.017629,67.577,0.505,0.046188,0.17047,-0.27197,0,0.14381,0.19894,0
0,0.505,0.017647,67.611,0.505,0.045867,0.16704,-0.27521,0,0.1418,0.20045,0
0,0.505,0.017587,67.373,0.505,0.047155,0.18295,-0.26097,0,0.15062,0.19392,0
0,0.505,0.017587,67.426,0.505,0.046981,0.18044,-0.26311,0,0.14928,0.19492,0
0,0.505,0.01765,67.641,0.505,0.045736,0.16562,-0.27649,0,0.14094,0.20105,0
0,0.505,0.017655,67.658,0.505,0.045649,0.16473,-0.27729,0,0.14039,0.20141,0
0,0.505,0.017716,67.946,0.505,0.043938,0.14938,-0.29176,0,0.1309,0.20712,0
0,0.505,0.017729,68.001,0.505,0.043576,0.14658,-0.29444,0,0.12918,0.20809,0
0,0.505,0.017749,68.072,0.505,0.042814,0.14106,-0.29995,0,0.12559,0.21019,0
0,0.505,0.017751,68.102,0.505,0.042608,0.13959,-0.30137,0,0.12462,0.21075,0
0,0.505,0.017842,68.346,0.505,0.040607,0.12702,-0.3138,0,0.11619,0.21569,0
0,0.505,0.017842,68.348,0.505,0.040587,0.12691,-0.31392,0,0.11612,0.21573,0
0,0.505,0.017772,68.176,0.505,0.042113,0.13631,-0.30459,0,0.12231,0.21214,0
0,0.505,0.017798,68.225,0.505,0.041694,0.1336,-0.30725,0,0.12056,0.21325,0
0,0.505,0.017803,68.28,0.505,0.041371,0.13154,-0.30924,0,0.11925,0.214,0
0,0.505,0.017739,68.054,0.505,0.043225,0.14392,-0.29701,0,0.12756,0.20908,0
0,0.505,0.017703,67.885,0.505,0.044356,0.15281,-0.28846,0,0.13309,0.20584,0
0,0.505,0.01745,66.669,0.505,0.048805,0.23643,-0.22008,0,0.17734,0.17145,0
0,0.505,0.017391,66.174,0.505,0.047679,0.27735,-0.19589,0,0.19457,0.15287,0
0,0.505,0.018254,69.821,0.505,0.02111,0.05238,-0.38136,0,0.054531,0.23855,0
0,0.505,0.018262,69.876,0.505,0.020299,0.050015,-0.38291,0,0.052339,0.23904,0
0,0.505,0.018274,69.895,0.505,0.019685,0.048232,-0.38405,0,0.050683,0.23941,0
0,0.505,0.018173,69.609,0.505,0.025597,0.065763,-0.37118,0,0.066943,0.23539,0
0,0.505,0.018206,69.653,0.505,0.024334,0.061897,-0.37434,0,0.063382,0.23636,0
0,0.505,0.018238,69.782,0.505,0.022067,0.055074,-0.37938,0,0.057122,0.23795,0
0,0.505,0.018241,69.809,0.505,0.021663,0.053908,-0.38025,0,0.056021,0.23823,0
0,0.505,0.018217,69.75,0.505,0.022998,0.057849,-0.37736,0,0.059685,0.23732,0
0,0.505,0.018082,69.279,0.505,0.030456,0.08203,-0.35724,0,0.081156,0.23095,0
0,0.505,0.018098,69.31,0.505,0.030006,0.080404,-0.35866,0,0.07978,0.23138,0
0,0.505,0.018154,69.528,0.505,0.026843,0.069765,-0.3679,0,0.070482,0.23431,0
0,0.505,0.018165,69.553,0.505,0.02635,0.068139,-0.36921,0,0.069075,0.23475,0
0,0.505,0.018206,69.654,0.505,0.024306,0.061809,-0.3744,0,0.063304,0.23639,0
0,0.505,0.01811,69.374,0.505,0.029278,0.077861,-0.36091,0,0.0776,0.2321,0
0,0.505,0.018072,69.216,0.505,0.03113,0.084506,-0.35504,0,0.083201,0.23011,0
0,0.505,0.018206,69.654,0.505,0.024317,0.061844,-0.37438,0,0.063335,0.23638,0
0,0.505,0.018366,70.218,0.505,0.010412,0.02353,-0.39613,0,0.026544,0.24321,0
0,0.505,0.017358,65.931,0.505,0.046074,0.3021,-0.18408,0,0.20435,0.14102,0
0,0.505,0.017367,65.951,0.505,0.046295,0.29923,-0.18537,0,0.20322,0.14243,0
0,0.505,0.017363,66.001,0.505,0.046555,0.29575,-0.18686,0,0.20188,0.14413,0
0,0.505,0.017391,66.17,0.505,0.047666,0.27758,-0.19577,0,0.19467,0.15276,0
0,0.505,0.017371,66.062,0.505,0.046971,0.28957,-0.18977,0,0.19944,0.14711,0
0,0.505,0.017376,66.078,0.505,0.047099,0.28755,-0.19077,0,0.19864,0.14807,0
0,0.505,0.017371,66.019,0.505,0.046787,0.29233,-0.1885,0,0.20052,0.14579,0
0,0.505,0.017223,65.103,0.505,0.03727,0.37312,-0.16407,0,0.22936,0.10225,0
0,0.505,0.01727,65.31,0.505,0.039936,0.35665,-0.16692,0,0.22381,0.11206,0
0,0.505,0.017278,65.385,0.505,0.040655,0.35168,-0.16793,0,0.2221,0.1149,0
0,0.505,0.017215,65.055,0.505,0.036753,0.37605,-0.16373,0,0.23032,0.10044,0
0,0.505,0.017284,65.407,0.505,0.040924,0.34977,-0.16839,0,0.22144,0.11598,0
0,0.505,0.017312,65.566,0.505,0.042851,0.33487,-0.1723,0,0.21618,0.12421,0
0,0.505,0.017315,65.575,0.505,0.042991,0.33367,-0.17266,0,0.21574,0.12485,0
0,0.505,0.017376,66.139,0.505,0.047351,0.28336,-0.19276,0,0.197,0.15005,0
0,0.505,0.017312,65.57,0.505,0.042893,0.33452,-0.17239,0,0.21606,0.12439,0
0,0.505,0.017185,64.846,0.505,0.034471,0.38815,-0.16241,0,0.23432,0.09285,0
0,0.505,0.017196,64.923,0.505,0.035332,0.38373,-0.16282,0,0.23283,0.095636,0
0,0.505,0.017202,64.952,0.505,0.035621,0.38221,-0.163,0,0.23233,0.096594,0
0,0.505,0.017204,65.017,0.505,0.036323,0.37841,-0.16341,0,0.23109,0.098973,0
0,0.505,0.016934,63.801,0.505,0.026351,0.42462,-0.15933,0,0.2449,0.068649,0
0,0.505,0.016964,63.934,0.505,0.027069,0.42156,-0.15965,0,0.24412,0.07064,0
0,0.505,0.016778,63.307,0.505,0.023662,0.43595,-0.15733,0,0.24758,0.0614,0
0,0.505,0.016824,63.479,0.505,0.024498,0.43233,-0.15797,0,0.24678,0.0636,0
0,0.505,0.015672,60.169,0.505,0.014725,0.47135,-0.13866,0,0.25472,0.039454,0
0,0.505,0.015939,60.813,0.505,0.016082,0.46714,-0.14346,0,0.25382,0.042716,0
0,0.505,0.015309,59.423,0.505,0.013189,0.47546,-0.13249,0,0.25567,0.035714,0
0,0.505,0.015457,59.735,0.505,0.013779,0.47417,-0.13502,0,0.25539,0.037193,0
0,0.505,0.016429,62.179,0.505,0.019695,0.4526,-0.15203,0,0.25107,0.051276,0
0,0.505,0.016538,62.508,0.505,0.020629,0.44877,-0.15358,0,0.25027,0.053663,0
0,0.505,0.015968,60.884,0.505,0.016282,0.46629,-0.14403,0,0.25369,0.043185,0
0,0.505,0.016381,62.063,0.505,0.019257,0.45456,-0.15122,0,0.25144,0.050086,0
0,0.505,0.016648,62.829,0.505,0.021771,0.44399,-0.15535,0,0.24933,0.056642,0
0,0.505,0.016673,62.905,0.505,0.02211,0.44251,-0.15579,0,0.24903,0.057491,0
0,0.505,0.016738,63.185,0.505,0.023171,0.43791,-0.15682,0,0.24801,0.060113,0
0,0.505,0.016208,61.574,0.505,0.017961,0.45978,-0.14851,0,0.25238,0.046951,0
0,0.505,0.016175,61.514,0.505,0.017745,0.46075,-0.14796,0,0.25253,0.046463,0
0,0.505,0.016655,62.859,0.505,0.021892,0.44344,-0.1555,0,0.24924,0.056937,0
0,0.505,0.017173,64.775,0.505,0.033855,0.39121,-0.16218,0,0.23534,0.090973,0
0,0.505,0.017181,64.831,0.505,0.034323,0.38889,-0.16233,0,0.23456,0.092376,0
0,0.505,0.017153,64.746,0.505,0.033368,0.39358,-0.16193,0,0.23612,0.089488,0
0,0.505,0.017156,64.705,0.505,0.03309,0.39494,-0.16188,0,0.23655,0.088618,0
0,0.505,0.017029,64.223,0.505,0.028851,0.41399,-0.16037,0,0.2421,0.075746,0
0,0.505,0.017039,64.307,0.505,0.029534,0.41098,-0.16059,0,0.24127,0.077676,0
0,0.505,0.017081,64.453,0.505,0.030765,0.40559,-0.16101,0,0.23971,0.081287,0
0,0.505,0.017104,64.532,0.505,0.031376,0.40288,-0.1612,0,0.23891,0.083079,0
0,0.505,0.017126,64.587,0.505,0.032013,0.39997,-0.16146,0,0.2381,0.085104,0
0,0.505,0.017141,64.639,0.505,0.032428,0.39806,-0.1616,0,0.23748,0.086443,0
0,0.505,0.017058,64.399,0.505,0.030174,0.40822,-0.16081,0,0.2405,0.079518,0
0,0.505,0.016978,63.981,0.505,0.027329,0.4205,-0.15979,0,0.24384,0.0714,0
0,0.505,0.017007,64.133,0.505,0.028306,0.41629,-0.16014,0,0.24278,0.074228,0
0,0.505,0.016893,63.68,0.505,0.025552,0.428,-0.15883,0,0.24575,0.066439,0
0,0.505,0.016903,63.721,0.505,0.0258,0.42692,-0.15897,0,0.2455,0.067115,0
0,0.505,0.017684,67.78,0.505,0.045017,0.15862,-0.28296,0,0.1367,0.20364,0
0,0.505,0.017693,67.843,0.505,0.044599,0.15488,-0.28652,0,0.13437,0.20505,0
0,0.505,0.017673,67.743,0.505,0.045214,0.16045,-0.28126,0,0.13778,0.20295,0
0,0.505,0.017537,67.167,0.505,0.047908,0.19573,-0.25029,0,0.15757,0.18849,0
0,0.505,0.017547,67.193,0.505,0.047811,0.19387,-0.25184,0,0.1565,0.18936,0
0,0.505,0.013855,56.857,0.505,0.0086797,0.47179,-0.106,0,0.25788,0.025836,0
0,0.505,0.01395,57.02,0.505,0.0089085,0.4732,-0.10782,0,0.25777,0.026365,0
0,0.505,0.014735,58.345,0.505,0.011175,0.47762,-0.12233,0,0.25662,0.031356,0
0,0.505,0.015213,59.233,0.505,0.012876,0.47542,-0.13072,0,0.2559,0.034994,0
0,0.505,0.012819,55.705,0.505,0.0063562,0.45292,-0.086463,0,0.25922,0.020447,0
0,0.505,0.013029,55.833,0.505,0.0067734,0.45773,-0.090308,0,0.25898,0.021342,0
0,0.505,0.011164,54.84,0.505,0.0035319,0.38899,-0.054979,0,0.26066,0.013633,0
0,0.505,0.011632,54.954,0.505,0.0041868,0.41103,-0.063401,0,0.26033,0.015513,0
0,0.505,0.012091,55.164,0.505,0.0049817,0.42805,-0.071361,0,0.25995,0.017333,0
0,0.505,0.017985,68.93,0.505,0.034724,0.098447,-0.34188,0,0.094981,0.22568,0
0,0.505,0.017989,68.971,0.505,0.034335,0.096784,-0.34342,0,0.093665,0.22615,0
0,0.505,0.018004,69.014,0.505,0.033596,0.093855,-0.34632,0,0.091089,0.22717,0
0,0.505,0.018011,69.033,0.505,0.033394,0.09303,-0.34708,0,0.090391,0.22745,0
0,0.505,0.01796,68.847,0.505,0.035936,0.10359,-0.33682,0,0.098875,0.22399,0
0,0.505,0.017969,68.904,0.505,0.035387,0.10113,-0.33912,0,0.09705,0.22477,0
0,0.505,0.017469,66.731,0.505,0.048799,0.23065,-0.22404,0,0.17464,0.17383,0
0,0.505,0.017481,66.754,0.505,0.048783,0.22732,-0.22639,0,0.17307,0.17525,0
0,0.505,0.017465,66.683,0.505,0.048805,0.2331,-0.22241,0,0.17581,0.17286,0
0,0.505,0.017484,66.867,0.505,0.048689,0.21949,-0.23191,0,0.16932,0.17853,0
0,0.505,0.01748,66.794,0.505,0.048771,0.22502,-0.22792,0,0.17201,0.17623,0
0,0.505,0.017488,66.8,0.505,0.048743,0.22316,-0.22931,0,0.17109,0.17699,0
0,0.505,0.017496,66.914,0.505,0.048577,0.21391,-0.23609,0,0.16646,0.18096,0
0,0.505,0.017538,67.149,0.505,0.047958,0.19682,-0.24942,0,0.15815,0.18803,0
0,0.505,0.017421,66.425,0.505,0.048518,0.25537,-0.20821,0,0.1856,0.16296,0
0,0.505,0.017417,66.464,0.505,0.048574,0.2533,-0.20938,0,0.1848,0.16383,0
0,0.505,0.017412,66.397,0.505,0.048405,0.25923,-0.20588,0,0.18712,0.16126,0
0,0.505,0.017405,66.313,0.505,0.04821,0.26524,-0.20245,0,0.18964,0.15849,0
0,0.505,0.01741,66.319,0.505,0.048252,0.26395,-0.20321,0,0.18908,0.1591,0
0,0.505,0.017336,65.794,0.505,0.04488,0.3158,-0.1786,0,0.20909,0.1342,0
0,0.505,0.017846,68.359,0.505,0.040471,0.12627,-0.31457,0,0.11564,0.21597,0
0,0.505,0.017859,68.449,0.505,0.039729,0.12211,-0.31867,0,0.11263,0.2175,0
0,0.505,0.017928,68.75,0.505,0.036971,0.10827,-0.33228,0,0.10237,0.22239,0
0,0.505,0.017943,68.793,0.505,0.036539,0.10624,-0.3342,0,0.10086,0.22311,0
0,0.505,0.017864,68.465,0.505,0.039615,0.12147,-0.31927,0,0.11218,0.21771,0
0,0.505,0.017881,68.552,0.505,0.038835,0.11738,-0.32334,0,0.10918,0.21917,0
0,0.505,0.017887,68.577,0.505,0.038635,0.11632,-0.32434,0,0.10843,0.21954,0
0,0.505,0.017903,68.653,0.505,0.03792,0.11279,-0.32786,0,0.10579,0.2208,0
0,0.505,0.017913,68.687,0.505,0.037615,0.11127,-0.3293,0,0.10468,0.22133,0
0,0.505,0.01803,69.112,0.505,0.032678,0.090242,-0.34967,0,0.087945,0.22838,0
0,0.505,0.018056,69.167,0.505,0.031875,0.08719,-0.3525,0,0.085471,0.22928,0
0,0.505,0.018059,69.195,0.505,0.031589,0.086117,-0.35351,0,0.084594,0.22959,0
0,0.505,0.018134,69.439,0.505,0.028067,0.07377,-0.36453,0,0.074027,0.2333,0
0,0.505,0.018141,69.448,0.505,0.027822,0.072997,-0.36523,0,0.073318,0.2335,0
0,0.505,0.018133,69.43,0.505,0.028188,0.074173,-0.36417,0,0.07438,0.23318,0
0,0.505,0.017575,67.348,0.505,0.047334,0.18555,-0.25868,0,0.15203,0.19287,0
0,0.505,0.010694,54.972,0.505,0.0028545,0.36215,-0.045945,0,0.26099,0.011693,0
0,0.505,0.01357,56.479,0.505,0.008031,0.46662,-0.10067,0,0.25824,0.024306,0
0,0.505,0.0088304,59.335,0.505,0.00071628,0.15825,-0.0083499,0,0.26239,0.0037371,0
0,0.505,0.0092232,57.839,0.505,0.0010562,0.21117,-0.015161,0,0.26208,0.0054314,0
0,0.505,0.014622,58.105,0.505,0.010842,0.47703,-0.12029,0,0.25683,0.030638,0
0,0.505,0.010089,55.516,0.505,0.0022277,0.3223,-0.035381,0,0.26136,0.0097296,0
0,0.505,0.0096116,56.322,0.505,0.0014496,0.26718,-0.023095,0,0.26173,0.0073112,0
0,0.505,0.008352,60.82,0.505,0.00054496,0.11205,-0.0047513,0,0.26291,0.0018206,0
0,0.505,0.017162,64.716,0.505,-0.03323,-0.39261,-0.16149,0,-0.23519,0.090886,0
0,0.505,0.017161,64.709,0.505,-0.033165,-0.39292,-0.16146,0,-0.23529,0.090678,0
0,0.505,0.017155,64.662,0.505,-0.032745,-0.39489,-0.1613,0,-0.23592,0.089365,0
0,0.505,0.017137,64.598,0.505,-0.031982,-0.39843,-0.16096,0,-0.23707,0.086983,0
0,0.505,0.017136,64.588,0.505,-0.031866,-0.39897,-0.16093,0,-0.23724,0.086624,0
0,0.505,0.017103,64.479,0.505,-0.030769,-0.40384,-0.1605,0,-0.23877,0.083276,0
0,0.505,0.017215,65.037,0.505,-0.036521,-0.37553,-0.16338,0,-0.22958,0.10184,0
0,0.505,0.01721,64.978,0.505,-0.035933,-0.37879,-0.16299,0,-0.23066,0.099808,0
0,0.505,0.017198,64.937,0.505,-0.035447,-0.38139,-0.16262,0,-0.23152,0.098158,0
0,0.505,0.017185,64.851,0.505,-0.034574,-0.38595,-0.16214,0,-0.23301,0.095236,0
0,0.505,0.017178,64.826,0.505,-0.034322,-0.38722,-0.16199,0,-0.23343,0.094414,0
0,0.505,0.017097,64.448,0.505,-0.03045,-0.40526,-0.16041,0,-0.23919,0.082315,0
0,0.505,0.017065,64.338,0.505,-0.029522,-0.40922,-0.16007,0,-0.24039,0.079561,0
0,0.505,0.017054,64.28,0.505,-0.028996,-0.41148,-0.15992,0,-0.24104,0.07802,0
0,0.505,0.017022,64.17,0.505,-0.028236,-0.41462,-0.15963,0,-0.24196,0.075821,0
0,0.505,0.017001,64.079,0.505,-0.027524,-0.41761,-0.15939,0,-0.24277,0.073781,0
0,0.505,0.016864,63.614,0.505,-0.024666,-0.4293,-0.1579,0,-0.24581,0.065881,0
0,0.505,0.016814,63.385,0.505,-0.023667,-0.43337,-0.15729,0,-0.24685,0.063204,0
0,0.505,0.01697,63.97,0.505,-0.02689,-0.42017,-0.15911,0,-0.24346,0.071982,0
0,0.505,0.015552,59.906,0.505,-0.013456,-0.47279,-0.13627,0,-0.25495,0.038245,0
0,0.505,0.01544,59.619,0.505,-0.012959,-0.47384,-0.13426,0,-0.25528,0.037008,0
0,0.505,0.016,61.078,0.505,-0.015999,-0.4642,-0.14435,0,-0.2532,0.04403,0
0,0.505,0.015915,60.846,0.505,-0.015406,-0.46663,-0.14281,0,-0.25357,0.042688,0
0,0.505,0.016385,62.025,0.505,-0.018557,-0.45453,-0.15071,0,-0.25133,0.050097,0
0,0.505,0.016251,61.685,0.505,-0.017556,-0.45838,-0.14849,0,-0.25209,0.047617,0
0,0.505,0.016938,63.856,0.505,-0.026071,-0.42357,-0.15873,0,-0.24436,0.069696,0
0,0.505,0.016905,63.72,0.505,-0.025408,-0.42624,-0.1584,0,-0.24505,0.067902,0
0,0.505,0.016468,62.254,0.505,-0.019336,-0.45121,-0.15213,0,-0.25072,0.052036,0
0,0.505,0.016435,62.178,0.505,-0.019017,-0.45258,-0.15153,0,-0.25099,0.051235,0
0,0.505,0.017321,65.558,0.505,-0.042605,-0.33357,-0.17273,0,-0.21521,0.12599,0
0,0.505,0.01731,65.485,0.505,-0.042017,-0.33856,-0.17131,0,-0.2173,0.12327,0
0,0.505,0.01728,65.344,0.505,-0.040313,-0.35155,-0.16793,0,-0.22159,0.11582,0
0,0.505,0.017261,65.329,0.505,-0.039801,-0.35514,-0.16707,0,-0.22283,0.11379,0
0,0.505,0.017284,65.379,0.505,-0.040584,-0.34959,-0.16838,0,-0.22089,0.11693,0
0,0.505,0.017321,65.57,0.505,-0.042668,-0.33301,-0.1729,0,-0.21502,0.1263,0
0,0.505,0.01731,65.483,0.505,-0.041993,-0.33876,-0.17125,0,-0.21737,0.12316,0
0,0.505,0.0173,65.44,0.505,-0.041376,-0.34364,-0.16991,0,-0.21877,0.12022,0
0,0.505,0.01731,65.484,0.505,-0.042003,-0.33868,-0.17127,0,-0.21735,0.1232,0
0,0.505,0.017328,65.638,0.505,-0.043358,-0.32679,-0.17484,0,-0.21269,0.12926,0
0,0.505,0.013218,56.103,0.505,-0.0065044,-0.4613,-0.094117,0,-0.25878,0.022416,0
0,0.505,0.012891,55.706,0.505,-0.0057816,-0.45365,-0.087368,0,-0.25916,0.020757,0
0,0.505,0.013991,57.049,0.505,-0.0083588,-0.47265,-0.10866,0,-0.25783,0.026542,0
0,0.505,0.013523,56.461,0.505,-0.0072242,-0.46712,-0.099847,0,-0.25843,0.024021,0
0,0.505,0.011254,54.787,0.505,-0.0029684,-0.39317,-0.056573,0,-0.26067,0.01392,0
0,0.505,0.010545,54.931,0.505,-0.0019124,-0.34664,-0.042066,0,-0.26127,0.010941,0
0,0.505,0.0089275,59.678,0.505,2.25e-05,-0.14387,-0.0065993,0,-0.26291,0.0033532,0
0,0.505,0.0089331,59.788,0.505,3.2512e-05,-0.14068,-0.0063709,0,-0.26291,0.0032128,0
0,0.505,0.015731,60.343,0.505,-0.014402,-0.46968,-0.13954,0,-0.25422,0.040451,0
0,0.505,0.009603,56.447,0.505,-0.00067314,-0.25522,-0.020654,0,-0.26212,0.0067316,0
0,0.505,0.008948,59.47,0.505,-1.7571e-05,-0.15061,-0.0074608,0,-0.26286,0.0035609,0
0,0.505,0.010353,54.996,0.505,-0.0016932,-0.33587,-0.038709,0,-0.26139,0.010291,0
0,0.505,0.010192,55.256,0.505,-0.0015041,-0.32013,-0.035287,0,-0.26153,0.0096073,0
0,0.505,0.012262,55.121,0.505,-0.004559,-0.43402,-0.075342,0,-0.25979,0.017877,0
0,0.505,0.014185,57.363,0.505,-0.0088443,-0.47486,-0.11218,0,-0.25757,0.027631,0
0,0.505,0.014112,57.245,0.505,-0.0086537,-0.47423,-0.11084,0,-0.25767,0.027205,0
0,0.505,0.012155,55.05,0.505,-0.0043497,-0.43086,-0.073229,0,-0.2599,0.017392,0
0,0.505,0.012069,55.024,0.505,-0.0042107,-0.42753,-0.071761,0,-0.25997,0.017057,0
0,0.505,0.014625,58.089,0.505,-0.010098,-0.47667,-0.11969,0,-0.25689,0.0304,0
0,0.505,0.017255,65.196,0.505,-0.038486,-0.36383,-0.16535,0,-0.22564,0.10896,0
0,0.505,0.017253,65.146,0.505,-0.038081,-0.36635,-0.16493,0,-0.22649,0.10746,0
0,0.505,0.017251,65.31,0.505,-0.039419,-0.35768,-0.16648,0,-0.22369,0.11236,0
0,0.505,0.017259,65.209,0.505,-0.038638,-0.36287,-0.16555,0,-0.22532,0.10951,0
0,0.505,0.016134,61.34,0.505,-0.016791,-0.46114,-0.14664,0,-0.25263,0.045851,0
0,0.505,0.016734,63.109,0.505,-0.022382,-0.43874,-0.15619,0,-0.24807,0.059822,0
0,0.505,0.016695,62.995,0.505,-0.021884,-0.44073,-0.15567,0,-0.24853,0.05852,0
0,0.505,0.016788,63.328,0.505,-0.023287,-0.43496,-0.15693,0,-0.24724,0.062188,0
0,0.505,0.015016,58.752,0.505,-0.011322,-0.47673,-0.12679,0,-0.25627,0.03311,0
0,0.505,0.015164,59.018,0.505,-0.011875,-0.47576,-0.12944,0,-0.25596,0.034396,0
0,0.505,0.015075,58.854,0.505,-0.011532,-0.47646,-0.12782,0,-0.25616,0.033578,0
0,0.505,0.016567,62.634,0.505,-0.020467,-0.44655,-0.15375,0,-0.24979,0.054886,0
0,0.505,0.016674,62.912,0.505,-0.021629,-0.44175,-0.15539,0,-0.24877,0.05786,0
0,0.505,0.017748,68.053,0.505,-0.042262,-0.14335,-0.29933,0,-0.12383,0.21149,0
0,0.505,0.017813,68.324,0.505,-0.040178,-0.13028,-0.31205,0,-0.11496,0.21636,0
0,0.505,0.017797,68.25,0.505,-0.04076,-0.13372,-0.30872,0,-0.11732,0.21517,0
0,0.505,0.017791,68.211,0.505,-0.041054,-0.13551,-0.30695,0,-0.11852,0.21452,0
0,0.505,0.017644,67.607,0.505,-0.045245,-0.16765,-0.27612,0,-0.13935,0.20168,0
0,0.505,0.017636,67.59,0.505,-0.045499,-0.17018,-0.27367,0,-0.14092,0.20065,0
0,0.505,0.017627,67.469,0.505,-0.045979,-0.17557,-0.26886,0,-0.14399,0.19862,0
0,0.505,0.017623,67.44,0.505,-0.046082,-0.17681,-0.26776,0,-0.14476,0.19813,0
0,0.505,0.018312,70.004,0.505,-0.015649,-0.042209,-0.38822,0,-0.039269,0.24153,0
0,0.505,0.018295,69.974,0.505,-0.016841,-0.045441,-0.38636,0,-0.042403,0.24103,0
0,0.505,0.018315,70.015,0.505,-0.015335,-0.041395,-0.38868,0,-0.038448,0.24166,0
0,0.505,0.018312,70.013,0.505,-0.015494,-0.041799,-0.38845,0,-0.038862,0.2416,0
0,0.505,0.017237,65.091,0.505,-0.037305,-0.37105,-0.16411,0,-0.22808,0.10461,0
0,0.505,0.017237,65.116,0.505,-0.037538,-0.36967,-0.1643,0,-0.22763,0.10545,0
0,0.505,0.017298,65.425,0.505,-0.041244,-0.34465,-0.16964,0,-0.21911,0.11968,0
0,0.505,0.017358,65.842,0.505,-0.045279,-0.30666,-0.18213,0,-0.20548,0.13957,0
0,0.505,0.017359,65.822,0.505,-0.045138,-0.3083,-0.18151,0,-0.20605,0.13873,0
0,0.505,0.017366,65.856,0.505,-0.045454,-0.30446,-0.18307,0,-0.20451,0.14068,0
0,0.505,0.017364,65.927,0.505,-0.045815,-0.29987,-0.18492,0,-0.20263,0.14295,0
0,0.505,0.017526,67.009,0.505,-0.047827,-0.20564,-0.24299,0,-0.16062,0.18601,0
0,0.505,0.017497,66.94,0.505,-0.048045,-0.21207,-0.23782,0,-0.16394,0.18324,0
0,0.505,0.017497,66.874,0.505,-0.048133,-0.21536,-0.23534,0,-0.16558,0.1819,0
0,0.505,0.017552,67.163,0.505,-0.047383,-0.19597,-0.25092,0,-0.15564,0.19006,0
0,0.505,0.017539,67.123,0.505,-0.04752,-0.19862,-0.24869,0,-0.15706,0.18897,0
0,0.505,0.017598,67.387,0.505,-0.046413,-0.18084,-0.26405,0,-0.14725,0.19651,0
0,0.505,0.017591,67.301,0.505,-0.046727,-0.18524,-0.26023,0,-0.14974,0.19457,0
0,0.505,0.01747,66.665,0.505,-0.048371,-0.23145,-0.22343,0,-0.17352,0.17488,0
0,0.505,0.017468,66.644,0.505,-0.048371,-0.23257,-0.22269,0,-0.17408,0.17435,0
0,0.505,0.017444,66.601,0.505,-0.048368,-0.23715,-0.21951,0,-0.17625,0.17222,0
0,0.505,0.017489,66.858,0.505,-0.0482,-0.21784,-0.23336,0,-0.16688,0.18085,0
0,0.505,0.017487,66.783,0.505,-0.048267,-0.22192,-0.23039,0,-0.16893,0.17915,0
0,0.505,0.017474,66.758,0.505,-0.048305,-0.22414,-0.22871,0,-0.17002,0.1782,0
0,0.505,0.017477,66.689,0.505,-0.048344,-0.22854,-0.22557,0,-0.17214,0.1762,0
0,0.505,0.017473,66.742,0.505,-0.048316,-0.22508,-0.22803,0,-0.17053,0.17774,0
0,0.505,0.017559,67.226,0.505,-0.047177,-0.19221,-0.25408,0,-0.15359,0.19158,0
0,0.505,0.017586,67.286,0.505,-0.046812,-0.18645,-0.25915,0,-0.15043,0.19402,0
0,0.505,0.017585,67.265,0.505,-0.046879,-0.18751,-0.25825,0,-0.151,0.1936,0
0,0.505,0.017411,66.319,0.505,-0.047923,-0.26138,-0.20428,0,-0.18705,0.16114,0
0,0.505,0.017528,67.016,0.505,-0.047812,-0.20522,-0.24332,0,-0.16041,0.18619,0
0,0.505,0.017526,67.013,0.505,-0.047819,-0.20544,-0.24315,0,-0.16052,0.18609,0
0,0.505,0.017385,66.094,0.505,-0.047001,-0.28207,-0.19316,0,-0.19573,0.15139,0
0,0.505,0.017388,66.187,0.505,-0.047418,-0.27396,-0.19729,0,-0.19223,0.15523,0
0,0.505,0.017382,66.084,0.505,-0.046924,-0.28345,-0.19246,0,-0.19634,0.15074,0
0,0.505,0.017329,65.642,0.505,-0.043404,-0.32637,-0.17498,0,-0.21255,0.12947,0
0,0.505,0.017335,65.731,0.505,-0.044198,-0.31855,-0.17765,0,-0.20981,0.13349,0
0,0.505,0.01733,65.716,0.505,-0.044053,-0.32002,-0.17711,0,-0.21031,0.13276,0
0,0.505,0.01734,65.804,0.505,-0.044701,-0.31316,-0.17958,0,-0.20784,0.13611,0
0,0.505,0.01769,67.77,0.505,-0.044182,-0.15787,-0.28534,0,-0.13332,0.20571,0
0,0.505,0.017686,67.743,0.505,-0.044318,-0.15907,-0.28423,0,-0.13404,0.2052,0
0,0.505,0.017661,67.7,0.505,-0.044745,-0.16277,-0.28063,0,-0.13634,0.20366,0
0,0.505,0.017653,67.652,0.505,-0.044974,-0.16495,-0.27863,0,-0.1377,0.20273,0
0,0.505,0.017634,67.486,0.505,-0.045892,-0.17458,-0.26976,0,-0.14341,0.19898,0
0,0.505,0.017696,67.784,0.505,-0.04407,-0.15692,-0.28624,0,-0.13272,0.2061,0
0,0.505,0.017709,67.872,0.505,-0.043585,-0.15296,-0.28998,0,-0.13022,0.20773,0
0,0.505,0.018373,70.268,0.505,0.0054248,0.01105,-0.39921,0,0.014154,0.24425,0
0,0.505,0.018375,70.267,0.505,0.0052054,0.010542,-0.39929,0,0.013612,0.24427,0
0,0.505,0.018389,70.303,0.505,0.0041309,0.0078202,-0.39957,0,0.010735,0.24439,0
0,0.505,0.018394,70.294,0.505,0.0033325,0.0059383,-0.39977,0,0.0087147,0.24439,0
0,0.505,0.018392,70.303,0.505,0.0025928,0.0040224,-0.39989,0,0.0069033,0.24453,0
0,0.505,0.018397,70.301,0.505,0.0014171,0.0012056,-0.40002,0,0.0039149,0.24471,0
0,0.505,0.018374,70.207,0.505,-0.0083559,-0.023241,-0.39644,0,-0.020546,0.2438,0
0,0.505,0.018374,70.2,0.505,-0.0085435,-0.023735,-0.39629,0,-0.021024,0.24376,0
0,0.505,0.018356,70.197,0.505,-0.0098576,-0.027052,-0.39512,0,-0.024364,0.24346,0
0,0.505,0.018357,70.16,0.505,-0.010743,-0.029282,-0.39425,0,-0.026617,0.24321,0
0,0.505,0.018349,70.153,0.505,-0.011327,-0.030845,-0.39364,0,-0.028119,0.24303,0
0,0.505,0.018347,70.116,0.505,-0.012143,-0.032997,-0.39276,0,-0.030214,0.24279,0
0,0.505,0.018211,69.643,0.505,-0.023402,-0.064152,-0.37375,0,-0.060254,0.23708,0
0,0.505,0.018211,69.641,0.505,-0.023428,-0.06423,-0.37369,0,-0.060327,0.23706,0
0,0.505,0.018182,69.592,0.505,-0.024653,-0.067918,-0.37073,0,-0.063809,0.23621,0
0,0.505,0.018225,69.741,0.505,-0.022143,-0.060374,-0.37648,0,-0.056766,0.23787,0
0,0.505,0.018212,69.643,0.505,-0.023381,-0.064092,-0.3738,0,-0.060194,0.23709,0
0,0.505,0.018176,69.491,0.505,-0.02602,-0.072223,-0.36728,0,-0.067726,0.23503,0
0,0.505,0.018128,69.348,0.505,-0.028357,-0.079907,-0.36072,0,-0.074551,0.23289,0
0,0.505,0.018318,70.078,0.505,-0.014154,-0.038223,-0.39026,0,-0.035396,0.2421,0
0,0.505,0.018338,70.114,0.505,-0.01276,-0.034546,-0.39205,0,-0.031794,0.24261,0
0,0.505,0.018269,69.842,0.505,-0.01939,-0.052512,-0.38203,0,-0.04934,0.23963,0
0,0.505,0.018266,69.837,0.505,-0.019534,-0.052918,-0.38177,0,-0.049731,0.23953,0
0,0.505,0.018405,70.294,0.505,-0.00067921,-0.0040502,-0.39996,0,-0.0012861,0.24478,0
0,0.505,0.018405,70.292,0.505,-0.00081316,-0.0043932,-0.39994,0,-0.0016201,0.24478,0
0,0.505,0.018396,70.306,0.505,0.00094324,-4.4507e-05,-0.40003,0,0.0026768,0.24473,0
0,0.505,0.018405,70.294,0.505,-0.00061566,-0.0038796,-0.39997,0,-0.0011292,0.24479,0
0,0.505,0.018392,70.261,0.505,-0.0048271,-0.014412,-0.39868,0,-0.011642,0.2444,0
0,0.505,0.018387,70.266,0.505,-0.0053124,-0.015581,-0.39845,0,-0.01286,0.24435,0
0,0.505,0.01839,70.313,0.505,-0.0022287,-0.0079102,-0.39964,0,-0.0051205,0.24468,0
0,0.505,0.018395,70.288,0.505,-0.0030593,-0.0099064,-0.39939,0,-0.0071997,0.24459,0
0,0.505,0.018376,70.208,0.505,-0.0082275,-0.022897,-0.39654,0,-0.020219,0.24383,0
0,0.505,0.018374,70.257,0.505,-0.0068419,-0.019417,-0.3975,0,-0.016719,0.2441,0
0,0.505,0.018241,69.794,0.505,-0.020852,-0.056648,-0.37918,0,-0.053285,0.23869,0
0,0.505,0.018239,69.764,0.505,-0.021282,-0.057949,-0.37832,0,-0.054426,0.23842,0
0,0.505,0.018266,69.835,0.505,-0.01957,-0.053027,-0.3817,0,-0.049826,0.23951,0
0,0.505,0.018284,69.906,0.505,-0.018175,-0.049107,-0.38418,0,-0.046081,0.24044,0
0,0.505,0.018289,69.915,0.505,-0.017783,-0.048079,-0.38485,0,-0.045026,0.24062,0
0,0.505,0.018336,70.093,0.505,-0.013191,-0.035649,-0.39151,0,-0.032902,0.24245,0
0,0.505,0.01839,70.293,0.505,-0.0037739,-0.011755,-0.39911,0,-0.008994,0.24451,0
0,0.505,0.018389,70.254,0.505,-0.0056578,-0.016406,-0.39825,0,-0.013726,0.24429,0
