"cvar","mu","phivar","pressure","rho","str","velocity:0","velocity:1","Label","Points:0","Points:1","Points:2"
0,0.505,0.016667,66.732,0.505,-0.00023733,-0.001655,-4.2673e-05,0,-0.27535,0,0
0,0.505,0.016641,66.725,0.505,-0.00023411,0.0020447,-5.1708e-05,0,0.27527,0,0
0,0.505,0.016929,66.602,0.505,-0.00065275,-0.0011064,-0.0069459,0,-0.092402,0.21649,0
0,0.505,0.016923,66.603,0.505,-0.00066359,-0.0011421,-0.0069374,0,-0.094152,0.21583,0
0,0.505,0.016942,66.611,0.505,-0.00061795,-0.00099003,-0.0069621,0,-0.087206,0.21829,0
0,0.505,0.016945,66.607,0.505,-0.00062581,-0.0010238,-0.0069548,0,-0.088335,0.21791,0
0,0.505,0.016942,66.601,0.505,-0.00068482,-0.0012194,-0.0068834,0,-0.097531,0.21455,0
0,0.505,0.016937,66.618,0.505,-0.00070419,-0.0013036,-0.0068556,0,-0.10039,0.21338,0
0,0.505,0.016932,66.653,0.505,-0.0010408,-0.0031016,-0.0048547,0,-0.17225,0.17273,0
0,0.505,0.016932,66.658,0.505,-0.0010432,-0.00312,-0.0048158,0,-0.17317,0.17198,0
0,0.505,0.016926,66.701,0.505,-0.0010756,-0.0037173,-0.0037902,0,-0.19908,0.14876,0
0,0.505,0.016923,66.707,0.505,-0.0010756,-0.0037586,-0.0037277,0,-0.20052,0.14732,0
0,0.505,0.016924,66.688,0.505,-0.0010732,-0.0035322,-0.0040789,0,-0.19224,0.1552,0
0,0.505,0.016922,66.704,0.505,-0.0010745,-0.0035901,-0.0039744,0,-0.19469,0.15303,0
0,0.505,0.016923,66.709,0.505,-0.0010755,-0.0037755,-0.0037059,0,-0.20104,0.14678,0
0,0.505,0.016923,66.706,0.505,-0.0010747,-0.0038441,-0.0036115,0,-0.20287,0.1446,0
0,0.505,0.016928,66.591,0.505,-0.00055653,-0.00075996,-0.0070498,0,-0.078111,0.22111,0
0,0.505,0.016931,66.592,0.505,-0.00056211,-0.00077984,-0.0070414,0,-0.078965,0.22083,0
0,0.505,0.016935,66.596,0.505,-0.0005391,-0.00071806,-0.0070573,0,-0.075326,0.22186,0
0,0.505,0.016942,66.604,0.505,-0.00059005,-0.00087969,-0.0069875,0,-0.083233,0.21954,0
0,0.505,0.01694,66.614,0.505,-0.0006007,-0.00091959,-0.0069781,0,-0.084718,0.21908,0
0,0.505,0.016935,66.622,0.505,-0.0008649,-0.0020355,-0.0063579,0,-0.1278,0.20128,0
0,0.505,0.01694,66.621,0.505,-0.00087345,-0.0020777,-0.0063126,0,-0.12944,0.20035,0
0,0.505,0.016941,66.601,0.505,-0.00068302,-0.0012118,-0.0068876,0,-0.097258,0.21466,0
0,0.505,0.016921,66.743,0.505,0.00081886,0.0071103,-0.0039883,0,0.21779,0.12761,0
0,0.505,0.01692,66.745,0.505,0.00082328,0.0070653,-0.0040278,0,0.21689,0.12872,0
0,0.505,0.016916,66.764,0.505,0.00076249,0.0076816,-0.0035701,0,0.22731,0.11513,0
0,0.505,0.016915,66.765,0.505,0.00077023,0.0076049,-0.0036155,0,0.22623,0.11665,0
0,0.505,0.016919,66.75,0.505,0.00079867,0.0073179,-0.0038178,0,0.22165,0.12271,0
0,0.505,0.016919,66.748,0.505,0.00080069,0.0072968,-0.0038336,0,0.22129,0.12319,0
0,0.505,0.016919,66.749,0.505,0.00079325,0.0073744,-0.003778,0,0.22258,0.1215,0
0,0.505,0.016918,66.757,0.505,0.00078208,0.0074853,-0.0036951,0,0.22442,0.11909,0
0,0.505,0.016917,66.757,0.505,0.00078503,0.0074564,-0.0037146,0,0.22397,0.1197,0
0,0.505,0.016922,66.732,0.505,0.00084468,0.0068484,-0.0042423,0,0.21152,0.13489,0
0,0.505,0.016922,66.734,0.505,0.00084665,0.0068321,-0.0042635,0,0.21102,0.13551,0
0,0.505,0.016925,66.719,0.505,0.00086167,0.0066815,-0.0044483,0,0.20664,0.14066,0
0,0.505,0.016923,66.722,0.505,0.00086474,0.0066506,-0.0044848,0,0.2057,0.1418,0
0,0.505,0.016921,66.736,0.505,0.00083402,0.0069537,-0.0041337,0,0.21435,0.13163,0
0,0.505,0.016922,66.731,0.505,0.00083894,0.006905,-0.0041843,0,0.21305,0.1331,0
0,0.505,0.016923,66.731,0.505,0.00085632,0.0067339,-0.0043819,0,0.20827,0.13874,0
0,0.505,0.016933,66.594,0.505,-0.00033964,-5.358e-05,-0.0072022,0,-0.04733,0.22808,0
0,0.505,0.016934,66.601,0.505,-0.00035231,-9.6751e-05,-0.0071866,0,-0.049045,0.22774,0
0,0.505,0.016936,66.583,0.505,-0.00029606,8.595e-05,-0.0072384,0,-0.041012,0.22904,0
0,0.505,0.016931,66.587,0.505,-0.00031292,3.1217e-05,-0.007231,0,-0.043487,0.22866,0
0,0.505,0.016937,66.599,0.505,-0.00046008,-0.00045363,-0.0070912,0,-0.064162,0.2246,0
0,0.505,0.016934,66.612,0.505,-0.00047715,-0.00051353,-0.007078,0,-0.066549,0.22406,0
0,0.505,0.016944,66.604,0.505,-0.00049581,-0.00058554,-0.0070617,0,-0.069158,0.22345,0
0,0.505,0.016935,66.603,0.505,-0.00045219,-0.00042436,-0.0070998,0,-0.06305,0.22483,0
0,0.505,0.016932,66.605,0.505,-0.00057726,-0.00082824,-0.0070122,0,-0.081339,0.22004,0
0,0.505,0.01693,66.608,0.505,-0.000642,-0.0010765,-0.0069564,0,-0.090724,0.21704,0
0,0.505,0.016946,66.608,0.505,-0.00050424,-0.0006165,-0.0070538,0,-0.07036,0.22317,0
0,0.505,0.016945,66.597,0.505,0.00019067,0.0021604,-0.0070035,0,0.026738,0.23093,0
0,0.505,0.016946,66.595,0.505,0.00018665,0.0021398,-0.0070038,0,0.026158,0.23099,0
0,0.505,0.016901,66.805,0.505,-0.00081435,-0.0074658,-0.0021228,0,-0.25117,0.074996,0
0,0.505,0.0169,66.805,0.505,-0.00080787,-0.0075237,-0.0021385,0,-0.25165,0.074008,0
0,0.505,0.016899,66.805,0.505,-0.00078917,-0.0076886,-0.0021978,0,-0.25302,0.071116,0
0,0.505,0.016899,66.804,0.505,-0.00078236,-0.007746,-0.0022185,0,-0.25349,0.07011,0
0,0.505,0.016895,66.81,0.505,-0.0007647,-0.0078901,-0.0022875,0,-0.2547,0.06747,0
0,0.505,0.016895,66.806,0.505,-0.00075192,-0.0079995,-0.0023329,0,-0.25554,0.065633,0
0,0.505,0.016903,66.804,0.505,-0.00086484,-0.0069875,-0.0020007,0,-0.24709,0.083171,0
0,0.505,0.016902,66.808,0.505,-0.00085184,-0.0071112,-0.0020208,0,-0.24821,0.081028,0
0,0.505,0.016901,66.806,0.505,-0.00083973,-0.0072268,-0.0020551,0,-0.24922,0.079028,0
0,0.505,0.0169,66.808,0.505,-0.0008304,-0.007312,-0.0020744,0,-0.24995,0.07755,0
0,0.505,0.016909,66.792,0.505,-0.00091156,-0.0065126,-0.0019649,0,-0.24258,0.091421,0
0,0.505,0.016908,66.791,0.505,-0.00090756,-0.0065554,-0.0019653,0,-0.24299,0.090688,0
0,0.505,0.016903,66.805,0.505,-0.00087259,-0.0069105,-0.0019837,0,-0.24639,0.084503,0
0,0.505,0.016905,66.798,0.505,-0.00089257,-0.0067115,-0.0019644,0,-0.24451,0.087971,0
0,0.505,0.016905,66.797,0.505,-0.00088929,-0.0067447,-0.0019692,0,-0.24483,0.087382,0
0,0.505,0.016889,66.8,0.505,-0.00068832,-0.0085444,-0.0025583,0,-0.2593,0.056834,0
0,0.505,0.016887,66.792,0.505,-0.0006705,-0.0086901,-0.0026101,0,-0.26024,0.054484,0
0,0.505,0.016918,66.719,0.505,-0.0010717,-0.0039976,-0.0034049,0,-0.20741,0.13984,0
0,0.505,0.01692,66.718,0.505,-0.001069,-0.0040943,-0.0032914,0,-0.2096,0.13715,0
0,0.505,0.016921,66.709,0.505,-0.0010736,-0.0039146,-0.003511,0,-0.20493,0.14231,0
0,0.505,0.01692,66.72,0.505,-0.0010686,-0.0041068,-0.0032741,0,-0.20991,0.1368,0
0,0.505,0.016928,66.654,0.505,-0.0010035,-0.0028369,-0.0053312,0,-0.15938,0.18213,0
0,0.505,0.016928,66.651,0.505,-0.0010071,-0.0028614,-0.0052948,0,-0.16042,0.18137,0
0,0.505,0.016931,66.649,0.505,-0.0010226,-0.0029696,-0.0051144,0,-0.16537,0.17791,0
0,0.505,0.01693,66.652,0.505,-0.0010244,-0.0029815,-0.0050905,0,-0.16601,0.17746,0
0,0.505,0.016931,66.648,0.505,-0.0010277,-0.0030036,-0.0050465,0,-0.16723,0.1766,0
0,0.505,0.016922,66.654,0.505,-0.0010333,-0.0030385,-0.0049738,0,-0.16929,0.17511,0
0,0.505,0.016922,66.654,0.505,-0.0010353,-0.0030532,-0.0049467,0,-0.17009,0.17448,0
0,0.505,0.016927,66.673,0.505,-0.0010524,-0.0032143,-0.0046589,0,-0.17746,0.16843,0
0,0.505,0.016927,66.68,0.505,-0.0010559,-0.0032531,-0.004592,0,-0.17928,0.16703,0
0,0.505,0.016925,66.667,0.505,-0.0010608,-0.0033064,-0.0044938,0,-0.18206,0.16481,0
0,0.505,0.016923,66.668,0.505,-0.0010612,-0.0033109,-0.0044858,0,-0.1823,0.1646,0
0,0.505,0.016923,66.667,0.505,-0.0010617,-0.0033171,-0.0044755,0,-0.1826,0.16435,0
0,0.505,0.016924,66.657,0.505,-0.001015,-0.0029128,-0.0051999,0,-0.1629,0.17962,0
0,0.505,0.016698,66.67,0.505,-0.000245,-0.0035772,-0.00023527,0,-0.27484,0.0033532,0
0,0.505,0.016788,66.612,0.505,-0.00035192,-0.0097155,-0.0018417,0,-0.27178,0.018438,0
0,0.505,0.01677,66.604,0.505,-0.00032425,-0.0091982,-0.0015222,0,-0.27253,0.015381,0
0,0.505,0.016705,66.661,0.505,-0.00024646,-0.003963,-0.00027079,0,-0.27475,0.0040183,0
0,0.505,0.01693,66.636,0.505,-0.000899,-0.0022188,-0.0061701,0,-0.13437,0.19751,0
0,0.505,0.01694,66.632,0.505,-0.00091634,-0.0023282,-0.0060548,0,-0.1379,0.19554,0
0,0.505,0.01694,66.632,0.505,-0.00091785,-0.0023374,-0.0060449,0,-0.1382,0.19536,0
0,0.505,0.016939,66.629,0.505,-0.00092052,-0.0023519,-0.0060309,0,-0.13876,0.19507,0
0,0.505,0.01693,66.623,0.505,-0.00095203,-0.0025146,-0.0058169,0,-0.14605,0.19103,0
0,0.505,0.016928,66.635,0.505,-0.00096191,-0.0025699,-0.0057228,0,-0.14842,0.18944,0
0,0.505,0.016933,66.633,0.505,-0.00093449,-0.0024264,-0.0059457,0,-0.14177,0.19351,0
0,0.505,0.016935,66.638,0.505,-0.00097685,-0.0026652,-0.0055838,0,-0.15207,0.1871,0
0,0.505,0.016935,66.637,0.505,-0.00097908,-0.0026782,-0.0055643,0,-0.15268,0.18672,0
0,0.505,0.016932,66.648,0.505,-0.00099109,-0.0027503,-0.0054557,0,-0.15589,0.18465,0
0,0.505,0.016932,66.645,0.505,-0.0009991,-0.0028068,-0.0053759,0,-0.15811,0.18307,0
0,0.505,0.016935,66.634,0.505,-0.00097422,-0.0026499,-0.0056093,0,-0.15142,0.18753,0
0,0.505,0.016921,66.684,0.505,-0.0010656,-0.003367,-0.0043672,0,-0.18523,0.16188,0
0,0.505,0.016933,66.622,0.505,-0.0009442,-0.0024731,-0.0058768,0,-0.14413,0.1922,0
0,0.505,0.016927,66.623,0.505,-0.00094836,-0.0024912,-0.0058503,0,-0.14512,0.19159,0
0,0.505,0.016885,66.794,0.505,-0.0006611,-0.0087693,-0.0026368,0,-0.26075,0.053241,0
0,0.505,0.016882,66.79,0.505,-0.00065127,-0.0088488,-0.0026633,0,-0.26122,0.051991,0
0,0.505,0.016876,66.792,0.505,-0.00063352,-0.0089826,-0.0027012,0,-0.26207,0.049746,0
0,0.505,0.016874,66.783,0.505,-0.00061389,-0.0091414,-0.0027507,0,-0.2629,0.047359,0
0,0.505,0.01672,66.609,0.505,-0.00026891,-0.0067196,-0.00071167,0,-0.27399,0.0082993,0
0,0.505,0.016707,66.65,0.505,-0.00025012,-0.0044024,-0.00034102,0,-0.27461,0.0046961,0
0,0.505,0.016844,66.709,0.505,-0.00048308,-0.010034,-0.0026714,0,-0.268,0.032306,0
0,0.505,0.016834,66.691,0.505,-0.00046024,-0.010116,-0.0025901,0,-0.26873,0.029865,0
0,0.505,0.01682,66.669,0.505,-0.00041965,-0.010151,-0.0023843,0,-0.26996,0.025574,0
0,0.505,0.016818,66.656,0.505,-0.00040801,-0.010138,-0.0023128,0,-0.27026,0.024372,0
0,0.505,0.016791,66.615,0.505,-0.00035566,-0.0097731,-0.0018787,0,-0.27169,0.018835,0
0,0.505,0.016809,66.645,0.505,-0.00038768,-0.010054,-0.0021583,0,-0.27082,0.022227,0
0,0.505,0.016794,66.616,0.505,-0.00036002,-0.0098063,-0.0019184,0,-0.27157,0.019291,0
0,0.505,0.016831,66.687,0.505,-0.00045124,-0.010131,-0.0025505,0,-0.269,0.028902,0
0,0.505,0.016827,66.673,0.505,-0.00043707,-0.010136,-0.0024797,0,-0.26943,0.027402,0
0,0.505,0.016746,66.59,0.505,-0.00029112,-0.008056,-0.0010808,0,-0.27337,0.011425,0
0,0.505,0.016752,66.589,0.505,-0.00029795,-0.0083399,-0.0011757,0,-0.27321,0.012261,0
0,0.505,0.01675,66.59,0.505,-0.00029462,-0.0082424,-0.0011322,0,-0.2733,0.01188,0
0,0.505,0.016705,66.657,0.505,-0.00024745,-0.0041236,-0.00029062,0,-0.2747,0.004228,0
0,0.505,0.016861,66.717,0.505,-0.00051089,-0.0099071,-0.0027519,0,-0.26707,0.035391,0
0,0.505,0.016867,66.723,0.505,-0.00052344,-0.0098263,-0.0027732,0,-0.26662,0.036807,0
0,0.505,0.016863,66.72,0.505,-0.00051517,-0.0098801,-0.002761,0,-0.26693,0.035862,0
0,0.505,0.016872,66.785,0.505,-0.00060593,-0.0092036,-0.002767,0,-0.26325,0.046379,0
0,0.505,0.016907,66.785,0.505,-0.00095409,-0.0060109,-0.0020267,0,-0.23749,0.099791,0
0,0.505,0.016906,66.789,0.505,-0.00094685,-0.0060986,-0.0020061,0,-0.23842,0.098287,0
0,0.505,0.016906,66.791,0.505,-0.00093354,-0.006254,-0.0019851,0,-0.24006,0.095595,0
0,0.505,0.016906,66.793,0.505,-0.00092954,-0.0063012,-0.0019781,0,-0.24053,0.094818,0
0,0.505,0.016915,66.762,0.505,-0.0010178,-0.0051296,-0.0023961,0,-0.22726,0.11527,0
0,0.505,0.016912,66.767,0.505,-0.0010162,-0.0051526,-0.0023788,0,-0.2276,0.11481,0
0,0.505,0.016913,66.764,0.505,-0.0010143,-0.0051823,-0.002364,0,-0.22794,0.11428,0
0,0.505,0.016911,66.777,0.505,-0.0010039,-0.005341,-0.0022761,0,-0.22981,0.11154,0
0,0.505,0.016913,66.77,0.505,-0.00099501,-0.0054733,-0.0022158,0,-0.2314,0.10921,0
0,0.505,0.016896,66.809,0.505,-0.00074021,-0.0081025,-0.0023793,0,-0.2563,0.063961,0
0,0.505,0.016895,66.799,0.505,-0.00071582,-0.008316,-0.0024688,0,-0.25777,0.060556,0
0,0.505,0.016895,66.799,0.505,-0.00071466,-0.0083263,-0.0024732,0,-0.25784,0.060392,0
0,0.505,0.016894,66.798,0.505,-0.00071254,-0.0083451,-0.0024812,0,-0.25795,0.060102,0
0,0.505,0.016909,66.791,0.505,-0.00091245,-0.0065028,-0.0019658,0,-0.24248,0.091582,0
0,0.505,0.016912,66.776,0.505,-0.00097502,-0.0057491,-0.002103,0,-0.23459,0.10439,0
0,0.505,0.016909,66.786,0.505,-0.00096309,-0.0059016,-0.0020516,0,-0.23628,0.10175,0
0,0.505,0.016912,66.773,0.505,-0.00099158,-0.005523,-0.0021926,0,-0.23198,0.10835,0
0,0.505,0.016913,66.77,0.505,-0.00098426,-0.0056262,-0.0021511,0,-0.23316,0.10656,0
0,0.505,0.016874,66.781,0.505,-0.00060023,-0.0092598,-0.0027785,0,-0.26348,0.045698,0
0,0.505,0.016879,66.77,0.505,-0.00057715,-0.0094448,-0.0028026,0,-0.26448,0.043014,0
0,0.505,0.01688,66.75,0.505,-0.00055691,-0.0096152,-0.0028101,0,-0.26532,0.040659,0
0,0.505,0.016875,66.743,0.505,-0.0005468,-0.0096777,-0.0028027,0,-0.26578,0.039491,0
0,0.505,0.016935,66.597,0.505,-0.00013872,0.00068852,-0.0072796,0,-0.019532,0.23148,0
0,0.505,0.016938,66.59,0.505,-0.00015394,0.0006263,-0.0072821,0,-0.021617,0.23133,0
0,0.505,0.016936,66.595,0.505,-0.00016487,0.00058285,-0.0072833,0,-0.023102,0.23123,0
0,0.505,0.01694,66.589,0.505,-0.00021607,0.00038081,-0.0072722,0,-0.030088,0.23054,0
0,0.505,0.016941,66.588,0.505,-0.00021841,0.00037162,-0.0072714,0,-0.030409,0.23051,0
0,0.505,0.016937,66.599,0.505,-0.00024108,0.00028476,-0.007262,0,-0.033496,0.23015,0
0,0.505,0.016941,66.59,0.505,-0.00025626,0.00022616,-0.0072549,0,-0.035556,0.22988,0
0,0.505,0.016938,66.593,0.505,-0.00026535,0.00019231,-0.0072516,0,-0.036801,0.2297,0
0,0.505,0.016943,66.608,0.505,-0.00038093,-0.00020647,-0.00715,0,-0.052898,0.22704,0
0,0.505,0.016938,66.595,0.505,-0.00039553,-0.00025305,-0.0071525,0,-0.054837,0.22665,0
0,0.505,0.016922,66.708,0.505,-0.0010741,-0.0038937,-0.0035397,0,-0.20429,0.143,0
0,0.505,0.016922,66.71,0.505,-0.0010742,-0.0038849,-0.0035514,0,-0.204,0.14331,0
0,0.505,0.016918,66.742,0.505,-0.0010589,-0.0043593,-0.0029966,0,-0.21514,0.13074,0
0,0.505,0.016918,66.745,0.505,-0.0010558,-0.0044264,-0.0029319,0,-0.21639,0.12929,0
0,0.505,0.016931,66.657,0.505,-0.0010441,-0.0031289,-0.0048012,0,-0.17362,0.1716,0
0,0.505,0.016926,66.667,0.505,-0.0010495,-0.0031833,-0.0047153,0,-0.17609,0.16957,0
0,0.505,0.016925,66.699,0.505,-0.0010754,-0.0036498,-0.003893,0,-0.19671,0.15113,0
0,0.505,0.016924,66.705,0.505,-0.0010756,-0.0036695,-0.0038583,0,-0.19748,0.15037,0
0,0.505,0.016924,66.688,0.505,-0.0010728,-0.0035197,-0.0040972,0,-0.19177,0.15565,0
0,0.505,0.016927,66.68,0.505,-0.0010692,-0.0034347,-0.0042513,0,-0.18793,0.15921,0
0,0.505,0.016927,66.681,0.505,-0.0010696,-0.0034412,-0.0042384,0,-0.18824,0.15894,0
0,0.505,0.016927,66.681,0.505,-0.0010698,-0.0034451,-0.0042307,0,-0.18842,0.15875,0
0,0.505,0.016926,66.681,0.505,-0.0010709,-0.003472,-0.0041829,0,-0.18962,0.15763,0
0,0.505,0.016918,66.735,0.505,-0.0010624,-0.0042726,-0.0030838,0,-0.21351,0.13275,0
0,0.505,0.016916,66.75,0.505,-0.0010479,-0.0045892,-0.0027844,0,-0.21934,0.12594,0
0,0.505,0.016913,66.753,0.505,-0.0010446,-0.004654,-0.0027305,0,-0.22059,0.12451,0
0,0.505,0.016914,66.753,0.505,-0.0010409,-0.0047289,-0.0026778,0,-0.22153,0.12294,0
0,0.505,0.01692,66.75,0.505,-0.0010361,-0.0048233,-0.0026071,0,-0.22286,0.12125,0
0,0.505,0.016918,66.746,0.505,-0.0010524,-0.0045058,-0.0028626,0,-0.21784,0.12778,0
0,0.505,0.01692,66.72,0.505,-0.0010683,-0.0041139,-0.0032655,0,-0.21006,0.13662,0
0,0.505,0.016918,66.734,0.505,-0.0010643,-0.0042266,-0.0031355,0,-0.21252,0.13396,0
0,0.505,0.016921,66.749,0.505,-0.0010314,-0.0049099,-0.0025451,0,-0.22413,0.11962,0
0,0.505,0.016918,66.758,0.505,-0.0010274,-0.0049757,-0.0024936,0,-0.22517,0.11815,0
0,0.505,0.016911,66.777,0.505,-0.00097811,-0.0057086,-0.0021147,0,-0.23414,0.1051,0
0,0.505,0.016938,66.592,0.505,-0.00017189,0.00055569,-0.0072819,0,-0.024052,0.23114,0
0,0.505,0.016935,66.6,0.505,-0.00019085,0.00048015,-0.0072786,0,-0.026646,0.2309,0
0,0.505,0.016937,66.593,0.505,-0.00012907,0.00072769,-0.007277,0,-0.018207,0.23157,0
0,0.505,0.016939,66.591,0.505,-4.3637e-05,0.0011047,-0.0072202,0,-0.0065003,0.23213,0
0,0.505,0.016945,66.604,0.505,-6.1243e-05,0.0010241,-0.0072129,0,-0.0089501,0.23204,0
0,0.505,0.016938,66.594,0.505,-3.5937e-05,0.0011377,-0.0072186,0,-0.0054475,0.23217,0
0,0.505,0.016935,66.593,0.505,-1.0781e-05,0.0012346,-0.0071984,0,-0.0019646,0.23222,0
0,0.505,0.016941,66.588,0.505,-2.3294e-05,0.0011875,-0.0072075,0,-0.0037105,0.23219,0
0,0.505,0.016946,66.592,0.505,-4.4152e-06,0.0012626,-0.0071843,0,-0.0011055,0.23217,0
0,0.505,0.01694,66.597,0.505,5.6253e-05,0.0015407,-0.0071217,0,0.0075403,0.23205,0
0,0.505,0.016913,66.592,0.505,3.6523e-05,0.0014517,-0.007164,0,0.0047624,0.23214,0
0,0.505,0.01693,66.609,0.505,0.00042711,0.0031628,-0.0069916,0,0.062906,0.22499,0
0,0.505,0.016932,66.596,0.505,0.00040985,0.0030899,-0.0069985,0,0.06017,0.2256,0
0,0.505,0.016929,66.596,0.505,0.0004712,0.0033575,-0.0070008,0,0.069955,0.22335,0
0,0.505,0.016929,66.597,0.505,0.00047059,0.0033549,-0.0070013,0,0.069854,0.22338,0
0,0.505,0.016928,66.604,0.505,0.00057092,0.0037595,-0.0069524,0,0.086843,0.21817,0
0,0.505,0.01693,66.606,0.505,0.0005582,0.0037157,-0.0069573,0,0.084509,0.21896,0
0,0.505,0.01693,66.597,0.505,0.00040523,0.0030698,-0.0070008,0,0.059429,0.22576,0
0,0.505,0.016931,66.595,0.505,0.00040171,0.0030552,-0.0069997,0,0.058866,0.22589,0
0,0.505,0.016931,66.604,0.505,0.00038313,0.0029829,-0.0069946,0,0.055936,0.22652,0
0,0.505,0.016934,66.598,0.505,0.00052622,0.0035839,-0.0069776,0,0.079222,0.22075,0
0,0.505,0.016932,66.598,0.505,0.00051493,0.0035382,-0.0069837,0,0.077267,0.22138,0
0,0.505,0.016938,66.599,0.505,0.000506,0.0035032,-0.0069799,0,0.07573,0.2218,0
0,0.505,0.016929,66.596,0.505,0.00046929,0.0033497,-0.0070006,0,0.069646,0.22342,0
0,0.505,0.016937,66.61,0.505,0.00044886,0.0032646,-0.0069854,0,0.066321,0.22409,0
0,0.505,0.016931,66.606,0.505,0.00053641,0.0036224,-0.0069749,0,0.080944,0.22019,0
0,0.505,0.016937,66.591,0.505,0.00036211,0.0028963,-0.0069898,0,0.05265,0.22717,0
0,0.505,0.016936,66.592,0.505,0.00036097,0.0028916,-0.0069897,0,0.052473,0.22721,0
0,0.505,0.016937,66.591,0.505,0.00035954,0.0028857,-0.0069895,0,0.052254,0.22725,0
0,0.505,0.016933,66.602,0.505,0.00033856,0.0027963,-0.0069866,0,0.049006,0.22785,0
0,0.505,0.016935,66.595,0.505,0.00031626,0.0027011,-0.0069871,0,0.045579,0.22846,0
0,0.505,0.016936,66.591,0.505,0.00030924,0.0026716,-0.0069873,0,0.044524,0.22862,0
0,0.505,0.01693,66.608,0.505,0.00016548,0.0020325,-0.007033,0,0.023164,0.2312,0
0,0.505,0.016918,66.599,0.505,0.00014977,0.001963,-0.0070635,0,0.020891,0.23159,0
0,0.505,0.016942,66.608,0.505,0.00011856,0.0018213,-0.0070562,0,0.01614,0.2317,0
0,0.505,0.016935,66.594,0.505,0.00010048,0.0017385,-0.0070793,0,0.013666,0.23176,0
0,0.505,0.016926,66.595,0.505,9.2034e-05,0.0017018,-0.0070914,0,0.012549,0.2318,0
0,0.505,0.016927,66.597,0.505,0.00013245,0.0018791,-0.0070664,0,0.018165,0.23178,0
0,0.505,0.016937,66.592,0.505,8.1442e-05,0.0016539,-0.0070988,0,0.011064,0.23185,0
0,0.505,0.016942,66.601,0.505,6.4653e-05,0.0015737,-0.0071122,0,0.0086818,0.23196,0
0,0.505,0.016899,66.597,0.505,0.00014187,0.0019224,-0.0070846,0,0.019645,0.23172,0
0,0.505,0.016947,66.6,0.505,1.422e-05,0.0013528,-0.0071614,0,0.0014194,0.23214,0
0,0.505,0.016918,66.592,0.505,3.0148e-05,0.0014254,-0.00717,0,0.0038381,0.23216,0
0,0.505,0.016935,66.593,0.505,-8.6136e-05,0.00090521,-0.0072484,0,-0.01236,0.23191,0
0,0.505,0.016936,66.592,0.505,0.00032192,0.0027251,-0.0069869,0,0.046445,0.2283,0
0,0.505,0.016934,66.599,0.505,0.00029372,0.0026053,-0.0069867,0,0.042164,0.22899,0
0,0.505,0.016939,66.593,0.505,0.00028218,0.0025534,-0.0069875,0,0.040412,0.22928,0
0,0.505,0.016933,66.595,0.505,0.00021666,0.002275,-0.0070103,0,0.030498,0.23052,0
0,0.505,0.016945,66.592,0.505,0.00019881,0.0021977,-0.0070029,0,0.02793,0.23081,0
0,0.505,0.016934,66.587,0.505,0.0002483,0.0024002,-0.0070038,0,0.035354,0.23006,0
0,0.505,0.016933,66.586,0.505,0.00024575,0.0023891,-0.0070063,0,0.03495,0.23013,0
0,0.505,0.016936,66.598,0.505,0.00027132,0.002503,-0.0069914,0,0.038791,0.22956,0
0,0.505,0.016937,66.586,0.505,0.00025351,0.0024237,-0.0070004,0,0.036127,0.22996,0
0,0.505,0.01693,66.591,0.505,0.00022311,0.0023022,-0.0070139,0,0.031493,0.23045,0
0,0.505,0.016936,66.604,0.505,0.00043916,0.003219,-0.0069881,0,0.064804,0.22448,0
0,0.505,0.016935,66.618,0.505,0.00061354,0.0039605,-0.0069133,0,0.094457,0.21572,0
0,0.505,0.016932,66.617,0.505,0.00060015,0.0038899,-0.0069318,0,0.092115,0.21653,0
0,0.505,0.016932,66.616,0.505,0.00063849,0.0040723,-0.0068882,0,0.099039,0.21394,0
0,0.505,0.016933,66.615,0.505,0.00063453,0.0040543,-0.006891,0,0.098295,0.21424,0
0,0.505,0.016933,66.6,0.505,0.00054373,0.0036538,-0.0069675,0,0.082136,0.21977,0
0,0.505,0.016939,66.607,0.505,0.00049298,0.0034494,-0.0069805,0,0.073547,0.22236,0
0,0.505,0.016934,66.62,0.505,0.00061985,0.0039896,-0.0069074,0,0.095617,0.21529,0
0,0.505,0.016931,66.614,0.505,0.00065669,0.0041502,-0.0068705,0,0.10246,0.2126,0
0,0.505,0.016932,66.613,0.505,0.00065505,0.0041425,-0.0068723,0,0.10215,0.21273,0
0,0.505,0.016883,66.773,0.505,0.00033228,0.011002,-0.003413,0,0.25906,0.057836,0
0,0.505,0.016888,66.782,0.505,0.00036248,0.010811,-0.0033602,0,0.25765,0.06107,0
0,0.505,0.016891,66.781,0.505,0.00037886,0.01071,-0.0033371,0,0.25691,0.06282,0
0,0.505,0.016893,66.786,0.505,0.00039679,0.010589,-0.0033018,0,0.25606,0.064794,0
0,0.505,0.016906,66.787,0.505,0.00056389,0.0094242,-0.0030963,0,0.24646,0.084623,0
0,0.505,0.016906,66.79,0.505,0.00057738,0.009318,-0.003101,0,0.24557,0.086422,0
0,0.505,0.016903,66.79,0.505,0.0005472,0.0095479,-0.0031042,0,0.24761,0.082401,0
0,0.505,0.016909,66.779,0.505,0.00066865,0.0085599,-0.0032006,0,0.23797,0.099108,0
0,0.505,0.016909,66.781,0.505,0.00068012,0.0084562,-0.0032241,0,0.23689,0.10089,0
0,0.505,0.016911,66.775,0.505,0.00069478,0.0083252,-0.0032686,0,0.23541,0.10321,0
0,0.505,0.016911,66.776,0.505,0.00070071,0.0082729,-0.0032847,0,0.23481,0.10416,0
0,0.505,0.016902,66.782,0.505,0.00064118,0.0087943,-0.0031445,0,0.24047,0.094961,0
0,0.505,0.016908,66.783,0.505,0.00065796,0.0086541,-0.0031749,0,0.23896,0.097495,0
0,0.505,0.016901,66.789,0.505,0.00061035,0.00904,-0.0031154,0,0.24303,0.090765,0
0,0.505,0.016901,66.785,0.505,0.0006339,0.0088557,-0.0031319,0,0.24111,0.093928,0
0,0.505,0.016831,66.674,0.505,6.3252e-05,0.01236,-0.0032534,0,0.2679,0.032306,0
0,0.505,0.01684,66.691,0.505,8.9528e-05,0.012313,-0.0033409,0,0.26735,0.034544,0
0,0.505,0.016757,66.569,0.505,-9.7256e-05,0.011688,-0.0021784,0,0.27185,0.018449,0
0,0.505,0.016758,66.57,0.505,-9.5325e-05,0.011724,-0.0021997,0,0.27181,0.018621,0
0,0.505,0.016801,66.585,0.505,-4.5589e-05,0.012276,-0.0026418,0,0.27063,0.02281,0
0,0.505,0.016828,66.613,0.505,-1.5752e-05,0.012435,-0.0028598,0,0.26988,0.025596,0
0,0.505,0.016772,66.573,0.505,-7.8845e-05,0.011919,-0.0023503,0,0.27142,0.019993,0
0,0.505,0.016746,66.547,0.505,-0.00013854,0.010858,-0.0017204,0,0.27279,0.014785,0
0,0.505,0.016757,66.565,0.505,-0.00010051,0.011621,-0.0021439,0,0.27193,0.018157,0
0,0.505,0.016717,66.542,0.505,-0.00017518,0.0094309,-0.0011816,0,0.27356,0.010869,0
0,0.505,0.016722,66.542,0.505,-0.00016445,0.009805,-0.0013311,0,0.27335,0.011939,0
0,0.505,0.016848,66.703,0.505,0.00011421,0.012201,-0.0034036,0,0.26667,0.036733,0
0,0.505,0.016866,66.71,0.505,0.00014852,0.012075,-0.0034755,0,0.26562,0.039965,0
0,0.505,0.016869,66.714,0.505,0.00015746,0.012026,-0.0034817,0,0.26539,0.040797,0
0,0.505,0.016868,66.724,0.505,0.00018624,0.011871,-0.003512,0,0.26442,0.0435,0
0,0.505,0.0169,66.788,0.505,0.00047025,0.010098,-0.0031864,0,0.25222,0.073194,0
0,0.505,0.016896,66.795,0.505,0.0004962,0.0099114,-0.0031494,0,0.25074,0.076217,0
0,0.505,0.016887,66.77,0.505,0.00029071,0.011262,-0.0034619,0,0.2607,0.053806,0
0,0.505,0.016884,66.767,0.505,0.00031784,0.011093,-0.0034316,0,0.25964,0.0564,0
0,0.505,0.016882,66.773,0.505,0.00032768,0.011029,-0.0034189,0,0.25926,0.05737,0
0,0.505,0.016914,66.768,0.505,0.00073768,0.0079269,-0.0034374,0,0.23058,0.11048,0
0,0.505,0.016915,66.766,0.505,0.00074159,0.0078884,-0.0034571,0,0.23009,0.11119,0
0,0.505,0.016914,66.767,0.505,0.00071917,0.0081039,-0.003356,0,0.23279,0.10722,0
0,0.505,0.016914,66.767,0.505,0.0007199,0.0080973,-0.0033586,0,0.23271,0.10735,0
0,0.505,0.016914,66.769,0.505,0.00075444,0.0077623,-0.003523,0,0.22842,0.11358,0
0,0.505,0.016915,66.765,0.505,0.00072252,0.0080729,-0.0033708,0,0.2324,0.1078,0
0,0.505,0.016924,66.726,0.505,0.00085068,0.0067928,-0.0043153,0,0.20985,0.13682,0
0,0.505,0.016919,66.751,0.505,0.00081135,0.007188,-0.0039209,0,0.21931,0.12572,0
0,0.505,0.016922,66.735,0.505,0.00082986,0.0069988,-0.0040943,0,0.21535,0.13046,0
0,0.505,0.016659,66.653,0.505,-0.0002253,0.0043789,-0.00025306,0,0.27512,0.0037,0
0,0.505,0.016668,66.622,0.505,-0.00021805,0.0053745,-0.00039588,0,0.2749,0.0048649,0
0,0.505,0.016795,66.584,0.505,-5.1006e-05,0.012247,-0.0025992,0,0.27077,0.022306,0
0,0.505,0.016897,66.794,0.505,0.00051287,0.0097938,-0.0031337,0,0.24977,0.07817,0
0,0.505,0.016901,66.791,0.505,0.00053105,0.0096641,-0.0031122,0,0.24867,0.080386,0
0,0.505,0.016899,66.788,0.505,0.00046331,0.010145,-0.0031929,0,0.25258,0.072382,0
0,0.505,0.016899,66.783,0.505,0.00044437,0.010276,-0.0032242,0,0.25361,0.070184,0
0,0.505,0.016899,66.761,0.505,0.00028146,0.011331,-0.0034813,0,0.26104,0.052847,0
0,0.505,0.016889,66.752,0.505,0.00025506,0.011482,-0.0035088,0,0.26208,0.049935,0
0,0.505,0.016866,66.734,0.505,0.00020281,0.011782,-0.0035267,0,0.26388,0.045062,0
0,0.505,0.016867,66.736,0.505,0.00020647,0.011765,-0.0035284,0,0.26374,0.045388,0
0,0.505,0.016877,66.754,0.505,0.00024829,0.011517,-0.0035145,0,0.26236,0.049188,0
0,0.505,0.016871,66.739,0.505,0.00022114,0.011682,-0.0035261,0,0.26325,0.046701,0
0,0.505,0.016821,66.635,0.505,1.2474e-05,0.012418,-0.003017,0,0.26913,0.028074,0
0,0.505,0.016826,66.654,0.505,3.2701e-05,0.012444,-0.0031342,0,0.26866,0.029835,0
0,0.505,0.016651,66.68,0.505,-0.00022955,0.0032985,-0.00015929,0,0.2752,0.0020089,0
0,0.505,0.016678,66.574,0.505,-0.00020516,0.007319,-0.00066409,0,0.27435,0.0072467,0
0,0.505,0.016701,66.549,0.505,-0.00018655,0.0086706,-0.00099796,0,0.27388,0.009497,0
0,0.505,0.016898,66.785,0.505,0.00043046,0.010369,-0.0032458,0,0.25438,0.068559,0
0,0.505,0.0169,66.788,0.505,0.00060111,0.0091174,-0.0031093,0,0.24378,0.089523,0
0,0.505,0.0169,66.791,0.505,0.00060623,0.0090736,-0.0031115,0,0.24336,0.090227,0
0,0.505,0.016926,66.65,0.505,0.00088545,0.0058071,-0.0056541,0,0.16553,0.17759,0
0,0.505,0.016924,66.653,0.505,0.00088406,0.0057818,-0.0056869,0,0.16442,0.17843,0
0,0.505,0.016924,66.661,0.505,0.00089279,0.005965,-0.0054521,0,0.17255,0.17249,0
0,0.505,0.016922,66.668,0.505,0.00089091,0.0059119,-0.0055146,0,0.17023,0.17425,0
0,0.505,0.016924,66.681,0.505,0.00089492,0.0060465,-0.0053504,0,0.17601,0.16982,0
0,0.505,0.016924,66.664,0.505,0.00089349,0.0059864,-0.0054272,0,0.17347,0.17182,0
0,0.505,0.016926,66.656,0.505,0.00088899,0.0058738,-0.0055685,0,0.16844,0.17551,0
0,0.505,0.016927,66.661,0.505,0.0008731,0.0056108,-0.0058614,0,0.15839,0.18274,0
0,0.505,0.016926,66.661,0.505,0.00087089,0.0055765,-0.0058948,0,0.15738,0.18349,0
0,0.505,0.016924,66.653,0.505,0.00088339,0.0057709,-0.0057019,0,0.16395,0.17876,0
0,0.505,0.016929,66.661,0.505,0.00087936,0.0057125,-0.0057637,0,0.16152,0.18056,0
0,0.505,0.016925,66.658,0.505,0.00088772,0.005848,-0.0055982,0,0.16737,0.17628,0
0,0.505,0.016924,66.643,0.505,0.00086523,0.0054982,-0.0059822,0,0.15476,0.18521,0
0,0.505,0.016928,66.64,0.505,0.00086003,0.0054447,-0.0060427,0,0.15247,0.18678,0
0,0.505,0.016929,66.641,0.505,0.00085814,0.0054253,-0.0060646,0,0.15165,0.18734,0
0,0.505,0.016929,66.648,0.505,0.00085054,0.0053457,-0.0061393,0,0.14886,0.18914,0
0,0.505,0.01692,66.696,0.505,0.0008927,0.0063032,-0.0049923,0,0.18922,0.15824,0
0,0.505,0.016923,66.682,0.505,0.00089429,0.0062671,-0.0050578,0,0.18685,0.16047,0
0,0.505,0.016923,66.691,0.505,0.00089072,0.0063435,-0.0049343,0,0.19132,0.15626,0
0,0.505,0.016931,66.623,0.505,0.00070845,0.0043839,-0.0067956,0,0.11288,0.20835,0
0,0.505,0.016931,66.613,0.505,0.00069375,0.0043179,-0.0068215,0,0.10978,0.20974,0
0,0.505,0.016929,66.661,0.505,0.00087753,0.005683,-0.0057946,0,0.16049,0.18124,0
0,0.505,0.016927,66.644,0.505,0.00086676,0.0055203,-0.0059594,0,0.15549,0.18472,0
0,0.505,0.016929,66.641,0.505,0.00085847,0.0054285,-0.0060607,0,0.15178,0.18726,0
0,0.505,0.016934,66.635,0.505,0.0008229,0.0050825,-0.0063675,0,0.1402,0.19443,0
0,0.505,0.016934,66.633,0.505,0.00082154,0.0050706,-0.006378,0,0.13978,0.19468,0
0,0.505,0.016926,66.634,0.505,0.00081336,0.005003,-0.0064388,0,0.13735,0.19616,0
0,0.505,0.016936,66.631,0.505,0.00080483,0.0049475,-0.0064782,0,0.13489,0.19748,0
0,0.505,0.016936,66.632,0.505,0.00080253,0.0049324,-0.0064899,0,0.13424,0.19779,0
0,0.505,0.016938,66.628,0.505,0.00079037,0.0048543,-0.0065428,0,0.13114,0.1994,0
0,0.505,0.016938,66.628,0.505,0.00078954,0.0048492,-0.0065468,0,0.13093,0.19952,0
0,0.505,0.016927,66.607,0.505,0.00057902,0.0037951,-0.0069499,0,0.088314,0.21767,0
0,0.505,0.016928,66.616,0.505,0.0005928,0.0038539,-0.006942,0,0.090783,0.21697,0
0,0.505,0.016933,66.611,0.505,0.00067453,0.0042318,-0.006848,0,0.10591,0.21124,0
0,0.505,0.016931,66.613,0.505,0.00069224,0.0043116,-0.0068239,0,0.10947,0.20987,0
0,0.505,0.016933,66.611,0.505,0.00067463,0.0042323,-0.0068479,0,0.10593,0.21123,0
0,0.505,0.01693,66.62,0.505,0.00071481,0.0044171,-0.0067843,0,0.11416,0.20776,0
0,0.505,0.016933,66.611,0.505,0.00067592,0.0042381,-0.0068462,0,0.10619,0.21113,0
0,0.505,0.01693,66.63,0.505,0.00072382,0.004467,-0.0067632,0,0.11598,0.20683,0
0,0.505,0.016928,66.621,0.505,0.00073983,0.0045514,-0.0067229,0,0.11936,0.20509,0
0,0.505,0.016929,66.62,0.505,0.00073688,0.0045342,-0.0067289,0,0.11872,0.20539,0
0,0.505,0.016935,66.629,0.505,0.00075561,0.0046318,-0.0066775,0,0.12294,0.20339,0
0,0.505,0.01694,66.625,0.505,0.0007746,0.0047511,-0.0066118,0,0.12724,0.2014,0
0,0.505,0.016935,66.629,0.505,0.00075879,0.0046501,-0.0066687,0,0.12366,0.20305,0
0,0.505,0.01694,66.625,0.505,0.00078038,0.0047891,-0.006587,0,0.12866,0.20067,0
0,0.505,0.016929,66.647,0.505,0.00084819,0.0053211,-0.0061638,0,0.14805,0.18964,0
0,0.505,0.016928,66.652,0.505,0.00084187,0.0052552,-0.0062173,0,0.14592,0.19097,0
0,0.505,0.016924,66.665,0.505,0.0008932,0.0059779,-0.0054364,0,0.1731,0.17207,0
0,0.505,0.016921,66.674,0.505,0.00089612,0.0061472,-0.005227,0,0.18087,0.16574,0
0,0.505,0.016926,66.677,0.505,0.00089582,0.0061185,-0.0052623,0,0.17921,0.16719,0
0,0.505,0.016921,66.694,0.505,0.00089578,0.0062009,-0.0051503,0,0.1836,0.16336,0
0,0.505,0.016918,66.68,0.505,0.00089614,0.0061624,-0.0052018,0,0.18178,0.16491,0
0,0.505,0.016926,66.683,0.505,0.00089553,0.006082,-0.0053065,0,0.17749,0.16851,0
0,0.505,0.016924,66.682,0.505,0.00089477,0.0062499,-0.0050818,0,0.18595,0.16129,0
0,0.505,0.016923,66.694,0.505,0.00089006,0.006356,-0.0049165,0,0.19196,0.15565,0
0,0.505,0.016922,66.705,0.505,0.0008868,0.006406,-0.0048369,0,0.19468,0.15306,0
0,0.505,0.016924,66.693,0.505,0.00088922,0.0063709,-0.0048964,0,0.19272,0.15493,0
0,0.505,0.016923,66.683,0.505,0.00089454,0.0062581,-0.0050702,0,0.18634,0.16093,0
0,0.505,0.016925,66.715,0.505,0.00086679,0.0066319,-0.0045176,0,0.20489,0.14267,0
0,0.505,0.016923,66.719,0.505,0.00087168,0.0065804,-0.0045832,0,0.20288,0.14481,0
0,0.505,0.016924,66.704,0.505,0.00087974,0.0064936,-0.0047127,0,0.19901,0.14877,0
0,0.505,0.016923,66.707,0.505,0.00088256,0.0064579,-0.0047596,0,0.19738,0.1504,0
0,0.505,0.016925,66.709,0.505,0.00087576,0.0065367,-0.0046459,0,0.20102,0.14672,0
0,0.505,0.016923,66.711,0.505,0.00087772,0.0065161,-0.004676,0,0.20013,0.14765,0
0,0.505,0.016931,66.646,0.505,0.00083673,0.0052081,-0.0062576,0,0.14431,0.19197,0
0,0.505,0.01693,66.648,0.505,0.00083253,0.0051684,-0.0062888,0,0.143,0.19276,0
0,0.505,0.016935,66.635,0.505,0.00082362,0.0050892,-0.006362,0,0.14041,0.19431,0
0,0.505,0.016924,66.701,0.505,0.00088441,0.0064353,-0.0047932,0,0.19621,0.15154,0
0,0.505,0.016937,66.619,0.505,-0.00080586,-0.001748,-0.0065955,0,-0.11712,0.20645,0
0,0.505,0.016935,66.62,0.505,-0.00080969,-0.0017661,-0.0065837,0,-0.11778,0.20613,0
0,0.505,0.016934,66.627,0.505,-0.00089009,-0.0021633,-0.0062231,0,-0.13261,0.19851,0
0,0.505,0.016936,66.629,0.505,-0.00088242,-0.00212,-0.0062667,0,-0.13115,0.19942,0
0,0.505,0.016941,66.602,0.505,-0.00068375,-0.0012148,-0.0068854,0,-0.097373,0.21462,0
0,0.505,0.016927,66.609,0.505,-0.00074129,-0.0014557,-0.0067874,0,-0.10642,0.21089,0
0,0.505,0.016927,66.609,0.505,-0.00074684,-0.0014791,-0.0067759,0,-0.10732,0.21052,0
0,0.505,0.016927,66.62,0.505,-0.00076216,-0.001535,-0.0067316,0,-0.10986,0.20963,0
0,0.505,0.016932,66.62,0.505,-0.00076898,-0.0015678,-0.0067091,0,-0.11099,0.20919,0
0,0.505,0.016936,66.624,0.505,-0.00078294,-0.001638,-0.0066684,0,-0.11326,0.20826,0
0,0.505,0.016934,66.61,0.505,-0.0007155,-0.0013544,-0.0068419,0,-0.10211,0.21263,0
0,0.505,0.016939,66.626,0.505,-0.00084706,-0.0019539,-0.0064361,0,-0.12442,0.20295,0
0,0.505,0.016941,66.619,0.505,-0.00085828,-0.0020064,-0.0063848,0,-0.12653,0.20189,0
0,0.505,0.016898,66.784,0.505,0.00042499,0.010407,-0.003258,0,0.25465,0.067938,0
0,0.505,0.016941,66.597,0.505,-0.00053183,-0.00069893,-0.007054,0,-0.074205,0.22222,0
0,0.505,0.016944,66.604,0.505,-0.00050952,-0.00063224,-0.0070546,0,-0.071107,0.223,0
0,0.505,0.016938,66.585,0.505,-0.0002788,0.00014414,-0.0072478,0,-0.038621,0.2294,0
0,0.505,0.016934,66.589,0.505,-0.00028958,0.00010619,-0.0072429,0,-0.040068,0.2292,0
0,0.505,0.016941,66.589,0.505,-0.00021442,0.00038738,-0.0072726,0,-0.029861,0.23057,0
0,0.505,0.016928,66.591,0.505,-0.00032484,-8.9072e-07,-0.0072218,0,-0.045225,0.22838,0
0,0.505,0.016944,66.602,0.505,-0.00037098,-0.00016578,-0.0071594,0,-0.051579,0.22727,0
0,0.505,0.016926,66.599,0.505,-0.00040772,-0.000291,-0.0071585,0,-0.056489,0.2263,0
0,0.505,0.016918,66.592,0.505,-0.00042141,-0.00032796,-0.0071546,0,-0.058547,0.22582,0
0,0.505,0.016914,66.595,0.505,-0.00042986,-0.00034926,-0.0071486,0,-0.059811,0.22556,0
0,0.505,0.016923,66.594,0.505,-0.00044039,-0.00038282,-0.0071275,0,-0.061341,0.2252,0
0,0.505,0.016935,66.62,0.505,-0.00082868,-0.0018578,-0.0065138,0,-0.1211,0.20457,0
0,0.505,0.016936,66.618,0.505,-0.00083087,-0.0018689,-0.0065041,0,-0.1215,0.20438,0
0,0.505,0.016937,66.616,0.505,-0.00082258,-0.0018288,-0.0065365,0,-0.12004,0.20507,0
0,0.505,0.016925,66.613,0.505,-0.00072507,-0.0013963,-0.0068333,0,-0.10368,0.21203,0
0,0.505,0.016936,66.624,0.505,-0.00078992,-0.001671,-0.0066472,0,-0.11444,0.20774,0
0,0.505,0.016932,66.601,0.505,-0.00011253,0.00079449,-0.0072716,0,-0.015959,0.23173,0
0,0.505,0.016935,66.594,0.505,-8.672e-05,0.00090237,-0.0072494,0,-0.01244,0.23191,0
0,0.505,0.016935,66.593,0.505,-8.7641e-05,0.00089837,-0.0072505,0,-0.012567,0.2319,0
0,0.505,0.01694,66.625,0.505,0.00077511,0.0047544,-0.0066098,0,0.12737,0.20134,0
