"cvar","mu","phivar","pressure","rho","str","velocity:0","velocity:1","Label","Points:0","Points:1","Points:2"
0,0.505,0.016742,66.805,0.505,-0.00024211,-0.0010638,-2.9303e-05,0,-0.27533,0,0
0,0.505,0.016716,66.801,0.505,-0.00023996,0.0014029,-3.7021e-05,0,0.27528,0,0
0,0.505,0.01692,66.76,0.505,0.00050387,0.0041818,-0.0029309,0,0.19742,0.15025,0
0,0.505,0.016921,66.755,0.505,0.00050511,0.0041738,-0.0029535,0,0.19637,0.15129,0
0,0.505,0.016919,66.758,0.505,0.00050701,0.0041611,-0.0029881,0,0.19472,0.15292,0
0,0.505,0.016918,66.748,0.505,0.00051172,0.0041245,-0.0031017,0,0.18925,0.15811,0
0,0.505,0.016921,66.735,0.505,0.00051329,0.0041154,-0.0031524,0,0.18669,0.16052,0
0,0.505,0.01692,66.747,0.505,0.00050959,0.0041435,-0.0030472,0,0.19199,0.15552,0
0,0.505,0.016921,66.744,0.505,0.00051,0.00414,-0.0030572,0,0.19151,0.15599,0
0,0.505,0.016921,66.745,0.505,0.00050908,0.0041481,-0.003036,0,0.19259,0.15496,0
0,0.505,0.016921,66.736,0.505,0.00051345,0.0041136,-0.0031579,0,0.18636,0.16081,0
0,0.505,0.016922,66.734,0.505,0.00051359,0.0041116,-0.0031633,0,0.1861,0.16105,0
0,0.505,0.016918,66.747,0.505,0.00051473,0.0040894,-0.0032157,0,0.18359,0.16325,0
0,0.505,0.016918,66.727,0.505,0.00051549,0.0040671,-0.0032721,0,0.18077,0.16572,0
0,0.505,0.016923,66.73,0.505,0.00051556,0.0040581,-0.0032921,0,0.17927,0.16703,0
0,0.505,0.016916,66.734,0.505,0.00051529,0.0040732,-0.0032508,0,0.18185,0.16473,0
0,0.505,0.016924,66.735,0.505,0.0005157,0.004041,-0.0033236,0,0.17742,0.16845,0
0,0.505,0.016932,66.648,0.505,0.00016696,0.0021051,-0.0042831,0,0.045412,0.22832,0
0,0.505,0.016934,66.642,0.505,0.00016015,0.0020752,-0.004282,0,0.043711,0.22859,0
0,0.505,0.016933,66.647,0.505,0.00019388,0.0022218,-0.0042953,0,0.05231,0.22708,0
0,0.505,0.016934,66.643,0.505,0.00019044,0.0022073,-0.0042935,0,0.051435,0.22724,0
0,0.505,0.016933,66.642,0.505,0.00010749,0.001839,-0.0043062,0,0.030518,0.23035,0
0,0.505,0.016941,66.64,0.505,0.00010035,0.0018066,-0.0043025,0,0.028823,0.23054,0
0,0.505,0.016933,66.634,0.505,0.00012551,0.0019096,-0.004298,0,0.035064,0.22995,0
0,0.505,0.01693,66.64,0.505,0.0001101,0.0018502,-0.004308,0,0.03118,0.2303,0
0,0.505,0.01693,66.645,0.505,0.00022054,0.0023274,-0.004321,0,0.059274,0.22564,0
0,0.505,0.01693,66.645,0.505,0.00022029,0.0023264,-0.0043207,0,0.059208,0.22565,0
0,0.505,0.016931,66.651,0.505,0.00018038,0.002164,-0.0042875,0,0.048844,0.22771,0
0,0.505,0.01693,66.654,0.505,0.00020719,0.0022765,-0.0043058,0,0.055773,0.22638,0
0,0.505,0.016934,66.644,0.505,0.0001966,0.0022332,-0.0042971,0,0.053016,0.22694,0
0,0.505,0.016803,66.72,0.505,-0.00027804,-0.0051333,-0.00075951,0,-0.27331,0.011865,0
0,0.505,0.016802,66.72,0.505,-0.00027711,-0.0050859,-0.00074513,0,-0.27334,0.011671,0
0,0.505,0.016896,66.866,0.505,-0.00054274,-0.0045677,-0.0011074,0,-0.25628,0.063985,0
0,0.505,0.016896,66.859,0.505,-0.00053059,-0.0046996,-0.0011953,0,-0.25754,0.061044,0
0,0.505,0.016881,66.863,0.505,-0.00048075,-0.0051926,-0.0014916,0,-0.26208,0.049725,0
0,0.505,0.01688,66.854,0.505,-0.00046627,-0.005339,-0.0015713,0,-0.26312,0.046699,0
0,0.505,0.016888,66.858,0.505,-0.0004968,-0.005041,-0.0014088,0,-0.26074,0.053232,0
0,0.505,0.016887,66.856,0.505,-0.00049378,-0.0050715,-0.0014262,0,-0.261,0.052564,0
0,0.505,0.016888,66.857,0.505,-0.0004997,-0.0050107,-0.0013912,0,-0.26047,0.053897,0
0,0.505,0.016886,66.849,0.505,-0.00044772,-0.005532,-0.0016426,0,-0.2645,0.042973,0
0,0.505,0.016888,66.837,0.505,-0.00043811,-0.0056371,-0.0016681,0,-0.26518,0.041061,0
0,0.505,0.016883,66.831,0.505,-0.00042982,-0.005704,-0.0016784,0,-0.26582,0.039435,0
0,0.505,0.016876,66.812,0.505,-0.00041149,-0.005859,-0.0016886,0,-0.26694,0.035863,0
0,0.505,0.016876,66.812,0.505,-0.00041123,-0.0058607,-0.0016884,0,-0.26695,0.035812,0
0,0.505,0.016895,66.86,0.505,-0.00052793,-0.0047265,-0.0012129,0,-0.25781,0.060412,0
0,0.505,0.016895,66.859,0.505,-0.00052641,-0.0047415,-0.0012222,0,-0.25796,0.060059,0
0,0.505,0.016891,66.864,0.505,-0.00051266,-0.0048801,-0.0013126,0,-0.2593,0.056845,0
0,0.505,0.016909,66.801,0.505,-0.000715,-0.0021106,-0.001078,0,-0.22065,0.12434,0
0,0.505,0.01691,66.801,0.505,-0.00071304,-0.0021646,-0.0010367,0,-0.22164,0.1227,0
0,0.505,0.01691,66.821,0.505,-0.00068878,-0.0026815,-0.0007135,0,-0.23136,0.10919,0
0,0.505,0.016908,66.824,0.505,-0.0006865,-0.0027234,-0.0006947,0,-0.23205,0.10816,0
0,0.505,0.016909,66.821,0.505,-0.00068157,-0.0028129,-0.00066255,0,-0.23348,0.106,0
0,0.505,0.016908,66.825,0.505,-0.000679,-0.0028562,-0.00064495,0,-0.23421,0.10492,0
0,0.505,0.016908,66.824,0.505,-0.00067774,-0.0028777,-0.00064038,0,-0.23453,0.1044,0
0,0.505,0.016909,66.815,0.505,-0.0007001,-0.002457,-0.00082147,0,-0.22765,0.11464,0
0,0.505,0.016909,66.814,0.505,-0.00069932,-0.0024734,-0.00081407,0,-0.22792,0.11424,0
0,0.505,0.016913,66.807,0.505,-0.00070614,-0.0023326,-0.00090165,0,-0.22522,0.118,0
0,0.505,0.016911,66.812,0.505,-0.00070078,-0.0024452,-0.00083082,0,-0.22739,0.115,0
0,0.505,0.016917,66.799,0.505,-0.0007081,-0.0022918,-0.0009362,0,-0.22426,0.11935,0
0,0.505,0.016906,66.835,0.505,-0.00067047,-0.0029956,-0.00060677,0,-0.23635,0.10156,0
0,0.505,0.016904,66.834,0.505,-0.00066594,-0.0030651,-0.00059682,0,-0.23743,0.099816,0
0,0.505,0.016906,66.844,0.505,-0.00064097,-0.0034397,-0.00058797,0,-0.24265,0.091227,0
0,0.505,0.016905,66.842,0.505,-0.00063514,-0.0035181,-0.00059904,0,-0.24369,0.089371,0
0,0.505,0.016919,66.704,0.505,-0.00069471,-0.0012382,-0.0027612,0,-0.17012,0.17432,0
0,0.505,0.016927,66.704,0.505,-0.00069819,-0.0012567,-0.002697,0,-0.17204,0.17277,0
0,0.505,0.016927,66.71,0.505,-0.00070031,-0.0012655,-0.0026573,0,-0.17324,0.17179,0
0,0.505,0.016926,66.708,0.505,-0.00070118,-0.0012702,-0.0026434,0,-0.17382,0.17131,0
0,0.505,0.016922,66.718,0.505,-0.00070481,-0.0012932,-0.0025825,0,-0.17615,0.1694,0
0,0.505,0.01693,66.689,0.505,-0.00065537,-0.0010771,-0.0032442,0,-0.15213,0.18691,0
0,0.505,0.01693,66.688,0.505,-0.00065732,-0.0010843,-0.0032252,0,-0.15293,0.1864,0
0,0.505,0.016928,66.698,0.505,-0.00066475,-0.0011122,-0.0031493,0,-0.15593,0.18447,0
0,0.505,0.016928,66.695,0.505,-0.00067058,-0.0011408,-0.0030839,0,-0.15834,0.18275,0
0,0.505,0.016925,66.7,0.505,-0.00067525,-0.0011617,-0.0030307,0,-0.16035,0.18128,0
0,0.505,0.016921,66.707,0.505,-0.00068093,-0.0011833,-0.0029535,0,-0.16298,0.17942,0
0,0.505,0.016925,66.702,0.505,-0.00067315,-0.001152,-0.0030548,0,-0.15944,0.18194,0
0,0.505,0.016927,66.699,0.505,-0.0006901,-0.0012239,-0.0028286,0,-0.16761,0.17619,0
0,0.505,0.01692,66.704,0.505,-0.0006935,-0.0012332,-0.0027797,0,-0.16941,0.17488,0
0,0.505,0.016937,66.679,0.505,-0.00061627,-0.00092696,-0.0035977,0,-0.13811,0.19526,0
0,0.505,0.016937,66.679,0.505,-0.00061659,-0.00092857,-0.0035951,0,-0.13821,0.1952,0
0,0.505,0.016936,66.678,0.505,-0.00061717,-0.00093091,-0.0035918,0,-0.1384,0.1951,0
0,0.505,0.016925,66.656,0.505,-0.00050484,-0.00044142,-0.0042138,0,-0.10724,0.21039,0
0,0.505,0.016925,66.667,0.505,-0.00051586,-0.00047357,-0.0041683,0,-0.11003,0.2094,0
0,0.505,0.016929,66.667,0.505,-0.00051936,-0.0004895,-0.0041521,0,-0.11092,0.20906,0
0,0.505,0.016933,66.671,0.505,-0.00052941,-0.00053806,-0.0041107,0,-0.11343,0.20803,0
0,0.505,0.016934,66.674,0.505,-0.0005704,-0.0007213,-0.003909,0,-0.1244,0.2028,0
0,0.505,0.016937,66.667,0.505,-0.00057888,-0.00075332,-0.0038606,0,-0.12685,0.20158,0
0,0.505,0.016931,66.659,0.505,-0.00048582,-0.00037678,-0.004272,0,-0.10239,0.21236,0
0,0.505,0.016924,66.661,0.505,-0.00049059,-0.00039632,-0.0042666,0,-0.10358,0.2119,0
0,0.505,0.016926,66.656,0.505,-0.00050243,-0.00043238,-0.0042204,0,-0.10664,0.21063,0
0,0.505,0.016933,66.672,0.505,-0.00053308,-0.00055413,-0.0040949,0,-0.11438,0.20761,0
0,0.505,0.016934,66.666,0.505,-0.00054445,-0.0006058,-0.0040433,0,-0.11732,0.2062,0
0,0.505,0.016876,66.812,0.505,-0.00041081,-0.0058633,-0.001688,0,-0.26697,0.035733,0
0,0.505,0.016862,66.81,0.505,-0.00039229,-0.0059864,-0.0016611,0,-0.26803,0.032268,0
0,0.505,0.016771,66.757,0.505,-0.00024851,-0.0026104,-0.00019937,0,-0.27472,0.0042141,0
0,0.505,0.016771,66.759,0.505,-0.00024796,-0.0025225,-0.00018736,0,-0.27476,0.0040297,0
0,0.505,0.016816,66.737,0.505,-0.00029639,-0.0056836,-0.0010075,0,-0.27255,0.015366,0
0,0.505,0.016804,66.72,0.505,-0.00027889,-0.0051557,-0.00077085,0,-0.27328,0.012021,0
0,0.505,0.016772,66.753,0.505,-0.00024994,-0.002755,-0.00022809,0,-0.27464,0.0046098,0
0,0.505,0.016829,66.742,0.505,-0.00031594,-0.0059958,-0.0012338,0,-0.27169,0.018872,0
0,0.505,0.016829,66.742,0.505,-0.00031565,-0.0059943,-0.0012312,0,-0.2717,0.018823,0
0,0.505,0.016781,66.733,0.505,-0.00026203,-0.0042156,-0.00048232,0,-0.27401,0.0082816,0
0,0.505,0.016829,66.742,0.505,-0.00031539,-0.005991,-0.0012287,0,-0.27171,0.018778,0
0,0.505,0.016848,66.782,0.505,-0.00035444,-0.0061381,-0.0015262,0,-0.26997,0.025554,0
0,0.505,0.016847,66.775,0.505,-0.0003496,-0.0061457,-0.0014992,0,-0.27018,0.024728,0
0,0.505,0.016841,66.768,0.505,-0.00033516,-0.0061216,-0.0013962,0,-0.27084,0.022213,0
0,0.505,0.016851,66.782,0.505,-0.00036142,-0.0061151,-0.0015588,0,-0.26962,0.026774,0
0,0.505,0.016854,66.797,0.505,-0.00037338,-0.0060826,-0.0016082,0,-0.26902,0.028879,0
0,0.505,0.016857,66.799,0.505,-0.00038111,-0.0060527,-0.0016337,0,-0.26863,0.030262,0
0,0.505,0.016941,66.653,0.505,-0.00046361,-0.00028181,-0.0043135,0,-0.097291,0.21449,0
0,0.505,0.01694,66.653,0.505,-0.00046488,-0.00028674,-0.0043116,0,-0.097589,0.21437,0
0,0.505,0.016939,66.661,0.505,-0.00042012,-0.0001577,-0.0043794,0,-0.08703,0.21817,0
0,0.505,0.016942,66.656,0.505,-0.00042674,-0.00018392,-0.0043729,0,-0.088489,0.21768,0
0,0.505,0.016899,66.859,0.505,-0.00060044,-0.0039417,-0.00073243,0,-0.24917,0.079103,0
0,0.505,0.016898,66.861,0.505,-0.00059388,-0.0040153,-0.00076353,0,-0.25005,0.077318,0
0,0.505,0.016906,66.843,0.505,-0.00064222,-0.0034221,-0.00058779,0,-0.24242,0.091623,0
0,0.505,0.016902,66.844,0.505,-0.00065132,-0.0032835,-0.00058073,0,-0.2406,0.094631,0
0,0.505,0.016903,66.847,0.505,-0.00063006,-0.0035839,-0.00060735,0,-0.24458,0.087777,0
0,0.505,0.016903,66.846,0.505,-0.00062899,-0.0035975,-0.00061184,0,-0.24476,0.087441,0
0,0.505,0.016902,66.84,0.505,-0.00066122,-0.0031372,-0.00058524,0,-0.23849,0.0981,0
0,0.505,0.016903,66.842,0.505,-0.00065426,-0.0032396,-0.00058309,0,-0.24001,0.095626,0
0,0.505,0.016908,66.827,0.505,-0.00069329,-0.0025925,-0.00075061,0,-0.22988,0.11136,0
0,0.505,0.016917,66.798,0.505,-0.00071072,-0.002227,-0.00098667,0,-0.2229,0.1211,0
0,0.505,0.016915,66.795,0.505,-0.00071881,-0.0020154,-0.0011728,0,-0.21793,0.12758,0
0,0.505,0.016913,66.798,0.505,-0.00071668,-0.0020674,-0.0011182,0,-0.21935,0.12583,0
0,0.505,0.016913,66.783,0.505,-0.00072432,-0.0018305,-0.0013765,0,-0.2126,0.13375,0
0,0.505,0.016913,66.783,0.505,-0.00072349,-0.0018588,-0.0013391,0,-0.21356,0.13258,0
0,0.505,0.016915,66.769,0.505,-0.0007261,-0.0017573,-0.0014818,0,-0.20999,0.1366,0
0,0.505,0.016916,66.769,0.505,-0.00072601,-0.0017609,-0.0014765,0,-0.21012,0.13645,0
0,0.505,0.016915,66.793,0.505,-0.00072051,-0.0019609,-0.0012251,0,-0.21643,0.12913,0
0,0.505,0.016899,66.859,0.505,-0.00058577,-0.0041136,-0.00081491,0,-0.25112,0.075068,0
0,0.505,0.016897,66.861,0.505,-0.00056568,-0.004329,-0.00093713,0,-0.25363,0.069785,0
0,0.505,0.016894,66.866,0.505,-0.00055698,-0.004415,-0.0010039,0,-0.25467,0.067521,0
0,0.505,0.016901,66.855,0.505,-0.00061845,-0.0037269,-0.00064343,0,-0.24647,0.084305,0
0,0.505,0.016901,66.854,0.505,-0.00061492,-0.0037709,-0.00066182,0,-0.24703,0.083241,0
0,0.505,0.0169,66.859,0.505,-0.00060638,-0.0038707,-0.00069582,0,-0.2483,0.080819,0
0,0.505,0.01688,66.854,0.505,-0.00046343,-0.0053702,-0.0015855,0,-0.26333,0.046102,0
0,0.505,0.01688,66.855,0.505,-0.00046462,-0.005355,-0.0015797,0,-0.26325,0.046347,0
0,0.505,0.016896,66.863,0.505,-0.00054781,-0.0045119,-0.0010677,0,-0.2557,0.06525,0
0,0.505,0.016766,66.764,0.505,-0.0002471,-0.0022992,-0.00016481,0,-0.27484,0.0034208,0
0,0.505,0.016899,66.86,0.505,-0.00058067,-0.0041696,-0.00084144,0,-0.25177,0.073736,0
0,0.505,0.016897,66.861,0.505,-0.00057118,-0.0042727,-0.00090313,0,-0.25297,0.071182,0
0,0.505,0.016932,66.652,0.505,-9.6849e-05,0.0008732,-0.004583,0,-0.015948,0.23155,0
0,0.505,0.016937,66.642,0.505,-0.00010954,0.00082256,-0.0045908,0,-0.018676,0.23137,0
0,0.505,0.01692,66.645,0.505,-9.1322e-06,0.0012762,-0.0044811,0,0.0033733,0.23201,0
0,0.505,0.016945,66.652,0.505,-1.7204e-05,0.0012366,-0.0044728,0,0.0014083,0.23199,0
0,0.505,0.016934,66.644,0.505,-8.2498e-05,0.00093263,-0.0045668,0,-0.012854,0.23172,0
0,0.505,0.016934,66.648,0.505,-0.00012999,0.00074129,-0.0045987,0,-0.023078,0.23106,0
0,0.505,0.016937,66.643,0.505,-0.0001367,0.00071587,-0.0045977,0,-0.024507,0.23092,0
0,0.505,0.016934,66.65,0.505,-0.00014646,0.00067742,-0.004596,0,-0.026608,0.23073,0
0,0.505,0.016936,66.644,0.505,-0.0001134,0.00080719,-0.0045927,0,-0.01951,0.23131,0
0,0.505,0.016938,66.641,0.505,-0.00011949,0.00078241,-0.0045952,0,-0.020827,0.23122,0
0,0.505,0.016942,66.652,0.505,-0.00026025,0.00029509,-0.0045001,0,-0.051307,0.22714,0
0,0.505,0.016941,66.659,0.505,-0.00026793,0.00026358,-0.0044913,0,-0.052905,0.22686,0
0,0.505,0.016935,66.643,0.505,-0.00027923,0.00023199,-0.0044998,0,-0.05525,0.2264,0
0,0.505,0.016926,66.647,0.505,-0.0002847,0.00021793,-0.0045058,0,-0.056408,0.22615,0
0,0.505,0.016931,66.66,0.505,-0.0003297,9.8531e-05,-0.00445,0,-0.066568,0.22388,0
0,0.505,0.016943,66.651,0.505,-0.00034399,4.9107e-05,-0.0044385,0,-0.069671,0.22316,0
0,0.505,0.016934,66.648,0.505,-0.00031386,0.00014668,-0.0044637,0,-0.063112,0.22465,0
0,0.505,0.016935,66.646,0.505,-0.00031669,0.0001372,-0.0044606,0,-0.063733,0.22452,0
0,0.505,0.016934,66.667,0.505,-0.00054601,-0.00061244,-0.0040366,0,-0.11773,0.206,0
0,0.505,0.016934,66.664,0.505,-0.00055131,-0.00063571,-0.0040105,0,-0.11916,0.20533,0
0,0.505,0.016936,66.668,0.505,-0.00047697,-0.00033817,-0.0042864,0,-0.10032,0.21325,0
0,0.505,0.016931,66.657,0.505,-0.00043595,-0.00020735,-0.004376,0,-0.090574,0.21693,0
0,0.505,0.016929,66.651,0.505,-0.00044453,-0.00022429,-0.0043665,0,-0.092621,0.21626,0
0,0.505,0.016923,66.724,0.505,-0.00070696,-0.001309,-0.0025361,0,-0.17761,0.16818,0
0,0.505,0.016923,66.73,0.505,-0.00070941,-0.0013253,-0.0024867,0,-0.17935,0.16684,0
0,0.505,0.016921,66.717,0.505,-0.00071328,-0.0013472,-0.002409,0,-0.18222,0.16456,0
0,0.505,0.01692,66.718,0.505,-0.0007135,-0.0013482,-0.0024049,0,-0.18238,0.16441,0
0,0.505,0.01692,66.717,0.505,-0.00071373,-0.00135,-0.0023995,0,-0.18258,0.16424,0
0,0.505,0.016918,66.734,0.505,-0.00071683,-0.001368,-0.0023116,0,-0.18531,0.16168,0
0,0.505,0.016922,66.733,0.505,-0.00072152,-0.0014174,-0.0021626,0,-0.18996,0.15719,0
0,0.505,0.016919,66.739,0.505,-0.00072306,-0.0014356,-0.0021051,0,-0.19187,0.15544,0
0,0.505,0.016922,66.733,0.505,-0.00072013,-0.0014014,-0.0022127,0,-0.18832,0.15875,0
0,0.505,0.016922,66.732,0.505,-0.00072032,-0.0014035,-0.0022056,0,-0.18854,0.15853,0
0,0.505,0.016923,66.73,0.505,-0.00071977,-0.0013982,-0.0022248,0,-0.18794,0.15908,0
0,0.505,0.01692,66.738,0.505,-0.00072338,-0.0014415,-0.0020925,0,-0.19229,0.15503,0
0,0.505,0.016919,66.756,0.505,-0.00072725,-0.0015571,-0.0018248,0,-0.20061,0.14711,0
0,0.505,0.016919,66.758,0.505,-0.00072735,-0.0015662,-0.0018082,0,-0.20113,0.14657,0
0,0.505,0.016918,66.754,0.505,-0.00072485,-0.001469,-0.002011,0,-0.19478,0.15282,0
0,0.505,0.01692,66.749,0.505,-0.00072599,-0.0015007,-0.0019516,0,-0.19678,0.15095,0
0,0.505,0.01692,66.754,0.505,-0.00072632,-0.0015103,-0.0019242,0,-0.19757,0.15016,0
0,0.505,0.016921,66.751,0.505,-0.00072684,-0.0015367,-0.0018716,0,-0.1992,0.14852,0
0,0.505,0.016919,66.755,0.505,-0.00072758,-0.0016043,-0.001736,0,-0.20296,0.1444,0
0,0.505,0.016914,66.791,0.505,-0.00072189,-0.0019176,-0.001271,0,-0.21522,0.13053,0
0,0.505,0.016917,66.76,0.505,-0.00072765,-0.0016262,-0.0016902,0,-0.20409,0.14311,0
0,0.505,0.016917,66.758,0.505,-0.00072764,-0.0016309,-0.0016818,0,-0.20437,0.1428,0
0,0.505,0.016917,66.758,0.505,-0.00072753,-0.0016427,-0.0016606,0,-0.205,0.14213,0
0,0.505,0.016915,66.767,0.505,-0.00072622,-0.0017511,-0.001493,0,-0.20973,0.13689,0
0,0.505,0.016914,66.768,0.505,-0.00072709,-0.0016914,-0.0015798,0,-0.2075,0.13963,0
0,0.505,0.016931,66.684,0.505,-0.00065309,-0.0010679,-0.0032704,0,-0.15127,0.18748,0
0,0.505,0.016926,66.7,0.505,-0.00068577,-0.0012084,-0.0028931,0,-0.16531,0.17781,0
0,0.505,0.016943,66.642,0.505,-3.077e-05,0.0011649,-0.0044977,0,-0.0015376,0.23202,0
0,0.505,0.016938,66.643,0.505,-3.2816e-05,0.0011555,-0.0045045,0,-0.0019794,0.23205,0
0,0.505,0.016941,66.649,0.505,9.1611e-05,0.0017634,-0.0043042,0,0.026713,0.23076,0
0,0.505,0.016931,66.661,0.505,0.00029968,0.0026498,-0.0043934,0,0.080672,0.2201,0
0,0.505,0.016933,66.651,0.505,0.00029131,0.002621,-0.0043859,0,0.07835,0.22086,0
0,0.505,0.016936,66.651,0.505,0.00028293,0.0025898,-0.0043758,0,0.075972,0.22157,0
0,0.505,0.016937,66.66,0.505,0.00027334,0.0025518,-0.0043619,0,0.073329,0.22224,0
0,0.505,0.01693,66.658,0.505,0.00031277,0.0027042,-0.0043979,0,0.084173,0.21889,0
0,0.505,0.016933,66.654,0.505,0.0003057,0.0026753,-0.004394,0,0.082274,0.21954,0
0,0.505,0.016933,66.667,0.505,0.00033862,0.0027987,-0.0044096,0,0.091808,0.21648,0
0,0.505,0.016929,66.667,0.505,0.00033525,0.0027827,-0.0044123,0,0.090814,0.21682,0
0,0.505,0.016926,66.657,0.505,0.00032552,0.0027449,-0.0044101,0,0.08798,0.21761,0
0,0.505,0.016927,66.656,0.505,0.00032201,0.0027303,-0.0044064,0,0.086938,0.21797,0
0,0.505,0.016933,66.664,0.505,0.00037414,0.0029573,-0.0043949,0,0.10234,0.21251,0
0,0.505,0.016933,66.664,0.505,0.00037367,0.0029552,-0.0043953,0,0.10219,0.21257,0
0,0.505,0.01693,66.669,0.505,0.00039568,0.0030482,-0.0043737,0,0.10921,0.20983,0
0,0.505,0.016933,66.667,0.505,0.00038575,0.0030073,-0.0043834,0,0.10597,0.21107,0
0,0.505,0.016931,66.677,0.505,0.00040576,0.0030888,-0.0043566,0,0.11265,0.2083,0
0,0.505,0.016931,66.669,0.505,0.00039769,0.0030558,-0.0043709,0,0.10989,0.20954,0
0,0.505,0.016928,66.7,0.505,0.00048165,0.0035502,-0.0040083,0,0.143,0.19263,0
0,0.505,0.016932,66.686,0.505,0.00047608,0.0035012,-0.0040618,0,0.14024,0.19428,0
0,0.505,0.016934,66.683,0.505,0.00045685,0.0033743,-0.0041813,0,0.13132,0.19917,0
0,0.505,0.016934,66.683,0.505,0.00045568,0.0033677,-0.0041877,0,0.13081,0.19943,0
0,0.505,0.016932,66.685,0.505,0.00046556,0.0034264,-0.0041375,0,0.13509,0.19725,0
0,0.505,0.016932,66.686,0.505,0.00046355,0.0034143,-0.0041489,0,0.13415,0.1977,0
0,0.505,0.016936,66.678,0.505,0.00044734,0.0033147,-0.0042288,0,0.12741,0.20117,0
0,0.505,0.016936,66.679,0.505,0.00044691,0.0033119,-0.0042313,0,0.12724,0.20126,0
0,0.505,0.016923,66.688,0.505,0.00047013,0.0034526,-0.0041147,0,0.13728,0.19607,0
0,0.505,0.016932,66.686,0.505,0.000476,0.0035004,-0.0040625,0,0.1402,0.19431,0
0,0.505,0.016932,66.686,0.505,0.00047594,0.0035,-0.0040631,0,0.14017,0.19433,0
0,0.505,0.016924,66.685,0.505,-0.00064562,-0.0010309,-0.00335,0,-0.14851,0.18923,0
0,0.505,0.016926,66.704,0.505,-0.00068732,-0.0012139,-0.0028703,0,-0.1661,0.17726,0
0,0.505,0.016899,66.841,0.505,0.00031119,0.005898,-0.0017053,0,0.24399,0.089161,0
0,0.505,0.016898,66.844,0.505,0.00031577,0.0058568,-0.0017032,0,0.24342,0.090104,0
0,0.505,0.016903,66.844,0.505,0.00029683,0.0060254,-0.0017143,0,0.24561,0.086349,0
0,0.505,0.016899,66.842,0.505,0.00031943,0.0058262,-0.0017043,0,0.24298,0.090813,0
0,0.505,0.016899,66.838,0.505,0.00033413,0.0057103,-0.0017028,0,0.24119,0.093759,0
0,0.505,0.016903,66.842,0.505,0.00028656,0.0061097,-0.0017198,0,0.24663,0.0843,0
0,0.505,0.016901,66.845,0.505,0.00027688,0.0061842,-0.0017358,0,0.24763,0.082364,0
0,0.505,0.016906,66.831,0.505,0.00035818,0.0055008,-0.0017401,0,0.23796,0.099084,0
0,0.505,0.016906,66.832,0.505,0.00036518,0.0054359,-0.0017507,0,0.23698,0.1007,0
0,0.505,0.016908,66.826,0.505,0.0003757,0.0053414,-0.001781,0,0.23541,0.10316,0
0,0.505,0.016908,66.827,0.505,0.00037909,0.0053112,-0.0017889,0,0.2349,0.10397,0
0,0.505,0.016919,66.775,0.505,0.00049111,0.0042656,-0.0027162,0,0.20575,0.14165,0
0,0.505,0.016921,66.768,0.505,0.00049268,0.0042576,-0.0027436,0,0.20489,0.14257,0
0,0.505,0.016921,66.761,0.505,0.0004988,0.0042155,-0.0028402,0,0.20115,0.14649,0
0,0.505,0.01692,66.763,0.505,0.00050033,0.0042058,-0.002866,0,0.20018,0.14751,0
0,0.505,0.016921,66.757,0.505,0.00050199,0.0041958,-0.0028981,0,0.19892,0.14875,0
0,0.505,0.016891,66.848,0.505,0.00015378,0.0070591,-0.0020662,0,0.25774,0.060896,0
0,0.505,0.016893,66.845,0.505,0.00016704,0.0069738,-0.0020297,0,0.25682,0.063047,0
0,0.505,0.016885,66.843,0.505,0.00013102,0.0072055,-0.0021372,0,0.25933,0.057234,0
0,0.505,0.016887,66.842,0.505,0.00013653,0.0071722,-0.0021226,0,0.25896,0.058083,0
0,0.505,0.016858,66.792,0.505,-2.338e-05,0.0081076,-0.002259,0,0.26739,0.034645,0
0,0.505,0.016863,66.799,0.505,-9.6448e-06,0.0080335,-0.0022831,0,0.26681,0.036503,0
0,0.505,0.016889,66.825,0.505,8.1229e-05,0.0075321,-0.0022662,0,0.26228,0.049397,0
0,0.505,0.016901,66.833,0.505,0.00010266,0.0074049,-0.0022148,0,0.26099,0.052998,0
0,0.505,0.016874,66.818,0.505,4.8105e-05,0.00773,-0.0023124,0,0.26401,0.044789,0
0,0.505,0.016875,66.822,0.505,5.2746e-05,0.0077072,-0.0023093,0,0.26375,0.045416,0
0,0.505,0.016884,66.827,0.505,7.9287e-05,0.0075421,-0.0022707,0,0.2624,0.049069,0
0,0.505,0.016882,66.822,0.505,7.1428e-05,0.0075935,-0.0022837,0,0.26279,0.04797,0
0,0.505,0.01688,66.804,0.505,2.7262e-05,0.0078572,-0.0023135,0,0.26506,0.041793,0
0,0.505,0.016744,66.7,0.505,-0.00022035,0.0049594,-0.00047102,0,0.27438,0.0072244,0
0,0.505,0.016762,66.682,0.505,-0.000207,0.0059117,-0.00072031,0,0.27388,0.0096116,0
0,0.505,0.016775,66.68,0.505,-0.00019384,0.0065705,-0.00092627,0,0.27342,0.011764,0
0,0.505,0.016795,66.686,0.505,-0.00017544,0.0072944,-0.0012119,0,0.27283,0.014767,0
0,0.505,0.016731,66.753,0.505,-0.00023396,0.0029855,-0.00018052,0,0.27516,0.0036885,0
0,0.505,0.016737,66.732,0.505,-0.0002293,0.0036196,-0.00027637,0,0.27495,0.0047886,0
0,0.505,0.016827,66.711,0.505,-0.00011702,0.0081498,-0.0018046,0,0.27079,0.022299,0
0,0.505,0.016827,66.711,0.505,-0.00011678,0.0081509,-0.0018065,0,0.27078,0.022333,0
0,0.505,0.016725,66.769,0.505,-0.00023681,0.0022644,-0.00011446,0,0.27523,0.0020298,0
0,0.505,0.016881,66.802,0.505,1.8787e-05,0.0079084,-0.0023125,0,0.26549,0.040578,0
0,0.505,0.01688,66.8,0.505,1.6117e-05,0.0079247,-0.0023138,0,0.2656,0.0402,0
0,0.505,0.016934,66.68,0.505,0.00043686,0.0032496,-0.0042716,0,0.1235,0.20297,0
0,0.505,0.016934,66.68,0.505,0.00043568,0.003243,-0.0042752,0,0.12307,0.20318,0
0,0.505,0.016923,66.694,0.505,0.00050068,0.0037368,-0.0037981,0,0.15477,0.18507,0
0,0.505,0.016925,66.693,0.505,0.00049932,0.0037244,-0.0038173,0,0.15372,0.18579,0
0,0.505,0.016924,66.714,0.505,0.00050371,0.0037808,-0.0037357,0,0.15729,0.18342,0
0,0.505,0.016924,66.695,0.505,0.00050108,0.0037429,-0.0037905,0,0.1551,0.18485,0
0,0.505,0.016925,66.704,0.505,0.00051183,0.0039151,-0.003559,0,0.16594,0.17717,0
0,0.505,0.016922,66.707,0.505,0.00051091,0.0038982,-0.00359,0,0.16447,0.17829,0
0,0.505,0.016927,66.702,0.505,0.00049225,0.0036556,-0.0039059,0,0.14887,0.189,0
0,0.505,0.016926,66.7,0.505,0.00049055,0.003637,-0.0039279,0,0.14786,0.18962,0
0,0.505,0.016925,66.705,0.505,0.00048716,0.0036009,-0.0039609,0,0.14592,0.19083,0
0,0.505,0.016928,66.698,0.505,0.00048377,0.0035701,-0.0039909,0,0.14411,0.19196,0
0,0.505,0.016922,66.734,0.505,0.0005156,0.0040257,-0.0033522,0,0.17606,0.16965,0
0,0.505,0.016923,66.716,0.505,0.00051514,0.0039927,-0.0034138,0,0.17314,0.17193,0
0,0.505,0.016923,66.714,0.505,0.00051505,0.0039893,-0.0034199,0,0.17284,0.17216,0
0,0.505,0.016925,66.708,0.505,0.00051321,0.0039415,-0.0035105,0,0.16825,0.17552,0
0,0.505,0.016924,66.71,0.505,0.00051271,0.0039311,-0.0035271,0,0.1674,0.17613,0
0,0.505,0.016923,66.715,0.505,0.00051521,0.0039951,-0.0034102,0,0.17335,0.17179,0
0,0.505,0.01692,66.721,0.505,0.00051417,0.0039606,-0.0034677,0,0.17025,0.17412,0
0,0.505,0.016922,66.707,0.505,0.00051045,0.0038906,-0.0036046,0,0.16384,0.17873,0
0,0.505,0.016926,66.714,0.505,0.00050845,0.0038633,-0.0036429,0,0.16157,0.18041,0
0,0.505,0.016925,66.714,0.505,0.0005051,0.0038047,-0.0037095,0,0.15845,0.18257,0
0,0.505,0.016926,66.714,0.505,0.00050734,0.0038441,-0.0036674,0,0.16039,0.18118,0
0,0.505,0.016926,66.696,0.505,0.00049636,0.0036969,-0.0038585,0,0.15148,0.18733,0
0,0.505,0.016919,66.77,0.505,0.00049601,0.0042333,-0.0027929,0,0.20293,0.14465,0
0,0.505,0.016936,66.643,0.505,0.00014837,0.0020209,-0.0042802,0,0.040734,0.22906,0
0,0.505,0.016933,66.65,0.505,0.00013984,0.0019778,-0.0042844,0,0.03862,0.22942,0
0,0.505,0.016942,66.646,0.505,8.7295e-05,0.0017386,-0.0043058,0,0.02569,0.23085,0
0,0.505,0.016929,66.656,0.505,7.631e-05,0.0016771,-0.0043321,0,0.023142,0.23102,0
0,0.505,0.016933,66.634,0.505,0.00012607,0.0019118,-0.0042977,0,0.035204,0.22994,0
0,0.505,0.016933,66.634,0.505,0.00012595,0.0019113,-0.0042977,0,0.035177,0.22994,0
0,0.505,0.016926,66.672,0.505,0.00042433,0.0031867,-0.004314,0,0.11886,0.20517,0
0,0.505,0.016929,66.682,0.505,0.00041529,0.0031404,-0.0043378,0,0.11578,0.20678,0
0,0.505,0.016933,66.667,0.505,0.00038478,0.0030035,-0.004385,0,0.10566,0.21119,0
0,0.505,0.016936,66.677,0.505,0.00044414,0.0032948,-0.0042424,0,0.12621,0.20173,0
0,0.505,0.016925,66.672,0.505,0.00042514,0.0031915,-0.0043125,0,0.11915,0.20504,0
0,0.505,0.01693,66.675,0.505,0.00041076,0.0031149,-0.0043489,0,0.11428,0.20755,0
0,0.505,0.016936,66.648,0.505,-4.8539e-05,0.0010946,-0.0045295,0,-0.0054416,0.232,0
0,0.505,0.016937,66.644,0.505,-5.5642e-05,0.0010632,-0.0045343,0,-0.0069876,0.23194,0
0,0.505,0.016939,66.639,0.505,-0.00016076,0.00062177,-0.0045911,0,-0.029676,0.23042,0
0,0.505,0.016939,66.641,0.505,-0.00016248,0.00061531,-0.0045904,0,-0.030043,0.23038,0
0,0.505,0.016928,66.642,0.505,3.1095e-05,0.001466,-0.0043947,0,0.01252,0.23162,0
0,0.505,0.016933,66.641,0.505,2.7995e-05,0.0014512,-0.0043993,0,0.011816,0.23164,0
0,0.505,0.016941,66.653,0.505,-6.4477e-05,0.001021,-0.0045322,0,-0.0089421,0.23187,0
0,0.505,0.01694,66.64,0.505,-3.6843e-05,0.0011406,-0.0045104,0,-0.0028776,0.23204,0
0,0.505,0.016935,66.649,0.505,7.6097e-06,0.0013539,-0.0044368,0,0.007209,0.2319,0
0,0.505,0.016912,66.645,0.505,-2.8735e-06,0.0013029,-0.0044731,0,0.0048293,0.23198,0
0,0.505,0.016939,66.653,0.505,1.4408e-05,0.0013806,-0.004422,0,0.008699,0.23178,0
0,0.505,0.016934,66.644,0.505,-7.7735e-05,0.00095397,-0.0045604,0,-0.011828,0.23176,0
0,0.505,0.016933,66.646,0.505,-8.0525e-05,0.00094059,-0.0045652,0,-0.012433,0.23174,0
0,0.505,0.016926,66.696,0.505,0.00049687,0.0037014,-0.0038509,0,0.15182,0.18712,0
0,0.505,0.016928,66.651,0.505,0.00026202,0.0025062,-0.0043636,0,0.070244,0.22309,0
0,0.505,0.016933,66.644,0.505,0.00017243,0.0021293,-0.0042847,0,0.046805,0.22807,0
0,0.505,0.016933,66.647,0.505,0.00015339,0.002045,-0.0042799,0,0.042002,0.22885,0
0,0.505,0.016931,66.645,0.505,0.00022087,0.0023289,-0.0043211,0,0.059362,0.22562,0
0,0.505,0.016926,66.653,0.505,0.00025989,0.0024976,-0.0043635,0,0.069669,0.22327,0
0,0.505,0.016935,66.655,0.505,0.00024261,0.0024271,-0.0043309,0,0.065071,0.22424,0
0,0.505,0.016928,66.661,0.505,0.00023367,0.0023835,-0.0043253,0,0.062735,0.22486,0
0,0.505,0.016936,66.659,0.505,0.00024672,0.0024469,-0.004334,0,0.066142,0.22396,0
0,0.505,0.016935,66.67,0.505,0.00035083,0.0028606,-0.0044031,0,0.095322,0.21525,0
0,0.505,0.016935,66.669,0.505,0.00034797,0.0028482,-0.0044034,0,0.094465,0.21556,0
0,0.505,0.016932,66.667,0.505,0.00036238,0.0029092,-0.0044002,0,0.098753,0.2139,0
0,0.505,0.016933,66.666,0.505,0.00036094,0.0029029,-0.0044001,0,0.098313,0.21408,0
0,0.505,0.016933,66.664,0.505,0.00037363,0.002955,-0.0043953,0,0.10217,0.21258,0
0,0.505,0.016931,66.651,0.505,0.00028662,0.002603,-0.0043835,0,0.077018,0.22128,0
0,0.505,0.01693,66.65,0.505,0.00025543,0.0024809,-0.0043545,0,0.068481,0.2235,0
0,0.505,0.016773,66.68,0.505,-0.00020012,0.0063623,-0.00083604,0,0.2736,0.010836,0
0,0.505,0.016825,66.71,0.505,-0.00011842,0.0081349,-0.001792,0,0.27084,0.022124,0
0,0.505,0.016927,66.64,0.505,-0.00038161,-3.2373e-05,-0.0044475,0,-0.078266,0.22091,0
0,0.505,0.016928,66.64,0.505,-0.00038332,-3.7864e-05,-0.0044448,0,-0.078668,0.22078,0
0,0.505,0.016935,66.644,0.505,-0.00036872,-1.0356e-05,-0.0044482,0,-0.075091,0.22177,0
0,0.505,0.016938,66.652,0.505,-0.0004015,-9.3516e-05,-0.0044006,0,-0.082963,0.21946,0
0,0.505,0.016937,66.663,0.505,-0.00041001,-0.00012098,-0.0043906,0,-0.084793,0.21888,0
0,0.505,0.016944,66.653,0.505,-0.00034732,3.8595e-05,-0.0044353,0,-0.070408,0.22298,0
0,0.505,0.016939,66.645,0.505,-0.00036554,-4.2779e-06,-0.0044447,0,-0.074336,0.22201,0
0,0.505,0.016931,66.653,0.505,-0.0003947,-6.8439e-05,-0.0044168,0,-0.081414,0.21986,0
0,0.505,0.016936,66.651,0.505,-0.00017838,0.00055511,-0.0045811,0,-0.033445,0.22999,0
0,0.505,0.01694,66.64,0.505,-0.00019009,0.00050986,-0.0045741,0,-0.035941,0.22966,0
0,0.505,0.016939,66.64,0.505,-0.00016362,0.00061102,-0.0045898,0,-0.030284,0.23035,0
0,0.505,0.016939,66.642,0.505,-0.00019372,0.00049678,-0.0045727,0,-0.036723,0.22954,0
0,0.505,0.016932,66.642,0.505,-0.00020921,0.00044506,-0.0045673,0,-0.039996,0.22905,0
0,0.505,0.016934,66.634,0.505,-0.00021527,0.00042837,-0.0045629,0,-0.04138,0.22883,0
0,0.505,0.016931,66.636,0.505,-0.00022359,0.00040419,-0.0045594,0,-0.043294,0.22854,0
0,0.505,0.016928,66.641,0.505,-0.00023274,0.00038517,-0.00455,0,-0.045385,0.22819,0
0,0.505,0.016933,66.651,0.505,-0.00025002,0.00033016,-0.0045202,0,-0.049133,0.22755,0
0,0.505,0.016938,66.637,0.505,-0.00019911,0.00047845,-0.0045717,0,-0.037866,0.22936,0
0,0.505,0.016921,66.642,0.505,-0.00029085,0.00020491,-0.0045066,0,-0.057852,0.22582,0
0,0.505,0.016914,66.647,0.505,-0.00029922,0.00018955,-0.0045026,0,-0.059804,0.22541,0
0,0.505,0.016927,66.644,0.505,-0.00030964,0.00016026,-0.0044763,0,-0.062163,0.22486,0
0,0.505,0.016933,66.641,0.505,3.3568e-05,0.0014769,-0.0043885,0,0.013052,0.2316,0
0,0.505,0.016941,66.658,0.505,4.7209e-05,0.0015428,-0.004358,0,0.016093,0.23151,0
0,0.505,0.016902,66.645,0.505,6.171e-05,0.0016058,-0.0043829,0,0.019613,0.23159,0
0,0.505,0.016922,66.645,0.505,5.7653e-05,0.0015867,-0.0043704,0,0.018574,0.23162,0
0,0.505,0.016915,66.646,0.505,6.5095e-05,0.0016252,-0.0043681,0,0.020488,0.23149,0
0,0.505,0.01694,66.65,0.505,-0.00046144,-0.0002753,-0.0043203,0,-0.096765,0.2147,0
0,0.505,0.016924,66.652,0.505,-0.00045021,-0.00023961,-0.0043613,0,-0.094024,0.21573,0
0,0.505,0.016931,66.67,0.505,-0.00055843,-0.0006657,-0.0039744,0,-0.12107,0.20444,0
0,0.505,0.016932,66.668,0.505,-0.00056096,-0.00067709,-0.0039601,0,-0.12177,0.20409,0
0,0.505,0.016933,66.669,0.505,-0.00058206,-0.00076364,-0.0038448,0,-0.12778,0.20112,0
0,0.505,0.01693,66.675,0.505,-0.0005996,-0.00083455,-0.0037282,0,-0.13294,0.19816,0
0,0.505,0.016926,66.682,0.505,-0.00060427,-0.00085976,-0.0036942,0,-0.13435,0.19735,0
0,0.505,0.016932,66.678,0.505,-0.00059345,-0.00080556,-0.0037703,0,-0.13114,0.19928,0
0,0.505,0.01693,66.682,0.505,-0.00062755,-0.00097102,-0.0035193,0,-0.14184,0.19331,0
0,0.505,0.016929,66.671,0.505,-0.00063476,-0.00099093,-0.0034626,0,-0.1445,0.19183,0
0,0.505,0.016925,66.672,0.505,-0.0006367,-0.00099496,-0.0034492,0,-0.14521,0.1914,0
0,0.505,0.016927,66.672,0.505,-0.00063844,-0.0010035,-0.0034307,0,-0.14588,0.19099,0
0,0.505,0.016936,66.668,0.505,-0.00058621,-0.00077966,-0.0038172,0,-0.129,0.20044,0
0,0.505,0.016916,66.794,0.505,0.00045965,0.0045342,-0.0023202,0,0.2178,0.12751,0
0,0.505,0.016916,66.795,0.505,0.00046248,0.0045074,-0.0023494,0,0.21697,0.12855,0
0,0.505,0.016914,66.802,0.505,0.0004543,0.0045857,-0.0022639,0,0.21939,0.12555,0
0,0.505,0.016914,66.8,0.505,0.00044729,0.0046529,-0.0021982,0,0.2213,0.12311,0
0,0.505,0.016919,66.778,0.505,0.00048135,0.0043456,-0.002581,0,0.20993,0.13665,0
0,0.505,0.016919,66.783,0.505,0.00048525,0.0043124,-0.0026346,0,0.20833,0.13857,0
0,0.505,0.016911,66.817,0.505,0.0003921,0.0051924,-0.0018394,0,0.23279,0.10716,0
0,0.505,0.016911,66.817,0.505,0.00039212,0.0051922,-0.0018395,0,0.23279,0.10717,0
0,0.505,0.0169,66.835,0.505,0.00033983,0.0056611,-0.00171,0,0.24045,0.094963,0
0,0.505,0.016905,66.835,0.505,0.00035025,0.005572,-0.0017236,0,0.23905,0.097308,0
0,0.505,0.016911,66.82,0.505,0.00040413,0.0050762,-0.0018941,0,0.23066,0.1103,0
0,0.505,0.016911,66.818,0.505,0.00040722,0.0050458,-0.0019111,0,0.23009,0.11113,0
0,0.505,0.016913,66.808,0.505,0.00043634,0.0047602,-0.002103,0,0.22405,0.11952,0
0,0.505,0.016914,66.801,0.505,0.00044114,0.0047147,-0.0021454,0,0.22287,0.12106,0
0,0.505,0.016916,66.788,0.505,0.00046985,0.0044368,-0.0024352,0,0.21443,0.13146,0
0,0.505,0.016917,66.783,0.505,0.00047338,0.0044075,-0.0024776,0,0.21307,0.133,0
0,0.505,0.016917,66.787,0.505,0.00046679,0.0044677,-0.0024009,0,0.2155,0.1302,0
0,0.505,0.016917,66.784,0.505,0.00047719,0.0043755,-0.0025221,0,0.21159,0.13473,0
0,0.505,0.016917,66.786,0.505,0.00047853,0.0043675,-0.0025386,0,0.2111,0.13534,0
0,0.505,0.016913,66.807,0.505,0.00043465,0.0047763,-0.0020905,0,0.22443,0.11901,0
0,0.505,0.016914,66.802,0.505,0.00044564,0.0046694,-0.0021832,0,0.22173,0.12254,0
0,0.505,0.016911,66.816,0.505,0.00042625,0.0048589,-0.0020263,0,0.22631,0.11648,0
0,0.505,0.016912,66.815,0.505,0.00042136,0.0049067,-0.0019948,0,0.22732,0.11506,0
0,0.505,0.01691,66.82,0.505,0.00041552,0.0049646,-0.0019566,0,0.2285,0.11341,0
0,0.505,0.016911,66.817,0.505,0.00039199,0.0051934,-0.001839,0,0.23281,0.10714,0
0,0.505,0.016921,66.771,0.505,0.0004889,0.0042842,-0.0026864,0,0.20673,0.14046,0
0,0.505,0.016851,66.736,0.505,-9.3471e-05,0.0082539,-0.0019738,0,0.2699,0.025608,0
0,0.505,0.016845,66.751,0.505,-7.6849e-05,0.0082206,-0.0020611,0,0.26923,0.027814,0
0,0.505,0.016849,66.767,0.505,-6.0711e-05,0.0082248,-0.0021483,0,0.26867,0.029935,0
0,0.505,0.0168,66.698,0.505,-0.0001532,0.0077058,-0.0014626,0,0.27208,0.01771,0
0,0.505,0.0168,66.705,0.505,-0.0001485,0.0077954,-0.0015128,0,0.2719,0.01834,0
0,0.505,0.016802,66.706,0.505,-0.00014564,0.0078446,-0.0015444,0,0.27181,0.018719,0
0,0.505,0.016851,66.781,0.505,-4.3075e-05,0.0081569,-0.0022083,0,0.268,0.032101,0
0,0.505,0.016892,66.839,0.505,0.00010681,0.00737,-0.0021999,0,0.26077,0.053657,0
0,0.505,0.016898,66.844,0.505,0.00019855,0.0067584,-0.0019305,0,0.25447,0.068362,0
0,0.505,0.016898,66.843,0.505,0.00020169,0.0067366,-0.0019212,0,0.25421,0.068918,0
0,0.505,0.016898,66.843,0.505,0.00019734,0.0067673,-0.0019352,0,0.25456,0.068153,0
0,0.505,0.016894,66.848,0.505,0.00017631,0.006908,-0.0019972,0,0.25616,0.064601,0
0,0.505,0.016899,66.847,0.505,0.00022673,0.0065579,-0.0018501,0,0.25217,0.073317,0
0,0.505,0.016896,66.852,0.505,0.00024184,0.0064432,-0.0018076,0,0.25088,0.075979,0
0,0.505,0.01689,66.835,0.505,0.00011909,0.007288,-0.002169,0,0.26003,0.055447,0
0,0.505,0.016898,66.848,0.505,0.00022012,0.0066043,-0.0018642,0,0.25269,0.072152,0
0,0.505,0.016896,66.85,0.505,0.00025433,0.0063515,-0.0017811,0,0.24978,0.078177,0
0,0.505,0.016899,66.847,0.505,0.00026472,0.0062743,-0.0017548,0,0.24883,0.080089,0
0,0.505,0.016943,66.651,0.505,-0.00034941,3.371e-05,-0.0044364,0,-0.070867,0.22288,0
0,0.505,0.016932,66.643,0.505,-0.00024044,0.00035978,-0.0045364,0,-0.047099,0.22796,0
