"cvar","mu","phivar","pressure","rho","str","velocity:0","velocity:1","Label","Points:0","Points:1","Points:2"
0,0.505,0.0067852,59.909,0.505,0.00011825,-0.07272,-0.0012329,0,-0.25992,0,0
0,0.505,0.0068175,59.64,0.505,0.00024545,0.083035,-0.0016211,0,0.25932,0,0
0,0.505,0.01814,69.453,0.505,-0.037171,-0.091719,-0.33767,0,-0.1367,0.20553,0
0,0.505,0.018117,69.357,0.505,-0.03758,-0.093301,-0.3375,0,-0.13824,0.20447,0
0,0.505,0.018162,69.52,0.505,-0.036866,-0.090582,-0.33775,0,-0.13562,0.2063,0
0,0.505,0.018095,69.304,0.505,-0.037887,-0.09442,-0.33728,0,-0.1394,0.20368,0
0,0.505,0.018081,69.238,0.505,-0.03818,-0.095637,-0.33699,0,-0.1405,0.20288,0
0,0.505,0.018057,69.16,0.505,-0.038569,-0.097257,-0.33653,0,-0.14196,0.20186,0
0,0.505,0.017791,68.16,0.505,-0.042387,-0.11802,-0.32737,0,-0.15721,0.19023,0
0,0.505,0.017788,68.151,0.505,-0.042412,-0.1182,-0.32728,0,-0.15732,0.19014,0
0,0.505,0.017783,68.123,0.505,-0.042492,-0.11882,-0.32693,0,-0.15766,0.18985,0
0,0.505,0.017721,67.919,0.505,-0.043179,-0.12396,-0.32378,0,-0.16066,0.18735,0
0,0.505,0.017687,67.741,0.505,-0.043684,-0.12833,-0.3211,0,-0.16301,0.18524,0
0,0.505,0.017655,67.646,0.505,-0.043963,-0.1308,-0.31955,0,-0.16435,0.18406,0
0,0.505,0.018041,69.065,0.505,-0.038904,-0.09878,-0.33619,0,-0.14318,0.20102,0
0,0.505,0.018008,68.979,0.505,-0.039351,-0.10069,-0.33548,0,-0.14481,0.19988,0
0,0.505,0.017985,68.864,0.505,-0.039777,-0.10279,-0.33472,0,-0.14647,0.19867,0
0,0.505,0.017842,68.377,0.505,-0.041641,-0.11311,-0.32998,0,-0.15401,0.19269,0
0,0.505,0.018519,70.708,0.505,-0.030353,-0.072123,-0.33141,0,-0.11341,0.2196,0
0,0.505,0.018511,70.698,0.505,-0.030464,-0.072345,-0.33162,0,-0.11379,0.21939,0
0,0.505,0.018502,70.666,0.505,-0.030668,-0.072824,-0.33199,0,-0.11445,0.21903,0
0,0.505,0.018377,70.285,0.505,-0.032933,-0.07851,-0.33569,0,-0.12187,0.21491,0
0,0.505,0.018335,70.173,0.505,-0.033646,-0.080381,-0.33648,0,-0.12434,0.21349,0
0,0.505,0.018386,70.333,0.505,-0.032694,-0.077843,-0.33538,0,-0.12104,0.21538,0
0,0.505,0.018451,70.573,0.505,-0.031406,-0.074516,-0.33325,0,-0.11679,0.21773,0
0,0.505,0.018439,70.521,0.505,-0.031648,-0.075179,-0.33373,0,-0.11761,0.21731,0
0,0.505,0.018953,72.189,0.505,-0.01792,-0.046785,-0.29084,0,-0.069953,0.23719,0
0,0.505,0.018932,72.167,0.505,-0.0184,-0.04773,-0.29274,0,-0.071677,0.23667,0
0,0.505,0.018547,70.833,0.505,-0.029598,-0.070369,-0.32978,0,-0.11062,0.22101,0
0,0.505,0.018679,71.232,0.505,-0.026823,-0.064415,-0.32264,0,-0.10106,0.22557,0
0,0.505,0.018657,71.15,0.505,-0.027429,-0.065656,-0.32432,0,-0.10311,0.22462,0
0,0.505,0.018638,71.1,0.505,-0.02779,-0.066456,-0.32532,0,-0.10435,0.22403,0
0,0.505,0.018294,69.996,0.505,-0.034564,-0.083061,-0.33723,0,-0.12753,0.21153,0
0,0.505,0.018263,69.826,0.505,-0.035355,-0.085524,-0.3377,0,-0.1303,0.20979,0
0,0.505,0.018255,69.801,0.505,-0.03546,-0.085872,-0.33776,0,-0.13067,0.20955,0
0,0.505,0.018248,69.766,0.505,-0.035605,-0.086369,-0.33781,0,-0.13118,0.20921,0
0,0.505,0.018392,70.349,0.505,-0.032621,-0.077632,-0.33526,0,-0.12079,0.21553,0
0,0.505,0.018328,70.12,0.505,-0.033925,-0.081173,-0.33671,0,-0.1253,0.21289,0
0,0.505,0.018192,69.634,0.505,-0.036343,-0.088735,-0.33784,0,-0.13379,0.20751,0
0,0.505,0.017716,67.881,0.505,-0.043309,-0.12499,-0.32311,0,-0.16123,0.18684,0
0,0.505,0.017899,68.576,0.505,-0.040903,-0.10865,-0.33222,0,-0.15099,0.19524,0
0,0.505,0.017876,68.482,0.505,-0.041253,-0.11073,-0.33119,0,-0.15242,0.194,0
0,0.505,0.017931,68.658,0.505,-0.040512,-0.10664,-0.33324,0,-0.14945,0.19645,0
0,0.505,0.019112,72.784,0.505,-0.0060363,-0.018385,-0.25054,0,-0.024468,0.24637,0
0,0.505,0.019112,72.785,0.505,-0.0060654,-0.018465,-0.2506,0,-0.024585,0.24636,0
0,0.505,0.019072,72.644,0.505,-0.01031,-0.029663,-0.26211,0,-0.041391,0.24411,0
0,0.505,0.019064,72.64,0.505,-0.010787,-0.030842,-0.26365,0,-0.04324,0.24381,0
0,0.505,0.019064,72.58,0.505,-0.011639,-0.032944,-0.26659,0,-0.046566,0.24315,0
0,0.505,0.019062,72.576,0.505,-0.011743,-0.033198,-0.26695,0,-0.046975,0.24307,0
0,0.505,0.018825,71.722,0.505,-0.022756,-0.056339,-0.30941,0,-0.087076,0.23137,0
0,0.505,0.018809,71.671,0.505,-0.023238,-0.057246,-0.31109,0,-0.088796,0.23067,0
0,0.505,0.018875,71.843,0.505,-0.021661,-0.054222,-0.30538,0,-0.083198,0.23283,0
0,0.505,0.018866,71.807,0.505,-0.021922,-0.054756,-0.30637,0,-0.084125,0.23245,0
0,0.505,0.019112,72.783,0.505,-0.0060856,-0.018521,-0.25064,0,-0.024666,0.24635,0
0,0.505,0.019073,72.686,0.505,-0.0093869,-0.027307,-0.2592,0,-0.037761,0.24468,0
0,0.505,0.019065,72.675,0.505,-0.0098499,-0.028492,-0.2606,0,-0.03958,0.2444,0
0,0.505,0.019069,72.716,0.505,-0.0089208,-0.026111,-0.2578,0,-0.035937,0.24497,0
0,0.505,0.019092,72.743,0.505,-0.0077088,-0.022929,-0.25447,0,-0.031144,0.2456,0
0,0.505,0.019084,72.738,0.505,-0.0079808,-0.023658,-0.25516,0,-0.032232,0.24546,0
0,0.505,0.019108,72.865,0.505,-0.0027867,-0.0091198,-0.24561,0,-0.011271,0.24735,0
0,0.505,0.019104,72.864,0.505,-0.0031573,-0.010199,-0.24595,0,-0.012795,0.24726,0
0,0.505,0.019025,72.488,0.505,0.014209,0.037897,-0.27515,0,0.056475,0.24097,0
0,0.505,0.019036,72.503,0.505,0.013874,0.037103,-0.27394,0,0.055201,0.24128,0
0,0.505,0.018985,72.279,0.505,0.0172,0.044516,-0.28643,0,0.06756,0.23805,0
0,0.505,0.018985,72.281,0.505,0.017183,0.044478,-0.28637,0,0.067496,0.23807,0
0,0.505,0.018988,72.372,0.505,0.016201,0.042348,-0.28258,0,0.063893,0.23908,0
0,0.505,0.019006,72.404,0.505,0.015567,0.040947,-0.28019,0,0.061538,0.23971,0
0,0.505,0.018909,72.033,0.505,0.020179,0.050519,-0.29801,0,0.078279,0.23469,0
0,0.505,0.01891,72.034,0.505,0.020167,0.050496,-0.29796,0,0.078234,0.2347,0
0,0.505,0.018922,72.14,0.505,0.019191,0.048557,-0.29413,0,0.074759,0.23586,0
0,0.505,0.018942,72.177,0.505,0.018706,0.047563,-0.29224,0,0.073001,0.2364,0
0,0.505,0.018947,72.228,0.505,0.018198,0.046548,-0.29027,0,0.071178,0.23697,0
0,0.505,0.018985,72.276,0.505,0.017231,0.044581,-0.28655,0,0.067671,0.23801,0
0,0.505,0.019121,72.867,0.505,0.0028549,0.0075496,-0.24575,0,0.011799,0.24744,0
0,0.505,0.019124,72.86,0.505,0.0027694,0.007298,-0.24566,0,0.011458,0.24745,0
0,0.505,0.019118,72.878,0.505,0.0019696,0.0049309,-0.24498,0,0.0081501,0.24748,0
0,0.505,0.019117,72.877,0.505,0.0015866,0.0037999,-0.24474,0,0.0065262,0.24746,0
0,0.505,0.019113,72.888,0.505,0.00097646,0.0019933,-0.24445,0,0.0039784,0.24761,0
0,0.505,0.019123,72.853,0.505,0.003305,0.0088714,-0.24628,0,0.013603,0.24737,0
0,0.505,0.019116,72.853,0.505,0.0037803,0.010263,-0.24684,0,0.015525,0.24729,0
0,0.505,0.019117,72.852,0.505,0.0038505,0.010467,-0.24693,0,0.015805,0.24726,0
0,0.505,0.019116,72.831,0.505,0.0048066,0.013244,-0.24841,0,0.019738,0.24662,0
0,0.505,0.019115,72.835,0.505,0.0046876,0.012901,-0.24819,0,0.019262,0.24665,0
0,0.505,0.01911,72.898,0.505,0.00038151,0.00022719,-0.24433,0,0.0015405,0.24765,0
0,0.505,0.019105,72.91,0.505,-0.00015488,-0.0013623,-0.24427,0,-0.00062863,0.24765,0
0,0.505,0.019095,72.679,0.505,0.01015,0.027947,-0.26139,0,0.04093,0.24407,0
0,0.505,0.019095,72.692,0.505,0.0095696,0.026425,-0.25969,0,0.038736,0.24451,0
0,0.505,0.019097,72.758,0.505,0.0077743,0.021609,-0.25474,0,0.031458,0.24573,0
0,0.505,0.019096,72.818,0.505,0.0068666,0.019074,-0.25254,0,0.027959,0.24602,0
0,0.505,0.019102,72.833,0.505,0.0058958,0.016347,-0.25044,0,0.024098,0.24635,0
0,0.505,0.019094,72.855,0.505,0.0055149,0.015262,-0.2497,0,0.022538,0.24654,0
0,0.505,0.019105,72.805,0.505,0.0066222,0.018405,-0.25198,0,0.027004,0.24609,0
0,0.505,0.019096,72.757,0.505,0.0078405,0.021792,-0.2549,0,0.031714,0.24571,0
0,0.505,0.019096,72.756,0.505,0.0078578,0.021841,-0.25494,0,0.031786,0.2457,0
0,0.505,0.019091,72.714,0.505,0.0089685,0.024842,-0.25793,0,0.03646,0.24497,0
0,0.505,0.019092,72.716,0.505,0.0089264,0.024729,-0.25781,0,0.036286,0.24499,0
0,0.505,0.019095,72.678,0.505,0.010186,0.028039,-0.2615,0,0.041067,0.24405,0
0,0.505,0.017573,67.274,0.505,0.045286,0.14169,-0.31177,0,0.17112,0.17792,0
0,0.505,0.017584,67.377,0.505,0.045076,0.13905,-0.31343,0,0.16992,0.17901,0
0,0.505,0.017541,67.202,0.505,0.045535,0.14474,-0.30955,0,0.17254,0.17665,0
0,0.505,0.017615,67.483,0.505,0.044782,0.13574,-0.31567,0,0.16826,0.18049,0
0,0.505,0.017625,67.559,0.505,0.044595,0.13362,-0.31705,0,0.16722,0.18148,0
0,0.505,0.01844,70.426,0.505,0.032752,0.075535,-0.33596,0,0.12143,0.21504,0
0,0.505,0.018465,70.553,0.505,0.032148,0.074013,-0.33495,0,0.11946,0.21618,0
0,0.505,0.01795,68.723,0.505,0.040777,0.10494,-0.33371,0,0.1505,0.19573,0
0,0.505,0.017952,68.751,0.505,0.040697,0.10446,-0.33389,0,0.15019,0.19597,0
0,0.505,0.017995,68.947,0.505,0.039992,0.1007,-0.33542,0,0.14751,0.1981,0
0,0.505,0.018029,69.01,0.505,0.039631,0.099085,-0.33616,0,0.14612,0.19912,0
0,0.505,0.018273,69.904,0.505,0.035721,0.083724,-0.33865,0,0.13178,0.20869,0
0,0.505,0.018278,69.918,0.505,0.035631,0.083456,-0.33865,0,0.13147,0.20889,0
0,0.505,0.018328,70.079,0.505,0.03475,0.080812,-0.33815,0,0.12855,0.21073,0
0,0.505,0.018336,70.113,0.505,0.034551,0.08022,-0.33801,0,0.12783,0.21117,0
0,0.505,0.015786,58.817,0.505,0.020616,0.5177,-0.16682,0,0.24932,0.047109,0
0,0.505,0.015902,59.094,0.505,0.021477,0.51233,-0.16859,0,0.2488,0.048959,0
0,0.505,0.017675,67.779,0.505,0.044057,0.12828,-0.32034,0,0.16454,0.18394,0
0,0.505,0.017702,67.849,0.505,0.043794,0.12599,-0.3219,0,0.1633,0.18498,0
0,0.505,0.017734,67.995,0.505,0.043415,0.12264,-0.32381,0,0.1617,0.18646,0
0,0.505,0.017762,68.075,0.505,0.043092,0.12014,-0.32545,0,0.16036,0.18771,0
0,0.505,0.017902,68.582,0.505,0.041394,0.10845,-0.33189,0,0.15294,0.19381,0
0,0.505,0.016805,62.69,0.505,0.037248,0.39859,-0.18749,0,0.23369,0.089738,0
0,0.505,0.016814,62.776,0.505,0.037824,0.39327,-0.18843,0,0.2328,0.091477,0
0,0.505,0.016832,62.9,0.505,0.038784,0.38408,-0.19043,0,0.23124,0.094635,0
0,0.505,0.01684,63,0.505,0.039481,0.37705,-0.19214,0,0.23005,0.097041,0
0,0.505,0.016858,63.145,0.505,0.040517,0.36603,-0.19497,0,0.22816,0.1008,0
0,0.505,0.016859,63.159,0.505,0.040615,0.36496,-0.19524,0,0.22798,0.10117,0
0,0.505,0.01658,61.437,0.505,0.02967,0.45849,-0.17883,0,0.24246,0.068087,0
0,0.505,0.016602,61.533,0.505,0.030196,0.45471,-0.17922,0,0.24197,0.069435,0
0,0.505,0.016464,60.94,0.505,0.027453,0.47382,-0.17681,0,0.24438,0.062601,0
0,0.505,0.016484,61.018,0.505,0.027742,0.47191,-0.17712,0,0.24413,0.063314,0
0,0.505,0.016535,61.268,0.505,0.028866,0.46405,-0.17803,0,0.24317,0.066094,0
0,0.505,0.018632,71.153,0.505,0.028175,0.065444,-0.32584,0,0.106,0.22328,0
0,0.505,0.018677,71.263,0.505,0.027357,0.063838,-0.32342,0,0.10317,0.22462,0
0,0.505,0.01883,71.706,0.505,0.023469,0.056681,-0.3104,0,0.089823,0.2305,0
0,0.505,0.018833,71.752,0.505,0.023114,0.056037,-0.30911,0,0.088532,0.23098,0
0,0.505,0.01849,70.616,0.505,0.031821,0.073172,-0.33434,0,0.11838,0.21682,0
0,0.505,0.01852,70.72,0.505,0.031125,0.071622,-0.33305,0,0.11613,0.21808,0
0,0.505,0.0183,69.967,0.505,0.035312,0.08253,-0.33851,0,0.13041,0.20956,0
0,0.505,0.018212,69.71,0.505,0.036716,0.087024,-0.33873,0,0.13538,0.20648,0
0,0.505,0.01822,69.733,0.505,0.036568,0.086537,-0.33879,0,0.13484,0.20683,0
0,0.505,0.018164,69.503,0.505,0.037682,0.090583,-0.33836,0,0.1389,0.20423,0
0,0.505,0.018173,69.528,0.505,0.037523,0.090006,-0.33851,0,0.13833,0.20461,0
0,0.505,0.016838,63.033,0.505,0.039725,0.37453,-0.19272,0,0.22962,0.097908,0
0,0.505,0.016828,62.855,0.505,0.038405,0.38775,-0.18966,0,0.23188,0.093377,0
0,0.505,0.016771,62.392,0.505,0.035394,0.41483,-0.18471,0,0.23621,0.083775,0
0,0.505,0.016794,62.499,0.505,0.036111,0.40878,-0.18568,0,0.23522,0.086045,0
0,0.505,0.016761,62.356,0.505,0.035136,0.41699,-0.18434,0,0.23657,0.082971,0
0,0.505,0.016762,62.362,0.505,0.035168,0.41673,-0.18438,0,0.23653,0.08306,0
0,0.505,0.016718,62.183,0.505,0.033927,0.42673,-0.18288,0,0.238,0.079544,0
0,0.505,0.016721,62.201,0.505,0.034016,0.42602,-0.18299,0,0.2379,0.079793,0
0,0.505,0.016665,61.757,0.505,0.031454,0.44566,-0.18045,0,0.24076,0.072873,0
0,0.505,0.016683,61.867,0.505,0.032081,0.44096,-0.18107,0,0.24005,0.074525,0
0,0.505,0.016663,61.744,0.505,0.031368,0.4463,-0.18039,0,0.24085,0.07264,0
0,0.505,0.016365,60.585,0.505,0.026019,0.48347,-0.17526,0,0.24549,0.05918,0
0,0.505,0.016427,60.772,0.505,0.026839,0.47798,-0.17624,0,0.24484,0.06114,0
0,0.505,0.016345,60.495,0.505,0.025654,0.48598,-0.17491,0,0.24578,0.058369,0
0,0.505,0.016008,59.437,0.505,0.022288,0.50758,-0.1701,0,0.24823,0.050677,0
0,0.505,0.015251,57.226,0.505,0.017154,0.53651,-0.15778,0,0.25138,0.039884,0
0,0.505,0.015368,57.51,0.505,0.017811,0.53304,-0.15973,0,0.25099,0.041219,0
0,0.505,0.014814,56.248,0.505,0.01527,0.54441,-0.15104,0,0.25218,0.035973,0
0,0.505,0.015039,56.767,0.505,0.016274,0.53987,-0.15434,0,0.25182,0.038152,0
0,0.505,0.014623,55.861,0.505,0.01461,0.54609,-0.14806,0,0.25259,0.034658,0
0,0.505,0.014395,55.501,0.505,0.013917,0.54759,-0.1444,0,0.25307,0.033292,0
0,0.505,0.015635,58.321,0.505,0.019572,0.52347,-0.16442,0,0.24992,0.044942,0
0,0.505,0.015544,58.068,0.505,0.018883,0.5276,-0.16272,0,0.25037,0.043588,0
0,0.505,0.016123,59.717,0.505,0.023213,0.50172,-0.17172,0,0.24759,0.052775,0
0,0.505,0.010259,50.975,0.505,0.0045778,0.47032,-0.070562,0,0.25704,0.015118,0
0,0.505,0.010575,51.007,0.505,0.0050026,0.48622,-0.076148,0,0.25687,0.01613,0
0,0.505,0.0072437,56.378,0.505,0.00061813,0.18411,-0.0094659,0,0.25931,0.003737,0
0,0.505,0.0081856,52.479,0.505,0.0017052,0.32811,-0.030027,0,0.25842,0.0078074,0
0,0.505,0.0082849,52.232,0.505,0.0018311,0.33963,-0.032293,0,0.25834,0.0082163,0
0,0.505,0.0093934,50.97,0.505,0.0032253,0.42745,-0.054045,0,0.2576,0.011939,0
0,0.505,0.0082024,52.332,0.505,0.001743,0.33357,-0.030797,0,0.25839,0.0079632,0
0,0.505,0.011745,51.699,0.505,0.0070792,0.52391,-0.097451,0,0.25601,0.020162,0
0,0.505,0.012378,52.374,0.505,0.0083735,0.53788,-0.10941,0,0.25554,0.022772,0
0,0.505,0.017791,68.188,0.505,0.042685,0.11698,-0.32739,0,0.15851,0.18925,0
0,0.505,0.017632,67.591,0.505,0.044492,0.1326,-0.31776,0,0.16668,0.18196,0
0,0.505,0.017497,67.005,0.505,0.045948,0.15089,-0.30549,0,0.17516,0.17414,0
0,0.505,0.017521,67.076,0.505,0.045784,0.14841,-0.30716,0,0.1741,0.17515,0
0,0.505,0.017414,66.662,0.505,0.046605,0.1626,-0.29751,0,0.17967,0.16957,0
0,0.505,0.017439,66.831,0.505,0.046347,0.1574,-0.30091,0,0.17782,0.17163,0
0,0.505,0.017802,68.225,0.505,0.042535,0.11594,-0.32805,0,0.15784,0.18982,0
0,0.505,0.017842,68.384,0.505,0.042081,0.11277,-0.32966,0,0.15574,0.19159,0
0,0.505,0.017875,68.469,0.505,0.041724,0.11057,-0.33094,0,0.15426,0.19276,0
0,0.505,0.017967,68.793,0.505,0.040527,0.10356,-0.33429,0,0.14954,0.19649,0
0,0.505,0.018092,69.232,0.505,0.0388,0.095213,-0.33732,0,0.14302,0.20151,0
0,0.505,0.018108,69.327,0.505,0.038426,0.093571,-0.33778,0,0.14164,0.2025,0
0,0.505,0.018056,69.129,0.505,0.039229,0.097125,-0.33675,0,0.14462,0.20023,0
0,0.505,0.01719,65.558,0.505,0.047701,0.20886,-0.26712,0,0.19456,0.15261,0
0,0.505,0.017194,65.575,0.505,0.047698,0.20808,-0.26761,0,0.19434,0.15288,0
0,0.505,0.017217,65.751,0.505,0.047648,0.20059,-0.27228,0,0.19219,0.15547,0
0,0.505,0.01725,65.876,0.505,0.047569,0.19411,-0.27655,0,0.19024,0.1578,0
0,0.505,0.017108,65.05,0.505,0.047528,0.23538,-0.25103,0,0.20164,0.14367,0
0,0.505,0.017117,65.091,0.505,0.047562,0.23257,-0.25275,0,0.2009,0.14462,0
0,0.505,0.017253,65.911,0.505,0.04755,0.19257,-0.27753,0,0.18979,0.15835,0
0,0.505,0.017265,65.941,0.505,0.047512,0.19084,-0.27874,0,0.18922,0.15901,0
0,0.505,0.01732,66.289,0.505,0.047192,0.1773,-0.28756,0,0.18506,0.16386,0
0,0.505,0.017361,66.376,0.505,0.047031,0.17268,-0.29083,0,0.18344,0.16557,0
0,0.505,0.017369,66.415,0.505,0.046981,0.17125,-0.29177,0,0.18293,0.16609,0
0,0.505,0.017286,66.103,0.505,0.047386,0.18482,-0.28261,0,0.18733,0.1612,0
0,0.505,0.017315,66.208,0.505,0.04727,0.18022,-0.28569,0,0.18595,0.16284,0
0,0.505,0.017122,65.232,0.505,0.047638,0.2262,-0.25644,0,0.19927,0.14672,0
0,0.505,0.017139,65.309,0.505,0.047671,0.22207,-0.25894,0,0.19818,0.14811,0
0,0.505,0.017404,66.594,0.505,0.04673,0.16524,-0.2957,0,0.18067,0.16858,0
0,0.505,0.013605,54.044,0.505,0.011434,0.54989,-0.13126,0,0.25424,0.028746,0
0,0.505,0.014274,55.314,0.505,0.013475,0.54906,-0.14244,0,0.25321,0.032483,0
0,0.505,0.013491,53.89,0.505,0.011086,0.54994,-0.12923,0,0.25437,0.028093,0
0,0.505,0.016798,62.521,0.505,0.036289,0.40721,-0.18597,0,0.23498,0.086631,0
0,0.505,0.016792,62.639,0.505,0.036892,0.4018,-0.18684,0,0.23416,0.088633,0
0,0.505,0.016901,63.613,0.505,0.043283,0.33167,-0.20566,0,0.22203,0.11225,0
0,0.505,0.016905,63.683,0.505,0.043634,0.32666,-0.20742,0,0.2211,0.1139,0
0,0.505,0.016875,63.28,0.505,0.041444,0.35543,-0.19796,0,0.22631,0.10438,0
0,0.505,0.016876,63.29,0.505,0.041498,0.35478,-0.19816,0,0.22619,0.10459,0
0,0.505,0.016883,63.454,0.505,0.042419,0.34332,-0.20171,0,0.22415,0.10841,0
0,0.505,0.016889,63.553,0.505,0.042949,0.3363,-0.20401,0,0.22288,0.11073,0
0,0.505,0.016698,61.997,0.505,0.032758,0.43585,-0.18169,0,0.23929,0.076314,0
0,0.505,0.016696,61.983,0.505,0.032696,0.43632,-0.18163,0,0.23935,0.076147,0
0,0.505,0.016872,63.227,0.505,0.041131,0.35904,-0.19695,0,0.22694,0.10317,0
0,0.505,0.016878,63.418,0.505,0.042219,0.34588,-0.20086,0,0.22461,0.10756,0
0,0.505,0.016978,64.229,0.505,0.045894,0.28719,-0.22388,0,0.21324,0.12675,0
0,0.505,0.017002,64.331,0.505,0.046241,0.27933,-0.22768,0,0.21153,0.12937,0
0,0.505,0.017044,64.637,0.505,0.046917,0.2607,-0.23704,0,0.20752,0.13532,0
0,0.505,0.017049,64.735,0.505,0.047086,0.25522,-0.23985,0,0.2064,0.13708,0
0,0.505,0.017077,64.788,0.505,0.047206,0.25035,-0.24264,0,0.20531,0.13871,0
0,0.505,0.017079,64.895,0.505,0.047346,0.2448,-0.24563,0,0.20401,0.14055,0
0,0.505,0.017004,64.369,0.505,0.046343,0.27697,-0.22878,0,0.21102,0.13013,0
0,0.505,0.017015,64.408,0.505,0.04646,0.27381,-0.2304,0,0.21028,0.13117,0
0,0.505,0.016963,64.12,0.505,0.045555,0.29419,-0.22076,0,0.21469,0.12449,0
0,0.505,0.016942,63.942,0.505,0.04493,0.30594,-0.21569,0,0.21707,0.12067,0
0,0.505,0.016954,64.079,0.505,0.045402,0.2972,-0.2194,0,0.21531,0.1235,0
0,0.505,0.016939,63.929,0.505,0.044867,0.30711,-0.21518,0,0.21731,0.12029,0
0,0.505,0.016939,63.924,0.505,0.044846,0.30746,-0.21504,0,0.21738,0.12017,0
0,0.505,0.01692,63.77,0.505,0.044091,0.31977,-0.21007,0,0.21979,0.11615,0
0,0.505,0.016921,63.808,0.505,0.044274,0.31694,-0.21113,0,0.21925,0.11708,0
0,0.505,0.017016,64.552,0.505,0.046726,0.26652,-0.23398,0,0.20866,0.1335,0
0,0.505,0.017148,65.408,0.505,0.047701,0.2173,-0.26179,0,0.19692,0.14972,0
0,0.505,0.017186,65.527,0.505,0.047702,0.21017,-0.26633,0,0.19492,0.15217,0
0,0.505,0.017108,65.001,0.505,0.047479,0.23802,-0.24955,0,0.20229,0.14279,0
0,0.505,0.017376,66.443,0.505,0.046938,0.17017,-0.29249,0,0.18254,0.16653,0
0,0.505,0.017482,66.929,0.505,0.046072,0.15288,-0.30422,0,0.17599,0.17341,0
0,0.505,0.016245,60.167,0.505,0.024554,0.49305,-0.17343,0,0.24656,0.055929,0
0,0.505,0.016188,59.926,0.505,0.023778,0.49825,-0.17259,0,0.24715,0.054099,0
0,0.505,0.010833,51.152,0.505,0.005447,0.49637,-0.081382,0,0.25667,0.017053,0
0,0.505,0.01272,52.723,0.505,0.0091631,0.54252,-0.11525,0,0.2552,0.024336,0
0,0.505,0.0071815,57.5,0.505,0.00049528,0.15068,-0.0067651,0,0.25931,0.0024484,0
0,0.505,0.014357,55.351,0.505,-0.013314,-0.54885,-0.14359,0,-0.25306,0.032863,0
0,0.505,0.01399,54.681,0.505,-0.012122,-0.55065,-0.13768,0,-0.25359,0.030612,0
0,0.505,0.013831,54.405,0.505,-0.011655,-0.55073,-0.13495,0,-0.25382,0.029727,0
0,0.505,0.013625,54.03,0.505,-0.01109,-0.54982,-0.13147,0,-0.25408,0.028647,0
0,0.505,0.013223,53.48,0.505,-0.010021,-0.54857,-0.12444,0,-0.25458,0.026623,0
0,0.505,0.015414,57.718,0.505,-0.017967,-0.53052,-0.16108,0,-0.25065,0.042374,0
0,0.505,0.015154,57.047,0.505,-0.016485,-0.53824,-0.15684,0,-0.25141,0.039541,0
0,0.505,0.015823,58.755,0.505,-0.020319,-0.51819,-0.16734,0,-0.24933,0.047118,0
0,0.505,0.015745,58.549,0.505,-0.019804,-0.52117,-0.16619,0,-0.24962,0.046086,0
0,0.505,0.016015,59.402,0.505,-0.022006,-0.50801,-0.17048,0,-0.2482,0.050815,0
0,0.505,0.015862,58.841,0.505,-0.020617,-0.51634,-0.16801,0,-0.24913,0.04777,0
0,0.505,0.016161,59.792,0.505,-0.023317,-0.49981,-0.17279,0,-0.24728,0.053741,0
0,0.505,0.006926,57.288,0.505,-0.00012485,-0.15018,-0.0065728,0,-0.25944,0.0028007,0
0,0.505,0.012551,52.555,0.505,-0.00836,-0.54077,-0.11218,0,-0.25527,0.023449,0
0,0.505,0.011807,51.663,0.505,-0.0067397,-0.52589,-0.098753,0,-0.25599,0.020295,0
0,0.505,0.011788,51.64,0.505,-0.0067002,-0.52541,-0.09837,0,-0.25601,0.020217,0
0,0.505,0.012942,53.098,0.505,-0.0092936,-0.54605,-0.11959,0,-0.25487,0.025249,0
0,0.505,0.0086168,51.647,0.505,-0.0018021,-0.36493,-0.038127,0,-0.25826,0.0092201,0
0,0.505,0.0078651,53.116,0.505,-0.00093894,-0.29254,-0.022798,0,-0.25871,0.0066036,0
0,0.505,0.0071782,56.246,0.505,-0.00029913,-0.18503,-0.0099789,0,-0.25926,0.0038184,0
0,0.505,0.0070172,56.838,0.505,-0.00017026,-0.16413,-0.0074961,0,-0.25937,0.0032841,0
0,0.505,0.0090815,51.107,0.505,-0.0024837,-0.40473,-0.04828,0,-0.25793,0.010981,0
0,0.505,0.0088184,51.265,0.505,-0.0020772,-0.38636,-0.042548,0,-0.25812,0.010003,0
0,0.505,0.010323,50.917,0.505,-0.0042228,-0.47519,-0.071977,0,-0.25709,0.015108,0
0,0.505,0.0098181,50.82,0.505,-0.0034849,-0.45266,-0.062587,0,-0.25748,0.013473,0
0,0.505,0.011743,51.602,0.505,-0.0066216,-0.524,-0.097562,0,-0.25604,0.020054,0
0,0.505,0.010853,51.052,0.505,-0.0050556,-0.49723,-0.081237,0,-0.25671,0.016878,0
0,0.505,0.015056,56.79,0.505,-0.01607,-0.53967,-0.15528,0,-0.25159,0.038683,0
0,0.505,0.014778,56.13,0.505,-0.01477,-0.54513,-0.15057,0,-0.25229,0.035915,0
0,0.505,0.014659,55.86,0.505,-0.014339,-0.54614,-0.14863,0,-0.25252,0.035008,0
0,0.505,0.015515,58.025,0.505,-0.0185,-0.52817,-0.16267,0,-0.25037,0.04345,0
0,0.505,0.016601,61.442,0.505,-0.02988,-0.45615,-0.17992,0,-0.24182,0.069424,0
0,0.505,0.016523,61.163,0.505,-0.028387,-0.46647,-0.17855,0,-0.24316,0.065728,0
0,0.505,0.016504,61.06,0.505,-0.028029,-0.4689,-0.17824,0,-0.24348,0.064854,0
0,0.505,0.016429,60.813,0.505,-0.026823,-0.47704,-0.17697,0,-0.24456,0.061934,0
0,0.505,0.016606,61.466,0.505,-0.029981,-0.45546,-0.18003,0,-0.24172,0.069673,0
0,0.505,0.016664,61.719,0.505,-0.03143,-0.44505,-0.18131,0,-0.24032,0.073508,0
0,0.505,0.016766,62.469,0.505,-0.03612,-0.40812,-0.18677,0,-0.23477,0.086934,0
0,0.505,0.01675,62.373,0.505,-0.035507,-0.4133,-0.18582,0,-0.2356,0.085076,0
0,0.505,0.016738,62.258,0.505,-0.034683,-0.4201,-0.18477,0,-0.23665,0.082622,0
0,0.505,0.016866,63.35,0.505,-0.041986,-0.34802,-0.20155,0,-0.22455,0.1077,0
0,0.505,0.016864,63.221,0.505,-0.041342,-0.35594,-0.19921,0,-0.22595,0.10505,0
0,0.505,0.016916,63.712,0.505,-0.043953,-0.3207,-0.21119,0,-0.21952,0.11653,0
0,0.505,0.016906,63.584,0.505,-0.043459,-0.32822,-0.20842,0,-0.22098,0.11405,0
0,0.505,0.016925,63.858,0.505,-0.044592,-0.31023,-0.21538,0,-0.21748,0.11989,0
0,0.505,0.016921,63.761,0.505,-0.044235,-0.31615,-0.21301,0,-0.2186,0.11803,0
0,0.505,0.016882,63.432,0.505,-0.042482,-0.34165,-0.2037,0,-0.22342,0.10975,0
0,0.505,0.016795,62.719,0.505,-0.037944,-0.39174,-0.18994,0,-0.23211,0.092742,0
0,0.505,0.01679,62.659,0.505,-0.037486,-0.396,-0.18909,0,-0.23281,0.091239,0
0,0.505,0.0169,63.575,0.505,-0.043364,-0.32962,-0.20789,0,-0.22125,0.11359,0
0,0.505,0.016877,63.505,0.505,-0.042819,-0.33717,-0.2051,0,-0.22268,0.11117,0
0,0.505,0.016371,60.514,0.505,-0.025808,-0.48375,-0.17596,0,-0.2454,0.059499,0
0,0.505,0.016328,60.399,0.505,-0.025258,-0.48742,-0.17526,0,-0.24585,0.058197,0
0,0.505,0.016248,60.085,0.505,-0.024209,-0.49426,-0.17407,0,-0.24662,0.05578,0
0,0.505,0.016192,59.921,0.505,-0.023645,-0.4978,-0.17327,0,-0.24704,0.054482,0
0,0.505,0.017949,68.772,0.505,-0.040126,-0.10452,-0.33408,0,-0.1479,0.19769,0
0,0.505,0.016857,63.18,0.505,-0.041096,-0.35884,-0.19831,0,-0.22646,0.10408,0
0,0.505,0.016845,63.023,0.505,-0.040221,-0.36874,-0.1956,0,-0.22819,0.10072,0
0,0.505,0.016843,63.013,0.505,-0.040132,-0.36974,-0.19531,0,-0.22837,0.10038,0
0,0.505,0.016842,63.008,0.505,-0.040104,-0.37004,-0.19523,0,-0.22842,0.10028,0
0,0.505,0.016727,62.177,0.505,-0.034211,-0.42387,-0.18415,0,-0.23722,0.081252,0
0,0.505,0.016714,62.021,0.505,-0.033173,-0.43202,-0.18304,0,-0.23844,0.07829,0
0,0.505,0.016937,63.978,0.505,-0.045104,-0.30113,-0.21923,0,-0.21574,0.12313,0
0,0.505,0.016929,63.917,0.505,-0.044879,-0.3052,-0.21751,0,-0.21666,0.1217,0
0,0.505,0.016992,64.4,0.505,-0.046362,-0.27334,-0.23196,0,-0.20984,0.13195,0
0,0.505,0.01698,64.299,0.505,-0.046068,-0.28074,-0.22839,0,-0.21139,0.12953,0
0,0.505,0.016973,64.235,0.505,-0.045888,-0.28481,-0.22647,0,-0.21219,0.12826,0
0,0.505,0.01708,64.916,0.505,-0.047279,-0.24133,-0.24882,0,-0.20234,0.14253,0
0,0.505,0.017063,64.723,0.505,-0.047071,-0.25104,-0.24359,0,-0.20487,0.13932,0
0,0.505,0.016956,64.138,0.505,-0.045537,-0.29237,-0.22301,0,-0.21386,0.12602,0
0,0.505,0.01695,64.053,0.505,-0.045352,-0.29633,-0.22128,0,-0.21459,0.12473,0
0,0.505,0.017112,65.229,0.505,-0.047513,-0.22459,-0.2584,0,-0.19828,0.14811,0
0,0.505,0.017101,65.109,0.505,-0.047448,-0.23049,-0.25497,0,-0.19989,0.14614,0
0,0.505,0.017097,65.016,0.505,-0.047375,-0.23576,-0.25197,0,-0.20105,0.14434,0
0,0.505,0.01728,66.011,0.505,-0.04724,-0.18663,-0.28228,0,-0.18706,0.16126,0
0,0.505,0.01727,65.977,0.505,-0.047274,-0.18814,-0.28129,0,-0.18751,0.1607,0
0,0.505,0.017305,66.196,0.505,-0.047049,-0.17935,-0.28702,0,-0.18476,0.16402,0
0,0.505,0.017211,65.787,0.505,-0.047439,-0.19728,-0.27526,0,-0.19044,0.1574,0
0,0.505,0.017193,65.621,0.505,-0.047505,-0.20392,-0.27116,0,-0.19222,0.15505,0
0,0.505,0.017178,65.547,0.505,-0.047536,-0.20779,-0.26868,0,-0.19337,0.15374,0
0,0.505,0.017165,65.454,0.505,-0.047542,-0.21227,-0.26595,0,-0.19473,0.15214,0
0,0.505,0.017146,65.376,0.505,-0.047544,-0.21649,-0.26335,0,-0.19602,0.1507,0
0,0.505,0.017265,65.942,0.505,-0.047297,-0.18931,-0.28056,0,-0.18788,0.16029,0
0,0.505,0.01718,65.583,0.505,-0.047532,-0.20649,-0.26944,0,-0.19299,0.15422,0
0,0.505,0.017406,66.712,0.505,-0.04627,-0.16056,-0.29958,0,-0.17789,0.17126,0
0,0.505,0.01738,66.6,0.505,-0.046448,-0.16416,-0.29721,0,-0.17928,0.16992,0
0,0.505,0.017355,66.381,0.505,-0.046768,-0.17137,-0.29247,0,-0.18192,0.1673,0
0,0.505,0.01748,66.917,0.505,-0.045815,-0.15283,-0.30495,0,-0.17479,0.17446,0
0,0.505,0.017437,66.806,0.505,-0.046041,-0.15652,-0.3025,0,-0.17631,0.17289,0
0,0.505,0.017596,67.458,0.505,-0.044531,-0.13638,-0.31583,0,-0.16728,0.18156,0
0,0.505,0.01755,67.205,0.505,-0.045112,-0.14307,-0.31155,0,-0.17053,0.17875,0
0,0.505,0.017352,66.367,0.505,-0.046786,-0.1718,-0.29219,0,-0.18207,0.16713,0
0,0.505,0.017349,66.348,0.505,-0.046808,-0.17245,-0.29177,0,-0.18232,0.16687,0
0,0.505,0.01755,67.205,0.505,-0.045114,-0.14309,-0.31154,0,-0.17054,0.17874,0
0,0.505,0.017499,66.999,0.505,-0.045653,-0.1503,-0.3066,0,-0.17366,0.17558,0
0,0.505,0.016773,62.551,0.505,-0.036751,-0.40262,-0.18773,0,-0.23389,0.088895,0
0,0.505,0.016814,62.839,0.505,-0.038807,-0.38342,-0.19187,0,-0.23071,0.095651,0
0,0.505,0.016816,62.875,0.505,-0.039077,-0.38073,-0.19246,0,-0.23026,0.096585,0
0,0.505,0.016703,61.961,0.505,-0.032857,-0.43441,-0.18267,0,-0.23879,0.077412,0
0,0.505,0.016672,61.754,0.505,-0.031596,-0.44386,-0.18148,0,-0.24015,0.073955,0
0,0.505,0.017016,64.582,0.505,-0.046759,-0.26191,-0.23771,0,-0.20739,0.13554,0
0,0.505,0.017005,64.489,0.505,-0.046564,-0.26776,-0.23475,0,-0.20869,0.1337,0
0,0.505,0.017058,64.697,0.505,-0.047033,-0.25245,-0.24285,0,-0.20521,0.13884,0
0,0.505,0.01706,64.712,0.505,-0.047056,-0.25164,-0.24327,0,-0.20502,0.13911,0
0,0.505,0.018724,71.328,0.505,-0.02602,-0.062771,-0.32026,0,-0.098289,0.22684,0
0,0.505,0.018773,71.496,0.505,-0.02469,-0.060134,-0.31606,0,-0.093701,0.22873,0
0,0.505,0.01877,71.482,0.505,-0.024778,-0.060327,-0.31636,0,-0.093995,0.22861,0
0,0.505,0.018731,71.354,0.505,-0.025811,-0.062369,-0.31964,0,-0.097575,0.22716,0
0,0.505,0.017141,65.319,0.505,-0.047542,-0.21864,-0.2621,0,-0.19663,0.15001,0
0,0.505,0.018598,70.959,0.505,-0.028728,-0.068478,-0.32775,0,-0.1075,0.22256,0
0,0.505,0.018595,70.943,0.505,-0.028829,-0.068693,-0.32798,0,-0.10785,0.22239,0
0,0.505,0.018609,70.98,0.505,-0.028545,-0.068107,-0.3273,0,-0.10688,0.22285,0
0,0.505,0.018973,72.261,0.505,-0.016994,-0.044832,-0.28711,0,-0.066593,0.23821,0
0,0.505,0.01896,72.235,0.505,-0.017443,-0.045778,-0.2889,0,-0.068237,0.23771,0
0,0.505,0.018991,72.361,0.505,-0.015553,-0.041804,-0.28135,0,-0.061304,0.23966,0
0,0.505,0.018993,72.316,0.505,-0.016048,-0.042881,-0.28335,0,-0.063142,0.23918,0
0,0.505,0.018977,72.303,0.505,-0.016499,-0.043798,-0.28512,0,-0.064796,0.23875,0
0,0.505,0.018907,72.081,0.505,-0.019371,-0.049689,-0.29659,0,-0.075143,0.23549,0
0,0.505,0.018903,71.997,0.505,-0.020219,-0.051371,-0.29989,0,-0.078236,0.23449,0
0,0.505,0.018927,72.13,0.505,-0.018777,-0.048478,-0.29423,0,-0.07301,0.23621,0
0,0.505,0.019063,72.653,0.505,0.011269,0.03079,-0.26493,0,0.045249,0.24336,0
0,0.505,0.019095,72.674,0.505,0.010247,0.028196,-0.26169,0,0.041306,0.244,0
0,0.505,0.019065,72.586,0.505,0.012149,0.032991,-0.26788,0,0.048658,0.24271,0
0,0.505,0.019089,72.783,0.505,-0.0070307,-0.021098,-0.25277,0,-0.028453,0.24594,0
0,0.505,0.019085,72.717,0.505,-0.0083467,-0.024626,-0.2562,0,-0.033677,0.24527,0
0,0.505,0.018846,71.785,0.505,0.022679,0.055265,-0.30753,0,0.087022,0.23153,0
0,0.505,0.018851,71.854,0.505,0.022155,0.054258,-0.30554,0,0.085219,0.23216,0
0,0.505,0.019111,72.875,0.505,-0.0011122,-0.0042034,-0.24446,0,-0.0044016,0.24763,0
0,0.505,0.01911,72.876,0.505,-0.0011915,-0.0044378,-0.24448,0,-0.0047255,0.24762,0
0,0.505,0.019097,72.892,0.505,-0.0021832,-0.0073534,-0.24507,0,-0.0088085,0.24748,0
0,0.505,0.019101,72.831,0.505,-0.0051001,-0.015755,-0.24874,0,-0.020689,0.24672,0
0,0.505,0.019111,72.873,0.505,-0.0013204,-0.0048181,-0.24456,0,-0.0052563,0.2476,0
0,0.505,0.019108,72.849,0.505,-0.0041293,-0.013002,-0.24719,0,-0.016751,0.24704,0
0,0.505,0.019113,72.832,0.505,-0.0044541,-0.013931,-0.2477,0,-0.018063,0.24693,0
0,0.505,0.019113,72.841,0.505,-0.0036769,-0.011703,-0.24662,0,-0.014915,0.24714,0
0,0.505,0.019061,72.573,0.505,-0.011788,-0.033307,-0.26711,0,-0.047147,0.24303,0
0,0.505,0.019028,72.509,0.505,-0.013028,-0.036225,-0.27163,0,-0.051863,0.24192,0
0,0.505,0.019014,72.485,0.505,-0.013676,-0.037673,-0.27404,0,-0.054307,0.24136,0
0,0.505,0.019031,72.532,0.505,-0.012712,-0.035479,-0.27044,0,-0.050671,0.2422,0
0,0.505,0.019009,72.42,0.505,-0.014618,-0.039785,-0.27768,0,-0.05783,0.24053,0
0,0.505,0.01901,72.392,0.505,-0.014945,-0.040493,-0.27896,0,-0.059041,0.24022,0
0,0.505,0.019014,72.424,0.505,-0.014396,-0.039313,-0.27683,0,-0.057002,0.24072,0
0,0.505,0.018882,71.862,0.505,-0.021522,-0.053931,-0.30484,0,-0.082703,0.23298,0
0,0.505,0.0189,71.973,0.505,-0.020424,-0.051801,-0.30069,0,-0.078963,0.23427,0
0,0.505,0.01755,67.205,0.505,-0.045113,-0.14308,-0.31154,0,-0.17053,0.17874,0
0,0.505,0.017645,67.587,0.505,-0.044098,-0.13214,-0.31876,0,-0.16503,0.18349,0
0,0.505,0.018783,71.619,0.505,-0.023744,-0.058259,-0.31285,0,-0.090588,0.23,0
0,0.505,0.018762,71.435,0.505,-0.025104,-0.060988,-0.31742,0,-0.095128,0.22815,0
0,0.505,0.018909,72.032,0.505,0.020186,0.050532,-0.29803,0,0.078303,0.23468,0
0,0.505,0.018869,71.962,0.505,0.021179,0.052398,-0.30184,0,0.081816,0.23349,0
0,0.505,0.019063,72.573,0.505,0.012367,0.033532,-0.26864,0,0.0495,0.24254,0
0,0.505,0.019062,72.582,0.505,0.012243,0.033227,-0.2682,0,0.049028,0.24263,0
0,0.505,0.019006,72.435,0.505,0.015204,0.04015,-0.27884,0,0.060195,0.24007,0
0,0.505,0.019024,72.447,0.505,0.014685,0.039001,-0.27693,0,0.058258,0.24054,0
0,0.505,0.019037,72.556,0.505,0.013225,0.035575,-0.2716,0,0.052756,0.24186,0
0,0.505,0.018362,70.222,0.505,0.033951,0.078554,-0.33749,0,0.12569,0.21252,0
0,0.505,0.018413,70.336,0.505,0.033308,0.076863,-0.3367,0,0.12334,0.21396,0
0,0.505,0.018422,70.375,0.505,0.033091,0.076319,-0.33644,0,0.12254,0.21438,0
0,0.505,0.018863,71.891,0.505,0.021787,0.053542,-0.30415,0,0.083929,0.23268,0
0,0.505,0.018803,71.643,0.505,0.024041,0.057737,-0.31248,0,0.091941,0.22967,0
0,0.505,0.018542,70.804,0.505,0.030649,0.070493,-0.33201,0,0.11446,0.21897,0
0,0.505,0.018565,70.869,0.505,0.030144,0.069459,-0.3309,0,0.11272,0.2199,0
0,0.505,0.018586,70.965,0.505,0.029555,0.068158,-0.32944,0,0.1107,0.22093,0
0,0.505,0.018598,71.013,0.505,0.029159,0.067406,-0.32848,0,0.10935,0.22162,0
0,0.505,0.018624,71.117,0.505,0.028468,0.06597,-0.32661,0,0.10699,0.2228,0
0,0.505,0.018751,71.414,0.505,0.026062,0.061453,-0.31937,0,0.098886,0.22655,0
0,0.505,0.018753,71.416,0.505,0.026033,0.061407,-0.31928,0,0.098788,0.22659,0
0,0.505,0.018684,71.284,0.505,0.027178,0.063529,-0.3229,0,0.10256,0.2249,0
0,0.505,0.018751,71.412,0.505,0.026085,0.061491,-0.31944,0,0.09896,0.22652,0
0,0.505,0.018771,71.548,0.505,0.024971,0.059412,-0.31572,0,0.095306,0.22819,0
0,0.505,0.018795,71.582,0.505,0.024493,0.058601,-0.31409,0,0.09363,0.22898,0
