"cvar","mu","phivar","pressure","rho","str","velocity:0","velocity:1","Label","Points:0","Points:1","Points:2"
0,0.505,0.0044875,55.207,0.505,2.8315e-05,-0.083717,-0.0013902,0,-0.25727,0,0
0,0.505,0.0044575,54.766,0.505,0.00017648,0.099375,-0.0019846,0,0.257,0,0
0,0.505,0.019276,73.269,0.505,-0.012415,-0.00392,-0.16787,0,-0.10233,0.22669,0
0,0.505,0.019261,73.251,0.505,-0.012815,-0.0039108,-0.17138,0,-0.10472,0.22561,0
0,0.505,0.019267,73.226,0.505,-0.01302,-0.0038877,-0.17324,0,-0.10592,0.22504,0
0,0.505,0.019251,73.195,0.505,-0.013385,-0.0038468,-0.17655,0,-0.10804,0.22404,0
0,0.505,0.019263,73.124,0.505,-0.013949,-0.0036984,-0.18183,0,-0.11137,0.22251,0
0,0.505,0.018706,70.527,0.505,-0.029411,0.0025004,-0.32587,0,-0.1727,0.17847,0
0,0.505,0.018684,70.377,0.505,-0.029905,0.0016907,-0.32911,0,-0.17417,0.17693,0
0,0.505,0.019054,71.804,0.505,-0.024007,0.0037857,-0.28322,0,-0.15523,0.19373,0
0,0.505,0.019017,71.662,0.505,-0.024679,0.004051,-0.28937,0,-0.15763,0.19194,0
0,0.505,0.018962,71.441,0.505,-0.025664,0.0042807,-0.29795,0,-0.16083,0.18922,0
0,0.505,0.018944,71.329,0.505,-0.026186,0.004393,-0.30227,0,-0.16248,0.18774,0
0,0.505,0.019065,71.833,0.505,-0.023809,0.0036377,-0.28146,0,-0.1545,0.19429,0
0,0.505,0.018951,71.297,0.505,0.026271,-0.0070728,-0.30231,0,0.16363,0.18668,0
0,0.505,0.018961,71.361,0.505,0.026056,-0.0071088,-0.30045,0,0.16299,0.18728,0
0,0.505,0.019216,73.785,0.505,-0.0033325,-0.0010759,-0.11041,0,-0.033725,0.24657,0
0,0.505,0.0192,73.788,0.505,-0.0036397,-0.0012249,-0.11148,0,-0.036494,0.24618,0
0,0.505,0.019189,73.866,0.505,-0.001517,6.3818e-05,-0.1058,0,-0.016871,0.24828,0
0,0.505,0.019221,73.841,0.505,-0.0018848,-0.00020628,-0.10646,0,-0.020343,0.24801,0
0,0.505,0.01922,73.851,0.505,0.00075555,0.0018447,-0.10419,0,0.0047321,0.2488,0
0,0.505,0.019208,73.867,0.505,0.00032323,0.0014717,-0.10419,0,0.00055117,0.24885,0
0,0.505,0.019206,73.869,0.505,0.00023382,0.001409,-0.10419,0,-0.00029408,0.24885,0
0,0.505,0.019197,73.864,0.505,-0.00041271,0.00087599,-0.10449,0,-0.0063224,0.2488,0
0,0.505,0.019178,73.871,0.505,-0.00066598,0.00069136,-0.10469,0,-0.008765,0.2487,0
0,0.505,0.019195,73.882,0.505,-0.00023706,0.001013,-0.10436,0,-0.0046265,0.24887,0
0,0.505,0.019212,73.866,0.505,4.3921e-05,0.0012595,-0.10426,0,-0.0020528,0.24885,0
0,0.505,0.019219,73.591,0.505,-0.0083845,-0.0032467,-0.1368,0,-0.075364,0.23694,0
0,0.505,0.01922,73.583,0.505,-0.0084457,-0.0032672,-0.13722,0,-0.075795,0.23678,0
0,0.505,0.019225,73.558,0.505,-0.0088698,-0.0034138,-0.14011,0,-0.078938,0.23577,0
0,0.505,0.019221,73.592,0.505,-0.008285,-0.0032085,-0.13615,0,-0.074634,0.23717,0
0,0.505,0.01922,73.638,0.505,0.0062428,0.0068356,-0.11644,0,0.055771,0.24252,0
0,0.505,0.019207,73.667,0.505,0.0059271,0.006603,-0.11507,0,0.053009,0.24315,0
0,0.505,0.019217,73.631,0.505,0.0064418,0.006993,-0.11734,0,0.057494,0.24212,0
0,0.505,0.019213,73.642,0.505,0.0063548,0.0069264,-0.11693,0,0.056746,0.24231,0
0,0.505,0.019225,73.585,0.505,0.0072301,0.0075025,-0.12128,0,0.064218,0.2404,0
0,0.505,0.019225,73.588,0.505,0.0071852,0.00748,-0.12105,0,0.063838,0.24051,0
0,0.505,0.019223,73.535,0.505,0.0081306,0.0079294,-0.12656,0,0.071608,0.23829,0
0,0.505,0.019232,73.547,0.505,0.0079031,0.0078542,-0.12518,0,0.069761,0.23884,0
0,0.505,0.019238,73.651,0.505,-0.0065273,-0.0025298,-0.1252,0,-0.061131,0.24112,0
0,0.505,0.019231,73.656,0.505,-0.0066341,-0.0025743,-0.12582,0,-0.061989,0.24092,0
0,0.505,0.019219,73.674,0.505,-0.0058446,-0.0022997,-0.12143,0,-0.055559,0.24246,0
0,0.505,0.01922,73.673,0.505,-0.0062088,-0.0024349,-0.1234,0,-0.058552,0.24175,0
0,0.505,0.019255,73.417,0.505,-0.010299,-0.0037652,-0.15055,0,-0.088913,0.23229,0
0,0.505,0.019253,73.408,0.505,-0.010586,-0.0038129,-0.15274,0,-0.090894,0.23149,0
0,0.505,0.019236,73.506,0.505,-0.0094436,-0.003586,-0.14418,0,-0.083006,0.23435,0
0,0.505,0.019241,73.496,0.505,-0.0096479,-0.0036424,-0.14568,0,-0.084399,0.23396,0
0,0.505,0.019192,73.837,0.505,0.0026115,0.0035405,-0.1059,0,0.022542,0.24782,0
0,0.505,0.019209,73.832,0.505,0.0023883,0.0033438,-0.10557,0,0.020464,0.24791,0
0,0.505,0.019203,73.88,0.505,0.0015312,0.0025268,-0.10463,0,0.012308,0.24871,0
0,0.505,0.019232,73.85,0.505,0.0013272,0.0023163,-0.10445,0,0.010384,0.24877,0
0,0.505,0.01921,73.854,0.505,0.0019633,0.0029462,-0.10504,0,0.016351,0.24851,0
0,0.505,0.019204,73.864,0.505,0.0018439,0.0028118,-0.10492,0,0.015255,0.2486,0
0,0.505,0.019227,73.853,0.505,0.0011715,0.0021844,-0.10435,0,0.0088709,0.24878,0
0,0.505,0.019223,73.849,0.505,0.00085143,0.0019144,-0.10422,0,0.0056696,0.24874,0
0,0.505,0.019209,73.813,0.505,0.0028822,0.0038079,-0.10634,0,0.025163,0.24752,0
0,0.505,0.019211,73.763,0.505,0.0040379,0.0049105,-0.10881,0,0.035986,0.2463,0
0,0.505,0.019204,73.784,0.505,0.0037106,0.0046175,-0.10803,0,0.032739,0.2468,0
0,0.505,0.019219,73.67,0.505,0.0056888,0.0064276,-0.11413,0,0.050902,0.2436,0
0,0.505,0.019193,73.83,0.505,0.00326,0.0041813,-0.10707,0,0.028678,0.24723,0
0,0.505,0.019214,73.807,0.505,0.0030177,0.003927,-0.10657,0,0.026436,0.24741,0
0,0.505,0.019195,73.8,0.505,0.0035548,0.004455,-0.10769,0,0.031351,0.24703,0
0,0.505,0.019186,73.867,0.505,-0.0010905,0.00037762,-0.10517,0,-0.012822,0.24853,0
0,0.505,0.01919,73.862,0.505,-0.0011523,0.00032921,-0.10526,0,-0.013408,0.24849,0
0,0.505,0.019219,73.792,0.505,-0.0030609,-0.00091792,-0.10953,0,-0.031257,0.24688,0
0,0.505,0.01921,73.796,0.505,-0.003218,-0.0010125,-0.11002,0,-0.032693,0.24671,0
0,0.505,0.019213,73.836,0.505,-0.0023682,-0.00051873,-0.10755,0,-0.024866,0.24761,0
0,0.505,0.019224,73.814,0.505,-0.0026083,-0.00068076,-0.1082,0,-0.027093,0.24736,0
0,0.505,0.01921,73.81,0.505,-0.0027945,-0.00077733,-0.10871,0,-0.028818,0.24717,0
0,0.505,0.019225,73.833,0.505,-0.0020234,-0.00028876,-0.10675,0,-0.021646,0.2479,0
0,0.505,0.019219,73.771,0.505,-0.0039957,-0.0013982,-0.11283,0,-0.039679,0.24571,0
0,0.505,0.019216,73.757,0.505,-0.0046949,-0.0017728,-0.11582,0,-0.04583,0.24465,0
0,0.505,0.019208,73.752,0.505,-0.0049119,-0.0019037,-0.11681,0,-0.0477,0.24426,0
0,0.505,0.019215,73.774,0.505,-0.0040557,-0.0014331,-0.11307,0,-0.040213,0.24564,0
0,0.505,0.01922,73.838,0.505,-0.0019415,-0.00023934,-0.10656,0,-0.020878,0.24796,0
0,0.505,0.019191,73.861,0.505,-0.0010083,0.00044183,-0.10508,0,-0.012037,0.24856,0
0,0.505,0.019207,73.844,0.505,0.0022501,0.0032085,-0.10538,0,0.01914,0.24802,0
0,0.505,0.019209,73.762,0.505,0.0041803,0.0050544,-0.10919,0,0.037356,0.2461,0
0,0.505,0.019222,73.749,0.505,0.0046661,0.0055284,-0.11055,0,0.041686,0.2453,0
0,0.505,0.019224,73.75,0.505,0.0045267,0.0053685,-0.11013,0,0.040431,0.24547,0
0,0.505,0.018521,69.814,0.505,0.031616,-0.0015103,-0.33735,0,0.18007,0.17086,0
0,0.505,0.018549,69.978,0.505,0.031228,-0.0026699,-0.33527,0,0.17897,0.17212,0
0,0.505,0.018726,70.506,0.505,0.029423,-0.0057631,-0.3251,0,0.1736,0.1775,0
0,0.505,0.018801,70.681,0.505,0.028701,-0.0064568,-0.32048,0,0.17138,0.17955,0
0,0.505,0.018807,70.71,0.505,0.028588,-0.0065485,-0.31976,0,0.17104,0.17989,0
0,0.505,0.018817,70.727,0.505,0.028486,-0.0065777,-0.3191,0,0.17073,0.1802,0
0,0.505,0.01885,70.93,0.505,0.027791,-0.0070061,-0.31406,0,0.16849,0.18236,0
0,0.505,0.018874,71.045,0.505,0.0273,-0.0070603,-0.31048,0,0.16688,0.1838,0
0,0.505,0.0189,71.152,0.505,0.026964,-0.0071908,-0.30775,0,0.16581,0.1848,0
0,0.505,0.017673,66.879,0.505,0.038261,0.043266,-0.347,0,0.2005,0.14605,0
0,0.505,0.017694,67.017,0.505,0.038067,0.040496,-0.34757,0,0.19981,0.14699,0
0,0.505,0.017377,65.757,0.505,0.039869,0.071783,-0.33823,0,0.20666,0.13716,0
0,0.505,0.017479,66.007,0.505,0.039505,0.064236,-0.34101,0,0.20527,0.13938,0
0,0.505,0.017309,65.474,0.505,0.040201,0.080299,-0.33512,0,0.20803,0.13489,0
0,0.505,0.017717,67.1,0.505,0.037947,0.038958,-0.34779,0,0.19939,0.14755,0
0,0.505,0.017604,66.618,0.505,0.038709,0.049539,-0.34527,0,0.2021,0.14388,0
0,0.505,0.017566,66.392,0.505,0.039047,0.055269,-0.3436,0,0.20339,0.14206,0
0,0.505,0.017791,67.419,0.505,0.037385,0.032385,-0.34891,0,0.19751,0.15006,0
0,0.505,0.017889,67.703,0.505,0.036853,0.026964,-0.34945,0,0.19577,0.1523,0
0,0.505,0.019125,71.866,0.505,0.02343,-0.0054948,-0.27707,0,0.15408,0.19496,0
0,0.505,0.019126,71.867,0.505,0.023424,-0.0054909,-0.27701,0,0.15406,0.19498,0
0,0.505,0.019161,72.146,0.505,0.021891,-0.0039093,-0.26188,0,0.14855,0.19934,0
0,0.505,0.01921,72.234,0.505,0.021278,-0.0031479,-0.25566,0,0.14615,0.20114,0
0,0.505,0.019136,72.022,0.505,0.022657,-0.0047813,-0.26949,0,0.15131,0.19717,0
0,0.505,0.019159,72.058,0.505,0.022309,-0.0043305,-0.26614,0,0.15008,0.19814,0
0,0.505,0.019126,71.87,0.505,0.023407,-0.0054766,-0.27685,0,0.154,0.19503,0
0,0.505,0.019,71.496,0.505,0.025332,-0.0067945,-0.29441,0,0.16079,0.18937,0
0,0.505,0.019011,71.553,0.505,0.025107,-0.0067606,-0.29243,0,0.16002,0.19003,0
0,0.505,0.018653,70.241,0.505,0.030301,-0.0045055,-0.33051,0,0.17629,0.17488,0
0,0.505,0.018669,70.266,0.505,0.030168,-0.0046501,-0.32979,0,0.17589,0.17527,0
0,0.505,0.019045,71.668,0.505,0.024472,-0.0063149,-0.28682,0,0.15779,0.19196,0
0,0.505,0.01906,71.721,0.505,0.024257,-0.0062063,-0.28478,0,0.15697,0.19265,0
0,0.505,0.019212,72.263,0.505,0.02112,-0.0029411,-0.25405,0,0.14553,0.20158,0
0,0.505,0.019241,72.61,0.505,0.01862,0.00030779,-0.22737,0,0.13516,0.20853,0
0,0.505,0.019246,72.643,0.505,0.018345,0.00065497,-0.22434,0,0.13389,0.2093,0
0,0.505,0.019229,72.525,0.505,0.019408,-0.00077254,-0.23594,0,0.13864,0.20628,0
0,0.505,0.019226,72.563,0.505,0.019146,-0.0004638,-0.23307,0,0.13748,0.20702,0
0,0.505,0.019262,72.69,0.505,0.017913,0.0013045,-0.21964,0,0.13197,0.21054,0
0,0.505,0.019269,72.755,0.505,0.017285,0.002143,-0.2128,0,0.12915,0.21233,0
0,0.505,0.019302,72.789,0.505,0.016731,0.0028794,-0.20679,0,0.12643,0.21409,0
0,0.505,0.019219,72.287,0.505,0.020914,-0.0026602,-0.25194,0,0.14472,0.20214,0
0,0.505,0.019272,72.722,0.505,0.017534,0.0017903,-0.21551,0,0.13029,0.21161,0
0,0.505,0.019239,73.187,0.505,0.013033,0.006788,-0.16762,0,0.10624,0.22487,0
0,0.505,0.019249,73.203,0.505,0.012836,0.0069337,-0.16567,0,0.10501,0.22546,0
0,0.505,0.019278,73.087,0.505,0.014144,0.005775,-0.17895,0,0.1128,0.22162,0
0,0.505,0.019275,73.094,0.505,0.01408,0.0058318,-0.17829,0,0.11243,0.22181,0
0,0.505,0.01926,73.13,0.505,0.013581,0.0063191,-0.17312,0,0.10952,0.22328,0
0,0.505,0.019283,73.046,0.505,0.014746,0.0051934,-0.18532,0,0.11621,0.21981,0
0,0.505,0.019284,73.047,0.505,0.014732,0.0052082,-0.18517,0,0.11614,0.21985,0
0,0.505,0.019303,72.797,0.505,0.016665,0.0029637,-0.20606,0,0.12609,0.2143,0
0,0.505,0.019298,72.884,0.505,0.016098,0.0037158,-0.19983,0,0.12305,0.21585,0
0,0.505,0.019309,72.945,0.505,0.015614,0.0042912,-0.1946,0,0.12064,0.21728,0
0,0.505,0.019301,72.794,0.505,0.016688,0.0029351,-0.20631,0,0.12621,0.21422,0
0,0.505,0.019258,73.142,0.505,0.01345,0.0064287,-0.1718,0,0.10874,0.22367,0
0,0.505,0.019237,73.378,0.505,0.01011,0.0081085,-0.14094,0,0.086712,0.23321,0
0,0.505,0.019229,73.395,0.505,0.0099811,0.0081264,-0.13988,0,0.085781,0.23356,0
0,0.505,0.019233,73.431,0.505,0.0093077,0.0081627,-0.1347,0,0.080781,0.23536,0
0,0.505,0.019227,73.467,0.505,0.0090488,0.0081476,-0.13277,0,0.078822,0.23604,0
0,0.505,0.019247,73.479,0.505,0.0085856,0.0080763,-0.12953,0,0.075235,0.2372,0
0,0.505,0.019247,73.479,0.505,0.0085851,0.0080761,-0.12953,0,0.07523,0.2372,0
0,0.505,0.019267,73.314,0.505,0.01085,0.0079401,-0.14715,0,0.092102,0.23126,0
0,0.505,0.019238,73.363,0.505,0.010458,0.008055,-0.1438,0,0.08921,0.23229,0
0,0.505,0.019214,72.409,0.505,0.020298,-0.0019154,-0.24543,0,0.14228,0.20386,0
0,0.505,0.019221,72.458,0.505,0.020019,-0.0016036,-0.24242,0,0.1411,0.20461,0
0,0.505,0.01929,72.978,0.505,0.015389,0.0045562,-0.19217,0,0.1195,0.21798,0
0,0.505,0.019295,72.973,0.505,0.015465,0.0044701,-0.19297,0,0.11987,0.21776,0
0,0.505,0.019285,73.052,0.505,0.014624,0.0053117,-0.18403,0,0.11553,0.22017,0
0,0.505,0.01925,73.243,0.505,0.012498,0.0071647,-0.16233,0,0.10288,0.2264,0
0,0.505,0.01927,73.258,0.505,0.012193,0.0073512,-0.1594,0,0.10101,0.22724,0
0,0.505,0.019274,73.282,0.505,0.011948,0.0074773,-0.15702,0,0.099456,0.22788,0
0,0.505,0.019294,73.276,0.505,0.011632,0.0076146,-0.1541,0,0.097411,0.22883,0
0,0.505,0.019278,73.29,0.505,0.011425,0.0077197,-0.15221,0,0.096105,0.22942,0
0,0.505,0.019277,73.3,0.505,0.011072,0.0078669,-0.14909,0,0.093652,0.23059,0
0,0.505,0.019266,73.312,0.505,0.010939,0.0079191,-0.14792,0,0.092741,0.23102,0
0,0.505,0.019225,73.423,0.505,0.0095138,0.0081566,-0.13622,0,0.082344,0.23482,0
0,0.505,0.019241,72.724,0.505,-0.017933,-0.0013584,-0.22197,0,-0.13117,0.21118,0
0,0.505,0.019254,72.646,0.505,-0.018433,-0.00091146,-0.22722,0,-0.13338,0.20975,0
0,0.505,0.018242,68.817,0.505,0.03435,0.009,-0.34728,0,0.18811,0.16185,0
0,0.505,0.018269,68.899,0.505,0.034179,0.0080735,-0.34678,0,0.18763,0.16245,0
0,0.505,0.018319,69.181,0.505,0.033495,0.0048612,-0.34478,0,0.18574,0.16468,0
0,0.505,0.018641,70.189,0.505,0.030473,-0.0041743,-0.3314,0,0.17677,0.17436,0
0,0.505,0.01848,69.635,0.505,0.032225,6.9944e-05,-0.34005,0,0.18188,0.16902,0
0,0.505,0.01724,65.267,0.505,0.040397,0.085915,-0.3332,0,0.20886,0.13347,0
0,0.505,0.016786,63.557,0.505,0.041497,0.14475,-0.30991,0,0.21721,0.11993,0
0,0.505,0.016787,63.564,0.505,0.041496,0.14445,-0.31004,0,0.21717,0.11999,0
0,0.505,0.016795,63.592,0.505,0.041484,0.14329,-0.31053,0,0.21703,0.12024,0
0,0.505,0.016879,63.975,0.505,0.041347,0.12913,-0.31618,0,0.21527,0.12325,0
0,0.505,0.013876,51.075,0.505,0.017947,0.6118,-0.17242,0,0.24935,0.036376,0
0,0.505,0.013937,51.191,0.505,0.018167,0.61036,-0.17337,0,0.24923,0.036756,0
0,0.505,0.013958,51.238,0.505,0.018264,0.60951,-0.17367,0,0.24921,0.036942,0
0,0.505,0.014623,52.993,0.505,0.021476,0.58122,-0.18495,0,0.24787,0.042959,0
0,0.505,0.014733,53.345,0.505,0.02204,0.57596,-0.18683,0,0.24762,0.044054,0
0,0.505,0.018447,69.465,0.505,0.03266,0.0015723,-0.34201,0,0.18324,0.16749,0
0,0.505,0.018401,69.389,0.505,0.032963,0.0025564,-0.34298,0,0.18415,0.16644,0
0,0.505,0.018215,68.71,0.505,0.034577,0.010343,-0.34781,0,0.18878,0.16104,0
0,0.505,0.018121,68.488,0.505,0.035171,0.013694,-0.34874,0,0.19057,0.15884,0
0,0.505,0.017916,67.784,0.505,0.036683,0.025326,-0.34964,0,0.19523,0.15302,0
0,0.505,0.017965,67.9,0.505,0.036399,0.023035,-0.34974,0,0.19435,0.15412,0
0,0.505,0.018074,68.289,0.505,0.035626,0.016822,-0.34922,0,0.19195,0.15713,0
0,0.505,0.016402,61.679,0.505,0.041001,0.22782,-0.27724,0,0.22564,0.10391,0
0,0.505,0.016415,61.763,0.505,0.041059,0.22425,-0.27853,0,0.22533,0.10456,0
0,0.505,0.0167,63.167,0.505,0.041557,0.1603,-0.30351,0,0.21901,0.11675,0
0,0.505,0.015817,57.595,0.505,0.032427,0.44194,-0.21585,0,0.24081,0.067085,0
0,0.505,0.015844,57.816,0.505,0.033025,0.43224,-0.2178,0,0.24024,0.068681,0
0,0.505,0.015382,55.438,0.505,0.026637,0.52383,-0.1996,0,0.24495,0.053273,0
0,0.505,0.015476,55.777,0.505,0.027454,0.51362,-0.20167,0,0.24441,0.05511,0
0,0.505,0.017111,64.812,0.505,0.040819,0.099985,-0.32779,0,0.21118,0.12997,0
0,0.505,0.017177,64.993,0.505,0.040631,0.093766,-0.33036,0,0.21013,0.13154,0
0,0.505,0.017076,64.685,0.505,0.040918,0.10447,-0.32597,0,0.21185,0.12891,0
0,0.505,0.016909,64.099,0.505,0.041293,0.12505,-0.31774,0,0.21474,0.12415,0
0,0.505,0.016988,64.389,0.505,0.041123,0.11434,-0.32207,0,0.2133,0.12655,0
0,0.505,0.016619,62.779,0.505,0.041535,0.17656,-0.29693,0,0.22075,0.11353,0
0,0.505,0.016686,63.085,0.505,0.041557,0.16418,-0.3019,0,0.21943,0.11597,0
0,0.505,0.016493,62.189,0.505,0.041332,0.20383,-0.2862,0,0.22345,0.10833,0
0,0.505,0.01654,62.403,0.505,0.041435,0.19321,-0.29034,0,0.22243,0.11033,0
0,0.505,0.015924,58.349,0.505,0.034467,0.40717,-0.22331,0,0.23874,0.073075,0
0,0.505,0.015942,58.596,0.505,0.035161,0.39418,-0.22626,0,0.2379,0.075208,0
0,0.505,0.015971,58.778,0.505,0.035583,0.38604,-0.22825,0,0.23743,0.076554,0
0,0.505,0.01599,58.986,0.505,0.036193,0.37368,-0.23128,0,0.23667,0.078615,0
0,0.505,0.016058,59.481,0.505,0.037439,0.34637,-0.23855,0,0.23485,0.083144,0
0,0.505,0.016104,59.671,0.505,0.037956,0.33402,-0.24213,0,0.23393,0.085371,0
0,0.505,0.01502,54.257,0.505,0.0239,0.55624,-0.19232,0,0.2467,0.047614,0
0,0.505,0.015223,54.894,0.505,0.025339,0.5397,-0.19625,0,0.24581,0.050455,0
0,0.505,0.01527,55.05,0.505,0.025684,0.53569,-0.19714,0,0.2456,0.051139,0
0,0.505,0.015481,55.799,0.505,0.027498,0.51307,-0.2018,0,0.24438,0.055205,0
0,0.505,0.015586,56.369,0.505,0.028952,0.49334,-0.20535,0,0.24353,0.058413,0
0,0.505,0.015275,55.063,0.505,0.025726,0.53518,-0.19725,0,0.24557,0.051229,0
0,0.505,0.0159,58.197,0.505,0.034104,0.41373,-0.2218,0,0.23913,0.071934,0
0,0.505,0.015645,56.619,0.505,0.029566,0.48499,-0.2072,0,0.24311,0.059816,0
0,0.505,0.015692,56.919,0.505,0.030432,0.47249,-0.20943,0,0.24252,0.061901,0
0,0.505,0.015764,57.321,0.505,0.031546,0.4559,-0.21295,0,0.24158,0.064755,0
0,0.505,0.015776,57.4,0.505,0.031802,0.45195,-0.21366,0,0.24137,0.065418,0
0,0.505,0.018027,68.136,0.505,0.035939,0.019164,-0.34955,0,0.19291,0.15592,0
0,0.505,0.01751,66.195,0.505,0.039304,0.059851,-0.34229,0,0.20442,0.14064,0
0,0.505,0.016192,60.271,0.505,0.039145,0.30159,-0.25171,0,0.2317,0.090974,0
0,0.505,0.016236,60.544,0.505,0.039623,0.28651,-0.25666,0,0.23053,0.093551,0
0,0.505,0.016243,60.59,0.505,0.03972,0.28334,-0.25771,0,0.23027,0.094099,0
0,0.505,0.016281,60.928,0.505,0.040201,0.26579,-0.26372,0,0.22886,0.097146,0
0,0.505,0.016282,60.948,0.505,0.040234,0.26451,-0.26417,0,0.22875,0.097372,0
0,0.505,0.016589,62.627,0.505,0.041499,0.18383,-0.294,0,0.22149,0.11212,0
0,0.505,0.016466,62.039,0.505,0.041257,0.21027,-0.28378,0,0.22405,0.10713,0
0,0.505,0.016339,61.316,0.505,0.040663,0.2459,-0.27073,0,0.22721,0.10066,0
0,0.505,0.016343,61.338,0.505,0.040682,0.24496,-0.27106,0,0.22713,0.10083,0
0,0.505,0.016118,59.761,0.505,0.038141,0.32933,-0.2435,0,0.2336,0.086217,0
0,0.505,0.016131,59.965,0.505,0.038529,0.31901,-0.24636,0,0.23292,0.088083,0
0,0.505,0.016046,59.35,0.505,0.037153,0.35294,-0.23676,0,0.23533,0.082066,0
0,0.505,0.014987,54.133,0.505,0.023689,0.55844,-0.19167,0,0.24682,0.047196,0
0,0.505,0.015855,57.883,0.505,0.033206,0.42926,-0.21849,0,0.24007,0.069203,0
0,0.505,0.0046267,51.519,0.505,0.00056161,0.20071,-0.010038,0,0.2563,0.0032571,0
0,0.505,0.0047172,50.842,0.505,0.00064433,0.22251,-0.011669,0,0.25614,0.0039452,0
0,0.505,0.0086808,44.48,0.505,0.005522,0.5658,-0.083621,0,0.25424,0.015539,0
0,0.505,0.0096229,44.905,0.505,0.0072251,0.59832,-0.1019,0,0.25362,0.018439,0
0,0.505,0.0058452,46.402,0.505,0.0018887,0.39002,-0.033992,0,0.25549,0.0078885,0
0,0.505,0.0072004,44.743,0.505,0.0034013,0.48687,-0.057323,0,0.25481,0.011324,0
0,0.505,0.0098549,45.068,0.505,0.0076434,0.60705,-0.10636,0,0.25345,0.019181,0
0,0.505,0.0099975,45.206,0.505,0.0079104,0.61069,-0.10906,0,0.25336,0.019644,0
0,0.505,0.0075825,44.515,0.505,0.0038556,0.50968,-0.063897,0,0.25466,0.012299,0
0,0.505,0.0048953,50.234,0.505,0.00083289,0.24669,-0.014846,0,0.25605,0.0045074,0
0,0.505,0.012591,48.525,0.505,0.013634,0.63335,-0.15117,0,0.25141,0.029348,0
0,0.505,0.013015,49.241,0.505,0.014969,0.62789,-0.15799,0,0.25088,0.031426,0
0,0.505,0.0073707,44.562,0.505,0.0035686,0.49857,-0.060012,0,0.25473,0.01172,0
0,0.505,0.011001,46.191,0.505,0.0099032,0.62697,-0.12528,0,0.25273,0.022997,0
0,0.505,0.011551,46.893,0.505,0.011021,0.63286,-0.13436,0,0.25239,0.024867,0
0,0.505,0.014012,51.349,0.505,0.018489,0.60764,-0.17459,0,0.24911,0.037336,0
0,0.505,0.014407,52.366,0.505,0.020235,0.59327,-0.18098,0,0.24848,0.040508,0
0,0.505,0.013324,50.014,0.505,0.016007,0.62385,-0.16328,0,0.2504,0.033079,0
0,0.505,0.012061,47.559,0.505,0.012269,0.63358,-0.14234,0,0.25195,0.026927,0
0,0.505,0.016214,60.511,0.505,-0.039712,-0.28554,-0.25851,0,-0.23006,0.09441,0
0,0.505,0.016168,60.237,0.505,-0.039233,-0.30101,-0.25328,0,-0.23128,0.091677,0
0,0.505,0.0186,70.142,0.505,-0.030655,0.00031147,-0.33371,0,-0.17661,0.17449,0
0,0.505,0.018596,70.135,0.505,-0.030684,0.00026442,-0.33387,0,-0.17671,0.1744,0
0,0.505,0.018587,70.107,0.505,-0.030765,7.5959e-05,-0.33429,0,-0.17694,0.17415,0
0,0.505,0.018484,69.836,0.505,-0.031583,-0.0018171,-0.33837,0,-0.17929,0.17161,0
0,0.505,0.018189,68.717,0.505,-0.034554,-0.013584,-0.34927,0,-0.18796,0.16172,0
0,0.505,0.018175,68.682,0.505,-0.034673,-0.014183,-0.34946,0,-0.18833,0.16128,0
0,0.505,0.017524,66.383,0.505,-0.039045,-0.057697,-0.34616,0,-0.20251,0.14298,0
0,0.505,0.017417,65.958,0.505,-0.039598,-0.067897,-0.34314,0,-0.20487,0.13986,0
0,0.505,0.017398,65.908,0.505,-0.039676,-0.069276,-0.34266,0,-0.20521,0.13943,0
0,0.505,0.017393,65.879,0.505,-0.039715,-0.070142,-0.34233,0,-0.20537,0.13917,0
0,0.505,0.017792,67.426,0.505,-0.03735,-0.034972,-0.35113,0,-0.19676,0.15092,0
0,0.505,0.017681,67.102,0.505,-0.037965,-0.041874,-0.34985,0,-0.19885,0.14839,0
0,0.505,0.017801,67.458,0.505,-0.037288,-0.034275,-0.35125,0,-0.19656,0.15119,0
0,0.505,0.017253,65.457,0.505,-0.040196,-0.081664,-0.33803,0,-0.20751,0.13576,0
0,0.505,0.017896,67.79,0.505,-0.036642,-0.028147,-0.35156,0,-0.19432,0.15395,0
0,0.505,0.01781,67.473,0.505,-0.037242,-0.033857,-0.35135,0,-0.1964,0.15139,0
0,0.505,0.017925,67.912,0.505,-0.036404,-0.026124,-0.35148,0,-0.19353,0.15495,0
0,0.505,0.01719,65.221,0.505,-0.040475,-0.089449,-0.33488,0,-0.20885,0.13375,0
0,0.505,0.017139,64.965,0.505,-0.040686,-0.096393,-0.3324,0,-0.20991,0.13204,0
0,0.505,0.017056,64.701,0.505,-0.040949,-0.10624,-0.32829,0,-0.2114,0.1296,0
0,0.505,0.017014,64.491,0.505,-0.041074,-0.11237,-0.32603,0,-0.21222,0.12821,0
0,0.505,0.016929,64.23,0.505,-0.041266,-0.12266,-0.32162,0,-0.21375,0.12603,0
0,0.505,0.01675,63.451,0.505,-0.04156,-0.14958,-0.31066,0,-0.21719,0.11983,0
0,0.505,0.016704,63.117,0.505,-0.041595,-0.16127,-0.30593,0,-0.21849,0.11749,0
0,0.505,0.016619,62.679,0.505,-0.041582,-0.17963,-0.29836,0,-0.22056,0.11376,0
0,0.505,0.01661,62.643,0.505,-0.041577,-0.18116,-0.29773,0,-0.22073,0.11345,0
0,0.505,0.016682,63.013,0.505,-0.041607,-0.16654,-0.30356,0,-0.21912,0.1164,0
0,0.505,0.0166,62.594,0.505,-0.041565,-0.18321,-0.29692,0,-0.22094,0.11306,0
0,0.505,0.016005,59.014,0.505,-0.036437,-0.3693,-0.2332,0,-0.23617,0.07982,0
0,0.505,0.015997,58.893,0.505,-0.036064,-0.3769,-0.23128,0,-0.23667,0.078503,0
0,0.505,0.016039,59.348,0.505,-0.037236,-0.35204,-0.23789,0,-0.235,0.082794,0
0,0.505,0.016519,62.334,0.505,-0.041477,-0.1961,-0.29147,0,-0.22228,0.11064,0
0,0.505,0.016507,62.24,0.505,-0.041431,-0.20069,-0.28967,0,-0.22269,0.10979,0
0,0.505,0.016362,61.487,0.505,-0.040927,-0.2357,-0.27614,0,-0.22591,0.10336,0
0,0.505,0.016309,61.168,0.505,-0.040595,-0.25198,-0.27016,0,-0.22732,0.10039,0
0,0.505,0.016404,61.701,0.505,-0.041095,-0.22596,-0.27982,0,-0.22504,0.10513,0
0,0.505,0.016291,61.062,0.505,-0.040486,-0.25678,-0.26844,0,-0.22772,0.099527,0
0,0.505,0.016234,60.661,0.505,-0.039949,-0.27776,-0.2611,0,-0.22945,0.095781,0
0,0.505,0.016231,60.642,0.505,-0.039925,-0.27863,-0.2608,0,-0.22952,0.095629,0
0,0.505,0.016094,59.783,0.505,-0.03827,-0.32739,-0.24501,0,-0.23326,0.08707,0
0,0.505,0.016047,59.434,0.505,-0.037486,-0.34639,-0.23944,0,-0.23461,0.083778,0
0,0.505,0.015951,58.577,0.505,-0.035264,-0.39243,-0.22736,0,-0.23768,0.075821,0
0,0.505,0.015932,58.423,0.505,-0.034756,-0.40185,-0.22517,0,-0.23826,0.074189,0
0,0.505,0.016435,61.914,0.505,-0.041256,-0.21546,-0.28382,0,-0.22409,0.10709,0
0,0.505,0.014347,52.112,0.505,-0.019739,-0.59679,-0.18043,0,-0.24875,0.040095,0
0,0.505,0.014306,52.014,0.505,-0.01951,-0.59904,-0.17976,0,-0.24884,0.039705,0
0,0.505,0.014811,53.391,0.505,-0.022174,-0.57343,-0.18824,0,-0.24766,0.044505,0
0,0.505,0.014686,53.133,0.505,-0.021511,-0.58041,-0.1861,0,-0.24801,0.043282,0
0,0.505,0.013823,50.797,0.505,-0.01747,-0.61512,-0.17208,0,-0.24951,0.035996,0
0,0.505,0.013776,50.699,0.505,-0.0173,-0.6162,-0.17135,0,-0.24958,0.035687,0
0,0.505,0.013835,50.825,0.505,-0.017529,-0.61462,-0.17229,0,-0.24948,0.036106,0
0,0.505,0.015213,54.726,0.505,-0.024987,-0.54279,-0.19635,0,-0.24607,0.050046,0
0,0.505,0.014989,54.067,0.505,-0.023402,-0.56066,-0.19177,0,-0.24697,0.046851,0
0,0.505,0.016163,60.21,0.505,-0.03917,-0.30283,-0.25269,0,-0.23142,0.091356,0
0,0.505,0.016103,59.838,0.505,-0.038418,-0.32363,-0.24613,0,-0.23299,0.087726,0
0,0.505,0.016876,64,0.505,-0.041375,-0.12938,-0.31917,0,-0.21455,0.1245,0
0,0.505,0.01683,63.839,0.505,-0.041448,-0.13528,-0.3167,0,-0.21545,0.12316,0
0,0.505,0.016774,63.603,0.505,-0.041515,-0.14318,-0.31352,0,-0.21656,0.12132,0
0,0.505,0.0043901,53.322,0.505,-0.00013842,-0.13915,-0.0050836,0,-0.25675,0.0016962,0
0,0.505,0.0050561,48.75,0.505,-0.00087506,-0.29002,-0.019494,0,-0.25595,0.0053015,0
0,0.505,0.0044993,51.679,0.505,-0.00029586,-0.19005,-0.0083046,0,-0.25632,0.0031781,0
0,0.505,0.0053058,47.283,0.505,-0.0011601,-0.34014,-0.02516,0,-0.25576,0.0063905,0
0,0.505,0.0056561,46.622,0.505,-0.0014965,-0.3702,-0.031127,0,-0.25564,0.0072564,0
0,0.505,0.0065898,45.049,0.505,-0.0024565,-0.45109,-0.046713,0,-0.25525,0.0096535,0
0,0.505,0.0077825,44.238,0.505,-0.0040202,-0.52825,-0.069221,0,-0.25471,0.013042,0
0,0.505,0.0076302,44.317,0.505,-0.0038422,-0.51897,-0.066606,0,-0.25479,0.01264,0
0,0.505,0.010991,46.126,0.505,-0.0096762,-0.62983,-0.12648,0,-0.25256,0.022907,0
0,0.505,0.0099889,45.185,0.505,-0.0077337,-0.61231,-0.10926,0,-0.2533,0.019695,0
0,0.505,0.011006,46.14,0.505,-0.0097081,-0.63002,-0.12671,0,-0.25255,0.022959,0
0,0.505,0.011032,46.168,0.505,-0.0097665,-0.63016,-0.12714,0,-0.25253,0.023053,0
0,0.505,0.0123,48.017,0.505,-0.012756,-0.63556,-0.14775,0,-0.25145,0.027943,0
0,0.505,0.011862,47.336,0.505,-0.011644,-0.63556,-0.1402,0,-0.25187,0.026124,0
0,0.505,0.013243,49.654,0.505,-0.015489,-0.6269,-0.16272,0,-0.2504,0.032432,0
0,0.505,0.012923,48.98,0.505,-0.014511,-0.63039,-0.15755,0,-0.25078,0.030787,0
0,0.505,0.012601,48.488,0.505,-0.013573,-0.63413,-0.1523,0,-0.25117,0.029264,0
0,0.505,0.015694,56.734,0.505,-0.029974,-0.47839,-0.20942,0,-0.24268,0.061243,0
0,0.505,0.015562,56.237,0.505,-0.028572,-0.49767,-0.20548,0,-0.24374,0.057866,0
0,0.505,0.015499,55.876,0.505,-0.027768,-0.50825,-0.20343,0,-0.2443,0.056046,0
0,0.505,0.015405,55.598,0.505,-0.026928,-0.51916,-0.20116,0,-0.24488,0.054162,0
0,0.505,0.01528,54.991,0.505,-0.025544,-0.53626,-0.19789,0,-0.24574,0.051208,0
0,0.505,0.015239,54.844,0.505,-0.025202,-0.54035,-0.19694,0,-0.24594,0.050485,0
0,0.505,0.015858,57.948,0.505,-0.033323,-0.42676,-0.21955,0,-0.23977,0.069869,0
0,0.505,0.015826,57.603,0.505,-0.032398,-0.44172,-0.21632,0,-0.24068,0.067402,0
0,0.505,0.0088936,44.486,0.505,-0.0057912,-0.57925,-0.089715,0,-0.25391,0.016335,0
0,0.505,0.0078728,44.251,0.505,-0.0041519,-0.53265,-0.070947,0,-0.25465,0.013304,0
0,0.505,0.0094952,44.874,0.505,-0.0068404,-0.59909,-0.10111,0,-0.25359,0.018176,0
0,0.505,0.017641,66.866,0.505,-0.038286,-0.046292,-0.3491,0,-0.20004,0.14685,0
0,0.505,0.017571,66.588,0.505,-0.038787,-0.053402,-0.34717,0,-0.20159,0.14433,0
0,0.505,0.01589,58.123,0.505,-0.03395,-0.4161,-0.22183,0,-0.23915,0.071717,0
0,0.505,0.015786,57.421,0.505,-0.031719,-0.45239,-0.21415,0,-0.24129,0.06561,0
0,0.505,0.015712,56.84,0.505,-0.030282,-0.47402,-0.21022,0,-0.24244,0.06199,0
0,0.505,0.015705,56.813,0.505,-0.030182,-0.47549,-0.20992,0,-0.24253,0.06174,0
0,0.505,0.019078,71.889,0.505,-0.023459,0.0033933,-0.2782,0,-0.15321,0.19534,0
0,0.505,0.019089,71.985,0.505,-0.022996,0.0031432,-0.27375,0,-0.15154,0.19677,0
0,0.505,0.018905,71.181,0.505,-0.026721,0.0042616,-0.30675,0,-0.16422,0.18618,0
0,0.505,0.018877,71.131,0.505,-0.027035,0.0042941,-0.30912,0,-0.16526,0.18529,0
0,0.505,0.018996,71.584,0.505,-0.025122,0.0042821,-0.29317,0,-0.15904,0.19075,0
0,0.505,0.01911,72.056,0.505,-0.022605,0.002884,-0.26993,0,-0.1501,0.19792,0
0,0.505,0.019174,72.304,0.505,-0.021091,0.0015865,-0.25479,0,-0.14447,0.20212,0
0,0.505,0.019154,72.251,0.505,-0.021422,0.0018683,-0.25817,0,-0.14572,0.20122,0
0,0.505,0.019143,72.18,0.505,-0.021801,0.0021658,-0.26204,0,-0.14718,0.20017,0
0,0.505,0.019214,72.49,0.505,-0.019683,0.00028541,-0.24027,0,-0.13876,0.20625,0
0,0.505,0.019202,72.453,0.505,-0.02,0.00056419,-0.24358,0,-0.14014,0.20529,0
0,0.505,0.01922,72.542,0.505,-0.019324,-7.6129e-05,-0.23652,0,-0.13721,0.20725,0
0,0.505,0.018743,70.647,0.505,-0.028915,0.0030879,-0.32271,0,-0.17122,0.17986,0
0,0.505,0.018794,70.771,0.505,-0.028305,0.0035096,-0.31866,0,-0.16933,0.18161,0
0,0.505,0.01885,70.996,0.505,-0.027525,0.0041021,-0.31285,0,-0.16681,0.18383,0
0,0.505,0.019121,72.132,0.505,-0.0222,0.0025616,-0.26596,0,-0.14868,0.19908,0
0,0.505,0.019201,72.404,0.505,-0.020321,0.00083214,-0.24693,0,-0.14146,0.20434,0
0,0.505,0.019182,72.374,0.505,-0.02069,0.0012059,-0.25068,0,-0.14292,0.20324,0
0,0.505,0.019245,72.583,0.505,-0.018866,-0.00053437,-0.23177,0,-0.13525,0.20852,0
0,0.505,0.018127,68.517,0.505,-0.03505,-0.016535,-0.35012,0,-0.18945,0.15988,0
0,0.505,0.019227,73.693,0.505,0.0052774,0.0060749,-0.11258,0,0.047243,0.24428,0
0,0.505,0.019221,73.711,0.505,0.0050903,0.005925,-0.11191,0,0.045547,0.24459,0
0,0.505,0.019234,73.717,0.505,0.0049117,0.0057725,-0.11134,0,0.043932,0.24486,0
0,0.505,0.019209,73.694,0.505,0.0055054,0.0062718,-0.11341,0,0.049277,0.24395,0
0,0.505,0.019202,73.629,0.505,0.0067889,0.0072264,-0.119,0,0.060479,0.24139,0
0,0.505,0.019229,73.578,0.505,0.0073022,0.007538,-0.12168,0,0.064818,0.24024,0
0,0.505,0.01922,73.574,0.505,0.0076782,0.0077418,-0.12381,0,0.067935,0.23939,0
0,0.505,0.019247,73.479,0.505,0.0085839,0.0080757,-0.12952,0,0.075221,0.2372,0
0,0.505,0.019235,73.394,0.505,0.0098178,0.0081329,-0.1386,0,0.084583,0.23399,0
0,0.505,0.018292,69.085,0.505,-0.033611,-0.0089245,-0.34664,0,-0.18522,0.16502,0
0,0.505,0.018229,68.817,0.505,-0.034246,-0.01214,-0.34852,0,-0.18703,0.16277,0
0,0.505,0.01837,69.427,0.505,-0.032724,-0.0053131,-0.34347,0,-0.18262,0.16819,0
0,0.505,0.018336,69.271,0.505,-0.033154,-0.0069774,-0.345,0,-0.18383,0.16669,0
0,0.505,0.018042,68.29,0.505,-0.035569,-0.019799,-0.351,0,-0.19106,0.15798,0
0,0.505,0.018006,68.13,0.505,-0.035864,-0.022103,-0.35139,0,-0.19189,0.15683,0
0,0.505,0.018438,69.654,0.505,-0.032027,-0.0032311,-0.34057,0,-0.18061,0.17028,0
0,0.505,0.018463,69.778,0.505,-0.031711,-0.0022154,-0.33909,0,-0.17968,0.17122,0
0,0.505,0.018808,70.884,0.505,-0.027939,0.0038847,-0.31598,0,-0.16815,0.18264,0
0,0.505,0.019252,73.442,0.505,-0.010012,-0.0037152,-0.14839,0,-0.086919,0.23307,0
0,0.505,0.019249,73.027,0.505,-0.015333,-0.0031107,-0.19526,0,-0.11872,0.21851,0
0,0.505,0.019222,72.982,0.505,-0.015897,-0.0028086,-0.20095,0,-0.12148,0.21698,0
0,0.505,0.019221,72.936,0.505,-0.016252,-0.002563,-0.20459,0,-0.12324,0.21601,0
0,0.505,0.019245,72.618,0.505,-0.018623,-0.0007526,-0.22921,0,-0.13423,0.20919,0
0,0.505,0.019249,72.802,0.505,-0.017229,-0.0019302,-0.21467,0,-0.12794,0.21319,0
0,0.505,0.019249,72.802,0.505,-0.017236,-0.001925,-0.21474,0,-0.12797,0.21317,0
0,0.505,0.019213,72.899,0.505,-0.016566,-0.0023855,-0.20781,0,-0.1248,0.2151,0
0,0.505,0.019251,73.046,0.505,-0.01518,-0.0032054,-0.19371,0,-0.11795,0.21892,0
0,0.505,0.019244,73.091,0.505,-0.014521,-0.0034918,-0.18726,0,-0.1146,0.22072,0
0,0.505,0.01926,73.045,0.505,-0.014995,-0.003295,-0.19191,0,-0.11701,0.21942,0
0,0.505,0.019249,72.801,0.505,-0.01724,-0.0019214,-0.21478,0,-0.12799,0.21315,0
0,0.505,0.019256,73.399,0.505,-0.010675,-0.0038272,-0.15344,0,-0.091452,0.23128,0
0,0.505,0.019262,73.122,0.505,-0.013963,-0.0036949,-0.18196,0,-0.11145,0.22247,0
0,0.505,0.019263,73.121,0.505,-0.013976,-0.0036907,-0.18209,0,-0.11153,0.22243,0
0,0.505,0.019274,73.287,0.505,-0.012168,-0.0039232,-0.16573,0,-0.10083,0.22737,0
0,0.505,0.019272,73.282,0.505,-0.012247,-0.0039228,-0.16639,0,-0.10132,0.22715,0
0,0.505,0.019272,73.348,0.505,-0.011398,-0.0039165,-0.15925,0,-0.09599,0.22945,0
0,0.505,0.019265,73.327,0.505,-0.011683,-0.0039251,-0.1616,0,-0.097819,0.22871,0
0,0.505,0.019248,73.432,0.505,-0.010112,-0.0037336,-0.14912,0,-0.087616,0.23281,0
0,0.505,0.019262,73.375,0.505,-0.011126,-0.0038934,-0.15702,0,-0.094261,0.23019,0
0,0.505,0.019217,73.652,0.505,-0.007062,-0.0027261,-0.12837,0,-0.065372,0.24001,0
0,0.505,0.019228,73.642,0.505,-0.0073174,-0.0028236,-0.12993,0,-0.067352,0.23944,0
0,0.505,0.019221,73.629,0.505,-0.007673,-0.0029789,-0.13217,0,-0.070064,0.23864,0
0,0.505,0.019209,73.619,0.505,-0.0079335,-0.0030865,-0.13383,0,-0.072038,0.23803,0
0,0.505,0.019216,73.646,0.505,-0.0074963,-0.0029067,-0.13105,0,-0.068728,0.23905,0
0,0.505,0.019233,73.647,0.505,-0.0067718,-0.0026234,-0.12664,0,-0.063077,0.24062,0
0,0.505,0.019231,73.543,0.505,-0.009071,-0.0034811,-0.14154,0,-0.080447,0.23522,0
0,0.505,0.019209,73.771,0.505,-0.0044791,-0.0016689,-0.11485,0,-0.043933,0.24501,0
0,0.505,0.019218,73.769,0.505,-0.0041291,-0.0014752,-0.11338,0,-0.040857,0.24552,0
0,0.505,0.019205,73.72,0.505,-0.0052597,-0.0020623,-0.11848,0,-0.050652,0.24358,0
0,0.505,0.019206,73.717,0.505,-0.0053481,-0.0021084,-0.11891,0,-0.051405,0.24342,0
0,0.505,0.019217,73.69,0.505,-0.0056026,-0.0022111,-0.1202,0,-0.05354,0.24293,0
0,0.505,0.019216,73.679,0.505,-0.0057809,-0.0022786,-0.1211,0,-0.055036,0.24258,0
0,0.505,0.016006,59.152,0.505,0.036569,0.36577,-0.23331,0,0.23616,0.079928,0
0,0.505,0.016317,61.15,0.505,0.040476,0.25403,-0.2679,0,0.22788,0.099228,0
0,0.505,0.016176,60.169,0.505,0.038934,0.30769,-0.24989,0,0.23217,0.089988,0
