"cvar","mu","phivar","pressure","rho","str","velocity:0","velocity:1","Label","Points:0","Points:1","Points:2"
0,0.505,0.016724,66.786,0.505,-0.00024317,-0.0012018,-3.2497e-05,0,-0.27534,0,0
0,0.505,0.016698,66.782,0.505,-0.00024077,0.0015552,-4.0539e-05,0,0.27528,0,0
0,0.505,0.016931,66.64,0.505,-0.00043936,-0.00024878,-0.0050345,0,-0.081391,0.21991,0
0,0.505,0.016939,66.639,0.505,-0.00044748,-0.00027981,-0.0050166,0,-0.083031,0.21948,0
0,0.505,0.016942,66.646,0.505,-0.00029599,0.00015722,-0.0051253,0,-0.0529,0.2269,0
0,0.505,0.016936,66.631,0.505,-0.00030822,0.00012091,-0.005132,0,-0.055138,0.22646,0
0,0.505,0.016914,66.633,0.505,-0.00033149,6.5199e-05,-0.0051331,0,-0.059803,0.22545,0
0,0.505,0.016926,66.631,0.505,-0.00034221,3.3431e-05,-0.0051076,0,-0.061944,0.22495,0
0,0.505,0.016934,66.636,0.505,-0.00034798,1.4082e-05,-0.0050914,0,-0.063092,0.22469,0
0,0.505,0.016926,66.634,0.505,-0.00031513,0.00010156,-0.0051382,0,-0.056427,0.22619,0
0,0.505,0.01692,66.629,0.505,-0.00032289,8.3287e-05,-0.0051381,0,-0.058032,0.22582,0
0,0.505,0.016931,66.644,0.505,-0.00048614,-0.00041425,-0.0049899,0,-0.09061,0.21696,0
0,0.505,0.016929,66.637,0.505,-0.00049533,-0.00043481,-0.0049801,0,-0.09256,0.21632,0
0,0.505,0.016937,66.629,0.505,-0.00011537,0.0008152,-0.0052332,0,-0.018552,0.23142,0
0,0.505,0.016936,66.632,0.505,-0.00012043,0.00079472,-0.0052355,0,-0.019514,0.23135,0
0,0.505,0.016935,66.634,0.505,-0.00013931,0.00071829,-0.0052417,0,-0.023082,0.2311,0
0,0.505,0.016937,66.63,0.505,-0.00014628,0.00069139,-0.0052406,0,-0.024386,0.23098,0
0,0.505,0.016934,66.637,0.505,-0.00015806,0.00064415,-0.0052389,0,-0.026615,0.23077,0
0,0.505,0.016933,66.632,0.505,-8.2989e-05,0.00094819,-0.005206,0,-0.012433,0.23178,0
0,0.505,0.016934,66.631,0.505,-8.4545e-05,0.00094185,-0.0052071,0,-0.012725,0.23176,0
0,0.505,0.016941,66.627,0.505,-0.00020707,0.00045331,-0.0052158,0,-0.035837,0.22971,0
0,0.505,0.016939,66.629,0.505,-0.00021185,0.00043569,-0.0052137,0,-0.036741,0.22958,0
0,0.505,0.016938,66.624,0.505,-0.00021893,0.00041088,-0.005212,0,-0.038063,0.22937,0
0,0.505,0.016933,66.629,0.505,-0.00022944,0.00037489,-0.0052071,0,-0.040012,0.22909,0
0,0.505,0.016931,66.624,0.505,-0.00024593,0.0003249,-0.0051981,0,-0.043343,0.22857,0
0,0.505,0.016928,66.629,0.505,-0.00025585,0.00030121,-0.0051887,0,-0.045339,0.22824,0
0,0.505,0.016933,66.631,0.505,-0.00026512,0.0002692,-0.0051734,0,-0.047158,0.22799,0
0,0.505,0.016935,66.621,0.505,-0.00023573,0.00035631,-0.0052026,0,-0.041278,0.22889,0
0,0.505,0.016924,66.638,0.505,-0.00050215,-0.00045462,-0.004974,0,-0.094054,0.21576,0
0,0.505,0.016941,66.637,0.505,-0.00051562,-0.00049963,-0.0049295,0,-0.096977,0.21465,0
0,0.505,0.01694,66.647,0.505,-0.00046834,-0.00035557,-0.0049943,0,-0.087073,0.2182,0
0,0.505,0.016943,66.643,0.505,-0.00047536,-0.00038432,-0.0049873,0,-0.088445,0.21774,0
0,0.505,0.016941,66.639,0.505,-0.00051718,-0.0005046,-0.0049251,0,-0.097313,0.21452,0
0,0.505,0.016941,66.638,0.505,-0.0005181,-0.00050823,-0.0049238,0,-0.097504,0.21445,0
0,0.505,0.01694,66.632,0.505,-0.00040635,-0.00016823,-0.0050653,0,-0.074298,0.22206,0
0,0.505,0.016935,66.632,0.505,-0.0004104,-0.00017707,-0.0050689,0,-0.07515,0.22179,0
0,0.505,0.016791,66.688,0.505,-0.00028409,-0.0058583,-0.00084648,0,-0.27331,0.011869,0
0,0.505,0.016789,66.688,0.505,-0.00028266,-0.0057847,-0.00082483,0,-0.27335,0.011609,0
0,0.505,0.01691,66.788,0.505,-0.00079392,-0.0026974,-0.0014638,0,-0.22063,0.12439,0
0,0.505,0.01691,66.788,0.505,-0.00079157,-0.0027565,-0.0014196,0,-0.22161,0.12277,0
0,0.505,0.016898,66.846,0.505,-0.00061823,-0.0051238,-0.0012301,0,-0.25359,0.069875,0
0,0.505,0.016895,66.851,0.505,-0.00060758,-0.0052231,-0.0012984,0,-0.25468,0.067511,0
0,0.505,0.016841,66.754,0.505,-0.00037182,-0.0070735,-0.0017262,0,-0.26997,0.02556,0
0,0.505,0.01684,66.746,0.505,-0.0003656,-0.0070778,-0.0016903,0,-0.2702,0.024638,0
0,0.505,0.016767,66.702,0.505,-0.00026581,-0.0047996,-0.00053547,0,-0.27401,0.0082862,0
0,0.505,0.016757,66.728,0.505,-0.00025213,-0.0031358,-0.00025382,0,-0.27464,0.0046303,0
0,0.505,0.01688,66.844,0.505,-0.00051852,-0.0060742,-0.0017711,0,-0.26208,0.049732,0
0,0.505,0.016879,66.835,0.505,-0.00050256,-0.0062247,-0.0018429,0,-0.26306,0.046874,0
0,0.505,0.016873,66.788,0.505,-0.0004371,-0.0068007,-0.001938,0,-0.26697,0.035743,0
0,0.505,0.016857,66.784,0.505,-0.00041563,-0.006929,-0.0018967,0,-0.26802,0.032279,0
0,0.505,0.016851,66.772,0.505,-0.00040195,-0.0069998,-0.0018581,0,-0.26866,0.030161,0
0,0.505,0.016848,66.769,0.505,-0.00039371,-0.007026,-0.0018278,0,-0.26902,0.028886,0
0,0.505,0.016833,66.738,0.505,-0.00034958,-0.0070382,-0.0015738,0,-0.27084,0.022217,0
0,0.505,0.016821,66.711,0.505,-0.00032817,-0.0068809,-0.0013917,0,-0.27166,0.018977,0
0,0.505,0.016845,66.755,0.505,-0.00038089,-0.0070509,-0.0017711,0,-0.26958,0.026933,0
0,0.505,0.016755,66.734,0.505,-0.00024979,-0.0028592,-0.00020681,0,-0.27476,0.0040271,0
0,0.505,0.01675,66.74,0.505,-0.0002488,-0.0025999,-0.00018139,0,-0.27484,0.0034044,0
0,0.505,0.016805,66.704,0.505,-0.00030507,-0.0065028,-0.0011279,0,-0.27255,0.015371,0
0,0.505,0.016792,66.688,0.505,-0.00028539,-0.0058941,-0.00086391,0,-0.27326,0.01208,0
0,0.505,0.016755,66.732,0.505,-0.00025044,-0.0029629,-0.0002205,0,-0.27472,0.0042176,0
0,0.505,0.01682,66.711,0.505,-0.00032716,-0.006875,-0.0013826,0,-0.27171,0.018827,0
0,0.505,0.016819,66.71,0.505,-0.00032627,-0.0068628,-0.0013738,0,-0.27174,0.018692,0
0,0.505,0.016873,66.789,0.505,-0.00043863,-0.0067886,-0.0019389,0,-0.26689,0.035995,0
0,0.505,0.016873,66.789,0.505,-0.00043762,-0.0067965,-0.0019386,0,-0.26695,0.035827,0
0,0.505,0.016886,66.815,0.505,-0.00046817,-0.0065621,-0.0019341,0,-0.26522,0.040959,0
0,0.505,0.016881,66.809,0.505,-0.00045924,-0.0066286,-0.0019395,0,-0.26581,0.039451,0
0,0.505,0.016884,66.829,0.505,-0.00048005,-0.0064424,-0.0019114,0,-0.2645,0.042986,0
0,0.505,0.016879,66.835,0.505,-0.00049768,-0.0062743,-0.0018624,0,-0.26337,0.045999,0
0,0.505,0.016887,66.841,0.505,-0.00053726,-0.0059078,-0.0016926,0,-0.26075,0.053236,0
0,0.505,0.016885,66.839,0.505,-0.0005329,-0.0059488,-0.0017132,0,-0.26106,0.052414,0
0,0.505,0.016888,66.84,0.505,-0.00054144,-0.005867,-0.0016719,0,-0.26041,0.054055,0
0,0.505,0.016878,66.837,0.505,-0.00049972,-0.0062503,-0.0018544,0,-0.26325,0.046358,0
0,0.505,0.016925,66.671,0.505,-0.00072151,-0.0014032,-0.003899,0,-0.14848,0.18929,0
0,0.505,0.016932,66.67,0.505,-0.00073004,-0.0014492,-0.0038117,0,-0.15131,0.18749,0
0,0.505,0.016927,66.685,0.505,-0.00076623,-0.0016278,-0.0034087,0,-0.16532,0.17784,0
0,0.505,0.016927,66.689,0.505,-0.00076787,-0.0016349,-0.0033857,0,-0.16608,0.17731,0
0,0.505,0.016927,66.685,0.505,-0.00077076,-0.0016476,-0.0033436,0,-0.16751,0.1763,0
0,0.505,0.016922,66.693,0.505,-0.0007608,-0.0015963,-0.0034746,0,-0.16296,0.17947,0
0,0.505,0.016927,66.694,0.505,-0.00078304,-0.0017093,-0.0031457,0,-0.17377,0.17139,0
0,0.505,0.016922,66.704,0.505,-0.00078706,-0.0017385,-0.0030795,0,-0.17613,0.16944,0
0,0.505,0.01692,66.69,0.505,-0.00077602,-0.0016684,-0.0032693,0,-0.17011,0.17436,0
0,0.505,0.016928,66.69,0.505,-0.00077996,-0.0016926,-0.0031991,0,-0.17209,0.17276,0
0,0.505,0.016928,66.696,0.505,-0.00078215,-0.0017036,-0.0031597,0,-0.17322,0.17184,0
0,0.505,0.016925,66.689,0.505,-0.00075218,-0.0015556,-0.0035823,0,-0.15942,0.182,0
0,0.505,0.016925,66.686,0.505,-0.0007546,-0.0015682,-0.0035556,0,-0.16037,0.18131,0
0,0.505,0.016931,66.675,0.505,-0.00073242,-0.0014601,-0.0037856,0,-0.15211,0.18696,0
0,0.505,0.016931,66.674,0.505,-0.00073446,-0.0014688,-0.0037664,0,-0.15286,0.18649,0
0,0.505,0.016929,66.684,0.505,-0.00074288,-0.0015059,-0.0036833,0,-0.15591,0.18452,0
0,0.505,0.016929,66.682,0.505,-0.00074922,-0.0015407,-0.0036148,0,-0.15827,0.18284,0
0,0.505,0.016937,66.666,0.505,-0.00068852,-0.0012683,-0.0041674,0,-0.13805,0.19533,0
0,0.505,0.016937,66.666,0.505,-0.00068909,-0.0012713,-0.0041632,0,-0.13821,0.19524,0
0,0.505,0.016937,66.665,0.505,-0.00069008,-0.0012758,-0.0041575,0,-0.13849,0.1951,0
0,0.505,0.01693,66.668,0.505,-0.00070134,-0.0013247,-0.0040811,0,-0.14182,0.19337,0
0,0.505,0.016935,66.653,0.505,-0.00060781,-0.00088326,-0.004644,0,-0.11726,0.20626,0
0,0.505,0.016934,66.654,0.505,-0.00060985,-0.00089242,-0.0046358,0,-0.11774,0.20604,0
0,0.505,0.016926,66.643,0.505,-0.0005605,-0.00067879,-0.004829,0,-0.10658,0.2107,0
0,0.505,0.016925,66.643,0.505,-0.00056358,-0.00069094,-0.004821,0,-0.10726,0.21042,0
0,0.505,0.016936,66.654,0.505,-0.00053221,-0.0005694,-0.0048972,0,-0.10033,0.21329,0
0,0.505,0.016932,66.646,0.505,-0.00054174,-0.00061177,-0.0048825,0,-0.10231,0.21243,0
0,0.505,0.016934,66.658,0.505,-0.00059093,-0.00080404,-0.0047147,0,-0.11338,0.20809,0
0,0.505,0.016934,66.659,0.505,-0.00059532,-0.00082414,-0.0046971,0,-0.11439,0.20765,0
0,0.505,0.016935,66.651,0.505,-0.00061676,-0.00092434,-0.0046036,0,-0.11939,0.20526,0
0,0.505,0.016924,66.648,0.505,-0.00054755,-0.00063636,-0.0048761,0,-0.1036,0.21193,0
0,0.505,0.016897,66.846,0.505,-0.00062418,-0.0050666,-0.0011996,0,-0.25299,0.071167,0
0,0.505,0.016899,66.845,0.505,-0.00064124,-0.0048932,-0.0011135,0,-0.25114,0.075052,0
0,0.505,0.016899,66.845,0.505,-0.0006357,-0.0049499,-0.0011372,0,-0.25174,0.073811,0
0,0.505,0.0169,66.844,0.505,-0.00065841,-0.0047064,-0.0010339,0,-0.24918,0.079086,0
0,0.505,0.016898,66.847,0.505,-0.0006511,-0.0047829,-0.0010619,0,-0.25002,0.077382,0
0,0.505,0.016906,66.829,0.505,-0.00070618,-0.0041548,-0.00090239,0,-0.24263,0.091281,0
0,0.505,0.016905,66.828,0.505,-0.00070048,-0.004226,-0.00090963,0,-0.2435,0.089735,0
0,0.505,0.016909,66.811,0.505,-0.00074925,-0.0035439,-0.00097716,0,-0.23455,0.1044,0
0,0.505,0.016907,66.821,0.505,-0.00074084,-0.0036708,-0.00093858,0,-0.23633,0.10161,0
0,0.505,0.016909,66.81,0.505,-0.00075978,-0.0033723,-0.0010405,0,-0.23203,0.10822,0
0,0.505,0.01691,66.807,0.505,-0.00075421,-0.0034659,-0.0010053,0,-0.2334,0.10616,0
0,0.505,0.016905,66.821,0.505,-0.00073533,-0.0037496,-0.00092501,0,-0.23745,0.099811,0
0,0.505,0.01691,66.802,0.505,-0.00077594,-0.0030806,-0.0011828,0,-0.22764,0.11469,0
0,0.505,0.01691,66.8,0.505,-0.00077492,-0.0031,-0.0011737,0,-0.22793,0.11426,0
0,0.505,0.016918,66.785,0.505,-0.00078557,-0.0028967,-0.0013107,0,-0.22423,0.11943,0
0,0.505,0.016914,66.793,0.505,-0.00078317,-0.0029434,-0.001272,0,-0.22521,0.11804,0
0,0.505,0.016911,66.799,0.505,-0.00077681,-0.0030663,-0.001194,0,-0.22736,0.11507,0
0,0.505,0.01691,66.807,0.505,-0.00076236,-0.0033282,-0.0010607,0,-0.23137,0.1092,0
0,0.505,0.016909,66.812,0.505,-0.00075089,-0.0035181,-0.00098334,0,-0.23419,0.10497,0
0,0.505,0.016906,66.829,0.505,-0.00070742,-0.0041388,-0.00090272,0,-0.24244,0.091614,0
0,0.505,0.016903,66.83,0.505,-0.00071832,-0.0039858,-0.00090019,0,-0.24058,0.094684,0
0,0.505,0.016903,66.833,0.505,-0.00069338,-0.0043117,-0.0009171,0,-0.24456,0.087832,0
0,0.505,0.016903,66.833,0.505,-0.00069187,-0.0043297,-0.00092199,0,-0.24478,0.087428,0
0,0.505,0.016903,66.826,0.505,-0.00072996,-0.0038259,-0.00091077,0,-0.23847,0.098153,0
0,0.505,0.016904,66.828,0.505,-0.00072158,-0.0039407,-0.00090402,0,-0.24002,0.09562,0
0,0.505,0.016908,66.813,0.505,-0.00076784,-0.0032289,-0.0011037,0,-0.22986,0.11141,0
0,0.505,0.016917,66.785,0.505,-0.00078869,-0.0028264,-0.0013644,0,-0.22289,0.12114,0
0,0.505,0.016916,66.781,0.505,-0.00079863,-0.0025898,-0.0015679,0,-0.21791,0.12763,0
0,0.505,0.016913,66.785,0.505,-0.00079598,-0.002649,-0.0015075,0,-0.21935,0.12587,0
0,0.505,0.016916,66.755,0.505,-0.00080793,-0.0022993,-0.0019019,0,-0.20997,0.13666,0
0,0.505,0.016916,66.755,0.505,-0.00080781,-0.0023036,-0.0018958,0,-0.21011,0.1365,0
0,0.505,0.016914,66.769,0.505,-0.00080559,-0.0023831,-0.0017884,0,-0.21258,0.13381,0
0,0.505,0.016914,66.77,0.505,-0.00080452,-0.0024154,-0.0017476,0,-0.21355,0.13263,0
0,0.505,0.016916,66.78,0.505,-0.00080074,-0.0025294,-0.0016245,0,-0.21642,0.12918,0
0,0.505,0.016901,66.841,0.505,-0.00067981,-0.0044683,-0.00094907,0,-0.24645,0.084361,0
0,0.505,0.016902,66.84,0.505,-0.00067538,-0.0045198,-0.00096732,0,-0.24705,0.083225,0
0,0.505,0.0169,66.845,0.505,-0.00066571,-0.0046257,-0.00099749,0,-0.24828,0.080877,0
0,0.505,0.016895,66.843,0.505,-0.00057361,-0.0055638,-0.0015034,0,-0.25782,0.060407,0
0,0.505,0.016895,66.843,0.505,-0.00057257,-0.0055735,-0.0015087,0,-0.25791,0.060199,0
0,0.505,0.01689,66.847,0.505,-0.00055577,-0.0057317,-0.0016002,0,-0.2593,0.056844,0
0,0.505,0.016895,66.843,0.505,-0.00057545,-0.0055465,-0.0014933,0,-0.25766,0.060779,0
0,0.505,0.016896,66.848,0.505,-0.0005974,-0.0053237,-0.0013576,0,-0.25566,0.065355,0
0,0.505,0.016896,66.851,0.505,-0.00059094,-0.0053899,-0.0013997,0,-0.25629,0.063981,0
0,0.505,0.016937,66.646,0.505,0.00032342,0.0027768,-0.0049685,0,0.073386,0.22227,0
0,0.505,0.016928,66.637,0.505,0.00030984,0.0027219,-0.0049726,0,0.070165,0.22316,0
0,0.505,0.016929,66.668,0.505,0.00048613,0.0034633,-0.0049103,0,0.11583,0.2068,0
0,0.505,0.01693,66.66,0.505,0.00048062,0.0034323,-0.004924,0,0.11425,0.2076,0
0,0.505,0.016933,66.652,0.505,0.00045202,0.0033061,-0.0049665,0,0.10595,0.21111,0
0,0.505,0.016933,66.652,0.505,0.00045123,0.0033029,-0.0049679,0,0.10573,0.2112,0
0,0.505,0.016931,66.654,0.505,0.00046568,0.0033636,-0.0049502,0,0.10985,0.2096,0
0,0.505,0.016931,66.654,0.505,0.0004637,0.0033559,-0.0049531,0,0.10928,0.20984,0
0,0.505,0.016928,66.686,0.505,0.00056236,0.0039384,-0.0045476,0,0.143,0.19266,0
0,0.505,0.016933,66.672,0.505,0.00055589,0.0038822,-0.0046052,0,0.14024,0.19432,0
0,0.505,0.016934,66.668,0.505,0.00053356,0.0037335,-0.0047364,0,0.13127,0.19924,0
0,0.505,0.016935,66.668,0.505,0.00053242,0.003727,-0.0047424,0,0.13084,0.19946,0
0,0.505,0.016933,66.672,0.505,0.00055578,0.0038812,-0.0046061,0,0.1402,0.19434,0
0,0.505,0.016933,66.67,0.505,0.00054361,0.0037944,-0.0046881,0,0.13503,0.19731,0
0,0.505,0.016933,66.671,0.505,0.00054148,0.0037814,-0.0046996,0,0.13418,0.19773,0
0,0.505,0.016936,66.637,0.505,0.00033391,0.0028183,-0.0049801,0,0.075906,0.22163,0
0,0.505,0.016927,66.642,0.505,0.00037894,0.0029838,-0.0050041,0,0.086911,0.21802,0
0,0.505,0.01693,66.644,0.505,0.00036879,0.0029534,-0.0049978,0,0.084261,0.21891,0
0,0.505,0.016926,66.644,0.505,0.00038342,0.0030026,-0.0050074,0,0.088067,0.21762,0
0,0.505,0.016933,66.654,0.505,0.0003984,0.0030653,-0.0050046,0,0.091888,0.21649,0
0,0.505,0.016929,66.653,0.505,0.00039418,0.0030453,-0.0050083,0,0.090803,0.21686,0
0,0.505,0.016933,66.64,0.505,0.00036013,0.0029177,-0.0049954,0,0.082235,0.2196,0
0,0.505,0.016931,66.638,0.505,0.00021645,0.0023327,-0.0049086,0,0.048885,0.22774,0
0,0.505,0.016933,66.63,0.505,0.00020667,0.0022904,-0.0049075,0,0.046708,0.22813,0
0,0.505,0.016931,66.632,0.505,0.00026379,0.002525,-0.0049361,0,0.059577,0.22561,0
0,0.505,0.01693,66.632,0.505,0.00026265,0.00252,-0.0049362,0,0.059314,0.22567,0
0,0.505,0.016935,66.641,0.505,0.00028753,0.0026302,-0.0049423,0,0.064997,0.2243,0
0,0.505,0.016929,66.647,0.505,0.00027777,0.0025838,-0.0049382,0,0.062779,0.22489,0
0,0.505,0.016936,66.646,0.505,0.0002928,0.002655,-0.0049449,0,0.066187,0.224,0
0,0.505,0.016931,66.647,0.505,0.0003537,0.0028906,-0.0049962,0,0.080743,0.22012,0
0,0.505,0.016933,66.637,0.505,0.00034475,0.0028591,-0.0049901,0,0.078581,0.22083,0
0,0.505,0.016929,66.636,0.505,0.00030392,0.002699,-0.0049664,0,0.068788,0.22348,0
0,0.505,0.016931,66.637,0.505,0.00033869,0.0028357,-0.0049882,0,0.077082,0.22131,0
0,0.505,0.016936,66.629,0.505,0.000179,0.0021675,-0.0049069,0,0.040647,0.22912,0
0,0.505,0.016933,66.636,0.505,0.00016978,0.0021222,-0.0049118,0,0.038664,0.22945,0
0,0.505,0.016933,66.621,0.505,0.0001546,0.0020512,-0.004926,0,0.035398,0.22995,0
0,0.505,0.016934,66.628,0.505,0.00019394,0.0022353,-0.004907,0,0.043924,0.2286,0
0,0.505,0.016933,66.634,0.505,0.00018536,0.0021975,-0.0049059,0,0.042044,0.22889,0
0,0.505,0.016935,66.657,0.505,0.00041237,0.0031358,-0.004995,0,0.095398,0.21526,0
0,0.505,0.016935,66.655,0.505,0.00040877,0.0031199,-0.0049962,0,0.09446,0.2156,0
0,0.505,0.016932,66.653,0.505,0.00042559,0.0031924,-0.004989,0,0.098827,0.21391,0
0,0.505,0.016933,66.652,0.505,0.00042364,0.0031837,-0.0049894,0,0.098305,0.21412,0
0,0.505,0.016933,66.651,0.505,0.00043851,0.0032462,-0.0049813,0,0.10226,0.21258,0
0,0.505,0.016933,66.651,0.505,0.00043816,0.0032446,-0.0049816,0,0.10216,0.21262,0
0,0.505,0.016926,66.638,0.505,0.00030793,0.0027142,-0.0049729,0,0.069716,0.2233,0
0,0.505,0.016933,66.621,0.505,0.00015379,0.0020474,-0.0049269,0,0.035224,0.22997,0
0,0.505,0.016933,66.621,0.505,0.00015339,0.0020456,-0.0049276,0,0.035133,0.22999,0
0,0.505,0.016937,66.663,0.505,0.0005226,0.0036646,-0.004789,0,0.12736,0.20124,0
0,0.505,0.016937,66.663,0.505,0.00052233,0.0036629,-0.0047905,0,0.12726,0.20129,0
0,0.505,0.016924,66.673,0.505,0.00054906,0.0038267,-0.0046619,0,0.1373,0.1961,0
0,0.505,0.016926,66.69,0.505,0.00056878,0.0039964,-0.0044959,0,0.14591,0.19087,0
0,0.505,0.016929,66.684,0.505,0.00056494,0.0039621,-0.0045277,0,0.14416,0.19197,0
0,0.505,0.016923,66.701,0.505,0.00060261,0.0044628,-0.0038992,0,0.17338,0.1718,0
0,0.505,0.016923,66.702,0.505,0.0006025,0.0044593,-0.0039039,0,0.17313,0.17197,0
0,0.505,0.016919,66.733,0.505,0.00060296,0.0045853,-0.0036869,0,0.18359,0.16328,0
0,0.505,0.016916,66.719,0.505,0.00060344,0.0045638,-0.0037256,0,0.18183,0.16478,0
0,0.505,0.016922,66.719,0.505,0.0006033,0.0045006,-0.0038369,0,0.17604,0.1697,0
0,0.505,0.016923,66.7,0.505,0.00060235,0.0044541,-0.0039119,0,0.17276,0.17225,0
0,0.505,0.016921,66.707,0.505,0.00060117,0.0044192,-0.0039631,0,0.17024,0.17415,0
0,0.505,0.016925,66.694,0.505,0.00059995,0.0043954,-0.0040081,0,0.1683,0.17552,0
0,0.505,0.016925,66.696,0.505,0.00059927,0.0043818,-0.0040274,0,0.16739,0.17617,0
0,0.505,0.016926,66.679,0.505,0.00058252,0.0041342,-0.0043474,0,0.15338,0.18606,0
0,0.505,0.016927,66.681,0.505,0.00058013,0.0041116,-0.0043775,0,0.15181,0.18716,0
0,0.505,0.016925,66.681,0.505,0.00058526,0.0041631,-0.0043095,0,0.1552,0.18482,0
0,0.505,0.016923,66.68,0.505,0.00058464,0.0041539,-0.0043202,0,0.15477,0.18511,0
0,0.505,0.016927,66.7,0.505,0.00059267,0.0042777,-0.0041789,0,0.16042,0.1812,0
0,0.505,0.016926,66.7,0.505,0.00058991,0.0042314,-0.0042257,0,0.15843,0.18261,0
0,0.505,0.016924,66.716,0.505,-0.00080311,-0.0018734,-0.0026987,0,-0.18794,0.15912,0
0,0.505,0.016923,66.718,0.505,-0.00080348,-0.0018774,-0.0026864,0,-0.1883,0.1588,0
0,0.505,0.016919,66.74,0.505,-0.00080825,-0.0019618,-0.0024706,0,-0.19475,0.15288,0
0,0.505,0.016921,66.735,0.505,-0.00080934,-0.0019993,-0.0024063,0,-0.19676,0.151,0
0,0.505,0.016921,66.741,0.505,-0.00080964,-0.002011,-0.0023773,0,-0.19755,0.15022,0
0,0.505,0.01692,66.743,0.505,-0.00081037,-0.0020668,-0.0022708,0,-0.20058,0.14717,0
0,0.505,0.01692,66.745,0.505,-0.00081043,-0.0020775,-0.002253,0,-0.2011,0.14663,0
0,0.505,0.016919,66.72,0.505,-0.00080001,-0.0018356,-0.0027921,0,-0.18529,0.16174,0
0,0.505,0.01692,66.725,0.505,-0.00080647,-0.0019207,-0.002571,0,-0.19184,0.1555,0
0,0.505,0.016921,66.724,0.505,-0.00080681,-0.001928,-0.0025572,0,-0.19228,0.15508,0
0,0.505,0.016924,66.709,0.505,-0.00078938,-0.0017574,-0.0030309,0,-0.17757,0.16825,0
0,0.505,0.01692,66.69,0.505,-0.00077466,-0.0016616,-0.0032896,0,-0.16937,0.17494,0
0,0.505,0.016921,66.704,0.505,-0.00079644,-0.0018084,-0.0028908,0,-0.18235,0.16447,0
0,0.505,0.016921,66.703,0.505,-0.00079672,-0.001811,-0.0028844,0,-0.18259,0.16427,0
0,0.505,0.016922,66.703,0.505,-0.00079618,-0.0018068,-0.0028957,0,-0.18217,0.16463,0
0,0.505,0.016924,66.716,0.505,-0.00079206,-0.0017783,-0.0029777,0,-0.17933,0.1669,0
0,0.505,0.016923,66.718,0.505,-0.00080367,-0.0018799,-0.0026792,0,-0.18851,0.15859,0
0,0.505,0.016923,66.718,0.505,-0.00080484,-0.0018968,-0.002635,0,-0.18987,0.15731,0
0,0.505,0.01692,66.741,0.505,-0.00081044,-0.0021223,-0.0021756,0,-0.20293,0.14445,0
0,0.505,0.016922,66.737,0.505,-0.00081004,-0.0020419,-0.0023212,0,-0.19916,0.14859,0
0,0.505,0.016918,66.746,0.505,-0.00081039,-0.0021483,-0.0021265,0,-0.20407,0.14317,0
0,0.505,0.016918,66.744,0.505,-0.00081035,-0.0021539,-0.0021173,0,-0.20435,0.14286,0
0,0.505,0.016918,66.744,0.505,-0.00081015,-0.0021677,-0.0020944,0,-0.20498,0.14218,0
0,0.505,0.016915,66.777,0.505,-0.00080249,-0.0024807,-0.0016749,0,-0.2152,0.13059,0
0,0.505,0.016929,66.654,0.505,-0.0005799,-0.00074936,-0.0047569,0,-0.11093,0.20909,0
0,0.505,0.016926,66.654,0.505,-0.00057568,-0.00072953,-0.004775,0,-0.10998,0.20946,0
0,0.505,0.016935,66.66,0.505,-0.00063726,-0.0010215,-0.0044999,0,-0.1244,0.20284,0
0,0.505,0.016937,66.654,0.505,-0.00064644,-0.0010591,-0.0044497,0,-0.12676,0.20166,0
0,0.505,0.016938,66.627,0.505,-0.00012843,0.00076174,-0.0052384,0,-0.021033,0.23125,0
0,0.505,0.01693,66.632,0.505,0.00026178,0.0025166,-0.0049354,0,0.059113,0.22572,0
0,0.505,0.01693,66.641,0.505,0.0002473,0.0024615,-0.0049227,0,0.055814,0.22642,0
0,0.505,0.016935,66.63,0.505,0.0002345,0.0024094,-0.0049149,0,0.052918,0.227,0
0,0.505,0.016934,66.632,0.505,0.00023198,0.0023989,-0.0049138,0,0.052351,0.22711,0
0,0.505,0.016935,66.629,0.505,0.00022881,0.0023856,-0.0049129,0,0.05165,0.22724,0
0,0.505,0.016911,66.806,0.505,0.00048165,0.0057571,-0.0022645,0,0.23064,0.11035,0
0,0.505,0.016912,66.804,0.505,0.00048495,0.0057243,-0.0022824,0,0.23009,0.11115,0
0,0.505,0.016907,66.819,0.505,0.00043824,0.0061594,-0.0021028,0,0.23696,0.10075,0
0,0.505,0.016909,66.812,0.505,0.00044979,0.0060555,-0.002137,0,0.23541,0.10317,0
0,0.505,0.016912,66.804,0.505,0.00046811,0.0058881,-0.002203,0,0.23279,0.10718,0
0,0.505,0.016912,66.804,0.505,0.00046824,0.0058869,-0.0022035,0,0.23277,0.10721,0
0,0.505,0.016747,66.649,0.505,-0.00020429,0.0065711,-0.00078732,0,0.27388,0.0095839,0
0,0.505,0.016759,66.646,0.505,-0.00019641,0.0070909,-0.00091832,0,0.27359,0.010845,0
0,0.505,0.016813,66.676,0.505,-0.00011032,0.0090502,-0.0019333,0,0.271,0.021545,0
0,0.505,0.016819,66.679,0.505,-0.00010353,0.0091247,-0.0019938,0,0.27078,0.022302,0
0,0.505,0.016919,66.713,0.505,0.00060357,0.0045553,-0.0037477,0,0.18079,0.16573,0
0,0.505,0.016924,66.715,0.505,0.00060353,0.004542,-0.0037709,0,0.17925,0.16707,0
0,0.505,0.0169,66.82,0.505,0.00040968,0.0064121,-0.002052,0,0.24045,0.094962,0
0,0.505,0.016905,66.821,0.505,0.00042158,0.0063109,-0.0020698,0,0.23903,0.097359,0
0,0.505,0.016915,66.786,0.505,0.00052951,0.0052814,-0.0025937,0,0.22129,0.12313,0
0,0.505,0.016915,66.788,0.505,0.00053736,0.0052039,-0.0026651,0,0.21936,0.1256,0
0,0.505,0.016917,66.78,0.505,0.00054323,0.0051455,-0.0027246,0,0.2178,0.12754,0
0,0.505,0.01692,66.765,0.505,0.00056722,0.0049242,-0.0030031,0,0.20991,0.1367,0
0,0.505,0.016919,66.769,0.505,0.00057152,0.0048844,-0.0030603,0,0.20831,0.13862,0
0,0.505,0.016917,66.782,0.505,0.00054641,0.0051142,-0.0027564,0,0.21695,0.1286,0
0,0.505,0.016898,66.83,0.505,0.00038296,0.0066285,-0.0020381,0,0.24341,0.090137,0
0,0.505,0.016899,66.828,0.505,0.00038678,0.0065968,-0.0020401,0,0.24299,0.0908,0
0,0.505,0.0169,66.823,0.505,0.00040355,0.0064647,-0.0020431,0,0.24117,0.093805,0
0,0.505,0.016907,66.817,0.505,0.00043021,0.0062337,-0.002089,0,0.23796,0.09909,0
0,0.505,0.016909,66.813,0.505,0.00045375,0.0060201,-0.0021469,0,0.23488,0.10403,0
0,0.505,0.016911,66.806,0.505,0.00049431,0.0056321,-0.0023332,0,0.22848,0.11345,0
0,0.505,0.016913,66.801,0.505,0.00050069,0.0055682,-0.002374,0,0.22732,0.11508,0
0,0.505,0.016912,66.802,0.505,0.00050624,0.0055134,-0.0024091,0,0.22629,0.11653,0
0,0.505,0.016915,66.788,0.505,0.00052776,0.0052993,-0.0025784,0,0.22171,0.12259,0
0,0.505,0.016915,66.787,0.505,0.00052301,0.0053481,-0.0025396,0,0.22279,0.12118,0
0,0.505,0.016914,66.794,0.505,0.00051547,0.0054212,-0.0024777,0,0.22443,0.11903,0
0,0.505,0.016912,66.803,0.505,0.00046871,0.0058826,-0.0022057,0,0.2327,0.10732,0
0,0.505,0.016914,66.794,0.505,0.00051744,0.0054021,-0.002492,0,0.22403,0.11957,0
0,0.505,0.016917,66.774,0.505,0.00055455,0.0050331,-0.0028477,0,0.21441,0.13151,0
0,0.505,0.016918,66.769,0.505,0.00055842,0.0049986,-0.0028925,0,0.21306,0.13303,0
0,0.505,0.016918,66.773,0.505,0.00055123,0.0050679,-0.0028119,0,0.21547,0.13027,0
0,0.505,0.016918,66.77,0.505,0.00056265,0.0049605,-0.0029405,0,0.21157,0.13477,0
0,0.505,0.016918,66.772,0.505,0.00056413,0.0049504,-0.0029583,0,0.21108,0.13539,0
0,0.505,0.016903,66.828,0.505,0.00035054,0.0069058,-0.0020466,0,0.24658,0.084387,0
0,0.505,0.016904,66.829,0.505,0.00036165,0.0068155,-0.0020439,0,0.2456,0.086369,0
0,0.505,0.016901,66.83,0.505,0.00033925,0.0069917,-0.0020608,0,0.24762,0.082374,0
0,0.505,0.016899,66.827,0.505,0.00037819,0.0066709,-0.0020389,0,0.24393,0.089259,0
0,0.505,0.016707,66.747,0.505,-0.00023728,0.0025116,-0.00012528,0,0.27522,0.0020266,0
0,0.505,0.016714,66.727,0.505,-0.00023411,0.0033162,-0.00019777,0,0.27515,0.0036914,0
0,0.505,0.016728,66.668,0.505,-0.00021896,0.0055193,-0.00051687,0,0.27438,0.0072301,0
0,0.505,0.01672,66.704,0.505,-0.00022886,0.0040325,-0.00030432,0,0.27494,0.0048062,0
0,0.505,0.016918,66.734,0.505,0.00060003,0.004637,-0.0035626,0,0.18924,0.15814,0
0,0.505,0.016922,66.721,0.505,0.00060156,0.0046209,-0.0036171,0,0.18673,0.16051,0
0,0.505,0.016924,66.721,0.505,0.00060354,0.0045204,-0.0038051,0,0.17744,0.16846,0
0,0.505,0.016922,66.72,0.505,0.0006019,0.0046145,-0.0036307,0,0.18606,0.16111,0
0,0.505,0.016922,66.731,0.505,0.00059725,0.0046708,-0.0034901,0,0.19262,0.15495,0
0,0.505,0.016921,66.733,0.505,0.00059782,0.0046641,-0.0035032,0,0.19198,0.15555,0
0,0.505,0.016921,66.73,0.505,0.00059828,0.0046587,-0.0035149,0,0.19146,0.15606,0
0,0.505,0.016921,66.754,0.505,0.00057962,0.0048176,-0.0031763,0,0.20489,0.1426,0
0,0.505,0.01692,66.757,0.505,0.00058328,0.0047867,-0.0032297,0,0.20292,0.14469,0
0,0.505,0.016922,66.747,0.505,0.00058634,0.0047629,-0.0032807,0,0.20112,0.14655,0
0,0.505,0.016921,66.749,0.505,0.00058797,0.0047504,-0.0033076,0,0.20016,0.14755,0
0,0.505,0.016922,66.743,0.505,0.0005897,0.0047371,-0.003341,0,0.19895,0.14876,0
0,0.505,0.016924,66.7,0.505,0.0005883,0.0042051,-0.0042533,0,0.15731,0.18344,0
0,0.505,0.016927,66.7,0.505,0.00059397,0.0042992,-0.0041531,0,0.16156,0.18045,0
0,0.505,0.016923,66.692,0.505,0.00059699,0.0043416,-0.0040956,0,0.16445,0.17833,0
0,0.505,0.016922,66.692,0.505,0.00059647,0.0043331,-0.0041102,0,0.16387,0.17874,0
0,0.505,0.016927,66.681,0.505,0.00057963,0.0041072,-0.0043843,0,0.15152,0.18734,0
0,0.505,0.016927,66.687,0.505,0.00057471,0.0040583,-0.0044368,0,0.14887,0.18904,0
0,0.505,0.016925,66.689,0.505,0.00059808,0.0043608,-0.0040643,0,0.16583,0.17728,0
0,0.505,0.016927,66.686,0.505,0.00057283,0.0040384,-0.0044591,0,0.14791,0.18963,0
0,0.505,0.016922,66.74,0.505,0.00059314,0.0047067,-0.0034024,0,0.19633,0.15136,0
0,0.505,0.01692,66.744,0.505,0.00059513,0.0046895,-0.0034394,0,0.19471,0.15296,0
0,0.505,0.016921,66.746,0.505,0.00059177,0.004718,-0.0033773,0,0.19741,0.15029,0
0,0.505,0.016922,66.722,0.505,0.00060174,0.0046177,-0.003624,0,0.18635,0.16084,0
0,0.505,0.016932,66.672,0.505,0.00055559,0.0038796,-0.0046078,0,0.14012,0.19439,0
0,0.505,0.016934,66.666,0.505,0.00051083,0.0035908,-0.0048356,0,0.12354,0.20299,0
0,0.505,0.016934,66.667,0.505,0.00050924,0.0035819,-0.0048403,0,0.12303,0.20323,0
0,0.505,0.016932,66.647,0.505,-0.00036598,-4.4202e-05,-0.0050755,0,-0.06656,0.22392,0
0,0.505,0.016943,66.639,0.505,-0.00038147,-0.00010024,-0.0050626,0,-0.069532,0.22323,0
0,0.505,0.016935,66.634,0.505,-0.00035186,5.5731e-07,-0.0050871,0,-0.063844,0.22454,0
0,0.505,0.016936,66.637,0.505,-0.00019437,0.00050275,-0.0052232,0,-0.033456,0.23003,0
0,0.505,0.01694,66.626,0.505,-0.00017628,0.00057235,-0.0052332,0,-0.030051,0.23042,0
0,0.505,0.01694,66.626,0.505,-0.00017692,0.00056992,-0.0052328,0,-0.030169,0.23041,0
0,0.505,0.01694,66.626,0.505,-0.00017531,0.00057604,-0.0052335,0,-0.029869,0.23044,0
0,0.505,0.016944,66.642,0.505,-0.00038587,-0.00011501,-0.0050584,0,-0.070392,0.22303,0
0,0.505,0.016929,66.628,0.505,-0.00042697,-0.00021321,-0.0050627,0,-0.078743,0.22079,0
0,0.505,0.016937,66.65,0.505,-0.00045661,-0.00031107,-0.0050067,0,-0.08477,0.21893,0
0,0.505,0.016933,66.638,0.505,-0.00027555,0.00023499,-0.0051569,0,-0.049107,0.2276,0
0,0.505,0.016942,66.639,0.505,-0.00028767,0.00019165,-0.0051347,0,-0.051376,0.22717,0
0,0.505,0.016944,66.629,0.505,-2.5635e-05,0.0012063,-0.0051376,0,-0.0014238,0.23206,0
0,0.505,0.016937,66.63,0.505,-2.8555e-05,0.0011929,-0.0051464,0,-0.0019758,0.23209,0
0,0.505,0.016942,66.632,0.505,0.00010968,0.0018544,-0.0049394,0,0.025813,0.23088,0
0,0.505,0.016929,66.643,0.505,9.6463e-05,0.0017827,-0.004968,0,0.023148,0.23107,0
0,0.505,0.016941,66.627,0.505,0.00012298,0.0019216,-0.0049349,0,0.028587,0.23061,0
0,0.505,0.016941,66.635,0.505,0.00011408,0.0018787,-0.0049376,0,0.02672,0.2308,0
0,0.505,0.01693,66.627,0.505,0.00013572,0.0019778,-0.0049398,0,0.031263,0.23034,0
0,0.505,0.016932,66.629,0.505,0.00013232,0.0019633,-0.0049381,0,0.030512,0.2304,0
0,0.505,0.016932,66.634,0.505,0.000201,0.0022658,-0.0049071,0,0.045454,0.22836,0
0,0.505,0.016926,66.658,0.505,0.00049618,0.0035154,-0.004883,0,0.11882,0.20523,0
0,0.505,0.016933,66.65,0.505,0.0004426,0.0032646,-0.0049771,0,0.10338,0.21214,0
0,0.505,0.016937,66.662,0.505,0.00052059,0.003652,-0.0047973,0,0.1267,0.20154,0
0,0.505,0.016926,66.658,0.505,0.00049741,0.0035228,-0.0048806,0,0.1192,0.20505,0
0,0.505,0.01693,66.663,0.505,0.00047523,0.0034041,-0.0049329,0,0.11271,0.20831,0
0,0.505,0.016945,66.638,0.505,-1.0705e-05,0.0012837,-0.0051126,0,0.0014121,0.23203,0
0,0.505,0.016936,66.636,0.505,1.8085e-05,0.0014187,-0.0050743,0,0.0072961,0.23194,0
0,0.505,0.016912,66.631,0.505,5.5562e-06,0.0013587,-0.0051129,0,0.0048125,0.23202,0
0,0.505,0.016939,66.639,0.505,2.5394e-05,0.0014476,-0.0050603,0,0.0086949,0.23183,0
0,0.505,0.016918,66.631,0.505,-9.1837e-07,0.0013311,-0.0051207,0,0.0034958,0.23205,0
0,0.505,0.01694,66.626,0.505,-3.4302e-05,0.0011713,-0.0051536,0,-0.0030975,0.23208,0
0,0.505,0.016933,66.638,0.505,-0.00010158,0.00087088,-0.0052254,0,-0.015949,0.2316,0
0,0.505,0.016942,66.64,0.505,-6.4691e-05,0.001039,-0.0051718,0,-0.0089429,0.23191,0
0,0.505,0.016934,66.63,0.505,-8.0789e-05,0.00095866,-0.0052026,0,-0.012016,0.23179,0
0,0.505,0.016937,66.634,0.505,-4.6519e-05,0.0011228,-0.0051709,0,-0.0054429,0.23205,0
0,0.505,0.016937,66.63,0.505,-5.3948e-05,0.00109,-0.0051749,0,-0.0068595,0.23199,0
0,0.505,0.016928,66.63,0.505,4.4587e-05,0.0015434,-0.0050328,0,0.012527,0.23166,0
0,0.505,0.016934,66.628,0.505,4.0001e-05,0.0015219,-0.0050389,0,0.011619,0.23169,0
0,0.505,0.016915,66.634,0.505,8.4063e-05,0.0017264,-0.0050035,0,0.020595,0.23152,0
0,0.505,0.016901,66.632,0.505,7.9734e-05,0.0017023,-0.0050202,0,0.019622,0.23162,0
0,0.505,0.016923,66.632,0.505,7.4553e-05,0.0016782,-0.0050065,0,0.018466,0.23166,0
0,0.505,0.016941,66.645,0.505,6.3144e-05,0.0016303,-0.0049952,0,0.016106,0.23156,0
0,0.505,0.016933,66.629,0.505,4.8246e-05,0.0015595,-0.0050248,0,0.013213,0.23164,0
0,0.505,0.016943,66.639,0.505,-0.00038863,-0.00012214,-0.0050594,0,-0.070927,0.22291,0
0,0.505,0.016914,66.755,0.505,-0.00080939,-0.0022239,-0.0020077,0,-0.20747,0.13969,0
0,0.505,0.016916,66.753,0.505,-0.00080811,-0.0022918,-0.0019144,0,-0.2097,0.13696,0
0,0.505,0.016928,66.627,0.505,-0.00042448,-0.00020482,-0.0050665,0,-0.078222,0.22096,0
0,0.505,0.016843,66.738,0.505,-4.0631e-05,0.00923,-0.0023835,0,0.26867,0.02991,0
0,0.505,0.016846,66.754,0.505,-2.0105e-05,0.0091584,-0.0024565,0,0.26798,0.032154,0
0,0.505,0.01679,66.671,0.505,-0.00013858,0.0087193,-0.0016704,0,0.27189,0.018368,0
0,0.505,0.016791,66.672,0.505,-0.00013583,0.0087679,-0.0017009,0,0.27181,0.018695,0
0,0.505,0.01682,66.679,0.505,-0.00010232,0.0091305,-0.0020033,0,0.27074,0.022453,0
0,0.505,0.016846,66.705,0.505,-7.7185e-05,0.0092494,-0.0021849,0,0.2699,0.025606,0
0,0.505,0.016789,66.665,0.505,-0.00014315,0.0086301,-0.0016218,0,0.27204,0.01782,0
0,0.505,0.016783,66.652,0.505,-0.00016888,0.0081412,-0.0013331,0,0.27282,0.014772,0
0,0.505,0.016762,66.646,0.505,-0.00018915,0.0073355,-0.0010216,0,0.27341,0.011807,0
0,0.505,0.016839,66.721,0.505,-5.7957e-05,0.0092196,-0.0022879,0,0.26921,0.02788,0
0,0.505,0.016879,66.801,0.505,0.00010559,0.0085678,-0.0025812,0,0.26291,0.047646,0
0,0.505,0.016882,66.808,0.505,0.00011731,0.0084929,-0.0025665,0,0.26239,0.049102,0
0,0.505,0.016877,66.777,0.505,4.5552e-05,0.0089154,-0.0025906,0,0.2656,0.040141,0
0,0.505,0.016879,66.779,0.505,4.9478e-05,0.0088925,-0.0025902,0,0.26547,0.040635,0
0,0.505,0.016877,66.783,0.505,6.1982e-05,0.0088198,-0.0025955,0,0.2649,0.042227,0
0,0.505,0.016884,66.824,0.505,0.00017563,0.0081215,-0.0024413,0,0.25931,0.05727,0
0,0.505,0.016886,66.824,0.505,0.00018111,0.0080889,-0.0024291,0,0.25899,0.05802,0
0,0.505,0.016922,66.757,0.505,0.00057554,0.0048501,-0.0031159,0,0.20671,0.14052,0
0,0.505,0.01692,66.761,0.505,0.00057795,0.0048284,-0.0031475,0,0.20574,0.14169,0
0,0.505,0.016896,66.835,0.505,0.00031389,0.0071777,-0.0021023,0,0.24978,0.078176,0
0,0.505,0.0169,66.832,0.505,0.00032605,0.0070887,-0.0020768,0,0.24879,0.080169,0
0,0.505,0.016888,66.818,0.505,0.00016381,0.0082011,-0.0024677,0,0.25993,0.055696,0
0,0.505,0.016891,66.821,0.505,0.00014838,0.0083017,-0.0024997,0,0.26075,0.053696,0
0,0.505,0.016893,66.832,0.505,0.00022664,0.0077915,-0.0023067,0,0.25613,0.064652,0
0,0.505,0.016898,66.827,0.505,0.00024956,0.0076403,-0.0022496,0,0.25459,0.068098,0
0,0.505,0.016898,66.828,0.505,0.00025162,0.0076253,-0.0022428,0,0.25445,0.068414,0
0,0.505,0.016898,66.827,0.505,0.00025696,0.0075888,-0.0022294,0,0.25405,0.069254,0
0,0.505,0.016899,66.831,0.505,0.00028272,0.0074072,-0.0021678,0,0.25218,0.073285,0
0,0.505,0.016896,66.837,0.505,0.0003003,0.007276,-0.0021261,0,0.25084,0.076042,0
0,0.505,0.01689,66.83,0.505,0.00020127,0.0079588,-0.002373,0,0.25772,0.060942,0
0,0.505,0.016932,66.656,0.505,-0.00062381,-0.00095586,-0.0045699,0,-0.12107,0.20448,0
0,0.505,0.016933,66.654,0.505,-0.00062632,-0.00096779,-0.0045563,0,-0.12169,0.20417,0
0,0.505,0.016933,66.656,0.505,-0.00065035,-0.0010733,-0.0044309,0,-0.12778,0.20117,0
0,0.505,0.01693,66.662,0.505,-0.0006697,-0.0011586,-0.0043083,0,-0.13285,0.19825,0
0,0.505,0.016927,66.669,0.505,-0.00067528,-0.0011905,-0.0042696,0,-0.13436,0.1974,0
0,0.505,0.016932,66.664,0.505,-0.00066314,-0.0011255,-0.0043514,0,-0.13114,0.19932,0
0,0.505,0.016925,66.658,0.505,-0.00071155,-0.0013578,-0.0040048,0,-0.14518,0.19145,0
0,0.505,0.016928,66.658,0.505,-0.0007137,-0.0013693,-0.0039829,0,-0.14592,0.191,0
0,0.505,0.01693,66.657,0.505,-0.00070914,-0.0013511,-0.0040211,0,-0.1444,0.19193,0
0,0.505,0.016936,66.655,0.505,-0.00065543,-0.0010948,-0.0043988,0,-0.12912,0.20042,0
0,0.505,0.016854,66.767,0.505,1.3419e-06,0.0091103,-0.0025168,0,0.26738,0.03462,0
0,0.505,0.01686,66.774,0.505,1.7503e-05,0.009028,-0.002549,0,0.26678,0.036562,0
0,0.505,0.016893,66.828,0.505,0.00021546,0.0078691,-0.0023402,0,0.25685,0.062989,0
0,0.505,0.016889,66.806,0.505,0.00012022,0.008478,-0.0025611,0,0.26223,0.049537,0
0,0.505,0.016901,66.815,0.505,0.00014314,0.008344,-0.002516,0,0.26101,0.05296,0
0,0.505,0.016872,66.796,0.505,8.2597e-05,0.008699,-0.0026007,0,0.26398,0.04486,0
0,0.505,0.016873,66.8,0.505,8.7178e-05,0.0086772,-0.0025993,0,0.26375,0.04541,0
0,0.505,0.016898,66.832,0.505,0.00027589,0.0074546,-0.0021796,0,0.25266,0.072213,0
