"cvar","mu","phivar","pressure","rho","str","velocity:0","velocity:1","Label","Points:0","Points:1","Points:2"
0,0.505,0.016318,66.507,0.505,-0.00016526,-0.00449,-0.00010147,0,-0.27519,0,0
0,0.505,0.016312,66.503,0.505,-0.00015709,0.004916,-0.0001157,0,0.27507,0,0
0,0.505,0.016953,66.513,0.505,-0.0023835,-0.0092483,-0.01648,0,-0.14655,0.19114,0
0,0.505,0.016951,66.523,0.505,-0.0024026,-0.0093882,-0.016359,0,-0.14834,0.18994,0
0,0.505,0.01696,66.522,0.505,-0.0024394,-0.0096845,-0.016124,0,-0.15188,0.18768,0
0,0.505,0.01696,66.523,0.505,-0.0024412,-0.0096986,-0.016112,0,-0.15205,0.18757,0
0,0.505,0.01696,66.523,0.505,-0.0024428,-0.0097114,-0.016102,0,-0.15222,0.18746,0
0,0.505,0.016956,66.538,0.505,-0.0024778,-0.010005,-0.015872,0,-0.15591,0.18508,0
0,0.505,0.016955,66.51,0.505,-0.0023511,-0.0090165,-0.016658,0,-0.1434,0.19307,0
0,0.505,0.016946,66.513,0.505,-0.0023685,-0.0091324,-0.016573,0,-0.14504,0.19207,0
0,0.505,0.016957,66.536,0.505,-0.002494,-0.010156,-0.015752,0,-0.15767,0.18381,0
0,0.505,0.016952,66.549,0.505,-0.0025086,-0.010297,-0.015642,0,-0.15934,0.18259,0
0,0.505,0.016942,66.482,0.505,-0.00014482,0.00026172,-0.019283,0,-0.012512,0.23245,0
0,0.505,0.016945,66.473,0.505,-0.00018307,0.00011494,-0.019306,0,-0.014493,0.23236,0
0,0.505,0.01693,66.477,0.505,-0.0010487,-0.003013,-0.019055,0,-0.060086,0.22601,0
0,0.505,0.016947,66.494,0.505,-0.0011018,-0.0032096,-0.018983,0,-0.063032,0.22538,0
0,0.505,0.016954,66.486,0.505,-0.0011445,-0.003373,-0.018947,0,-0.065341,0.22489,0
0,0.505,0.016947,66.464,0.505,-0.00068276,-0.0017255,-0.019266,0,-0.040379,0.22967,0
0,0.505,0.016947,66.463,0.505,-0.00069169,-0.0017561,-0.019262,0,-0.040877,0.22958,0
0,0.505,0.016951,66.493,0.505,-0.0011688,-0.0034633,-0.018929,0,-0.066638,0.2246,0
0,0.505,0.016958,66.489,0.505,-0.0011949,-0.0035648,-0.018906,0,-0.068044,0.22427,0
0,0.505,0.016946,66.488,0.505,-0.0014256,-0.0044024,-0.018728,0,-0.081293,0.22057,0
0,0.505,0.016959,66.489,0.505,-0.0014733,-0.0046024,-0.018664,0,-0.084039,0.21984,0
0,0.505,0.016956,66.487,0.505,-0.0012643,-0.0038251,-0.018857,0,-0.071837,0.22339,0
0,0.505,0.016955,66.481,0.505,-0.0013052,-0.0039683,-0.018834,0,-0.074028,0.22283,0
0,0.505,0.016942,66.48,0.505,-0.001339,-0.0040845,-0.018823,0,-0.076042,0.22219,0
0,0.505,0.016938,66.476,0.505,-0.0013685,-0.0041821,-0.0188,0,-0.077874,0.22169,0
0,0.505,0.016946,66.48,0.505,-0.0014015,-0.0043114,-0.018759,0,-0.079832,0.22105,0
0,0.505,0.01696,66.496,0.505,-0.0012377,-0.0037301,-0.018868,0,-0.070386,0.22373,0
0,0.505,0.016943,66.484,0.505,-0.0016132,-0.0051665,-0.018547,0,-0.092008,0.21713,0
0,0.505,0.016935,66.486,0.505,-0.0016542,-0.0053273,-0.018507,0,-0.09461,0.21615,0
0,0.505,0.016945,66.486,0.505,-0.0016833,-0.0054459,-0.018459,0,-0.096436,0.21545,0
0,0.505,0.016954,66.494,0.505,-0.0017022,-0.0055304,-0.018423,0,-0.097615,0.21503,0
0,0.505,0.01696,66.489,0.505,-0.0015404,-0.0048858,-0.018601,0,-0.087782,0.21864,0
0,0.505,0.016961,66.488,0.505,-0.001546,-0.0049094,-0.018594,0,-0.088095,0.21853,0
0,0.505,0.016943,66.495,0.505,-0.0018382,-0.0061432,-0.018234,0,-0.10602,0.21159,0
0,0.505,0.016941,66.497,0.505,-0.0018638,-0.0062605,-0.018193,0,-0.10766,0.21091,0
0,0.505,0.016956,66.5,0.505,-0.0017554,-0.0057722,-0.018354,0,-0.10069,0.21376,0
0,0.505,0.016956,66.495,0.505,-0.0017704,-0.0058418,-0.018334,0,-0.10159,0.21337,0
0,0.505,0.016958,66.493,0.505,-0.001485,-0.0046494,-0.018653,0,-0.084668,0.21964,0
0,0.505,0.016943,66.487,0.505,-0.0016005,-0.0051211,-0.01856,0,-0.091234,0.21739,0
0,0.505,0.01696,66.485,0.505,-7.7122e-05,0.0005352,-0.019231,0,-0.0090267,0.23262,0
0,0.505,0.016954,66.477,0.505,-0.00012043,0.00036192,-0.019263,0,-0.011256,0.23252,0
0,0.505,0.016944,66.477,0.505,-0.00021355,8.0816e-07,-0.01932,0,-0.016059,0.23229,0
0,0.505,0.016945,66.481,0.505,-0.00028323,-0.00025692,-0.019329,0,-0.019665,0.23205,0
0,0.505,0.016949,66.469,0.505,-0.0003475,-0.00049513,-0.019335,0,-0.022995,0.23179,0
0,0.505,0.016923,66.47,0.505,0.00018295,0.0015427,-0.019149,0,0.0046764,0.23268,0
0,0.505,0.016932,66.469,0.505,0.00017138,0.0014951,-0.019149,0,0.0040348,0.23267,0
0,0.505,0.016963,66.48,0.505,0.00012496,0.0013106,-0.019149,0,0.0014101,0.23267,0
0,0.505,0.016963,66.475,0.505,9.5718e-05,0.0011913,-0.019168,0,-6.8553e-05,0.23268,0
0,0.505,0.01695,66.466,0.505,-6.3443e-06,0.00081238,-0.019235,0,-0.0053271,0.23273,0
0,0.505,0.01695,66.467,0.505,-9.8452e-06,0.0007993,-0.019236,0,-0.0055187,0.23272,0
0,0.505,0.016955,66.474,0.505,0.00060377,0.0031979,-0.018888,0,0.026835,0.23148,0
0,0.505,0.016953,66.473,0.505,0.00058496,0.0031222,-0.018903,0,0.025898,0.23155,0
0,0.505,0.01694,66.485,0.505,0.0005336,0.0029098,-0.01894,0,0.023241,0.23177,0
0,0.505,0.016956,66.482,0.505,0.00040947,0.002418,-0.018986,0,0.016264,0.23228,0
0,0.505,0.016954,66.475,0.505,0.00038788,0.0023331,-0.019,0,0.015173,0.2323,0
0,0.505,0.016932,66.478,0.505,0.00033537,0.0021306,-0.019042,0,0.012611,0.23241,0
0,0.505,0.016906,66.475,0.505,0.00047092,0.0026586,-0.019006,0,0.019742,0.2322,0
0,0.505,0.01695,66.476,0.505,0.0004262,0.0024807,-0.018985,0,0.017159,0.23231,0
0,0.505,0.016953,66.467,0.505,-1.525e-05,0.00077829,-0.019235,0,-0.0057999,0.23271,0
0,0.505,0.016939,66.478,0.505,5.7989e-05,0.0010428,-0.019208,0,-0.0019687,0.23279,0
0,0.505,0.016942,66.469,0.505,0.00021986,0.0016851,-0.019114,0,0.0066226,0.23262,0
0,0.505,0.016958,66.47,0.505,0.000269,0.0018741,-0.019071,0,0.00918,0.23251,0
0,0.505,0.016959,66.472,0.505,0.00025829,0.0018315,-0.019077,0,0.0086181,0.23254,0
0,0.505,0.016958,66.472,0.505,0.00025292,0.0018125,-0.01908,0,0.008347,0.23256,0
0,0.505,0.016922,66.681,0.505,-0.0018553,-0.023353,-0.0089508,0,-0.25121,0.074726,0
0,0.505,0.016922,66.681,0.505,-0.001852,-0.023378,-0.0089501,0,-0.25129,0.074552,0
0,0.505,0.016926,66.699,0.505,-0.002038,-0.021914,-0.0089904,0,-0.24614,0.084855,0
0,0.505,0.016926,66.695,0.505,-0.0020042,-0.022186,-0.0089768,0,-0.24717,0.082891,0
0,0.505,0.016847,66.458,0.505,-0.0010647,-0.028853,-0.0084128,0,-0.26551,0.039581,0
0,0.505,0.016846,66.457,0.505,-0.001062,-0.028868,-0.0084057,0,-0.26555,0.03948,0
0,0.505,0.016866,66.582,0.505,-0.0013206,-0.02721,-0.0088395,0,-0.26191,0.049722,0
0,0.505,0.016864,66.574,0.505,-0.0013022,-0.027332,-0.0088227,0,-0.26218,0.048972,0
0,0.505,0.016883,66.608,0.505,-0.0014025,-0.026654,-0.0089055,0,-0.2606,0.053181,0
0,0.505,0.016869,66.586,0.505,-0.0013378,-0.0271,-0.0088591,0,-0.26165,0.050446,0
0,0.505,0.016922,66.69,0.505,-0.0019161,-0.022876,-0.0089511,0,-0.24965,0.07799,0
0,0.505,0.016923,66.691,0.505,-0.0019301,-0.02277,-0.008956,0,-0.24928,0.078743,0
0,0.505,0.016908,66.664,0.505,-0.0016374,-0.024963,-0.0089667,0,-0.25623,0.063814,0
0,0.505,0.016905,66.649,0.505,-0.0015891,-0.025316,-0.0089703,0,-0.2572,0.061557,0
0,0.505,0.016929,66.695,0.505,-0.0020765,-0.021602,-0.0090232,0,-0.24491,0.087125,0
0,0.505,0.016938,66.684,0.505,-0.0023479,-0.019129,-0.0095438,0,-0.23396,0.10543,0
0,0.505,0.016939,66.681,0.505,-0.0023324,-0.019284,-0.0094985,0,-0.23469,0.10425,0
0,0.505,0.016375,66.355,0.505,-0.00018433,-0.0093618,-0.00053844,0,-0.27466,0.0030505,0
0,0.505,0.016698,66.247,0.505,-0.00068577,-0.029572,-0.0065597,0,-0.26973,0.025582,0
0,0.505,0.016678,66.199,0.505,-0.00062145,-0.029295,-0.0061077,0,-0.27031,0.023289,0
0,0.505,0.016811,66.408,0.505,-0.00096944,-0.029289,-0.0080744,0,-0.26668,0.035931,0
0,0.505,0.016794,66.374,0.505,-0.00091841,-0.029496,-0.0078726,0,-0.26725,0.034041,0
0,0.505,0.016742,66.297,0.505,-0.00079185,-0.029714,-0.0072458,0,-0.26865,0.029388,0
0,0.505,0.016736,66.292,0.505,-0.00077889,-0.029735,-0.0071736,0,-0.2688,0.028919,0
0,0.505,0.016733,66.288,0.505,-0.00077219,-0.029735,-0.0071371,0,-0.26887,0.028683,0
0,0.505,0.016775,66.351,0.505,-0.00087347,-0.02961,-0.0076613,0,-0.26775,0.032355,0
0,0.505,0.016894,66.625,0.505,-0.0014832,-0.026083,-0.0089604,0,-0.25918,0.056724,0
0,0.505,0.016891,66.617,0.505,-0.0014632,-0.026222,-0.0089504,0,-0.25954,0.055842,0
0,0.505,0.016847,66.461,0.505,-0.0010695,-0.028823,-0.0084253,0,-0.26545,0.039767,0
0,0.505,0.016903,66.647,0.505,-0.0015621,-0.025515,-0.0089686,0,-0.25775,0.060294,0
0,0.505,0.016898,66.629,0.505,-0.0015113,-0.025888,-0.0089696,0,-0.25867,0.05799,0
0,0.505,0.016912,66.667,0.505,-0.0016926,-0.024558,-0.0089611,0,-0.25504,0.066445,0
0,0.505,0.016852,66.566,0.505,-0.0012387,-0.027742,-0.0087391,0,-0.26308,0.046387,0
0,0.505,0.016854,66.52,0.505,-0.0011538,-0.028308,-0.0086117,0,-0.26426,0.043053,0
0,0.505,0.016856,66.54,0.505,-0.0011928,-0.028074,-0.0086864,0,-0.2637,0.044571,0
0,0.505,0.01692,66.673,0.505,-0.0017796,-0.023927,-0.0089496,0,-0.25307,0.070781,0
0,0.505,0.016912,66.671,0.505,-0.0017093,-0.024436,-0.00896,0,-0.25467,0.067255,0
0,0.505,0.01692,66.673,0.505,-0.0017812,-0.023915,-0.0089497,0,-0.25303,0.070861,0
0,0.505,0.016593,66.11,0.505,-0.0004612,-0.027328,-0.0046171,0,-0.2718,0.017392,0
0,0.505,0.016561,66.093,0.505,-0.00040999,-0.026204,-0.0040209,0,-0.27227,0.0154,0
0,0.505,0.016523,66.083,0.505,-0.00035612,-0.024272,-0.003325,0,-0.27277,0.01313,0
0,0.505,0.016502,66.087,0.505,-0.00032611,-0.023283,-0.0029407,0,-0.27305,0.01191,0
0,0.505,0.016398,66.297,0.505,-0.00019399,-0.011544,-0.0007372,0,-0.27445,0.0042916,0
0,0.505,0.016397,66.315,0.505,-0.00018976,-0.010835,-0.00065871,0,-0.27451,0.0039645,0
0,0.505,0.016477,66.1,0.505,-0.00029876,-0.021738,-0.0025561,0,-0.27326,0.010634,0
0,0.505,0.016405,66.265,0.505,-0.00020708,-0.012979,-0.00097126,0,-0.27428,0.0051282,0
0,0.505,0.016616,66.129,0.505,-0.00049996,-0.028048,-0.0050058,0,-0.27146,0.018841,0
0,0.505,0.016435,66.14,0.505,-0.00025364,-0.018862,-0.0018352,0,-0.27371,0.0083498,0
0,0.505,0.016667,66.181,0.505,-0.0005924,-0.029093,-0.0058641,0,-0.27058,0.022229,0
0,0.505,0.016644,66.15,0.505,-0.00055032,-0.028592,-0.0054803,0,-0.27099,0.02067,0
0,0.505,0.01696,66.548,0.505,-0.0026048,-0.011371,-0.014729,0,-0.17281,0.17263,0
0,0.505,0.01696,66.549,0.505,-0.0026066,-0.011394,-0.014707,0,-0.17309,0.1724,0
0,0.505,0.016947,66.549,0.505,-0.0025879,-0.011144,-0.014931,0,-0.17011,0.17483,0
0,0.505,0.016951,66.569,0.505,-0.0026278,-0.011728,-0.014433,0,-0.1772,0.169,0
0,0.505,0.016951,66.58,0.505,-0.0026367,-0.011896,-0.014299,0,-0.17919,0.16746,0
0,0.505,0.01696,66.549,0.505,-0.0026073,-0.011404,-0.014698,0,-0.17324,0.17228,0
0,0.505,0.016951,66.563,0.505,-0.0026219,-0.01163,-0.014518,0,-0.17602,0.16998,0
0,0.505,0.016945,66.654,0.505,-0.002563,-0.016437,-0.010823,0,-0.21933,0.1261,0
0,0.505,0.016943,66.657,0.505,-0.0025532,-0.016598,-0.010727,0,-0.22044,0.12481,0
0,0.505,0.016949,66.652,0.505,-0.0025246,-0.01703,-0.010487,0,-0.22278,0.1215,0
0,0.505,0.016947,66.652,0.505,-0.0025124,-0.017203,-0.010395,0,-0.22382,0.12017,0
0,0.505,0.016937,66.674,0.505,-0.0024632,-0.017834,-0.010065,0,-0.22746,0.1151,0
0,0.505,0.016938,66.669,0.505,-0.0024537,-0.017945,-0.010016,0,-0.22801,0.11427,0
0,0.505,0.016944,66.663,0.505,-0.0024977,-0.017399,-0.010284,0,-0.22506,0.11841,0
0,0.505,0.01694,66.666,0.505,-0.0024707,-0.017741,-0.010117,0,-0.22693,0.11582,0
0,0.505,0.016944,66.657,0.505,-0.0025425,-0.016764,-0.010637,0,-0.22127,0.12343,0
0,0.505,0.016945,66.646,0.505,-0.0026017,-0.015766,-0.011253,0,-0.21496,0.13114,0
0,0.505,0.016947,66.649,0.505,-0.0025905,-0.01597,-0.011115,0,-0.21632,0.12956,0
0,0.505,0.016946,66.639,0.505,-0.0026134,-0.015531,-0.011409,0,-0.21343,0.13304,0
0,0.505,0.016946,66.64,0.505,-0.0026208,-0.015382,-0.011519,0,-0.21234,0.13437,0
0,0.505,0.016947,66.65,0.505,-0.0025795,-0.016172,-0.010991,0,-0.21766,0.12816,0
0,0.505,0.01695,66.625,0.505,-0.0026364,-0.015019,-0.011781,0,-0.20974,0.13722,0
0,0.505,0.016951,66.625,0.505,-0.002635,-0.015051,-0.011757,0,-0.20997,0.13695,0
0,0.505,0.016957,66.585,0.505,-0.0026711,-0.012983,-0.013374,0,-0.19162,0.15611,0
0,0.505,0.016958,66.585,0.505,-0.0026716,-0.013035,-0.013334,0,-0.19216,0.15559,0
0,0.505,0.016951,66.611,0.505,-0.0026678,-0.013917,-0.012623,0,-0.20089,0.1472,0
0,0.505,0.016954,66.607,0.505,-0.0026633,-0.014141,-0.012449,0,-0.20261,0.14514,0
0,0.505,0.016953,66.604,0.505,-0.0026729,-0.013256,-0.013146,0,-0.19454,0.15346,0
0,0.505,0.016955,66.603,0.505,-0.0026726,-0.01354,-0.012919,0,-0.19734,0.1508,0
0,0.505,0.016955,66.6,0.505,-0.0026705,-0.013708,-0.012785,0,-0.19894,0.14918,0
0,0.505,0.016952,66.608,0.505,-0.0026688,-0.013859,-0.012664,0,-0.20037,0.14773,0
0,0.505,0.016956,66.598,0.505,-0.0026727,-0.013467,-0.012984,0,-0.19658,0.15154,0
0,0.505,0.016952,66.581,0.505,-0.002658,-0.012392,-0.013885,0,-0.18511,0.16233,0
0,0.505,0.01696,66.573,0.505,-0.0026654,-0.012657,-0.013656,0,-0.18793,0.15952,0
0,0.505,0.01696,66.574,0.505,-0.0026661,-0.012683,-0.013632,0,-0.18824,0.15924,0
0,0.505,0.016961,66.575,0.505,-0.0026672,-0.012752,-0.013572,0,-0.18902,0.1585,0
0,0.505,0.016951,66.621,0.505,-0.0026386,-0.014958,-0.011829,0,-0.20929,0.13773,0
0,0.505,0.016961,66.508,0.505,-0.0021932,-0.0079797,-0.017342,0,-0.13053,0.20023,0
0,0.505,0.016959,66.512,0.505,-0.0022036,-0.0080377,-0.017306,0,-0.13131,0.19981,0
0,0.505,0.016959,66.511,0.505,-0.0022126,-0.0080939,-0.01727,0,-0.13199,0.19939,0
0,0.505,0.016952,66.527,0.505,-0.0022454,-0.008312,-0.017137,0,-0.13453,0.19794,0
0,0.505,0.016953,66.51,0.505,-0.0021594,-0.0077844,-0.017465,0,-0.12797,0.20169,0
0,0.505,0.01696,66.524,0.505,-0.0022927,-0.0086291,-0.016926,0,-0.13831,0.19578,0
0,0.505,0.016958,66.516,0.505,-0.0023094,-0.0087396,-0.016858,0,-0.13969,0.19507,0
0,0.505,0.016961,66.521,0.505,-0.002283,-0.0085624,-0.016969,0,-0.13754,0.19625,0
0,0.505,0.016956,66.503,0.505,-0.0020685,-0.0072881,-0.017732,0,-0.12132,0.20494,0
0,0.505,0.016958,66.5,0.505,-0.0020785,-0.0073432,-0.017705,0,-0.12204,0.2046,0
0,0.505,0.01694,66.507,0.505,-0.001893,-0.006385,-0.018137,0,-0.10957,0.21024,0
0,0.505,0.016949,66.507,0.505,-0.0019193,-0.0065167,-0.018079,0,-0.11129,0.20957,0
0,0.505,0.016954,66.51,0.505,-0.0019459,-0.0066527,-0.018023,0,-0.11299,0.20886,0
0,0.505,0.016954,66.512,0.505,-0.0019717,-0.0067853,-0.017966,0,-0.11472,0.20811,0
0,0.505,0.016941,66.5,0.505,-0.0018087,-0.0060193,-0.018292,0,-0.10405,0.21241,0
0,0.505,0.016959,66.491,0.505,-0.0017298,-0.0056561,-0.018384,0,-0.099214,0.21436,0
0,0.505,0.016962,66.504,0.505,-0.0021326,-0.0076387,-0.017545,0,-0.12594,0.20267,0
0,0.505,0.016954,66.509,0.505,-0.0020212,-0.0070405,-0.017851,0,-0.11804,0.20651,0
0,0.505,0.016956,66.502,0.505,-0.0020647,-0.0072663,-0.017742,0,-0.12105,0.20508,0
0,0.505,0.016956,66.506,0.505,-0.0020031,-0.0069463,-0.017891,0,-0.11681,0.20709,0
0,0.505,0.01696,66.509,0.505,-0.0021147,-0.007543,-0.017603,0,-0.12461,0.20334,0
0,0.505,0.016939,66.47,0.505,-0.0007644,-0.0020008,-0.019231,0,-0.044936,0.22895,0
0,0.505,0.016946,66.476,0.505,-0.00082101,-0.0022034,-0.019188,0,-0.04801,0.22852,0
0,0.505,0.016959,66.484,0.505,-0.00090529,-0.0025118,-0.019117,0,-0.052365,0.22769,0
0,0.505,0.016959,66.487,0.505,-0.00091788,-0.0025595,-0.019109,0,-0.053,0.22758,0
0,0.505,0.016941,66.468,0.505,-0.00074876,-0.0019516,-0.019239,0,-0.044068,0.22909,0
0,0.505,0.016946,66.48,0.505,-0.00083905,-0.0022655,-0.019175,0,-0.048939,0.22833,0
0,0.505,0.016936,66.489,0.505,-0.00099176,-0.002821,-0.019091,0,-0.056808,0.22678,0
0,0.505,0.016929,66.476,0.505,-0.0010431,-0.0029912,-0.019061,0,-0.059765,0.22608,0
0,0.505,0.016935,66.687,0.505,-0.0022555,-0.020034,-0.009288,0,-0.2382,0.098622,0
0,0.505,0.016936,66.687,0.505,-0.0022083,-0.020466,-0.0091935,0,-0.24017,0.095392,0
0,0.505,0.016936,66.685,0.505,-0.0022695,-0.019902,-0.0093226,0,-0.2376,0.099604,0
0,0.505,0.016925,66.696,0.505,-0.0019779,-0.022394,-0.0089619,0,-0.24793,0.081408,0
0,0.505,0.01693,66.697,0.505,-0.0020962,-0.021441,-0.0090374,0,-0.24427,0.088312,0
0,0.505,0.016936,66.688,0.505,-0.0022046,-0.020499,-0.0091865,0,-0.24031,0.095152,0
0,0.505,0.016936,66.686,0.505,-0.0021855,-0.020671,-0.0091581,0,-0.24105,0.093922,0
0,0.505,0.016937,66.688,0.505,-0.0023035,-0.019574,-0.0094085,0,-0.23607,0.10208,0
0,0.505,0.016934,66.692,0.505,-0.0021518,-0.020969,-0.0091048,0,-0.24236,0.091765,0
0,0.505,0.016935,66.691,0.505,-0.0021454,-0.021025,-0.0090982,0,-0.24258,0.091363,0
0,0.505,0.016939,66.674,0.505,-0.0023885,-0.018699,-0.0097011,0,-0.23179,0.10868,0
0,0.505,0.01694,66.672,0.505,-0.0023771,-0.018822,-0.0096583,0,-0.23241,0.10776,0
0,0.505,0.016938,66.681,0.505,-0.0024257,-0.018281,-0.0098649,0,-0.22964,0.11185,0
0,0.505,0.01694,66.672,0.505,-0.0023941,-0.018636,-0.0097253,0,-0.23148,0.10914,0
0,0.505,0.016949,66.622,0.505,-0.0026489,-0.014674,-0.012036,0,-0.20725,0.14025,0
0,0.505,0.016952,66.611,0.505,-0.0026568,-0.01441,-0.012235,0,-0.20487,0.14261,0
0,0.505,0.016953,66.613,0.505,-0.0026601,-0.014297,-0.012324,0,-0.20384,0.14374,0
0,0.505,0.016954,66.61,0.505,-0.0026592,-0.01433,-0.012297,0,-0.20416,0.14339,0
0,0.505,0.01696,66.575,0.505,-0.0026659,-0.012673,-0.013641,0,-0.18812,0.15935,0
0,0.505,0.01695,66.566,0.505,-0.0026501,-0.012188,-0.014068,0,-0.18268,0.1646,0
0,0.505,0.016952,66.544,0.505,-0.00252,-0.01041,-0.015554,0,-0.16069,0.1816,0
0,0.505,0.01695,66.55,0.505,-0.0025373,-0.010578,-0.015406,0,-0.16281,0.1801,0
0,0.505,0.016958,66.539,0.505,-0.002564,-0.01087,-0.015167,0,-0.16644,0.17756,0
0,0.505,0.016946,66.548,0.505,-0.002582,-0.01107,-0.014993,0,-0.16908,0.17564,0
0,0.505,0.016951,66.566,0.505,-0.002647,-0.012111,-0.014126,0,-0.18177,0.1654,0
0,0.505,0.016949,66.567,0.505,-0.0026486,-0.012147,-0.014099,0,-0.18218,0.16503,0
0,0.505,0.016954,66.519,0.505,-0.0023338,-0.0089,-0.016749,0,-0.14175,0.194,0
0,0.505,0.016958,66.541,0.505,-0.0025604,-0.010828,-0.015203,0,-0.16589,0.17795,0
0,0.505,0.016958,66.539,0.505,-0.0025583,-0.010807,-0.015223,0,-0.1656,0.17815,0
0,0.505,0.016945,66.481,0.505,-0.00042138,-0.00076958,-0.01933,0,-0.02683,0.23145,0
0,0.505,0.01695,66.473,0.505,-0.00046167,-0.00091668,-0.019322,0,-0.028914,0.23123,0
0,0.505,0.016946,66.473,0.505,-0.00023402,-7.3992e-05,-0.019322,0,-0.017111,0.23221,0
0,0.505,0.016949,66.47,0.505,-0.00035251,-0.0005143,-0.019335,0,-0.023257,0.23177,0
0,0.505,0.016948,66.463,0.505,-0.00067952,-0.0017136,-0.019266,0,-0.040206,0.22969,0
0,0.505,0.016957,66.48,0.505,-0.00093629,-0.0026242,-0.019102,0,-0.053935,0.22739,0
0,0.505,0.016946,66.48,0.505,-0.0006192,-0.0014975,-0.019285,0,-0.037106,0.23022,0
0,0.505,0.01695,66.476,0.505,-0.00055418,-0.0012593,-0.019302,0,-0.033726,0.23069,0
0,0.505,0.016952,66.471,0.505,-0.00057309,-0.0013283,-0.019296,0,-0.034702,0.23055,0
0,0.505,0.016948,66.478,0.505,-0.00048846,-0.0010173,-0.019316,0,-0.030314,0.23107,0
0,0.505,0.016949,66.469,0.505,-0.00035993,-0.00054222,-0.019335,0,-0.023644,0.23173,0
0,0.505,0.016952,66.47,0.505,-0.00052621,-0.0011572,-0.019308,0,-0.032279,0.23085,0
0,0.505,0.016947,66.507,0.505,0.0021703,0.0099133,-0.017423,0,0.12279,0.20394,0
0,0.505,0.016943,66.499,0.505,0.0021356,0.0097221,-0.017513,0,0.12001,0.20527,0
0,0.505,0.016954,66.502,0.505,0.0022239,0.010247,-0.017265,0,0.12705,0.20194,0
0,0.505,0.016947,66.507,0.505,0.0021879,0.010019,-0.017377,0,0.12419,0.20328,0
0,0.505,0.016955,66.501,0.505,0.0022746,0.010581,-0.017089,0,0.13139,0.19969,0
0,0.505,0.016955,66.5,0.505,0.0022696,0.010547,-0.017107,0,0.13096,0.19993,0
0,0.505,0.016955,66.503,0.505,0.0022337,0.010312,-0.017233,0,0.12787,0.20151,0
0,0.505,0.016955,66.499,0.505,0.0023109,0.010822,-0.016963,0,0.13457,0.19804,0
0,0.505,0.016948,66.614,0.505,0.0025136,0.018032,-0.011757,0,0.21315,0.13313,0
0,0.505,0.016947,66.618,0.505,0.0025294,0.017823,-0.011905,0,0.21141,0.13516,0
0,0.505,0.016946,66.621,0.505,0.0025346,0.017755,-0.011957,0,0.21085,0.13586,0
0,0.505,0.016948,66.612,0.505,0.0025447,0.017604,-0.012077,0,0.20959,0.13728,0
0,0.505,0.016955,66.499,0.505,0.0023113,0.010825,-0.016962,0,0.13461,0.19801,0
0,0.505,0.016945,66.504,0.505,0.002342,0.011039,-0.016848,0,0.13762,0.19637,0
0,0.505,0.016955,66.499,0.505,0.0023133,0.010839,-0.016955,0,0.1348,0.19791,0
0,0.505,0.016945,66.497,0.505,0.0021161,0.0096063,-0.017559,0,0.11851,0.20597,0
0,0.505,0.016944,66.506,0.505,0.0020904,0.0094654,-0.01763,0,0.1166,0.207,0
0,0.505,0.016948,66.526,0.505,0.0024257,0.011742,-0.016427,0,0.14605,0.19129,0
0,0.505,0.01695,66.522,0.505,0.0024146,0.011646,-0.016484,0,0.14491,0.192,0
0,0.505,0.016949,66.516,0.505,0.0024638,0.012111,-0.016201,0,0.15033,0.18857,0
0,0.505,0.016949,66.52,0.505,0.002452,0.011993,-0.016277,0,0.14895,0.18946,0
0,0.505,0.016947,66.518,0.505,0.0024802,0.012277,-0.016095,0,0.15228,0.1873,0
0,0.505,0.016947,66.519,0.505,0.0024769,0.012243,-0.016115,0,0.15187,0.18758,0
0,0.505,0.016947,66.536,0.505,0.0025196,0.012718,-0.015785,0,0.1577,0.18365,0
0,0.505,0.016947,66.523,0.505,0.0025107,0.012614,-0.015861,0,0.15649,0.18443,0
0,0.505,0.016951,66.538,0.505,0.0025426,0.013031,-0.015579,0,0.16083,0.18136,0
0,0.505,0.016947,66.537,0.505,0.0025245,0.012781,-0.015742,0,0.15836,0.18315,0
0,0.505,0.016949,66.525,0.505,0.0023976,0.011496,-0.016569,0,0.14315,0.19307,0
0,0.505,0.016954,66.513,0.505,0.0023759,0.011315,-0.016681,0,0.14106,0.19433,0
0,0.505,0.016949,66.52,0.505,0.002449,0.011964,-0.016296,0,0.14862,0.18967,0
0,0.505,0.016942,66.522,0.505,0.0024993,0.012473,-0.015958,0,0.15487,0.18552,0
0,0.505,0.016948,66.548,0.505,0.0026032,0.014075,-0.014818,0,0.1731,0.17239,0
0,0.505,0.016948,66.541,0.505,0.0025989,0.013973,-0.014893,0,0.17196,0.17326,0
0,0.505,0.016945,66.527,0.505,0.0025638,0.013331,-0.015375,0,0.16433,0.17881,0
0,0.505,0.016952,66.538,0.505,0.0025469,0.01309,-0.015537,0,0.1615,0.18092,0
0,0.505,0.016944,66.547,0.505,0.0025925,0.013825,-0.015001,0,0.17027,0.17455,0
0,0.505,0.016947,66.537,0.505,0.0025865,0.013717,-0.015086,0,0.16898,0.17546,0
0,0.505,0.016949,66.503,0.505,0.0023539,0.011133,-0.01679,0,0.13883,0.19564,0
0,0.505,0.01695,66.514,0.505,0.0023684,0.011252,-0.016718,0,0.14032,0.19474,0
0,0.505,0.01685,66.495,0.505,0.00094779,0.02969,-0.0090253,0,0.26344,0.045568,0
0,0.505,0.016849,66.503,0.505,0.00096923,0.029553,-0.0090536,0,0.2632,0.046381,0
0,0.505,0.016832,66.448,0.505,0.00083708,0.030229,-0.0087909,0,0.2649,0.041411,0
0,0.505,0.016844,66.486,0.505,0.00092557,0.029814,-0.008989,0,0.26374,0.044713,0
0,0.505,0.016706,66.163,0.505,0.00035348,0.030895,-0.0066141,0,0.26994,0.024489,0
0,0.505,0.016723,66.183,0.505,0.0003799,0.031063,-0.0068153,0,0.26966,0.025484,0
0,0.505,0.016591,66.097,0.505,0.00019855,0.029257,-0.0052596,0,0.27142,0.019076,0
0,0.505,0.016658,66.138,0.505,0.00029394,0.030506,-0.0061305,0,0.27054,0.022262,0
0,0.505,0.016938,66.491,0.505,0.001715,0.0076125,-0.018305,0,0.090802,0.21746,0
0,0.505,0.01694,66.485,0.505,0.0016906,0.0075082,-0.018329,0,0.089239,0.2179,0
0,0.505,0.016943,66.473,0.505,0.0015689,0.0069885,-0.018469,0,0.081709,0.2205,0
0,0.505,0.016944,66.472,0.505,0.001565,0.0069732,-0.018472,0,0.081476,0.22057,0
0,0.505,0.016949,66.495,0.505,0.0017737,0.0078947,-0.018213,0,0.094542,0.21618,0
0,0.505,0.016946,66.494,0.505,0.0017485,0.0077717,-0.018255,0,0.09297,0.21673,0
0,0.505,0.016944,66.491,0.505,0.0020537,0.0092566,-0.01772,0,0.11398,0.20832,0
0,0.505,0.016945,66.487,0.505,0.002029,0.009131,-0.01777,0,0.11215,0.20915,0
0,0.505,0.016945,66.488,0.505,0.0020033,0.0090011,-0.017822,0,0.1102,0.21,0
0,0.505,0.016944,66.495,0.505,0.0019048,0.0085125,-0.018007,0,0.10325,0.21277,0
0,0.505,0.016945,66.493,0.505,0.0018896,0.0084366,-0.018032,0,0.10221,0.21319,0
0,0.505,0.016946,66.496,0.505,0.0018543,0.0082749,-0.018086,0,0.099846,0.21413,0
0,0.505,0.016953,66.479,0.505,0.0014467,0.0064921,-0.01856,0,0.074178,0.22275,0
0,0.505,0.016948,66.473,0.505,0.0014153,0.0063661,-0.018591,0,0.072318,0.22326,0
0,0.505,0.016934,66.48,0.505,0.00050859,0.002815,-0.018962,0,0.021913,0.23199,0
0,0.505,0.016953,66.472,0.505,0.00061338,0.0032351,-0.018889,0,0.027341,0.23143,0
0,0.505,0.016934,66.465,0.505,0.00074298,0.0037203,-0.018866,0,0.034375,0.23074,0
0,0.505,0.016933,66.469,0.505,0.00070598,0.0035883,-0.018881,0,0.032318,0.23094,0
0,0.505,0.016937,66.483,0.505,0.0012008,0.0054929,-0.018704,0,0.059893,0.2262,0
0,0.505,0.016942,66.475,0.505,0.0011696,0.0053702,-0.018715,0,0.058097,0.22659,0
0,0.505,0.016946,66.481,0.505,0.0012761,0.0057949,-0.01866,0,0.064222,0.22518,0
0,0.505,0.016944,66.484,0.505,0.0012618,0.0057362,-0.018668,0,0.063415,0.2254,0
0,0.505,0.016942,66.48,0.505,0.00114,0.0052595,-0.018725,0,0.056412,0.22697,0
0,0.505,0.016945,66.471,0.505,0.0011026,0.0051171,-0.018736,0,0.054306,0.22738,0
0,0.505,0.016945,66.471,0.505,0.0010594,0.0049496,-0.018748,0,0.051859,0.22786,0
0,0.505,0.016941,66.48,0.505,0.0010168,0.0047863,-0.018761,0,0.049474,0.22832,0
0,0.505,0.016942,66.48,0.505,0.00089312,0.0043109,-0.018794,0,0.042623,0.22948,0
0,0.505,0.016949,66.468,0.505,0.00083901,0.0040963,-0.018811,0,0.039653,0.22996,0
0,0.505,0.016945,66.468,0.505,0.00096461,0.0045861,-0.018775,0,0.046576,0.22882,0
0,0.505,0.016944,66.47,0.505,0.00095507,0.0045491,-0.018777,0,0.046044,0.22891,0
0,0.505,0.016945,66.478,0.505,0.0012415,0.0056562,-0.018679,0,0.062255,0.22566,0
0,0.505,0.016948,66.493,0.505,0.0013231,0.0059938,-0.018633,0,0.066854,0.22452,0
0,0.505,0.016953,66.474,0.505,0.0014641,0.0065617,-0.018547,0,0.075226,0.22248,0
0,0.505,0.016941,66.479,0.505,0.0016516,0.0073367,-0.018369,0,0.086699,0.21878,0
0,0.505,0.016942,66.481,0.505,0.0016323,0.0072621,-0.018391,0,0.085435,0.21921,0
0,0.505,0.016944,66.472,0.505,0.0015716,0.0070002,-0.018465,0,0.081872,0.22044,0
0,0.505,0.016943,66.473,0.505,0.0015087,0.0067402,-0.018523,0,0.077982,0.22172,0
0,0.505,0.016536,66.049,0.505,7.7304e-05,0.02679,-0.0039759,0,0.27251,0.014796,0
0,0.505,0.016569,66.081,0.505,0.00015603,0.02854,-0.0048528,0,0.27179,0.01763,0
0,0.505,0.016948,66.595,0.505,0.0026008,0.01661,-0.01284,0,0.2008,0.14717,0
0,0.505,0.016947,66.597,0.505,0.0026042,0.016538,-0.012899,0,0.20009,0.14792,0
0,0.505,0.016948,66.587,0.505,0.0026178,0.016136,-0.013213,0,0.19593,0.15206,0
0,0.505,0.016947,66.59,0.505,0.0026215,0.016016,-0.013309,0,0.19466,0.15333,0
0,0.505,0.01694,66.653,0.505,0.0022751,0.020616,-0.010275,0,0.23002,0.11131,0
0,0.505,0.016939,66.656,0.505,0.00231,0.020286,-0.010425,0,0.22818,0.11395,0
0,0.505,0.016942,66.644,0.505,0.0023753,0.019632,-0.010756,0,0.22435,0.11924,0
0,0.505,0.016941,66.645,0.505,0.002385,0.019534,-0.010809,0,0.22375,0.12006,0
0,0.505,0.016945,66.633,0.505,0.0024211,0.019144,-0.011035,0,0.22124,0.12333,0
0,0.505,0.016944,66.636,0.505,0.0024494,0.018826,-0.011227,0,0.2191,0.12608,0
0,0.505,0.016946,66.628,0.505,0.0024657,0.018631,-0.01135,0,0.21775,0.12776,0
0,0.505,0.016944,66.631,0.505,0.0024784,0.018484,-0.011445,0,0.21671,0.12907,0
0,0.505,0.016944,66.634,0.505,0.0024185,0.019174,-0.011018,0,0.22144,0.12308,0
0,0.505,0.016934,66.666,0.505,0.0021787,0.021471,-0.0099331,0,0.23453,0.10457,0
0,0.505,0.016937,66.657,0.505,0.0022193,0.02112,-0.010066,0,0.23272,0.10732,0
0,0.505,0.016939,66.652,0.505,0.0022467,0.020877,-0.010168,0,0.23141,0.10925,0
0,0.505,0.016939,66.654,0.505,0.002269,0.020673,-0.010251,0,0.23032,0.11086,0
0,0.505,0.01694,66.651,0.505,0.0023269,0.02012,-0.010504,0,0.22724,0.11527,0
0,0.505,0.016575,66.094,0.505,0.0001802,0.029048,-0.0050965,0,0.27157,0.018482,0
0,0.505,0.016477,66.052,0.505,-1.2185e-05,0.0232,-0.002727,0,0.27326,0.010946,0
0,0.505,0.016497,66.048,0.505,2.741e-05,0.024676,-0.0032584,0,0.27295,0.012562,0
0,0.505,0.016371,66.243,0.505,-0.00011385,0.013667,-0.00098614,0,0.27456,0.0051718,0
0,0.505,0.016396,66.132,0.505,-8.5625e-05,0.017952,-0.0015406,0,0.27407,0.0073023,0
0,0.505,0.01635,66.327,0.505,-0.00013558,0.010639,-0.0005785,0,0.27483,0.0037275,0
0,0.505,0.01633,66.407,0.505,-0.00014668,0.0078041,-0.00034935,0,0.27496,0.0019029,0
0,0.505,0.016773,66.354,0.505,0.00063644,0.031015,-0.0081772,0,0.26711,0.034145,0
0,0.505,0.016799,66.399,0.505,0.00072926,0.03067,-0.0085027,0,0.26609,0.037412,0
0,0.505,0.016433,66.086,0.505,-5.0122e-05,0.020603,-0.0021468,0,0.2737,0.0090652,0
0,0.505,0.016763,66.329,0.505,0.00060048,0.03105,-0.0080179,0,0.2674,0.032922,0
0,0.505,0.016815,66.42,0.505,0.00077649,0.030521,-0.0086593,0,0.26552,0.039179,0
0,0.505,0.016733,66.263,0.505,0.00049206,0.031221,-0.0075127,0,0.2685,0.029426,0
0,0.505,0.016728,66.25,0.505,0.00047729,0.031183,-0.0074182,0,0.26864,0.02891,0
0,0.505,0.016891,66.618,0.505,0.0013475,0.027311,-0.0092643,0,0.25725,0.061559,0
0,0.505,0.016892,66.62,0.505,0.0013622,0.027221,-0.0092672,0,0.25699,0.062189,0
0,0.505,0.016885,66.602,0.505,0.0012603,0.027855,-0.0092515,0,0.25888,0.057836,0
0,0.505,0.016888,66.607,0.505,0.0013064,0.027569,-0.0092632,0,0.25802,0.059801,0
0,0.505,0.01688,66.584,0.505,0.0011655,0.028419,-0.0092083,0,0.26035,0.054238,0
0,0.505,0.016884,66.599,0.505,0.0012424,0.027969,-0.0092518,0,0.25919,0.057154,0
0,0.505,0.016899,66.559,0.505,0.001121,0.028713,-0.0092176,0,0.26104,0.052401,0
0,0.505,0.016894,66.551,0.505,0.0011006,0.028826,-0.0092033,0,0.26136,0.051502,0
0,0.505,0.016862,66.545,0.505,0.0010548,0.029075,-0.0091528,0,0.26208,0.049479,0
0,0.505,0.016937,66.658,0.505,0.0022255,0.021067,-0.010086,0,0.23244,0.10774,0
0,0.505,0.01692,66.674,0.505,0.0019457,0.023296,-0.0094672,0,0.2431,0.090513,0
0,0.505,0.01692,66.674,0.505,0.0019478,0.02328,-0.0094701,0,0.24303,0.090624,0
0,0.505,0.016922,66.67,0.505,0.0020151,0.022783,-0.0095584,0,0.24081,0.094315,0
0,0.505,0.016948,66.591,0.505,0.0026072,0.016456,-0.012968,0,0.19923,0.14878,0
0,0.505,0.016946,66.595,0.505,0.0026138,0.016271,-0.013108,0,0.19734,0.15067,0
0,0.505,0.016948,66.579,0.505,0.0026243,0.015871,-0.013431,0,0.19307,0.15484,0
0,0.505,0.016947,66.575,0.505,0.0026274,0.015675,-0.013582,0,0.19098,0.15685,0
0,0.505,0.016944,66.579,0.505,0.0026293,0.015515,-0.013709,0,0.18922,0.15852,0
0,0.505,0.016947,66.581,0.505,0.0026262,0.015766,-0.013511,0,0.19194,0.15592,0
0,0.505,0.016947,66.567,0.505,0.0026296,0.015351,-0.013848,0,0.1873,0.16033,0
0,0.505,0.016945,66.577,0.505,0.0026285,0.015013,-0.014112,0,0.18371,0.16356,0
0,0.505,0.016943,66.557,0.505,0.002626,0.014825,-0.014255,0,0.18167,0.1653,0
0,0.505,0.016944,66.553,0.505,0.0026251,0.014785,-0.014288,0,0.18119,0.16574,0
0,0.505,0.016949,66.558,0.505,0.0026211,0.01462,-0.014409,0,0.17916,0.16752,0
0,0.505,0.016948,66.564,0.505,0.002618,0.014496,-0.014504,0,0.17773,0.16864,0
0,0.505,0.016915,66.668,0.505,0.0017092,0.024978,-0.0092878,0,0.24962,0.078154,0
0,0.505,0.016921,66.668,0.505,0.0017691,0.024569,-0.0093059,0,0.24816,0.081111,0
0,0.505,0.016922,66.669,0.505,0.0017963,0.024382,-0.0093221,0,0.24743,0.082487,0
0,0.505,0.016922,66.648,0.505,0.0016046,0.025684,-0.0092658,0,0.25203,0.073222,0
0,0.505,0.016914,66.665,0.505,0.001681,0.025166,-0.0092768,0,0.25028,0.076816,0
0,0.505,0.016922,66.648,0.505,0.0015993,0.02572,-0.0092639,0,0.25216,0.072968,0
0,0.505,0.016922,66.668,0.505,0.0020257,0.022701,-0.0095782,0,0.24043,0.09493,0
0,0.505,0.016929,66.669,0.505,0.0020743,0.022327,-0.0096753,0,0.23865,0.097919,0
0,0.505,0.016931,66.667,0.505,0.002094,0.022168,-0.0097209,0,0.2379,0.099135,0
0,0.505,0.016931,66.67,0.505,0.0021284,0.021886,-0.0097984,0,0.23658,0.10131,0
0,0.505,0.016934,66.665,0.505,0.0021589,0.021633,-0.0098809,0,0.23534,0.10327,0
0,0.505,0.016928,66.668,0.505,0.00185,0.024012,-0.0093591,0,0.24594,0.085391,0
0,0.505,0.016929,66.671,0.505,0.001872,0.023854,-0.0093824,0,0.24535,0.086589,0
0,0.505,0.016922,66.648,0.505,0.0015966,0.025738,-0.0092647,0,0.25222,0.072842,0
0,0.505,0.016907,66.638,0.505,0.0014788,0.026484,-0.0092632,0,0.25474,0.067361,0
0,0.505,0.01691,66.645,0.505,0.0015167,0.02624,-0.0092531,0,0.25397,0.069081,0
0,0.505,0.016898,66.636,0.505,0.0014332,0.026764,-0.0092587,0,0.25564,0.065317,0
0,0.505,0.01694,66.654,0.505,0.0023487,0.019905,-0.010611,0,0.226,0.11702,0
0,0.505,0.016944,66.633,0.505,0.0024114,0.019251,-0.010975,0,0.22193,0.12244,0
0,0.505,0.016947,66.618,0.505,0.0024965,0.018258,-0.011604,0,0.21495,0.13106,0
0,0.505,0.016947,66.619,0.505,0.0025042,0.018156,-0.011669,0,0.21418,0.13196,0
0,0.505,0.016947,66.61,0.505,0.0025762,0.017108,-0.012445,0,0.20561,0.14209,0
0,0.505,0.016948,66.602,0.505,0.0025804,0.017028,-0.012515,0,0.20485,0.14292,0
0,0.505,0.01695,66.605,0.505,0.002569,0.017223,-0.012359,0,0.20656,0.14093,0
0,0.505,0.016946,66.606,0.505,0.0025915,0.016814,-0.012677,0,0.20281,0.14508,0
0,0.505,0.01692,66.673,0.505,0.0019432,0.023315,-0.0094644,0,0.24319,0.090372,0
0,0.505,0.016944,66.492,0.505,0.0020479,0.0092254,-0.017733,0,0.11357,0.20852,0
0,0.505,0.016946,66.488,0.505,0.0019969,0.0089679,-0.017833,0,0.10972,0.21022,0
0,0.505,0.016946,66.492,0.505,0.0019442,0.0087048,-0.017934,0,0.10596,0.21168,0
0,0.505,0.016948,66.493,0.505,0.0018322,0.008169,-0.018119,0,0.098364,0.21471,0
0,0.505,0.016948,66.497,0.505,0.0018027,0.0080333,-0.018169,0,0.096441,0.21548,0
0,0.505,0.016946,66.492,0.505,0.0019548,0.0087604,-0.017914,0,0.10669,0.21138,0
0,0.505,0.016935,66.478,0.505,0.0013842,0.0062374,-0.018623,0,0.070458,0.22375,0
0,0.505,0.016943,66.479,0.505,0.0013696,0.0061789,-0.018622,0,0.069581,0.22395,0
0,0.505,0.016948,66.47,0.505,0.00083193,0.004068,-0.018815,0,0.039269,0.23002,0
0,0.505,0.016948,66.466,0.505,0.00082045,0.0040234,-0.01882,0,0.038646,0.23011,0
0,0.505,0.016939,66.477,0.505,0.00067354,0.0034652,-0.018882,0,0.03049,0.23109,0
0,0.505,0.016939,66.472,0.505,0.00076855,0.0038192,-0.018848,0,0.035842,0.2305,0
0,0.505,0.016945,66.468,0.505,0.00094766,0.0045199,-0.018779,0,0.04563,0.22898,0
0,0.505,0.016943,66.475,0.505,0.0010784,0.0050241,-0.018742,0,0.052933,0.22765,0
0,0.505,0.016947,66.618,0.505,0.002557,0.017417,-0.012212,0,0.20814,0.13904,0
0,0.505,0.016948,66.561,0.505,0.0026131,0.014333,-0.014624,0,0.17599,0.17019,0
0,0.505,0.016945,66.54,0.505,0.0025791,0.013581,-0.015182,0,0.16741,0.1766,0
0,0.505,0.016946,66.527,0.505,0.0025653,0.013356,-0.015356,0,0.16463,0.17859,0
0,0.505,0.016949,66.545,0.505,0.0026059,0.01414,-0.014774,0,0.17386,0.17187,0
0,0.505,0.016946,66.527,0.505,0.0025643,0.013338,-0.015369,0,0.16442,0.17875,0
0,0.505,0.016947,66.565,0.505,0.0026294,0.015198,-0.013964,0,0.18565,0.16184,0
0,0.505,0.016946,66.569,0.505,0.0026296,0.01527,-0.013909,0,0.18638,0.16116,0
