"cvar","mu","phivar","pressure","rho","str","velocity:0","velocity:1","Label","Points:0","Points:1","Points:2"
0,0.505,0.016776,66.848,0.505,-0.00024141,-0.00079724,-2.303e-05,0,-0.27531,0,0
0,0.505,0.016753,66.845,0.505,-0.00023976,0.0010981,-2.9675e-05,0,0.27527,0,0
0,0.505,0.016941,66.689,0.505,-0.00021785,0.00045181,-0.0032398,0,-0.052922,0.22676,0
0,0.505,0.016933,66.672,0.505,-0.00022699,0.00043141,-0.0032515,0,-0.055513,0.22625,0
0,0.505,0.016941,66.687,0.505,-0.0003357,0.00019611,-0.0031562,0,-0.088598,0.21755,0
0,0.505,0.016931,66.688,0.505,-0.000342,0.00018501,-0.0031603,0,-0.090502,0.21686,0
0,0.505,0.016935,66.694,0.505,-0.00032305,0.00023758,-0.0031705,0,-0.084855,0.21877,0
0,0.505,0.016938,66.692,0.505,-0.0003301,0.00021579,-0.0031614,0,-0.086944,0.2181,0
0,0.505,0.016928,66.669,0.505,-0.00030246,0.00028747,-0.0032189,0,-0.078507,0.22075,0
0,0.505,0.016931,66.682,0.505,-0.00031162,0.00026953,-0.0031925,0,-0.081476,0.21976,0
0,0.505,0.016942,66.68,0.505,-0.00027487,0.00032517,-0.003205,0,-0.069993,0.22299,0
0,0.505,0.016943,66.681,0.505,-0.00027641,0.0003212,-0.0032036,0,-0.070453,0.22288,0
0,0.505,0.016936,66.681,0.505,-0.00031602,0.00025554,-0.0031803,0,-0.08282,0.21941,0
0,0.505,0.016934,66.676,0.505,-0.00025173,0.00038801,-0.0032229,0,-0.063166,0.22455,0
0,0.505,0.016934,66.675,0.505,-0.00025282,0.00038482,-0.0032217,0,-0.063494,0.22448,0
0,0.505,0.01693,66.689,0.505,-0.00026331,0.00035983,-0.0032138,0,-0.066594,0.22377,0
0,0.505,0.016935,66.681,0.505,-0.00015223,0.00063973,-0.0033144,0,-0.033426,0.22989,0
0,0.505,0.016941,66.669,0.505,-0.00016164,0.00060496,-0.0033075,0,-0.036178,0.22953,0
0,0.505,0.016938,66.673,0.505,-0.00014066,0.00068088,-0.0033224,0,-0.030033,0.2303,0
0,0.505,0.016939,66.671,0.505,-0.00014242,0.00067463,-0.0033213,0,-0.030544,0.23023,0
0,0.505,0.01693,66.702,0.505,-0.00043434,-9.5188e-05,-0.0028065,0,-0.12107,0.20435,0
0,0.505,0.016931,66.7,0.505,-0.00043677,-0.000104,-0.0027914,0,-0.12195,0.20391,0
0,0.505,0.016935,66.698,0.505,-0.00045038,-0.0001489,-0.0027074,0,-0.12705,0.20138,0
0,0.505,0.016932,66.699,0.505,-0.00045228,-0.00015265,-0.0026972,0,-0.12779,0.20103,0
0,0.505,0.016928,66.706,0.505,-0.00046614,-0.00019213,-0.002595,0,-0.13316,0.19794,0
0,0.505,0.016926,66.713,0.505,-0.00046919,-0.00020538,-0.0025706,0,-0.13436,0.19725,0
0,0.505,0.016931,66.709,0.505,-0.00046092,-0.00017339,-0.0026339,0,-0.13115,0.19918,0
0,0.505,0.016934,66.698,0.505,-0.00045478,-0.00015932,-0.0026787,0,-0.12876,0.20049,0
0,0.505,0.016933,66.705,0.505,-0.00044341,-0.00012993,-0.0027512,0,-0.1244,0.20271,0
0,0.505,0.016933,66.695,0.505,-0.00042754,-7.2397e-05,-0.0028456,0,-0.11864,0.20549,0
0,0.505,0.016885,66.904,0.505,-0.00040875,-0.0034503,-0.00097778,0,-0.26208,0.049704,0
0,0.505,0.016884,66.896,0.505,-0.00039799,-0.0035933,-0.0010723,0,-0.26323,0.046329,0
0,0.505,0.016801,66.811,0.505,-0.00024616,-0.0019326,-0.00015845,0,-0.27472,0.0042056,0
0,0.505,0.016801,66.813,0.505,-0.00024577,-0.0018733,-0.00014957,0,-0.27475,0.004035,0
0,0.505,0.016797,66.815,0.505,-0.00024517,-0.0017176,-0.00013252,0,-0.27483,0.0034604,0
0,0.505,0.016847,66.809,0.505,-0.00029425,-0.0042877,-0.00093504,0,-0.27174,0.018653,0
0,0.505,0.016837,66.806,0.505,-0.00028106,-0.0041072,-0.00077847,0,-0.27255,0.015357,0
0,0.505,0.016847,66.811,0.505,-0.0002954,-0.0043015,-0.00094754,0,-0.27167,0.018945,0
0,0.505,0.016847,66.81,0.505,-0.00029487,-0.0042974,-0.00094227,0,-0.2717,0.018812,0
0,0.505,0.01689,66.896,0.505,-0.00041845,-0.0033311,-0.00089729,0,-0.26086,0.05289,0
0,0.505,0.016828,66.788,0.505,-0.00026759,-0.0037302,-0.00059003,0,-0.27332,0.011802,0
0,0.505,0.016809,66.797,0.505,-0.00025611,-0.0030933,-0.00038017,0,-0.27401,0.0082712,0
0,0.505,0.016828,66.788,0.505,-0.00026794,-0.0037433,-0.0005954,0,-0.2733,0.011898,0
0,0.505,0.016828,66.788,0.505,-0.00026778,-0.0037394,-0.00059309,0,-0.27331,0.011856,0
0,0.505,0.016802,66.809,0.505,-0.00024711,-0.0020268,-0.00017892,0,-0.27464,0.0045647,0
0,0.505,0.016915,66.828,0.505,-0.00055882,-0.0011654,-0.00014688,0,-0.22435,0.11917,0
0,0.505,0.016911,66.836,0.505,-0.00055755,-0.0011953,-0.00011894,0,-0.22525,0.11789,0
0,0.505,0.016908,66.842,0.505,-0.0005539,-0.0012869,-5.9015e-05,0,-0.22748,0.11482,0
0,0.505,0.016907,66.845,0.505,-0.00055351,-0.0012943,-5.2695e-05,0,-0.22769,0.11453,0
0,0.505,0.016908,66.843,0.505,-0.0005531,-0.001305,-4.8055e-05,0,-0.22791,0.1142,0
0,0.505,0.016908,66.851,0.505,-0.00054059,-0.0015783,7.0341e-05,0,-0.23368,0.10564,0
0,0.505,0.016907,66.855,0.505,-0.00053921,-0.0016036,7.9676e-05,0,-0.23425,0.10479,0
0,0.505,0.016907,66.854,0.505,-0.00053856,-0.0016162,8.0959e-05,0,-0.2345,0.10439,0
0,0.505,0.016908,66.851,0.505,-0.00054599,-0.0014679,3.0834e-05,0,-0.23134,0.10917,0
0,0.505,0.016907,66.855,0.505,-0.00054428,-0.0015032,4.6679e-05,0,-0.23209,0.10804,0
0,0.505,0.016911,66.813,0.505,-0.00056878,-0.00078743,-0.00054225,0,-0.21266,0.13361,0
0,0.505,0.016911,66.813,0.505,-0.00056835,-0.00081026,-0.00050917,0,-0.2136,0.13247,0
0,0.505,0.016913,66.799,0.505,-0.00056963,-0.0007301,-0.00063718,0,-0.21005,0.13646,0
0,0.505,0.016913,66.799,0.505,-0.0005696,-0.00073267,-0.00063289,0,-0.21017,0.13633,0
0,0.505,0.016909,66.83,0.505,-0.00056202,-0.0010617,-0.00023649,0,-0.22172,0.12254,0
0,0.505,0.016915,66.828,0.505,-0.0005606,-0.0011113,-0.00019345,0,-0.22293,0.121,0
0,0.505,0.016912,66.827,0.505,-0.00056436,-0.00098185,-0.00031111,0,-0.21937,0.12575,0
0,0.505,0.016908,66.83,0.505,-0.00056329,-0.0010167,-0.00027486,0,-0.2207,0.12423,0
0,0.505,0.016913,66.823,0.505,-0.00056667,-0.00089537,-0.00040582,0,-0.21647,0.12902,0
0,0.505,0.016914,66.824,0.505,-0.00056566,-0.00094103,-0.00035818,0,-0.21799,0.12744,0
0,0.505,0.016906,66.856,0.505,-0.00054887,-0.0014017,4.4905e-06,0,-0.22992,0.11124,0
0,0.505,0.016904,66.876,0.505,-0.00051355,-0.0020336,5.9203e-05,0,-0.24269,0.091095,0
0,0.505,0.016903,66.875,0.505,-0.00050818,-0.0021139,2.9266e-05,0,-0.24413,0.088515,0
0,0.505,0.016882,66.866,0.505,-0.0003617,-0.0040427,-0.0012205,0,-0.26695,0.03577,0
0,0.505,0.016881,66.864,0.505,-0.00035974,-0.0040599,-0.0012211,0,-0.26711,0.035242,0
0,0.505,0.01687,66.865,0.505,-0.00034869,-0.0041628,-0.0012197,0,-0.26803,0.03224,0
0,0.505,0.016865,66.856,0.505,-0.00033559,-0.0042623,-0.0011951,0,-0.26902,0.028861,0
0,0.505,0.016863,66.842,0.505,-0.00032592,-0.0043138,-0.0011622,0,-0.26971,0.026436,0
0,0.505,0.016867,66.857,0.505,-0.00034188,-0.0042221,-0.0012098,0,-0.26856,0.030478,0
0,0.505,0.016855,66.833,0.505,-0.00030875,-0.004356,-0.0010595,0,-0.27084,0.022201,0
0,0.505,0.016861,66.842,0.505,-0.00032234,-0.0043353,-0.0011478,0,-0.26997,0.025539,0
0,0.505,0.016861,66.838,0.505,-0.00031978,-0.0043466,-0.0011346,0,-0.27012,0.024921,0
0,0.505,0.016936,66.71,0.505,-0.00047873,-0.0002499,-0.0024866,0,-0.13828,0.19507,0
0,0.505,0.016929,66.714,0.505,-0.00048707,-0.00027011,-0.0024249,0,-0.14189,0.19319,0
0,0.505,0.016933,66.696,0.505,-0.00042419,-6.0532e-05,-0.0028636,0,-0.11745,0.20605,0
0,0.505,0.016933,66.696,0.505,-0.00042495,-6.3138e-05,-0.0028599,0,-0.11772,0.20592,0
0,0.505,0.016925,66.686,0.505,-0.00039261,4.7576e-05,-0.0030206,0,-0.1068,0.21048,0
0,0.505,0.016925,66.686,0.505,-0.00039387,4.3749e-05,-0.0030167,0,-0.10721,0.2103,0
0,0.505,0.016935,66.698,0.505,-0.00037292,0.00010704,-0.0030794,0,-0.1003,0.21317,0
0,0.505,0.01693,66.689,0.505,-0.00038022,7.8621e-05,-0.0030666,0,-0.10257,0.2122,0
0,0.505,0.016933,66.701,0.505,-0.00041281,-1.6953e-05,-0.0029226,0,-0.11355,0.20789,0
0,0.505,0.016933,66.701,0.505,-0.00041518,-2.5671e-05,-0.0029106,0,-0.11436,0.20754,0
0,0.505,0.016924,66.691,0.505,-0.00038314,6.8359e-05,-0.0030632,0,-0.10354,0.21182,0
0,0.505,0.016897,66.902,0.505,-0.00044961,-0.0029082,-0.00056729,0,-0.25627,0.063988,0
0,0.505,0.016897,66.897,0.505,-0.00044327,-0.0029996,-0.00064245,0,-0.25727,0.061629,0
0,0.505,0.016884,66.896,0.505,-0.00039791,-0.0035942,-0.0010728,0,-0.26324,0.046307,0
0,0.505,0.01689,66.894,0.505,-0.00038657,-0.0037488,-0.0011447,0,-0.2645,0.042943,0
0,0.505,0.016892,66.885,0.505,-0.00038093,-0.0038304,-0.0011726,0,-0.26509,0.04128,0
0,0.505,0.016887,66.88,0.505,-0.00037439,-0.0039012,-0.0011934,0,-0.26583,0.039396,0
0,0.505,0.016884,66.896,0.505,-0.00039796,-0.0035936,-0.0010725,0,-0.26323,0.04632,0
0,0.505,0.01689,66.897,0.505,-0.00041942,-0.0033181,-0.00088823,0,-0.26073,0.053216,0
0,0.505,0.016891,66.896,0.505,-0.00042034,-0.0033051,-0.00087902,0,-0.2606,0.05354,0
0,0.505,0.016899,66.891,0.505,-0.00048722,-0.0024031,-0.00014355,0,-0.24913,0.079136,0
0,0.505,0.016897,66.895,0.505,-0.00048245,-0.0024655,-0.00018672,0,-0.2501,0.077164,0
0,0.505,0.016904,66.875,0.505,-0.0005147,-0.0020158,6.256e-05,0,-0.24238,0.091633,0
0,0.505,0.016901,66.876,0.505,-0.00052047,-0.0019173,8.6963e-05,0,-0.24065,0.094504,0
0,0.505,0.016902,66.877,0.505,-0.00050633,-0.0021402,1.9731e-05,0,-0.24462,0.087644,0
0,0.505,0.016902,66.877,0.505,-0.00050597,-0.0021457,1.636e-05,0,-0.24472,0.087464,0
0,0.505,0.016905,66.865,0.505,-0.00053338,-0.0017075,0.00010004,0,-0.2364,0.10143,0
0,0.505,0.016903,66.865,0.505,-0.00053058,-0.0017544,0.00010025,0,-0.2374,0.099817,0
0,0.505,0.016901,66.871,0.505,-0.00052712,-0.0018112,0.00010271,0,-0.23854,0.097973,0
0,0.505,0.016902,66.873,0.505,-0.00052273,-0.0018806,9.0739e-05,0,-0.23997,0.095631,0
0,0.505,0.016898,66.893,0.505,-0.00047765,-0.0025368,-0.00024208,0,-0.25109,0.075098,0
0,0.505,0.016897,66.897,0.505,-0.00046394,-0.0027158,-0.00038923,0,-0.2537,0.069578,0
0,0.505,0.016894,66.902,0.505,-0.0004589,-0.0027786,-0.00045504,0,-0.25464,0.06754,0
0,0.505,0.0169,66.886,0.505,-0.00049862,-0.0022461,-3.4263e-05,0,-0.24652,0.08417,0
0,0.505,0.016901,66.886,0.505,-0.0004967,-0.0022739,-5.4387e-05,0,-0.24699,0.083271,0
0,0.505,0.016899,66.892,0.505,-0.00049066,-0.0023543,-0.0001036,0,-0.24835,0.080678,0
0,0.505,0.016883,66.866,0.505,-0.00036289,-0.0040317,-0.0012195,0,-0.26685,0.036116,0
0,0.505,0.016895,66.898,0.505,-0.00043994,-0.0030438,-0.0006788,0,-0.25779,0.060419,0
0,0.505,0.016895,66.897,0.505,-0.00043801,-0.0030686,-0.00069813,0,-0.25808,0.05974,0
0,0.505,0.016892,66.903,0.505,-0.0004299,-0.0031771,-0.00078526,0,-0.25929,0.056841,0
0,0.505,0.016896,66.899,0.505,-0.00045224,-0.0028698,-0.00053296,0,-0.25579,0.065008,0
0,0.505,0.016896,66.896,0.505,-0.00046815,-0.0026626,-0.00034385,0,-0.25294,0.07121,0
0,0.505,0.016898,66.895,0.505,-0.00047378,-0.0025878,-0.00027895,0,-0.25184,0.073559,0
0,0.505,0.016918,66.736,0.505,-0.00053984,-0.00039169,-0.0017721,0,-0.17015,0.17422,0
0,0.505,0.016925,66.735,0.505,-0.00054247,-0.00040082,-0.001719,0,-0.17193,0.17279,0
0,0.505,0.016925,66.742,0.505,-0.00054444,-0.00040472,-0.0016784,0,-0.17329,0.17167,0
0,0.505,0.016924,66.741,0.505,-0.00054525,-0.00040758,-0.0016648,0,-0.17396,0.17113,0
0,0.505,0.01692,66.75,0.505,-0.00054814,-0.00042014,-0.0016132,0,-0.1762,0.16928,0
0,0.505,0.016942,66.671,0.505,-4.5945e-05,0.0010626,-0.0032433,0,-0.0017935,0.23195,0
0,0.505,0.01694,66.671,0.505,-4.6605e-05,0.0010596,-0.0032461,0,-0.0019916,0.23196,0
0,0.505,0.016934,66.679,0.505,-0.00012898,0.00072365,-0.003327,0,-0.026595,0.23063,0
0,0.505,0.016939,66.67,0.505,-0.00013798,0.00069029,-0.0033236,0,-0.02925,0.23037,0
0,0.505,0.01694,66.671,0.505,-0.00016337,0.00059929,-0.0033067,0,-0.036687,0.22946,0
0,0.505,0.016939,66.668,0.505,-0.00016593,0.00059146,-0.0033065,0,-0.03743,0.22934,0
0,0.505,0.016941,66.681,0.505,-0.00021165,0.00047629,-0.0032482,0,-0.051158,0.22707,0
0,0.505,0.016927,66.675,0.505,-0.00022999,0.00042576,-0.0032566,0,-0.056376,0.22607,0
0,0.505,0.016923,66.671,0.505,-0.00023336,0.00042119,-0.0032584,0,-0.057453,0.22582,0
0,0.505,0.016914,66.677,0.505,-0.00024081,0.0004139,-0.0032563,0,-0.059816,0.22533,0
0,0.505,0.01693,66.674,0.505,-0.00025009,0.00039258,-0.0032288,0,-0.062668,0.22466,0
0,0.505,0.016923,66.676,0.505,-3.0336e-05,0.0011453,-0.0032285,0,0.0031028,0.23193,0
0,0.505,0.016944,66.681,0.505,-3.5372e-05,0.0011203,-0.00322,0,0.0014008,0.23191,0
0,0.505,0.016941,66.67,0.505,-4.7906e-05,0.0010552,-0.0032484,0,-0.0023938,0.23195,0
0,0.505,0.016933,66.682,0.505,-9.2924e-05,0.00085872,-0.0033141,0,-0.015948,0.23146,0
0,0.505,0.016937,66.671,0.505,-0.00010308,0.00081998,-0.0033224,0,-0.018955,0.23126,0
0,0.505,0.01694,66.682,0.505,-6.9467e-05,0.00096467,-0.0032704,0,-0.0089412,0.23177,0
0,0.505,0.016935,66.675,0.505,-7.7635e-05,0.00092236,-0.0032918,0,-0.011402,0.23168,0
0,0.505,0.016943,66.68,0.505,-0.00027738,0.00031963,-0.0032043,0,-0.07074,0.22282,0
0,0.505,0.016939,66.674,0.505,-0.00029008,0.00029887,-0.0032149,0,-0.074429,0.22189,0
0,0.505,0.016929,66.681,0.505,-0.00034911,0.000177,-0.0031521,0,-0.092769,0.21612,0
0,0.505,0.016938,66.684,0.505,-1.2565e-05,0.0012231,-0.0031776,0,0.0087077,0.23168,0
0,0.505,0.016934,66.679,0.505,-1.8098e-05,0.001202,-0.0031921,0,0.0070155,0.23181,0
0,0.505,0.016913,66.676,0.505,-2.4885e-05,0.0011682,-0.0032215,0,0.0048664,0.23189,0
0,0.505,0.016928,66.693,0.505,0.00014359,0.0019552,-0.0031506,0,0.062642,0.22479,0
0,0.505,0.01693,66.678,0.505,0.00013487,0.001917,-0.0031447,0,0.059419,0.22552,0
0,0.505,0.016926,66.686,0.505,0.00016234,0.0020387,-0.0031899,0,0.069567,0.22321,0
0,0.505,0.016932,66.683,0.505,0.00015757,0.0020214,-0.0031763,0,0.067792,0.22355,0
0,0.505,0.016932,66.682,0.505,0.00010553,0.0017961,-0.0031021,0,0.048756,0.22763,0
0,0.505,0.016934,66.676,0.505,0.00010074,0.0017746,-0.0030979,0,0.047027,0.22794,0
0,0.505,0.016929,66.684,0.505,0.00016462,0.002048,-0.0031902,0,0.070426,0.22295,0
0,0.505,0.016935,66.686,0.505,0.00015071,0.0019922,-0.0031582,0,0.065242,0.2241,0
0,0.505,0.016936,66.689,0.505,0.00015291,0.0020033,-0.0031608,0,0.066044,0.2239,0
0,0.505,0.016933,66.686,0.505,0.0001957,0.0021666,-0.0032223,0,0.082368,0.21941,0
0,0.505,0.016931,66.694,0.505,0.00019072,0.0021453,-0.0032203,0,0.080519,0.22005,0
0,0.505,0.016933,66.682,0.505,0.0001838,0.0021228,-0.0032122,0,0.077835,0.22093,0
0,0.505,0.016931,66.682,0.505,0.00018139,0.0021138,-0.0032106,0,0.076879,0.22123,0
0,0.505,0.016935,66.682,0.505,0.00017949,0.0021074,-0.003205,0,0.076129,0.22144,0
0,0.505,0.016936,66.674,0.505,8.3543e-05,0.0016949,-0.0030856,0,0.040932,0.22894,0
0,0.505,0.016933,66.682,0.505,7.6616e-05,0.0016581,-0.0030866,0,0.038523,0.22934,0
0,0.505,0.016933,66.668,0.505,6.7638e-05,0.0016133,-0.0030943,0,0.035393,0.22982,0
0,0.505,0.016933,66.668,0.505,6.6688e-05,0.0016088,-0.0030939,0,0.035069,0.22986,0
0,0.505,0.016935,66.673,0.505,9.0023e-05,0.0017259,-0.0030899,0,0.043233,0.22857,0
0,0.505,0.016934,66.677,0.505,8.6293e-05,0.0017087,-0.0030867,0,0.041913,0.22878,0
0,0.505,0.01693,66.679,0.505,0.00013423,0.0019145,-0.003144,0,0.059185,0.22558,0
0,0.505,0.016935,66.701,0.505,0.00022728,0.0022924,-0.003234,0,0.095155,0.21523,0
0,0.505,0.016936,66.7,0.505,0.00022568,0.0022858,-0.0032339,0,0.094483,0.21547,0
0,0.505,0.016931,66.697,0.505,0.00021661,0.0022377,-0.0032405,0,0.090846,0.21672,0
0,0.505,0.016926,66.688,0.505,0.00020911,0.0022095,-0.0032393,0,0.087788,0.21758,0
0,0.505,0.016932,66.697,0.505,0.00023555,0.0023254,-0.003234,0,0.098592,0.21388,0
0,0.505,0.016933,66.697,0.505,0.00023496,0.002323,-0.0032338,0,0.09834,0.21398,0
0,0.505,0.016933,66.698,0.505,0.00021852,0.0022468,-0.0032386,0,0.091634,0.21646,0
0,0.505,0.016932,66.698,0.505,0.00024362,0.0023562,-0.0032314,0,0.10203,0.21255,0
0,0.505,0.016933,66.696,0.505,0.00024033,0.0023439,-0.0032326,0,0.10063,0.21309,0
0,0.505,0.016939,66.67,0.505,5.035e-05,0.0015442,-0.0030916,0,0.029354,0.23039,0
0,0.505,0.01694,66.681,0.505,4.2523e-05,0.0015039,-0.003089,0,0.026701,0.23066,0
0,0.505,0.016937,66.692,0.505,0.00017191,0.0020775,-0.0031893,0,0.07321,0.22218,0
0,0.505,0.01693,66.689,0.505,0.00019999,0.002184,-0.0032264,0,0.08398,0.21885,0
0,0.505,0.016927,66.687,0.505,0.00020723,0.0022017,-0.0032365,0,0.087008,0.21785,0
0,0.505,0.01692,66.738,0.505,-0.00052879,-0.00036729,-0.0019412,0,-0.16305,0.17929,0
0,0.505,0.016925,66.732,0.505,-0.00053254,-0.00038136,-0.0018905,0,-0.16528,0.17774,0
0,0.505,0.016923,66.717,0.505,-0.00050108,-0.00029254,-0.0022826,0,-0.14857,0.1891,0
0,0.505,0.01693,66.716,0.505,-0.00050661,-0.00031305,-0.002218,0,-0.15119,0.18744,0
0,0.505,0.01692,66.765,0.505,-0.00056274,-0.0004862,-0.0012362,0,-0.19019,0.15691,0
0,0.505,0.016917,66.77,0.505,-0.00056406,-0.00049565,-0.0011898,0,-0.19194,0.1553,0
0,0.505,0.016912,66.798,0.505,-0.00056985,-0.00067827,-0.00072471,0,-0.20756,0.1395,0
0,0.505,0.016913,66.797,0.505,-0.00056968,-0.00072581,-0.00064629,0,-0.20982,0.13673,0
0,0.505,0.016912,66.82,0.505,-0.00056747,-0.00086004,-0.00044622,0,-0.21528,0.1304,0
0,0.505,0.016926,66.736,0.505,0.00032713,0.0028318,-0.0028429,0,0.1489,0.18891,0
0,0.505,0.016925,66.734,0.505,0.00032586,0.0028166,-0.0028637,0,0.14776,0.18961,0
0,0.505,0.016924,66.737,0.505,0.00032372,0.0027919,-0.0028891,0,0.14593,0.19075,0
0,0.505,0.016926,66.73,0.505,0.00032972,0.0028585,-0.0028061,0,0.15138,0.18732,0
0,0.505,0.016924,66.738,0.505,0.00033926,0.0030068,-0.0025512,0,0.16621,0.17691,0
0,0.505,0.016922,66.741,0.505,0.00033872,0.0029952,-0.002581,0,0.16451,0.1782,0
0,0.505,0.016926,66.748,0.505,0.00033734,0.0029744,-0.0026246,0,0.16162,0.18031,0
0,0.505,0.016926,66.748,0.505,0.00033665,0.0029602,-0.0026462,0,0.16035,0.18114,0
0,0.505,0.016933,66.716,0.505,0.00030193,0.0026325,-0.0030735,0,0.13075,0.19938,0
0,0.505,0.016934,66.712,0.505,0.00029641,0.0025978,-0.0031041,0,0.12754,0.20103,0
0,0.505,0.016923,66.721,0.505,0.00031204,0.0026876,-0.0030166,0,0.13726,0.19602,0
0,0.505,0.016931,66.718,0.505,0.00030909,0.0026728,-0.0030325,0,0.13522,0.19711,0
0,0.505,0.016931,66.719,0.505,0.00030743,0.0026635,-0.003043,0,0.13411,0.19765,0
0,0.505,0.016933,66.716,0.505,0.00030302,0.0026385,-0.0030667,0,0.13144,0.19904,0
0,0.505,0.016934,66.713,0.505,0.0002958,0.0025939,-0.0031082,0,0.12718,0.20121,0
0,0.505,0.016938,66.67,0.505,-0.00010785,0.0008015,-0.0033252,0,-0.020375,0.23116,0
0,0.505,0.016934,66.679,0.505,-0.000117,0.0007675,-0.0033291,0,-0.023072,0.23097,0
0,0.505,0.016937,66.673,0.505,-0.00010492,0.00081296,-0.0033236,0,-0.019505,0.23122,0
0,0.505,0.016931,66.677,0.505,0.00013336,0.0019113,-0.0031425,0,0.058872,0.22564,0
0,0.505,0.016931,66.686,0.505,0.00012467,0.0018783,-0.0031264,0,0.055686,0.22631,0
0,0.505,0.016934,66.677,0.505,0.00011798,0.0018506,-0.0031166,0,0.053242,0.2268,0
0,0.505,0.016933,66.68,0.505,0.00011517,0.0018384,-0.003113,0,0.05222,0.22701,0
0,0.505,0.016934,66.675,0.505,0.00011163,0.0018232,-0.0031092,0,0.050955,0.22724,0
0,0.505,0.016895,66.885,0.505,7.4963e-05,0.0051535,-0.0013755,0,0.2562,0.064485,0
0,0.505,0.016898,66.879,0.505,9.136e-05,0.0050397,-0.0013054,0,0.25455,0.068155,0
0,0.505,0.016899,66.883,0.505,0.00011389,0.0048735,-0.0012128,0,0.25213,0.073384,0
0,0.505,0.016897,66.887,0.505,0.00012439,0.0047905,-0.0011696,0,0.25094,0.075834,0
0,0.505,0.016889,66.883,0.505,4.6164e-05,0.0053519,-0.0015047,0,0.2589,0.058217,0
0,0.505,0.016892,66.887,0.505,5.8009e-05,0.0052713,-0.0014491,0,0.25778,0.060791,0
0,0.505,0.016898,66.879,0.505,9.1741e-05,0.005037,-0.0013038,0,0.25452,0.06824,0
0,0.505,0.016898,66.879,0.505,9.1877e-05,0.0050361,-0.0013033,0,0.2545,0.06827,0
0,0.505,0.016898,66.884,0.505,0.00010798,0.0049162,-0.0012318,0,0.25275,0.072013,0
0,0.505,0.016896,66.884,0.505,0.00013453,0.0047139,-0.0011366,0,0.24977,0.078179,0
0,0.505,0.016895,66.883,0.505,6.9083e-05,0.0051975,-0.0014046,0,0.25676,0.063171,0
0,0.505,0.016899,66.881,0.505,0.00014164,0.0046596,-0.0011096,0,0.24891,0.079907,0
0,0.505,0.016901,66.878,0.505,0.00015156,0.0045847,-0.0010839,0,0.24763,0.08234,0
0,0.505,0.016894,66.876,0.505,2.9635e-05,0.0054681,-0.0015697,0,0.26024,0.054896,0
0,0.505,0.016887,66.884,0.505,4.0948e-05,0.0053845,-0.0015251,0,0.25936,0.057152,0
0,0.505,0.016895,66.879,0.505,2.2787e-05,0.0055168,-0.0015958,0,0.26079,0.053566,0
0,0.505,0.016861,66.839,0.505,-9.006e-05,0.0061621,-0.001707,0,0.26805,0.031985,0
0,0.505,0.016867,66.847,0.505,-7.423e-05,0.0061112,-0.0017369,0,0.26739,0.034696,0
0,0.505,0.0168,66.752,0.505,-0.00020895,0.0049068,-0.00067107,0,0.27361,0.010817,0
0,0.505,0.016802,66.753,0.505,-0.00020448,0.0050486,-0.00073681,0,0.27344,0.011675,0
0,0.505,0.016776,66.767,0.505,-0.00022456,0.0038411,-0.00037934,0,0.27439,0.0072117,0
0,0.505,0.016792,66.753,0.505,-0.00021394,0.004586,-0.00058414,0,0.27387,0.0096683,0
0,0.505,0.01676,66.819,0.505,-0.0002373,0.0017683,-9.2328e-05,0,0.27522,0.0020346,0
0,0.505,0.016766,66.807,0.505,-0.00023509,0.0023249,-0.00014565,0,0.27516,0.0036823,0
0,0.505,0.016771,66.79,0.505,-0.00023156,0.0028002,-0.00022098,0,0.27496,0.0047533,0
0,0.505,0.016902,66.875,0.505,2.0481e-05,0.0055383,-0.0016072,0,0.26096,0.053077,0
0,0.505,0.016871,66.852,0.505,-6.4928e-05,0.0060536,-0.0017463,0,0.26687,0.036371,0
0,0.505,0.016888,66.85,0.505,-4.4219e-05,0.0059551,-0.0017537,0,0.26557,0.040324,0
0,0.505,0.016888,66.867,0.505,5.393e-07,0.0056624,-0.0016791,0,0.26252,0.048677,0
0,0.505,0.016889,66.869,0.505,2.2502e-06,0.0056504,-0.0016742,0,0.26241,0.048996,0
0,0.505,0.016888,66.851,0.505,-4.3544e-05,0.0059505,-0.0017527,0,0.26554,0.040452,0
0,0.505,0.016887,66.851,0.505,-4.1416e-05,0.0059362,-0.001751,0,0.26539,0.040858,0
0,0.505,0.01689,66.868,0.505,2.6705e-06,0.0056482,-0.0016726,0,0.26237,0.049091,0
0,0.505,0.016879,66.866,0.505,-2.1706e-05,0.0058024,-0.0017321,0,0.26408,0.044633,0
0,0.505,0.016879,66.87,0.505,-1.729e-05,0.0057785,-0.0017246,0,0.26375,0.045425,0
0,0.505,0.01692,66.777,0.505,0.00033366,0.0030998,-0.0021418,0,0.19162,0.15581,0
0,0.505,0.016917,66.781,0.505,0.00033532,0.0030959,-0.0021799,0,0.18928,0.15802,0
0,0.505,0.01692,66.804,0.505,0.00031582,0.0031571,-0.0018271,0,0.2068,0.14033,0
0,0.505,0.016917,66.808,0.505,0.00031765,0.0031448,-0.0018532,0,0.20579,0.14154,0
0,0.505,0.016909,66.852,0.505,0.0002579,0.0036422,-0.0012048,0,0.22855,0.1133,0
0,0.505,0.01691,66.847,0.505,0.00026263,0.0035965,-0.0012375,0,0.22732,0.11501,0
0,0.505,0.016911,66.839,0.505,0.000273,0.0034983,-0.0013169,0,0.22443,0.11895,0
0,0.505,0.016911,66.839,0.505,0.00027418,0.0034876,-0.0013262,0,0.2241,0.11941,0
0,0.505,0.01691,66.85,0.505,0.00023996,0.0038144,-0.0011133,0,0.23278,0.10713,0
0,0.505,0.016909,66.853,0.505,0.00024904,0.0037277,-0.0011546,0,0.23071,0.11019,0
0,0.505,0.01691,66.85,0.505,0.00025165,0.0037024,-0.0011696,0,0.23009,0.11109,0
0,0.505,0.01691,66.848,0.505,0.00026628,0.0035618,-0.001262,0,0.22636,0.11637,0
0,0.505,0.016912,66.833,0.505,0.00027758,0.0034575,-0.0013586,0,0.22303,0.1208,0
0,0.505,0.016912,66.834,0.505,0.00028147,0.0034203,-0.0013939,0,0.22178,0.12243,0
0,0.505,0.016913,66.832,0.505,0.00028288,0.0034071,-0.0014079,0,0.2213,0.12305,0
0,0.505,0.016919,66.8,0.505,0.000319,0.003142,-0.0018775,0,0.2049,0.14251,0
0,0.505,0.016918,66.803,0.505,0.00032168,0.0031295,-0.001919,0,0.20297,0.14455,0
0,0.505,0.016916,66.819,0.505,0.00029808,0.0032755,-0.0015801,0,0.21559,0.13005,0
0,0.505,0.016915,66.82,0.505,0.00030058,0.0032525,-0.0016107,0,0.21447,0.13135,0
0,0.505,0.016916,66.815,0.505,0.00030345,0.003233,-0.001648,0,0.21309,0.13292,0
0,0.505,0.016915,66.816,0.505,0.00030642,0.0032122,-0.0016855,0,0.21163,0.13462,0
0,0.505,0.016915,66.827,0.505,0.00029473,0.0033029,-0.0015364,0,0.21702,0.12845,0
0,0.505,0.016916,66.817,0.505,0.00030748,0.003208,-0.0016996,0,0.21114,0.13523,0
0,0.505,0.016918,66.811,0.505,0.00030978,0.0031946,-0.0017367,0,0.20997,0.13655,0
0,0.505,0.016913,66.833,0.505,0.00028827,0.0033593,-0.0014627,0,0.21943,0.12544,0
0,0.505,0.016915,66.825,0.505,0.00029259,0.0033216,-0.0015124,0,0.21782,0.12744,0
0,0.505,0.016917,66.815,0.505,0.0003129,0.0031738,-0.001783,0,0.20837,0.13847,0
0,0.505,0.01691,66.85,0.505,0.00023969,0.003817,-0.001112,0,0.23284,0.10705,0
0,0.505,0.016898,66.874,0.505,0.00017694,0.0043661,-0.0010383,0,0.24411,0.088934,0
0,0.505,0.016898,66.878,0.505,0.000181,0.0043284,-0.0010329,0,0.24345,0.090026,0
0,0.505,0.016903,66.878,0.505,0.00016668,0.0044601,-0.001054,0,0.24562,0.086304,0
0,0.505,0.016899,66.875,0.505,0.00018423,0.0043012,-0.0010318,0,0.24295,0.090841,0
0,0.505,0.016899,66.871,0.505,0.00019498,0.0042169,-0.0010221,0,0.24124,0.093653,0
0,0.505,0.016902,66.876,0.505,0.00015825,0.0045317,-0.0010655,0,0.24672,0.084102,0
0,0.505,0.0169,66.868,0.505,0.00019975,0.0041753,-0.0010258,0,0.24043,0.094963,0
0,0.505,0.016904,66.868,0.505,0.00020735,0.0041097,-0.0010315,0,0.2391,0.097191,0
0,0.505,0.016905,66.863,0.505,0.00021381,0.0040513,-0.0010426,0,0.23795,0.099068,0
0,0.505,0.016905,66.865,0.505,0.00021885,0.0040039,-0.0010473,0,0.23703,0.10058,0
0,0.505,0.016907,66.858,0.505,0.00022729,0.0039286,-0.0010696,0,0.2354,0.10314,0
0,0.505,0.016907,66.858,0.505,0.00022961,0.0039081,-0.0010741,0,0.23495,0.10386,0
0,0.505,0.01692,66.787,0.505,0.0003293,0.0031074,-0.0020553,0,0.19647,0.15113,0
0,0.505,0.016918,66.791,0.505,0.00033101,0.0031033,-0.0020851,0,0.19475,0.15283,0
0,0.505,0.01692,66.794,0.505,0.00032394,0.0031224,-0.0019587,0,0.20124,0.14634,0
0,0.505,0.016918,66.796,0.505,0.00032528,0.0031181,-0.0019821,0,0.20021,0.14741,0
0,0.505,0.01692,66.789,0.505,0.00032679,0.0031148,-0.0020114,0,0.19888,0.14874,0
0,0.505,0.016919,66.792,0.505,0.00032829,0.0031094,-0.0020376,0,0.19745,0.15015,0
0,0.505,0.016922,66.763,0.505,0.00033977,0.0030806,-0.0023359,0,0.17931,0.16693,0
0,0.505,0.016923,66.768,0.505,0.00034019,0.0030723,-0.0023618,0,0.1774,0.1684,0
0,0.505,0.016915,66.768,0.505,0.00033915,0.0030832,-0.0023023,0,0.18191,0.16461,0
0,0.505,0.016918,66.76,0.505,0.00033953,0.0030823,-0.0023216,0,0.18072,0.1657,0
0,0.505,0.01693,66.72,0.505,0.00031663,0.0027256,-0.002967,0,0.14057,0.19402,0
0,0.505,0.01693,66.721,0.505,0.00031613,0.0027211,-0.0029724,0,0.14019,0.19424,0
0,0.505,0.016931,66.719,0.505,0.00031577,0.0027186,-0.0029765,0,0.13995,0.19439,0
0,0.505,0.016927,66.73,0.505,0.00032128,0.0027687,-0.0029151,0,0.144,0.19196,0
0,0.505,0.016927,66.732,0.505,0.00031999,0.0027561,-0.0029276,0,0.14301,0.19255,0
0,0.505,0.016934,66.711,0.505,0.00028866,0.0025513,-0.0031398,0,0.12342,0.20293,0
0,0.505,0.016934,66.711,0.505,0.00028816,0.0025486,-0.0031415,0,0.12315,0.20305,0
0,0.505,0.016921,66.767,0.505,0.00033719,0.0030992,-0.0022294,0,0.18621,0.16089,0
0,0.505,0.016917,66.78,0.505,0.00033848,0.00309,-0.002274,0,0.18359,0.16318,0
0,0.505,0.01692,66.778,0.505,0.00033297,0.0031017,-0.0021273,0,0.19251,0.15496,0
0,0.505,0.016921,66.768,0.505,0.00033709,0.0030995,-0.0022265,0,0.18638,0.16073,0
0,0.505,0.016919,66.779,0.505,0.00033335,0.0031005,-0.002135,0,0.19202,0.15543,0
0,0.505,0.016921,66.768,0.505,0.00033698,0.0030996,-0.0022235,0,0.18659,0.16054,0
0,0.505,0.016921,66.767,0.505,0.00034033,0.003065,-0.0023843,0,0.1761,0.16954,0
0,0.505,0.016922,66.748,0.505,0.00034052,0.0030472,-0.0024358,0,0.17318,0.17184,0
0,0.505,0.016922,66.747,0.505,0.00034051,0.0030463,-0.0024384,0,0.17302,0.17196,0
0,0.505,0.016925,66.741,0.505,0.00033983,0.0030197,-0.0025173,0,0.16815,0.17553,0
0,0.505,0.016924,66.743,0.505,0.00033962,0.0030144,-0.0025287,0,0.16743,0.17604,0
0,0.505,0.016922,66.748,0.505,0.00034053,0.0030479,-0.0024343,0,0.17329,0.17176,0
0,0.505,0.016921,66.741,0.505,0.00033844,0.0029898,-0.0025953,0,0.16379,0.17871,0
0,0.505,0.016925,66.748,0.505,0.00033537,0.0029338,-0.0026786,0,0.1585,0.18245,0
0,0.505,0.016924,66.747,0.505,0.00033445,0.0029147,-0.0027016,0,0.15725,0.18338,0
0,0.505,0.01692,66.754,0.505,0.00034023,0.0030295,-0.0024795,0,0.17027,0.17403,0
0,0.505,0.016931,66.71,0.505,0.00026653,0.0024424,-0.003204,0,0.11253,0.20827,0
0,0.505,0.016931,66.702,0.505,0.00026123,0.0024231,-0.0032147,0,0.10996,0.20942,0
0,0.505,0.01693,66.702,0.505,0.00025933,0.0024169,-0.0032173,0,0.10907,0.2098,0
0,0.505,0.016933,66.7,0.505,0.00025269,0.0023924,-0.0032227,0,0.10603,0.21096,0
0,0.505,0.016932,66.698,0.505,0.00024405,0.0023577,-0.003231,0,0.10222,0.21248,0
0,0.505,0.01691,66.85,0.505,0.00023859,0.0038273,-0.0011081,0,0.23307,0.10669,0
0,0.505,0.016942,66.677,0.505,3.8667e-05,0.0014801,-0.003089,0,0.025417,0.23078,0
0,0.505,0.01693,66.686,0.505,3.1642e-05,0.0014382,-0.0031086,0,0.02313,0.23093,0
0,0.505,0.016936,66.673,0.505,-0.00012283,0.00074665,-0.0033282,0,-0.024779,0.23081,0
0,0.505,0.016932,66.678,0.505,-8.1075e-05,0.00090568,-0.0032988,0,-0.012432,0.23165,0
0,0.505,0.016934,66.675,0.505,-8.3505e-05,0.00089621,-0.0033012,0,-0.013149,0.23161,0
0,0.505,0.016933,66.673,0.505,-0.0001747,0.00056564,-0.0033028,0,-0.039965,0.22897,0
0,0.505,0.016935,66.663,0.505,-0.00017996,0.00055367,-0.0032992,0,-0.041608,0.22872,0
0,0.505,0.016932,66.665,0.505,-0.000185,0.00054151,-0.0032977,0,-0.043192,0.22847,0
0,0.505,0.016929,66.671,0.505,-0.00019235,0.00053146,-0.0032896,0,-0.045492,0.22809,0
0,0.505,0.016932,66.672,0.505,-0.00019723,0.00051728,-0.0032797,0,-0.046974,0.22789,0
0,0.505,0.016933,66.681,0.505,-0.0002049,0.00049688,-0.0032643,0,-0.049199,0.22744,0
0,0.505,0.016925,66.682,0.505,-0.00035275,0.00016993,-0.0031488,0,-0.093965,0.21567,0
0,0.505,0.016938,66.681,0.505,-0.00035994,0.0001516,-0.0031159,0,-0.096302,0.21479,0
0,0.505,0.016936,66.674,0.505,-0.00029176,0.00029707,-0.0032175,0,-0.074968,0.22172,0
0,0.505,0.016939,66.685,0.505,-0.00036459,0.00013881,-0.0031012,0,-0.097788,0.21421,0
0,0.505,0.016927,66.669,0.505,-0.00030205,0.00028859,-0.0032196,0,-0.078375,0.2208,0
0,0.505,0.01694,66.685,0.505,-0.00036287,0.00014474,-0.0031043,0,-0.097252,0.21442,0
0,0.505,0.016918,66.786,0.505,-0.00056743,-0.00054506,-0.0010312,0,-0.19764,0.15002,0
0,0.505,0.01692,66.782,0.505,-0.00056813,-0.00056439,-0.00098419,0,-0.19928,0.14837,0
0,0.505,0.016917,66.789,0.505,-0.00056885,-0.0005843,-0.00092871,0,-0.20119,0.14644,0
0,0.505,0.016917,66.786,0.505,-0.00056942,-0.00061238,-0.00086446,0,-0.20302,0.14427,0
0,0.505,0.016918,66.787,0.505,-0.00056867,-0.00057793,-0.00094341,0,-0.20067,0.14697,0
0,0.505,0.016918,66.77,0.505,-0.00056436,-0.00049939,-0.0011796,0,-0.19233,0.15492,0
0,0.505,0.016917,66.765,0.505,-0.00055836,-0.00045631,-0.001371,0,-0.18537,0.16155,0
0,0.505,0.016921,66.763,0.505,-0.00056095,-0.0004742,-0.0012963,0,-0.18796,0.15899,0
0,0.505,0.01692,66.765,0.505,-0.0005615,-0.00047734,-0.0012776,0,-0.18862,0.15838,0
0,0.505,0.016919,66.749,0.505,-0.00055548,-0.00044914,-0.0014542,0,-0.18244,0.16429,0
0,0.505,0.016919,66.749,0.505,-0.00055563,-0.00044982,-0.0014508,0,-0.18258,0.16417,0
0,0.505,0.016921,66.761,0.505,-0.00055198,-0.00043866,-0.0015273,0,-0.1794,0.16672,0
0,0.505,0.01692,66.749,0.505,-0.00055536,-0.00044887,-0.0014567,0,-0.18233,0.16439,0
0,0.505,0.016922,66.755,0.505,-0.00054998,-0.00043024,-0.0015702,0,-0.17771,0.16802,0
0,0.505,0.016915,66.79,0.505,-0.0005697,-0.00062823,-0.00082336,0,-0.20415,0.14298,0
0,0.505,0.016914,66.788,0.505,-0.00056977,-0.00064065,-0.00079724,0,-0.20505,0.142,0
0,0.505,0.016915,66.788,0.505,-0.00056974,-0.00063175,-0.00081601,0,-0.20443,0.14267,0
0,0.505,0.016929,66.722,0.505,-0.00050863,-0.00031819,-0.0021919,0,-0.15218,0.18679,0
0,0.505,0.016936,66.71,0.505,-0.00047833,-0.00024826,-0.0024901,0,-0.13811,0.19516,0
0,0.505,0.016936,66.71,0.505,-0.00047864,-0.0002496,-0.0024872,0,-0.13824,0.19509,0
0,0.505,0.016924,66.703,0.505,-0.00049417,-0.00027573,-0.0023678,0,-0.14528,0.19128,0
0,0.505,0.016926,66.703,0.505,-0.00049521,-0.00027951,-0.0023558,0,-0.14579,0.19097,0
0,0.505,0.016928,66.703,0.505,-0.00049303,-0.00027567,-0.0023759,0,-0.14474,0.19161,0
0,0.505,0.016819,66.759,0.505,-0.00018996,0.0056036,-0.00096778,0,0.27284,0.014754,0
0,0.505,0.01686,66.828,0.505,-0.00010234,0.0062218,-0.0016714,0,0.26866,0.029985,0
0,0.505,0.016822,66.777,0.505,-0.00016962,0.0059552,-0.0011958,0,0.27192,0.01828,0
0,0.505,0.016823,66.778,0.505,-0.00016681,0.0060006,-0.0012269,0,0.2718,0.018768,0
0,0.505,0.016843,66.782,0.505,-0.00014443,0.0062093,-0.0014272,0,0.27074,0.022465,0
0,0.505,0.016863,66.802,0.505,-0.00012742,0.0062694,-0.0015465,0,0.2699,0.02561,0
0,0.505,0.016822,66.769,0.505,-0.00017418,0.0058742,-0.001147,0,0.27214,0.017481,0
0,0.505,0.016842,66.781,0.505,-0.00014567,0.0062026,-0.0014174,0,0.2708,0.022239,0
0,0.505,0.016857,66.814,0.505,-0.00011567,0.006231,-0.0016044,0,0.26928,0.02767,0
0,0.505,0.016936,66.679,0.505,-5.7941e-05,0.0010177,-0.0032683,0,-0.0054413,0.23191,0
0,0.505,0.01693,66.671,0.505,-7.0451e-07,0.0012868,-0.0031551,0,0.012504,0.23152,0
0,0.505,0.016932,66.671,0.505,-1.4887e-06,0.001283,-0.0031564,0,0.012254,0.23153,0
0,0.505,0.016937,66.674,0.505,-6.402e-05,0.00099095,-0.0032728,0,-0.0072742,0.23184,0
0,0.505,0.016915,66.675,0.505,2.2963e-05,0.0013975,-0.0031429,0,0.02025,0.23144,0
0,0.505,0.016919,66.674,0.505,1.8985e-05,0.0013761,-0.0031427,0,0.018816,0.23154,0
0,0.505,0.016941,66.689,0.505,1.0713e-05,0.0013425,-0.0031247,0,0.016065,0.23141,0
0,0.505,0.016904,66.674,0.505,2.1157e-05,0.0013864,-0.0031529,0,0.019594,0.23151,0
0,0.505,0.016931,66.671,0.505,-7.8145e-08,0.0012896,-0.0031532,0,0.012692,0.23151,0
0,0.505,0.016924,66.727,0.505,0.0003327,0.0028856,-0.0027525,0,0.15488,0.18493,0
0,0.505,0.016924,66.727,0.505,0.00033263,0.0028844,-0.0027542,0,0.15479,0.18499,0
0,0.505,0.016924,66.727,0.505,0.0003324,0.0028824,-0.0027584,0,0.15451,0.18518,0
0,0.505,0.016925,66.73,0.505,0.00033018,0.0028624,-0.0027972,0,0.15187,0.18702,0
0,0.505,0.016934,66.666,0.505,6.2826e-05,0.0015948,-0.0030951,0,0.033701,0.22998,0
0,0.505,0.016932,66.67,0.505,5.5183e-05,0.001566,-0.0030978,0,0.030997,0.23023,0
0,0.505,0.016934,66.672,0.505,5.3885e-05,0.0015604,-0.003096,0,0.030535,0.23026,0
0,0.505,0.016931,66.681,0.505,9.5966e-05,0.0017527,-0.003094,0,0.04532,0.22825,0
0,0.505,0.016925,66.703,0.505,0.00028033,0.0025131,-0.0031738,0,0.11903,0.20501,0
0,0.505,0.016925,66.703,0.505,0.0002802,0.0025123,-0.003174,0,0.11896,0.20504,0
0,0.505,0.01693,66.707,0.505,0.00027056,0.0024632,-0.0031983,0,0.11437,0.20742,0
0,0.505,0.016935,66.709,0.505,0.00029179,0.0025702,-0.003126,0,0.12507,0.20217,0
0,0.505,0.01693,66.714,0.505,0.00027334,0.0024785,-0.0031911,0,0.11567,0.20676,0
0,0.505,0.016932,66.701,0.505,0.00025155,0.0023884,-0.0032247,0,0.10552,0.21117,0
0,0.505,0.016928,66.697,0.505,-0.00040482,1.7458e-05,-0.0029616,0,-0.1109,0.20898,0
0,0.505,0.016925,66.697,0.505,-0.00040261,2.6251e-05,-0.0029736,0,-0.11016,0.20926,0
0,0.505,0.01692,66.765,0.505,-0.00056131,-0.00047608,-0.0012845,0,-0.18838,0.15863,0
0,0.505,0.016917,66.786,0.505,-0.00056584,-0.00051671,-0.0011067,0,-0.19484,0.15268,0
0,0.505,0.016919,66.78,0.505,-0.00056706,-0.00053884,-0.0010558,0,-0.19682,0.15083,0
0,0.505,0.016929,66.721,0.505,-0.00051037,-0.00032176,-0.0021736,0,-0.15309,0.18621,0
0,0.505,0.016927,66.73,0.505,-0.00051594,-0.00033289,-0.0021118,0,-0.15596,0.18435,0
0,0.505,0.016927,66.727,0.505,-0.00052077,-0.00034891,-0.0020529,0,-0.15849,0.18256,0
0,0.505,0.016924,66.733,0.505,-0.00052261,-0.00035369,-0.0020302,0,-0.15949,0.18182,0
0,0.505,0.016924,66.731,0.505,-0.00052413,-0.0003583,-0.0020111,0,-0.16032,0.18122,0
0,0.505,0.016925,66.731,0.505,-0.00053642,-0.00038804,-0.0018268,0,-0.16785,0.17594,0
0,0.505,0.016919,66.735,0.505,-0.00053894,-0.00038962,-0.0017872,0,-0.1695,0.17474,0
0,0.505,0.016924,66.736,0.505,-0.00053391,-0.00038367,-0.001868,0,-0.16617,0.17712,0
0,0.505,0.016936,66.71,0.505,-0.00047859,-0.00024946,-0.0024877,0,-0.13822,0.1951,0
