"cvar","mu","phivar","pressure","rho","str","velocity:0","velocity:1","Label","Points:0","Points:1","Points:2"
0,0.505,0.016785,66.858,0.505,-0.0002381,-0.00073063,-2.1353e-05,0,-0.27531,0,0
0,0.505,0.016762,66.856,0.505,-0.00023658,0.0010237,-2.7791e-05,0,0.27527,0,0
0,0.505,0.016933,66.69,0.505,-9.2243e-05,0.00083813,-0.0029993,0,-0.015949,0.23143,0
0,0.505,0.016938,66.679,0.505,-0.00010166,0.00080265,-0.0029998,0,-0.019033,0.23123,0
0,0.505,0.016922,66.757,0.505,0.00030117,0.002812,-0.0021922,0,0.17327,0.17175,0
0,0.505,0.016922,66.757,0.505,0.00030116,0.0028116,-0.0021932,0,0.17319,0.17181,0
0,0.505,0.016923,66.777,0.505,0.00030062,0.0028317,-0.0021227,0,0.17739,0.16838,0
0,0.505,0.016921,66.776,0.505,0.00030082,0.002826,-0.0021439,0,0.17611,0.16951,0
0,0.505,0.016922,66.757,0.505,0.00030117,0.0028111,-0.002195,0,0.17308,0.1719,0
0,0.505,0.016925,66.751,0.505,0.00030079,0.0027899,-0.0022715,0,0.16812,0.17553,0
0,0.505,0.016924,66.752,0.505,0.00030064,0.0027858,-0.0022819,0,0.16744,0.17601,0
0,0.505,0.016917,66.789,0.505,0.00029872,0.0028425,-0.0020389,0,0.18359,0.16316,0
0,0.505,0.016915,66.777,0.505,0.00029942,0.0028377,-0.0020659,0,0.18193,0.16458,0
0,0.505,0.016918,66.769,0.505,0.00029984,0.0028381,-0.0020848,0,0.18071,0.1657,0
0,0.505,0.016922,66.772,0.505,0.00030013,0.0028379,-0.002098,0,0.17933,0.1669,0
0,0.505,0.016921,66.777,0.505,0.00029729,0.0028488,-0.0019934,0,0.18638,0.16071,0
0,0.505,0.016921,66.776,0.505,0.00029738,0.0028487,-0.0019958,0,0.18624,0.16084,0
0,0.505,0.016919,66.788,0.505,0.00029356,0.0028432,-0.0019064,0,0.19203,0.1554,0
0,0.505,0.01692,66.786,0.505,0.00029385,0.0028431,-0.0019125,0,0.19165,0.15576,0
0,0.505,0.01692,66.787,0.505,0.00029322,0.0028438,-0.0018995,0,0.1925,0.15496,0
0,0.505,0.016917,66.79,0.505,0.00029551,0.002842,-0.001949,0,0.18929,0.15799,0
0,0.505,0.01693,66.73,0.505,0.00028097,0.002534,-0.0026935,0,0.14066,0.19394,0
0,0.505,0.01693,66.73,0.505,0.00028042,0.0025291,-0.0026998,0,0.1402,0.19422,0
0,0.505,0.01693,66.729,0.505,0.00028002,0.0025264,-0.0027046,0,0.13989,0.19441,0
0,0.505,0.016923,66.73,0.505,0.00027678,0.0024997,-0.0027414,0,0.13725,0.19601,0
0,0.505,0.016925,66.743,0.505,0.00028896,0.0026131,-0.0025994,0,0.14773,0.18961,0
0,0.505,0.016924,66.747,0.505,0.0002871,0.0025915,-0.0026225,0,0.14594,0.19072,0
0,0.505,0.016925,66.739,0.505,0.00029233,0.0026501,-0.0025456,0,0.15136,0.18732,0
0,0.505,0.016926,66.745,0.505,0.0002901,0.0026272,-0.0025792,0,0.14891,0.18888,0
0,0.505,0.016924,66.747,0.505,0.00030039,0.0027798,-0.0023023,0,0.16628,0.17683,0
0,0.505,0.016922,66.75,0.505,0.00029996,0.0027698,-0.0023319,0,0.16452,0.17817,0
0,0.505,0.016924,66.736,0.505,0.00029488,0.0026723,-0.0024964,0,0.1548,0.18496,0
0,0.505,0.016924,66.736,0.505,0.00029484,0.0026719,-0.0024972,0,0.15474,0.18501,0
0,0.505,0.016925,66.74,0.505,0.00029276,0.0026537,-0.0025365,0,0.15188,0.18699,0
0,0.505,0.016925,66.757,0.505,0.00029826,0.0027397,-0.0023941,0,0.16033,0.18113,0
0,0.505,0.016925,66.757,0.505,0.0002972,0.0027166,-0.0024241,0,0.15852,0.18242,0
0,0.505,0.016924,66.736,0.505,0.00029489,0.0026725,-0.002496,0,0.15482,0.18495,0
0,0.505,0.016927,66.74,0.505,0.00028492,0.0025707,-0.0026469,0,0.14397,0.19196,0
0,0.505,0.016924,66.756,0.505,0.00029641,0.002699,-0.0024463,0,0.15724,0.18336,0
0,0.505,0.016921,66.751,0.505,0.00029974,0.002765,-0.0023461,0,0.16377,0.1787,0
0,0.505,0.016925,66.757,0.505,0.00029884,0.0027524,-0.0023733,0,0.16163,0.18028,0
0,0.505,0.016932,66.726,0.505,0.00026778,0.0024528,-0.0027931,0,0.13074,0.19937,0
0,0.505,0.016934,66.722,0.505,0.00026295,0.0024225,-0.0028206,0,0.12758,0.20099,0
0,0.505,0.016931,66.727,0.505,0.00027421,0.0024878,-0.0027552,0,0.13526,0.19708,0
0,0.505,0.016931,66.729,0.505,0.00027268,0.0024795,-0.0027653,0,0.1341,0.19763,0
0,0.505,0.016933,66.726,0.505,0.00026883,0.0024583,-0.0027864,0,0.13147,0.199,0
0,0.505,0.016934,66.722,0.505,0.00026233,0.0024187,-0.0028249,0,0.12717,0.20119,0
0,0.505,0.016919,66.813,0.505,0.00027677,0.0028793,-0.0016124,0,0.20682,0.14029,0
0,0.505,0.016917,66.817,0.505,0.0002785,0.0028685,-0.0016373,0,0.2058,0.14152,0
0,0.505,0.016919,66.81,0.505,0.0002798,0.002867,-0.0016609,0,0.2049,0.14249,0
0,0.505,0.016918,66.812,0.505,0.00028232,0.0028575,-0.0017001,0,0.20298,0.14452,0
0,0.505,0.016919,66.801,0.505,0.00028865,0.002845,-0.0018137,0,0.19746,0.15013,0
0,0.505,0.016919,66.797,0.505,0.00028961,0.0028444,-0.0018302,0,0.19649,0.15108,0
0,0.505,0.016918,66.805,0.505,0.00028575,0.00285,-0.0017605,0,0.20022,0.14738,0
0,0.505,0.01692,66.798,0.505,0.00028723,0.0028484,-0.0017891,0,0.19887,0.14873,0
0,0.505,0.016919,66.803,0.505,0.00028447,0.0028529,-0.0017379,0,0.20126,0.1463,0
0,0.505,0.016918,66.8,0.505,0.00029127,0.0028425,-0.0018588,0,0.19476,0.1528,0
0,0.505,0.016921,66.777,0.505,0.0002972,0.0028487,-0.001991,0,0.18657,0.16054,0
0,0.505,0.016908,66.839,0.505,-0.00052385,-0.00075212,-9.6859e-05,0,-0.22071,0.1242,0
0,0.505,0.016909,66.839,0.505,-0.00052277,-0.00079458,-5.9865e-05,0,-0.22174,0.12249,0
0,0.505,0.016884,66.879,0.505,-0.00034647,-0.0036042,-0.0010935,0,-0.26695,0.035758,0
0,0.505,0.016882,66.877,0.505,-0.00034433,-0.0036247,-0.0010954,0,-0.26715,0.035112,0
0,0.505,0.016834,66.805,0.505,-0.0002621,-0.0033935,-0.00054899,0,-0.2733,0.011853,0
0,0.505,0.016834,66.805,0.505,-0.00026204,-0.003391,-0.00054812,0,-0.27331,0.011836,0
0,0.505,0.016816,66.813,0.505,-0.0002515,-0.0028142,-0.00035327,0,-0.27401,0.0082681,0
0,0.505,0.016834,66.805,0.505,-0.00026214,-0.0033946,-0.00054964,0,-0.2733,0.011866,0
0,0.505,0.01681,66.823,0.505,-0.00024328,-0.0018465,-0.00016616,0,-0.27464,0.0045526,0
0,0.505,0.016809,66.825,0.505,-0.00024244,-0.0017638,-0.00014768,0,-0.27471,0.0042031,0
0,0.505,0.016809,66.826,0.505,-0.0002421,-0.0017112,-0.00013957,0,-0.27475,0.0040362,0
0,0.505,0.016842,66.823,0.505,-0.00027413,-0.0037174,-0.00071743,0,-0.27254,0.015354,0
0,0.505,0.016915,66.837,0.505,-0.00052158,-0.00084072,-1.9184e-05,0,-0.22294,0.12096,0
0,0.505,0.016916,66.838,0.505,-0.00052004,-0.00089156,2.5378e-05,0,-0.22437,0.11912,0
0,0.505,0.016914,66.833,0.505,-0.00052583,-0.00068223,-0.00017548,0,-0.218,0.12741,0
0,0.505,0.016912,66.836,0.505,-0.00052475,-0.0007199,-0.00013123,0,-0.21937,0.12573,0
0,0.505,0.016921,66.77,0.505,-0.00051155,-0.00023969,-0.0012872,0,-0.17942,0.16668,0
0,0.505,0.016919,66.757,0.505,-0.00051474,-0.00024722,-0.0012183,0,-0.18236,0.16434,0
0,0.505,0.016924,66.74,0.505,-0.00049712,-0.00020014,-0.0015762,0,-0.16792,0.17587,0
0,0.505,0.016919,66.744,0.505,-0.0004994,-0.00020024,-0.0015388,0,-0.16953,0.1747,0
0,0.505,0.016936,66.719,0.505,-0.00044384,-9.8402e-05,-0.0022108,0,-0.13836,0.195,0
0,0.505,0.016929,66.723,0.505,-0.00045139,-0.00011299,-0.0021534,0,-0.14191,0.19315,0
0,0.505,0.016925,66.694,0.505,-0.00036583,0.00014594,-0.0027191,0,-0.10721,0.21028,0
0,0.505,0.016926,66.706,0.505,-0.00037395,0.00013221,-0.0026764,0,-0.1102,0.20922,0
0,0.505,0.016928,66.705,0.505,-0.00037586,0.00012496,-0.0026653,0,-0.1109,0.20896,0
0,0.505,0.016933,66.71,0.505,-0.00038329,9.4405e-05,-0.0026272,0,-0.11358,0.20785,0
0,0.505,0.016932,66.714,0.505,-0.00041125,-3.957e-07,-0.0024639,0,-0.12441,0.20269,0
0,0.505,0.016935,66.707,0.505,-0.00041778,-1.5648e-05,-0.0024214,0,-0.12711,0.20133,0
0,0.505,0.016933,66.704,0.505,-0.00039373,5.7243e-05,-0.0025707,0,-0.1175,0.20601,0
0,0.505,0.016933,66.705,0.505,-0.00039432,5.542e-05,-0.0025677,0,-0.11772,0.2059,0
0,0.505,0.016925,66.694,0.505,-0.00036481,0.00014878,-0.0027223,0,-0.10684,0.21043,0
0,0.505,0.016935,66.707,0.505,-0.00034665,0.00019941,-0.0027798,0,-0.10029,0.21315,0
0,0.505,0.016929,66.698,0.505,-0.0003535,0.0001739,-0.0027673,0,-0.10262,0.21215,0
0,0.505,0.016933,66.71,0.505,-0.00038536,8.737e-05,-0.0026163,0,-0.11436,0.20751,0
0,0.505,0.016933,66.703,0.505,-0.00039632,4.8854e-05,-0.0025562,0,-0.1185,0.20553,0
0,0.505,0.016929,66.711,0.505,-0.00040293,2.8988e-05,-0.0025167,0,-0.12107,0.20433,0
0,0.505,0.01693,66.708,0.505,-0.00040527,2.119e-05,-0.0025014,0,-0.122,0.20386,0
0,0.505,0.016932,66.708,0.505,-0.00041939,-1.8093e-05,-0.0024126,0,-0.1278,0.201,0
0,0.505,0.016928,66.715,0.505,-0.00043225,-4.9194e-05,-0.0023142,0,-0.13322,0.19788,0
0,0.505,0.016926,66.721,0.505,-0.00043492,-5.9827e-05,-0.0022921,0,-0.13437,0.19722,0
0,0.505,0.01693,66.718,0.505,-0.00042732,-3.3413e-05,-0.0023522,0,-0.13115,0.19916,0
0,0.505,0.016924,66.7,0.505,-0.00035601,0.0001656,-0.0027643,0,-0.10353,0.2118,0
0,0.505,0.016886,66.914,0.505,-0.00038824,-0.0030391,-0.00083837,0,-0.26208,0.049697,0
0,0.505,0.016885,66.907,0.505,-0.00037896,-0.0031724,-0.00093165,0,-0.2632,0.046402,0
0,0.505,0.016891,66.906,0.505,-0.00039767,-0.0029131,-0.00074761,0,-0.26073,0.05321,0
0,0.505,0.016891,66.905,0.505,-0.00039706,-0.0029219,-0.00075413,0,-0.26082,0.052978,0
0,0.505,0.016891,66.905,0.505,-0.00039824,-0.0029043,-0.00074098,0,-0.26063,0.053441,0
0,0.505,0.016851,66.827,0.505,-0.0002866,-0.0038795,-0.00086485,0,-0.27169,0.018809,0
0,0.505,0.016851,66.826,0.505,-0.00028585,-0.0038683,-0.00085616,0,-0.27175,0.018597,0
0,0.505,0.016864,66.853,0.505,-0.00030921,-0.0039056,-0.0010354,0,-0.2701,0.024971,0
0,0.505,0.016859,66.849,0.505,-0.0002991,-0.0039227,-0.00096891,0,-0.27084,0.022198,0
0,0.505,0.016864,66.857,0.505,-0.0003113,-0.0038943,-0.0010456,0,-0.26996,0.025534,0
0,0.505,0.016852,66.828,0.505,-0.00028724,-0.003884,-0.00087115,0,-0.27165,0.018988,0
0,0.505,0.016866,66.856,0.505,-0.00031421,-0.0038742,-0.0010562,0,-0.26973,0.026347,0
0,0.505,0.016867,66.87,0.505,-0.00032318,-0.0038186,-0.0010833,0,-0.26901,0.028855,0
0,0.505,0.016873,66.878,0.505,-0.00033488,-0.0037204,-0.0010999,0,-0.26803,0.032232,0
0,0.505,0.01687,66.871,0.505,-0.00032902,-0.0037767,-0.0010944,0,-0.26853,0.030535,0
0,0.505,0.016805,66.828,0.505,-0.00024155,-0.0015716,-0.0001239,0,-0.27482,0.0034714,0
0,0.505,0.016892,66.912,0.505,-0.00040691,-0.0027789,-0.00064373,0,-0.25928,0.056839,0
0,0.505,0.016897,66.906,0.505,-0.0004367,-0.002343,-0.00024993,0,-0.25372,0.06952,0
0,0.505,0.016895,66.911,0.505,-0.00043243,-0.0024006,-0.00031361,0,-0.25464,0.067545,0
0,0.505,0.016896,66.905,0.505,-0.00044056,-0.0022907,-0.00020257,0,-0.25293,0.071217,0
0,0.505,0.016899,66.902,0.505,-0.0004489,-0.0021722,-0.00010037,0,-0.25108,0.075106,0
0,0.505,0.016898,66.904,0.505,-0.00044536,-0.0022219,-0.00013901,0,-0.25185,0.073507,0
0,0.505,0.016899,66.9,0.505,-0.0004573,-0.0020466,-9.9324e-07,0,-0.24912,0.079144,0
0,0.505,0.016898,66.903,0.505,-0.00045298,-0.0021067,-4.596e-05,0,-0.25012,0.077119,0
0,0.505,0.016904,66.885,0.505,-0.00048035,-0.0017015,0.00020499,0,-0.24271,0.091056,0
0,0.505,0.016903,66.884,0.505,-0.00047526,-0.0017827,0.00017116,0,-0.24426,0.088269,0
0,0.505,0.016907,66.863,0.505,-0.00050241,-0.0013122,0.00023561,0,-0.2345,0.10438,0
0,0.505,0.016905,66.874,0.505,-0.0004978,-0.0013984,0.00025216,0,-0.23641,0.1014,0
0,0.505,0.016907,66.864,0.505,-0.00050738,-0.0012074,0.00020528,0,-0.2321,0.108,0
0,0.505,0.016908,66.86,0.505,-0.00050408,-0.0012793,0.00022692,0,-0.23374,0.10555,0
0,0.505,0.016913,66.832,0.505,-0.00052666,-0.00063973,-0.00022054,0,-0.21648,0.12899,0
0,0.505,0.016913,66.808,0.505,-0.00052896,-0.00048827,-0.00043939,0,-0.21007,0.13642,0
0,0.505,0.016913,66.808,0.505,-0.00052894,-0.00049053,-0.00043545,0,-0.21018,0.13629,0
0,0.505,0.016911,66.821,0.505,-0.00052833,-0.00053994,-0.00034966,0,-0.21268,0.13358,0
0,0.505,0.016911,66.822,0.505,-0.000528,-0.00056081,-0.00031848,0,-0.21361,0.13244,0
0,0.505,0.016908,66.851,0.505,-0.00051577,-0.0010047,0.00010723,0,-0.2275,0.11477,0
0,0.505,0.016907,66.854,0.505,-0.00051545,-0.0010112,0.00011284,0,-0.2277,0.11449,0
0,0.505,0.016908,66.852,0.505,-0.00051511,-0.0010208,0.00011689,0,-0.22791,0.11419,0
0,0.505,0.016906,66.865,0.505,-0.00051139,-0.0011122,0.00016636,0,-0.22994,0.11121,0
0,0.505,0.016908,66.86,0.505,-0.00050891,-0.0011735,0.00019027,0,-0.23133,0.10916,0
0,0.505,0.016904,66.884,0.505,-0.00048144,-0.0016838,0.00020899,0,-0.24237,0.091633,0
0,0.505,0.016901,66.885,0.505,-0.00048643,-0.0015935,0.00023499,0,-0.24066,0.094466,0
0,0.505,0.016902,66.885,0.505,-0.00047401,-0.0018014,0.00016353,0,-0.24464,0.087604,0
0,0.505,0.016902,66.885,0.505,-0.00047377,-0.0018053,0.00016094,0,-0.24471,0.087468,0
0,0.505,0.016903,66.874,0.505,-0.0004954,-0.0014415,0.00025144,0,-0.23739,0.099813,0
0,0.505,0.016901,66.879,0.505,-0.00049229,-0.0014954,0.00025267,0,-0.23855,0.097936,0
0,0.505,0.016902,66.882,0.505,-0.00048849,-0.0015583,0.00023965,0,-0.23996,0.095628,0
0,0.505,0.016911,66.845,0.505,-0.00051895,-0.00091873,5.1248e-05,0,-0.22526,0.11786,0
0,0.505,0.016907,66.864,0.505,-0.00050294,-0.0013012,0.00023477,0,-0.23427,0.10476,0
0,0.505,0.016901,66.894,0.505,-0.00046722,-0.0019009,0.00010845,0,-0.24653,0.084129,0
0,0.505,0.016901,66.894,0.505,-0.00046563,-0.0019256,8.9134e-05,0,-0.24698,0.083278,0
0,0.505,0.0169,66.9,0.505,-0.0004602,-0.0020023,3.8132e-05,0,-0.24836,0.080636,0
0,0.505,0.016895,66.908,0.505,-0.00041576,-0.0026525,-0.00053687,0,-0.25779,0.06042,0
0,0.505,0.016895,66.907,0.505,-0.00041382,-0.0026791,-0.00055888,0,-0.25811,0.059651,0
0,0.505,0.016897,66.906,0.505,-0.00041907,-0.002605,-0.00049569,0,-0.2572,0.061788,0
0,0.505,0.016896,66.908,0.505,-0.0004264,-0.00249,-0.00039371,0,-0.25582,0.06494,0
0,0.505,0.016897,66.91,0.505,-0.00042425,-0.0025241,-0.00042566,0,-0.25626,0.063988,0
0,0.505,0.016885,66.907,0.505,-0.00037868,-0.0031759,-0.00093387,0,-0.26323,0.04631,0
0,0.505,0.016885,66.906,0.505,-0.00037822,-0.0031826,-0.00093752,0,-0.26329,0.046157,0
0,0.505,0.016891,66.905,0.505,-0.00036859,-0.0033242,-0.0010089,0,-0.2645,0.042934,0
0,0.505,0.016893,66.897,0.505,-0.00036379,-0.003399,-0.0010372,0,-0.26507,0.041337,0
0,0.505,0.016888,66.892,0.505,-0.00035776,-0.0034693,-0.0010613,0,-0.26583,0.039384,0
0,0.505,0.016884,66.879,0.505,-0.00034778,-0.0035913,-0.0010915,0,-0.26683,0.036183,0
0,0.505,0.016919,66.758,0.505,-0.00051497,-0.00024784,-0.0012133,0,-0.18258,0.16415,0
0,0.505,0.016916,66.774,0.505,-0.00051755,-0.00025151,-0.0011361,0,-0.18539,0.16151,0
0,0.505,0.01692,66.774,0.505,-0.00052035,-0.00026773,-0.0010535,0,-0.18839,0.15859,0
0,0.505,0.01692,66.773,0.505,-0.00052054,-0.00026875,-0.0010467,0,-0.18865,0.15834,0
0,0.505,0.016925,66.744,0.505,-0.00050262,-0.00020882,-0.0014744,0,-0.1719,0.17279,0
0,0.505,0.016925,66.751,0.505,-0.0005045,-0.00021139,-0.0014337,0,-0.17331,0.17164,0
0,0.505,0.016918,66.744,0.505,-0.00050022,-0.00020167,-0.0015246,0,-0.17017,0.17419,0
0,0.505,0.016932,66.687,0.505,0.00011712,0.001816,-0.0028516,0,0.058738,0.22564,0
0,0.505,0.016932,66.695,0.505,0.00010954,0.0017856,-0.0028473,0,0.055663,0.22629,0
0,0.505,0.01694,66.683,0.505,4.1207e-05,0.0014681,-0.0029137,0,0.0295,0.23035,0
0,0.505,0.016941,66.694,0.505,3.3416e-05,0.0014279,-0.0029147,0,0.026698,0.23064,0
0,0.505,0.016937,66.7,0.505,0.00015184,0.001971,-0.0028691,0,0.073178,0.22216,0
0,0.505,0.016929,66.692,0.505,0.00014555,0.0019454,-0.0028728,0,0.070478,0.22291,0
0,0.505,0.016934,66.687,0.505,-0.000114,0.00075766,-0.0029992,0,-0.023072,0.23094,0
0,0.505,0.016937,66.681,0.505,-0.00011949,0.0007384,-0.0029964,0,-0.024855,0.23077,0
0,0.505,0.016935,66.686,0.505,-0.0001248,0.00071927,-0.0029935,0,-0.026593,0.23061,0
0,0.505,0.016937,66.681,0.505,-0.0001031,0.00079737,-0.0029998,0,-0.019506,0.2312,0
0,0.505,0.016941,66.676,0.505,-0.00015446,0.00061464,-0.0029736,0,-0.036246,0.2295,0
0,0.505,0.01694,66.678,0.505,-0.00015579,0.00061057,-0.0029731,0,-0.036679,0.22944,0
0,0.505,0.016933,66.681,0.505,-0.00016602,0.00058248,-0.002972,0,-0.039958,0.22895,0
0,0.505,0.016935,66.671,0.505,-0.00017097,0.00057243,-0.00297,0,-0.041673,0.22868,0
0,0.505,0.016932,66.673,0.505,-0.00017527,0.00056314,-0.0029701,0,-0.043165,0.22845,0
0,0.505,0.016929,66.679,0.505,-0.00018208,0.00055587,-0.0029644,0,-0.045523,0.22806,0
0,0.505,0.016932,66.68,0.505,-0.00018631,0.00054429,-0.0029564,0,-0.046941,0.22787,0
0,0.505,0.016933,66.688,0.505,-0.00019342,0.00052651,-0.0029432,0,-0.049219,0.22741,0
0,0.505,0.016941,66.689,0.505,-0.00019935,0.00050935,-0.0029296,0,-0.051119,0.22705,0
0,0.505,0.016934,66.684,0.505,-0.00023594,0.00043548,-0.0029165,0,-0.063183,0.22452,0
0,0.505,0.016934,66.683,0.505,-0.0002367,0.00043339,-0.0029158,0,-0.063429,0.22447,0
0,0.505,0.016941,66.696,0.505,-0.0003127,0.00027327,-0.0028557,0,-0.08863,0.21751,0
0,0.505,0.016932,66.697,0.505,-0.00031831,0.00026473,-0.0028597,0,-0.090486,0.21684,0
0,0.505,0.016935,66.703,0.505,-0.00030109,0.00030998,-0.0028699,0,-0.084874,0.21873,0
0,0.505,0.016938,66.701,0.505,-0.0003074,0.00029132,-0.002861,0,-0.086923,0.21809,0
0,0.505,0.016928,66.678,0.505,-0.00028208,0.0003527,-0.002918,0,-0.078466,0.22075,0
0,0.505,0.016931,66.691,0.505,-0.00029062,0.00033753,-0.0028916,0,-0.081495,0.21973,0
0,0.505,0.016942,66.688,0.505,-0.00025727,0.00038049,-0.0029019,0,-0.070083,0.22294,0
0,0.505,0.016943,66.69,0.505,-0.00025844,0.00037766,-0.0029009,0,-0.070468,0.22285,0
0,0.505,0.01693,66.698,0.505,-0.00024647,0.00041144,-0.0029095,0,-0.066603,0.22374,0
0,0.505,0.016929,66.69,0.505,-0.00032499,0.00025898,-0.0028515,0,-0.092813,0.21608,0
0,0.505,0.016915,66.686,0.505,-0.00022597,0.00045791,-0.0029464,0,-0.059821,0.2253,0
0,0.505,0.016931,66.682,0.505,-0.00023483,0.00043852,-0.0029205,0,-0.062809,0.2246,0
0,0.505,0.016927,66.682,0.505,-0.00021609,0.00046589,-0.0029431,0,-0.056369,0.22604,0
0,0.505,0.016924,66.679,0.505,-0.00021887,0.00046283,-0.0029457,0,-0.057345,0.22582,0
0,0.505,0.016941,66.697,0.505,-0.00020511,0.00048692,-0.0029227,0,-0.052928,0.22673,0
0,0.505,0.016933,66.68,0.505,-0.00021363,0.00046987,-0.0029377,0,-0.055586,0.22621,0
0,0.505,0.016939,66.675,0.505,-0.00015776,0.00060499,-0.0029735,0,-0.037312,0.22933,0
0,0.505,0.016942,66.68,0.505,-5.0779e-05,0.0010172,-0.0029862,0,-0.0022612,0.23193,0
0,0.505,0.016937,66.69,0.505,-6.0387e-05,0.00098255,-0.0029923,0,-0.0054416,0.23188,0
0,0.505,0.016933,66.692,0.505,9.2121e-05,0.0017068,-0.0028525,0,0.048732,0.22761,0
0,0.505,0.016935,66.686,0.505,8.7945e-05,0.001687,-0.002856,0,0.047089,0.22791,0
0,0.505,0.016935,66.688,0.505,7.4387e-05,0.0016224,-0.0028688,0,0.041889,0.22876,0
0,0.505,0.016937,66.686,0.505,7.2039e-05,0.0016101,-0.0028718,0,0.040988,0.22891,0
0,0.505,0.016933,66.693,0.505,8.3329e-05,0.0016647,-0.0028601,0,0.045295,0.22823,0
0,0.505,0.016936,66.685,0.505,7.7559e-05,0.0016377,-0.0028661,0,0.043102,0.22857,0
0,0.505,0.016934,66.681,0.505,5.7193e-05,0.0015319,-0.0029021,0,0.035445,0.22979,0
0,0.505,0.016934,66.681,0.505,5.6081e-05,0.0015267,-0.002903,0,0.035039,0.22984,0
0,0.505,0.016926,66.695,0.505,0.00014334,0.0019361,-0.0028735,0,0.06954,0.22319,0
0,0.505,0.016936,66.694,0.505,0.00013314,0.0018946,-0.0028501,0,0.065291,0.22406,0
0,0.505,0.016929,66.702,0.505,0.00012659,0.0018584,-0.0028487,0,0.062617,0.22477,0
0,0.505,0.016936,66.697,0.505,0.00013492,0.001904,-0.0028508,0,0.066018,0.22388,0
0,0.505,0.016935,66.709,0.505,0.00020106,0.0021566,-0.0029234,0,0.095111,0.21523,0
0,0.505,0.016936,66.708,0.505,0.00019974,0.0021514,-0.0029226,0,0.09449,0.21545,0
0,0.505,0.016931,66.705,0.505,0.00019167,0.0021091,-0.0029254,0,0.090856,0.2167,0
0,0.505,0.016926,66.696,0.505,0.00018486,0.0020842,-0.0029219,0,0.087737,0.21757,0
0,0.505,0.016932,66.705,0.505,0.00020844,0.0021847,-0.0029274,0,0.098549,0.21388,0
0,0.505,0.016932,66.705,0.505,0.00020803,0.0021831,-0.002927,0,0.098349,0.21396,0
0,0.505,0.016933,66.706,0.505,0.00019325,0.0021163,-0.0029243,0,0.091588,0.21645,0
0,0.505,0.016932,66.707,0.505,0.00021566,0.0022112,-0.002928,0,0.10199,0.21255,0
0,0.505,0.016933,66.704,0.505,0.00021183,0.0021974,-0.0029278,0,0.10017,0.21325,0
0,0.505,0.016932,66.69,0.505,0.00016026,0.0020031,-0.0028881,0,0.076843,0.22122,0
0,0.505,0.016935,66.69,0.505,0.00015876,0.0019982,-0.0028835,0,0.076175,0.2214,0
0,0.505,0.016932,66.691,0.505,0.0001387,0.001919,-0.002862,0,0.067604,0.22357,0
0,0.505,0.016933,66.69,0.505,0.00016217,0.00201,-0.0028895,0,0.077694,0.22095,0
0,0.505,0.016932,66.702,0.505,0.00016854,0.0020296,-0.0028977,0,0.080478,0.22003,0
0,0.505,0.016933,66.694,0.505,0.00017312,0.0020492,-0.0029011,0,0.082396,0.21937,0
0,0.505,0.016931,66.688,0.505,0.00011896,0.0018234,-0.0028522,0,0.059478,0.22548,0
0,0.505,0.016931,66.689,0.505,0.00011818,0.0018201,-0.002852,0,0.059161,0.22556,0
0,0.505,0.016917,66.779,0.505,-0.00052327,-0.00028645,-0.00095398,0,-0.19234,0.15489,0
0,0.505,0.016917,66.794,0.505,-0.00052471,-0.00030088,-0.00088408,0,-0.19486,0.15265,0
0,0.505,0.016921,66.771,0.505,-0.00052,-0.00026626,-0.0010651,0,-0.18796,0.15897,0
0,0.505,0.016918,66.794,0.505,-0.00052628,-0.00032509,-0.00081232,0,-0.19765,0.14998,0
0,0.505,0.01692,66.79,0.505,-0.00052701,-0.00034174,-0.00076768,0,-0.19931,0.14832,0
0,0.505,0.016917,66.779,0.505,-0.00052299,-0.00028329,-0.00096351,0,-0.19196,0.15526,0
0,0.505,0.016919,66.789,0.505,-0.00052591,-0.00032,-0.00083587,0,-0.19684,0.15079,0
0,0.505,0.016918,66.796,0.505,-0.00052756,-0.0003529,-0.00072917,0,-0.20069,0.14693,0
0,0.505,0.016917,66.797,0.505,-0.00052774,-0.00035837,-0.00071527,0,-0.2012,0.1464,0
0,0.505,0.016919,66.774,0.505,-0.00052175,-0.00027604,-0.0010064,0,-0.19025,0.15682,0
0,0.505,0.016913,66.806,0.505,-0.00052898,-0.00048451,-0.00044782,0,-0.20984,0.13668,0
0,0.505,0.016914,66.797,0.505,-0.0005288,-0.0004075,-0.00059091,0,-0.20506,0.14196,0
0,0.505,0.016911,66.807,0.505,-0.000529,-0.00044129,-0.00052218,0,-0.20757,0.13946,0
0,0.505,0.016917,66.794,0.505,-0.00052837,-0.0003828,-0.00065455,0,-0.20303,0.14423,0
0,0.505,0.016915,66.799,0.505,-0.00052869,-0.00039647,-0.00061558,0,-0.20417,0.14294,0
0,0.505,0.016915,66.797,0.505,-0.00052874,-0.00039955,-0.00060869,0,-0.20445,0.14263,0
0,0.505,0.016913,66.829,0.505,-0.00052731,-0.00060713,-0.00025855,0,-0.2153,0.13036,0
0,0.505,0.016929,66.73,0.505,-0.00047295,-0.00015026,-0.001912,0,-0.15314,0.18615,0
0,0.505,0.016926,66.738,0.505,-0.00047804,-0.00015745,-0.0018535,0,-0.15598,0.18432,0
0,0.505,0.016926,66.736,0.505,-0.00048256,-0.00017037,-0.001796,0,-0.15854,0.1825,0
0,0.505,0.016924,66.742,0.505,-0.00048422,-0.00017382,-0.0017747,0,-0.1595,0.18179,0
0,0.505,0.016924,66.74,0.505,-0.0004856,-0.00017744,-0.0017567,0,-0.16031,0.1812,0
0,0.505,0.01692,66.747,0.505,-0.00048996,-0.0001837,-0.0016883,0,-0.16307,0.17925,0
0,0.505,0.016929,66.731,0.505,-0.00047128,-0.00014772,-0.0019302,0,-0.1522,0.18675,0
0,0.505,0.016924,66.749,0.505,-0.00050529,-0.00021378,-0.0014202,0,-0.17399,0.17108,0
0,0.505,0.01692,66.758,0.505,-0.00050796,-0.00022406,-0.0013708,0,-0.17621,0.16925,0
0,0.505,0.016922,66.764,0.505,-0.00050969,-0.00023295,-0.0013286,0,-0.17774,0.16797,0
0,0.505,0.016924,66.741,0.505,-0.00049341,-0.00019556,-0.0016397,0,-0.16528,0.17772,0
0,0.505,0.016924,66.745,0.505,-0.00049472,-0.00019712,-0.0016172,0,-0.16619,0.17709,0
0,0.505,0.016923,66.726,0.505,-0.00046432,-0.00012674,-0.0020175,0,-0.14859,0.18906,0
0,0.505,0.016929,66.725,0.505,-0.00046935,-0.00014366,-0.0019563,0,-0.15117,0.18743,0
0,0.505,0.016919,66.758,0.505,-0.00051485,-0.00024736,-0.0012162,0,-0.18246,0.16425,0
0,0.505,0.016935,66.719,0.505,-0.00044296,-9.5095e-05,-0.0022188,0,-0.13796,0.19522,0
0,0.505,0.016935,66.719,0.505,-0.00044354,-9.7555e-05,-0.0022133,0,-0.13822,0.19508,0
0,0.505,0.016935,66.719,0.505,-0.00044365,-9.7825e-05,-0.0022122,0,-0.13827,0.19506,0
0,0.505,0.016934,66.684,0.505,-8.3936e-05,0.00087086,-0.0029957,0,-0.013227,0.23158,0
0,0.505,0.016943,66.681,0.505,-4.9585e-05,0.0010216,-0.0029848,0,-0.0018634,0.23193,0
0,0.505,0.016942,66.681,0.505,-4.9988e-05,0.0010198,-0.0029859,0,-0.0019946,0.23193,0
0,0.505,0.016769,66.832,0.505,-0.00023428,0.0016466,-8.6804e-05,0,0.27522,0.0020346,0
0,0.505,0.016774,66.821,0.505,-0.00023223,0.0021636,-0.00013711,0,0.27516,0.0036806,0
0,0.505,0.016846,66.799,0.505,-0.0001495,0.0057295,-0.0013227,0,0.27081,0.022221,0
0,0.505,0.016847,66.8,0.505,-0.00014801,0.0057371,-0.0013343,0,0.27072,0.022515,0
0,0.505,0.016866,66.819,0.505,-0.00013256,0.0057874,-0.0014417,0,0.2699,0.02561,0
0,0.505,0.01686,66.83,0.505,-0.00012193,0.0057484,-0.0014929,0,0.26929,0.027631,0
0,0.505,0.016863,66.843,0.505,-0.00010936,0.0057361,-0.0015544,0,0.26866,0.029997,0
0,0.505,0.016827,66.787,0.505,-0.00017606,0.0054309,-0.0010709,0,0.27215,0.017422,0
0,0.505,0.016827,66.796,0.505,-0.00017161,0.005508,-0.0011185,0,0.27192,0.018264,0
0,0.505,0.016829,66.797,0.505,-0.00016886,0.0055516,-0.001149,0,0.27179,0.01878,0
0,0.505,0.016825,66.778,0.505,-0.00019037,0.0051919,-0.00090812,0,0.27284,0.014751,0
0,0.505,0.016799,66.771,0.505,-0.00021252,0.0042611,-0.00055071,0,0.27387,0.0096826,0
0,0.505,0.016807,66.771,0.505,-0.00020796,0.004552,-0.00063099,0,0.27361,0.010812,0
0,0.505,0.016808,66.772,0.505,-0.00020391,0.0046789,-0.00069108,0,0.27345,0.011652,0
0,0.505,0.016779,66.806,0.505,-0.00022897,0.0026015,-0.00020765,0,0.27496,0.0047448,0
0,0.505,0.016784,66.784,0.505,-0.00022245,0.0035683,-0.00035714,0,0.27439,0.0072083,0
0,0.505,0.016864,66.854,0.505,-9.8306e-05,0.0056788,-0.0015845,0,0.26806,0.031954,0
0,0.505,0.016873,66.866,0.505,-7.518e-05,0.0055741,-0.0016152,0,0.26689,0.036336,0
0,0.505,0.016889,66.863,0.505,-5.5795e-05,0.0054786,-0.0016164,0,0.26556,0.040356,0
0,0.505,0.01687,66.862,0.505,-8.3486e-05,0.0056278,-0.0016089,0,0.26739,0.034709,0
0,0.505,0.01689,66.879,0.505,-1.3823e-05,0.0051965,-0.0015305,0,0.26245,0.048867,0
0,0.505,0.01689,66.88,0.505,-1.3289e-05,0.0051927,-0.0015288,0,0.26241,0.048975,0
0,0.505,0.016889,66.863,0.505,-5.55e-05,0.0054766,-0.0016158,0,0.26555,0.040417,0
0,0.505,0.016889,66.864,0.505,-5.4573e-05,0.0054701,-0.0016148,0,0.26548,0.04061,0
0,0.505,0.01689,66.88,0.505,-1.3159e-05,0.005192,-0.0015282,0,0.2624,0.049007,0
0,0.505,0.016902,66.886,0.505,3.6478e-06,0.0050863,-0.0014592,0,0.26094,0.053097,0
0,0.505,0.01688,66.878,0.505,-3.5457e-05,0.0053361,-0.0015906,0,0.2641,0.04459,0
0,0.505,0.016881,66.882,0.505,-3.1165e-05,0.0053122,-0.0015818,0,0.26375,0.045426,0
0,0.505,0.016896,66.89,0.505,5.5676e-06,0.0050678,-0.0014488,0,0.26079,0.053541,0
0,0.505,0.016912,66.843,0.505,0.00024457,0.0031131,-0.0011987,0,0.22179,0.1224,0
0,0.505,0.016912,66.841,0.505,0.00024592,0.0031008,-0.0012124,0,0.22131,0.12303,0
0,0.505,0.016912,66.842,0.505,0.00024085,0.003148,-0.0011644,0,0.22308,0.12072,0
0,0.505,0.016911,66.848,0.505,0.00023671,0.0031841,-0.0011261,0,0.22444,0.11894,0
0,0.505,0.016911,66.848,0.505,0.00023778,0.0031746,-0.0011345,0,0.22411,0.11938,0
0,0.505,0.01691,66.856,0.505,0.00022706,0.0032742,-0.0010512,0,0.22732,0.115,0
0,0.505,0.016909,66.857,0.505,0.00023041,0.0032426,-0.0010738,0,0.22637,0.11634,0
0,0.505,0.016905,66.874,0.505,0.00018636,0.0036514,-0.0008763,0,0.23704,0.10055,0
0,0.505,0.016907,66.867,0.505,0.00019427,0.0035812,-0.00089616,0,0.2354,0.10313,0
0,0.505,0.016909,66.862,0.505,0.00021438,0.0033959,-0.00097338,0,0.23072,0.11016,0
0,0.505,0.01691,66.86,0.505,0.00021685,0.0033721,-0.00098769,0,0.23009,0.11107,0
0,0.505,0.016905,66.873,0.505,0.00018178,0.0036947,-0.00087324,0,0.23794,0.099063,0
0,0.505,0.016907,66.867,0.505,0.00019634,0.0035629,-0.00089976,0,0.23496,0.10382,0
0,0.505,0.016899,66.883,0.505,0.00014746,0.0039894,-0.00087714,0,0.24414,0.08887,0
0,0.505,0.016898,66.887,0.505,0.00015136,0.0039527,-0.00087082,0,0.24346,0.090004,0
0,0.505,0.016903,66.887,0.505,0.00013817,0.0040758,-0.0008946,0,0.24563,0.08629,0
0,0.505,0.016899,66.885,0.505,0.00015446,0.0039265,-0.00086898,0,0.24293,0.090848,0
0,0.505,0.016899,66.88,0.505,0.00016426,0.0038494,-0.00085748,0,0.24125,0.093623,0
0,0.505,0.016902,66.885,0.505,0.00013023,0.004144,-0.00090801,0,0.24674,0.084045,0
0,0.505,0.016901,66.888,0.505,0.00012423,0.0041921,-0.00092693,0,0.24763,0.082332,0
0,0.505,0.016897,66.897,0.505,9.9045e-05,0.0043857,-0.0010159,0,0.25096,0.075793,0
0,0.505,0.016896,66.893,0.505,0.00010855,0.0043126,-0.00098136,0,0.24977,0.078178,0
0,0.505,0.016899,66.891,0.505,0.00011492,0.0042633,-0.00095444,0,0.24894,0.079855,0
0,0.505,0.016909,66.861,0.505,0.00022261,0.0033168,-0.0010201,0,0.22856,0.11326,0
0,0.505,0.016909,66.859,0.505,0.00020441,0.0034907,-0.00092973,0,0.23315,0.10657,0
0,0.505,0.016909,66.86,0.505,0.00020569,0.0034786,-0.00093419,0,0.23285,0.10701,0
0,0.505,0.016913,66.842,0.505,0.00025093,0.0030575,-0.0012643,0,0.21945,0.12541,0
0,0.505,0.016915,66.834,0.505,0.00025498,0.0030232,-0.0013119,0,0.21782,0.12742,0
0,0.505,0.016917,66.82,0.505,0.00027108,0.0029111,-0.0015262,0,0.20998,0.13652,0
0,0.505,0.016917,66.824,0.505,0.00027402,0.0028933,-0.0015704,0,0.20838,0.13844,0
0,0.505,0.01691,66.86,0.505,0.000206,0.0034757,-0.00093563,0,0.23278,0.10712,0
0,0.505,0.01693,66.697,0.505,0.00017675,0.0020633,-0.002906,0,0.083929,0.21884,0
0,0.505,0.016927,66.695,0.505,0.00018334,0.0020782,-0.0029188,0,0.08703,0.21781,0
0,0.505,0.016931,66.711,0.505,0.00023151,0.0022691,-0.002918,0,0.10999,0.20939,0
0,0.505,0.01693,66.712,0.505,0.00022969,0.0022635,-0.0029201,0,0.10903,0.20979,0
0,0.505,0.01693,66.716,0.505,0.00023986,0.0023043,-0.0029049,0,0.1144,0.20738,0
0,0.505,0.016931,66.719,0.505,0.00023615,0.0022851,-0.0029093,0,0.11249,0.20827,0
0,0.505,0.01693,66.722,0.505,0.00024224,0.0023174,-0.0028989,0,0.11564,0.20675,0
0,0.505,0.016933,66.71,0.505,0.00022387,0.0022431,-0.0029227,0,0.10604,0.21094,0
0,0.505,0.016927,66.741,0.505,0.00028382,0.0025599,-0.0026581,0,0.14301,0.19252,0
0,0.505,0.016934,66.72,0.505,0.00025595,0.0023811,-0.0028536,0,0.1234,0.20292,0
0,0.505,0.016934,66.72,0.505,0.00025558,0.0023792,-0.0028548,0,0.12318,0.20301,0
0,0.505,0.01692,66.764,0.505,0.00030104,0.0027973,-0.0022347,0,0.17028,0.174,0
0,0.505,0.0169,66.877,0.505,0.00016878,0.0038098,-0.00086007,0,0.24042,0.094962,0
0,0.505,0.016904,66.877,0.505,0.0001757,0.0037496,-0.00086381,0,0.23912,0.097157,0
0,0.505,0.016915,66.828,0.505,0.00026008,0.002982,-0.0013761,0,0.21561,0.13001,0
0,0.505,0.016914,66.829,0.505,0.00026244,0.002961,-0.0014056,0,0.21449,0.13132,0
0,0.505,0.016916,66.824,0.505,0.00026514,0.0029439,-0.0014413,0,0.21309,0.1329,0
0,0.505,0.016915,66.825,0.505,0.00026792,0.0029257,-0.0014771,0,0.21164,0.13459,0
0,0.505,0.016914,66.836,0.505,0.00025696,0.0030064,-0.0013346,0,0.21703,0.12841,0
0,0.505,0.016916,66.826,0.505,0.00026892,0.0029225,-0.0014904,0,0.21116,0.1352,0
0,0.505,0.016934,66.694,0.505,6.5373e-05,0.0015737,-0.0028834,0,0.038498,0.22932,0
0,0.505,0.016935,66.688,0.505,-0.00014576,0.00064577,-0.0029793,0,-0.033422,0.22987,0
0,0.505,0.016938,66.681,0.505,-0.00013533,0.00068163,-0.0029871,0,-0.030032,0.23027,0
0,0.505,0.016939,66.679,0.505,-0.00013715,0.00067526,-0.0029858,0,-0.030617,0.2302,0
0,0.505,0.016939,66.678,0.505,-0.00013258,0.00069112,-0.0029889,0,-0.029135,0.23036,0
0,0.505,0.016938,66.678,0.505,-0.00010537,0.00078873,-0.0029998,0,-0.020253,0.23114,0
0,0.505,0.016932,66.688,0.505,-8.1491e-05,0.00088038,-0.0029957,0,-0.012433,0.23163,0
0,0.505,0.016938,66.684,0.505,-6.618e-05,0.00095716,-0.0029893,0,-0.0073527,0.23181,0
0,0.505,0.016925,66.712,0.505,0.00024848,0.0023478,-0.0028848,0,0.11899,0.205,0
0,0.505,0.016932,66.71,0.505,0.00022274,0.0022394,-0.0029244,0,0.10548,0.21117,0
0,0.505,0.016932,66.707,0.505,0.00021615,0.002213,-0.0029277,0,0.10223,0.21245,0
0,0.505,0.016935,66.718,0.505,0.00025823,0.0023947,-0.0028434,0,0.12475,0.2023,0
0,0.505,0.016925,66.712,0.505,0.0002485,0.0023479,-0.0028848,0,0.119,0.205,0
0,0.505,0.016942,66.69,0.505,2.9578e-05,0.0014044,-0.0029155,0,0.025343,0.23076,0
0,0.505,0.016931,66.699,0.505,2.3154e-05,0.0013657,-0.0029345,0,0.023126,0.2309,0
0,0.505,0.016934,66.683,0.505,4.5218e-05,0.0014864,-0.002917,0,0.030947,0.23021,0
0,0.505,0.016935,66.684,0.505,4.414e-05,0.0014816,-0.0029161,0,0.03054,0.23024,0
0,0.505,0.016935,66.679,0.505,5.1539e-05,0.0015103,-0.0029087,0,0.033327,0.22999,0
0,0.505,0.016926,66.712,0.505,-0.00045882,-0.00011714,-0.002089,0,-0.14576,0.19096,0
0,0.505,0.016927,66.711,0.505,-0.00045699,-0.00011485,-0.0021064,0,-0.14481,0.19154,0
0,0.505,0.016924,66.712,0.505,-0.00045795,-0.00011427,-0.0020995,0,-0.1453,0.19125,0
0,0.505,0.016939,66.694,0.505,-0.00033922,0.00022665,-0.0028009,0,-0.097845,0.21416,0
0,0.505,0.016937,66.682,0.505,-0.00027234,0.00035871,-0.0029154,0,-0.074936,0.2217,0
0,0.505,0.016928,66.678,0.505,-0.00028191,0.00035313,-0.0029183,0,-0.078407,0.22077,0
0,0.505,0.016936,66.69,0.505,-0.00029449,0.00032569,-0.0028801,0,-0.082784,0.2194,0
0,0.505,0.016938,66.689,0.505,-0.00033443,0.00023886,-0.0028173,0,-0.096177,0.21482,0
0,0.505,0.016939,66.695,0.505,-0.00033745,0.00023248,-0.0028044,0,-0.097243,0.2144,0
0,0.505,0.016925,66.691,0.505,-0.00032817,0.00025358,-0.0028485,0,-0.093952,0.21565,0
0,0.505,0.016939,66.682,0.505,-0.00027097,0.00035984,-0.002913,0,-0.074457,0.22185,0
0,0.505,0.016895,66.895,0.505,5.3545e-05,0.0047265,-0.0012253,0,0.25621,0.064452,0
0,0.505,0.016898,66.889,0.505,6.791e-05,0.0046247,-0.0011574,0,0.25464,0.067945,0
0,0.505,0.016898,66.894,0.505,8.3931e-05,0.0045036,-0.0010794,0,0.25276,0.071975,0
0,0.505,0.016899,66.892,0.505,8.9604e-05,0.0044619,-0.001059,0,0.25212,0.073402,0
0,0.505,0.016899,66.889,0.505,6.936e-05,0.0046142,-0.0011509,0,0.25448,0.068296,0
0,0.505,0.016895,66.886,0.505,1.1274e-05,0.0050262,-0.0014246,0,0.26029,0.054746,0
0,0.505,0.016888,66.895,0.505,2.2266e-05,0.0049428,-0.0013766,0,0.25937,0.057129,0
0,0.505,0.016934,66.707,0.505,-0.00042152,-2.2852e-05,-0.0023962,0,-0.12869,0.2005,0
0,0.505,0.01689,66.893,0.505,2.7332e-05,0.0049106,-0.0013546,0,0.25888,0.058252,0
0,0.505,0.016893,66.897,0.505,3.7948e-05,0.004837,-0.0012997,0,0.25779,0.060762,0
0,0.505,0.016895,66.893,0.505,4.8411e-05,0.0047659,-0.0012532,0,0.25675,0.063205,0
0,0.505,0.016899,66.889,0.505,6.8977e-05,0.0046169,-0.0011523,0,0.25453,0.068204,0
0,0.505,0.01694,66.691,0.505,-7.0923e-05,0.00093439,-0.0029809,0,-0.008942,0.23175,0
0,0.505,0.016935,66.684,0.505,-7.8018e-05,0.00089728,-0.0029922,0,-0.01129,0.23167,0
0,0.505,0.016925,66.687,0.505,-3.5161e-05,0.0010974,-0.0029937,0,0.0030276,0.23191,0
0,0.505,0.016945,66.692,0.505,-3.963e-05,0.0010755,-0.002978,0,0.0013971,0.23189,0
0,0.505,0.016939,66.696,0.505,-1.84e-05,0.0011688,-0.0029689,0,0.0087093,0.23165,0
0,0.505,0.016935,66.691,0.505,-2.3727e-05,0.0011494,-0.0029763,0,0.0069622,0.23179,0
0,0.505,0.016931,66.683,0.505,-7.3229e-06,0.0012276,-0.0029604,0,0.012499,0.23149,0
0,0.505,0.016932,66.683,0.505,-7.692e-06,0.0012258,-0.0029606,0,0.012373,0.2315,0
0,0.505,0.016915,66.687,0.505,-2.9864e-05,0.0011189,-0.0029953,0,0.0048756,0.23186,0
0,0.505,0.016916,66.688,0.505,1.479e-05,0.0013274,-0.002967,0,0.020184,0.23143,0
0,0.505,0.016906,66.687,0.505,1.3242e-05,0.0013177,-0.0029756,0,0.019589,0.23149,0
0,0.505,0.01692,66.687,0.505,1.1384e-05,0.0013091,-0.002965,0,0.018882,0.23151,0
0,0.505,0.016942,66.702,0.505,3.3813e-06,0.0012783,-0.0029406,0,0.016056,0.23138,0
0,0.505,0.016932,66.683,0.505,-7.0269e-06,0.0012288,-0.0029598,0,0.012594,0.23149,0
0,0.505,0.016942,66.688,0.505,-0.00025918,0.00037661,-0.0029016,0,-0.070707,0.2228,0
0,0.505,0.016935,66.687,0.505,0.0001037,0.0017601,-0.0028476,0,0.053304,0.22676,0
0,0.505,0.016934,66.691,0.505,0.00010093,0.0017474,-0.0028483,0,0.052197,0.22699,0
0,0.505,0.016936,66.686,0.505,9.7422e-05,0.0017316,-0.0028502,0,0.050824,0.22724,0
