"cvar","mu","phivar","pressure","rho","str","velocity:0","velocity:1","Label","Points:0","Points:1","Points:2"
0,0.505,0.012929,65.393,0.505,0.00024739,-0.03179,-0.00062318,0,-0.27171,0,0
0,0.505,0.013057,65.394,0.505,0.00030385,0.033882,-0.00072347,0,0.27167,0,0
0,0.505,0.017053,66.192,0.505,-0.0032498,-0.0090017,-0.13915,0,-0.023978,0.23507,0
0,0.505,0.017056,66.187,0.505,-0.0034175,-0.0093987,-0.13906,0,-0.025194,0.23496,0
0,0.505,0.017052,66.203,0.505,-0.003753,-0.01018,-0.13887,0,-0.02762,0.23474,0
0,0.505,0.017057,66.194,0.505,-0.003981,-0.010707,-0.13872,0,-0.02927,0.23455,0
0,0.505,0.017053,66.207,0.505,-0.0042437,-0.011345,-0.13854,0,-0.031186,0.23433,0
0,0.505,0.017046,66.2,0.505,-0.0027396,-0.0078203,-0.13939,0,-0.020295,0.23539,0
0,0.505,0.017054,66.187,0.505,-0.0031321,-0.0087179,-0.13921,0,-0.023122,0.23515,0
0,0.505,0.017061,66.181,0.505,0.00016459,-0.0011963,-0.13995,0,0.00042757,0.23604,0
0,0.505,0.017034,66.189,0.505,-0.00020284,-0.0020401,-0.13996,0,-0.0021049,0.2362,0
0,0.505,0.017041,66.178,0.505,-0.00070991,-0.0031728,-0.13992,0,-0.0057762,0.2361,0
0,0.505,0.017054,66.174,0.505,-0.0008866,-0.0035786,-0.13988,0,-0.0070362,0.23607,0
0,0.505,0.017029,66.18,0.505,0.0007503,0.00013875,-0.13995,0,0.0047965,0.23605,0
0,0.505,0.017048,66.174,0.505,0.00051048,-0.00041836,-0.13995,0,0.0029898,0.23603,0
0,0.505,0.017058,66.188,0.505,0.0025056,0.0041127,-0.13966,0,0.01701,0.23565,0
0,0.505,0.017059,66.191,0.505,0.0024624,0.0040177,-0.13967,0,0.016697,0.23565,0
0,0.505,0.017042,66.2,0.505,0.0032737,0.0059073,-0.13947,0,0.022955,0.23523,0
0,0.505,0.017009,66.186,0.505,0.0029231,0.0050737,-0.13962,0,0.020247,0.23549,0
0,0.505,0.017041,66.196,0.505,0.0047712,0.0094123,-0.13886,0,0.033538,0.23414,0
0,0.505,0.017047,66.209,0.505,0.0044682,0.0086917,-0.13899,0,0.031261,0.23436,0
0,0.505,0.017084,66.263,0.505,0.0089245,0.020035,-0.13543,0,0.064507,0.22832,0
0,0.505,0.017068,66.269,0.505,0.008526,0.01892,-0.1359,0,0.061439,0.22907,0
0,0.505,0.017072,66.248,0.505,0.008217,0.01806,-0.13623,0,0.059084,0.22961,0
0,0.505,0.017072,66.24,0.505,0.0078704,0.017153,-0.13658,0,0.056475,0.23018,0
0,0.505,0.017066,66.247,0.505,0.007594,0.01642,-0.13684,0,0.054393,0.23061,0
0,0.505,0.017063,66.241,0.505,0.0071237,0.015197,-0.13727,0,0.050877,0.23133,0
0,0.505,0.017065,66.222,0.505,0.0068193,0.01443,-0.13751,0,0.048623,0.23174,0
0,0.505,0.017068,66.232,0.505,0.0073738,0.015831,-0.13704,0,0.05274,0.23095,0
0,0.505,0.017063,66.218,0.505,0.006518,0.013654,-0.13775,0,0.04639,0.23214,0
0,0.505,0.017057,66.23,0.505,0.0061776,0.012819,-0.13799,0,0.043891,0.23258,0
0,0.505,0.017085,66.266,0.505,0.0090367,0.020345,-0.13529,0,0.065359,0.2281,0
0,0.505,0.017084,66.267,0.505,0.0089903,0.020215,-0.13535,0,0.065009,0.2282,0
0,0.505,0.017086,66.299,0.505,0.0094591,0.021598,-0.13475,0,0.068493,0.22729,0
0,0.505,0.017081,66.286,0.505,0.0099253,0.022985,-0.13414,0,0.07215,0.22643,0
0,0.505,0.017088,66.285,0.505,0.0097652,0.022493,-0.13434,0,0.070873,0.22674,0
0,0.505,0.017094,66.293,0.505,0.010871,0.025967,-0.13269,0,0.07975,0.22429,0
0,0.505,0.017103,66.288,0.505,0.010469,0.024672,-0.13331,0,0.076458,0.22523,0
0,0.505,0.017099,66.283,0.505,0.010271,0.024064,-0.13362,0,0.074889,0.22568,0
0,0.505,0.017102,66.291,0.505,0.010399,0.024455,-0.13342,0,0.075899,0.22539,0
0,0.505,0.017289,66.781,0.505,-0.019176,-0.097953,-0.099244,0,-0.18817,0.16021,0
0,0.505,0.017289,66.782,0.505,-0.019176,-0.09837,-0.099088,0,-0.1886,0.15978,0
0,0.505,0.017289,66.78,0.505,-0.019174,-0.097767,-0.099319,0,-0.18797,0.1604,0
0,0.505,0.017289,66.782,0.505,-0.019175,-0.097884,-0.099272,0,-0.1881,0.16028,0
0,0.505,0.017281,66.753,0.505,-0.019111,-0.092761,-0.10127,0,-0.18285,0.1656,0
0,0.505,0.017278,66.786,0.505,-0.019147,-0.094888,-0.10042,0,-0.18516,0.16333,0
0,0.505,0.01728,66.752,0.505,-0.019103,-0.092276,-0.10145,0,-0.18229,0.16609,0
0,0.505,0.017281,66.748,0.505,-0.019094,-0.091855,-0.10161,0,-0.18183,0.16651,0
0,0.505,0.017271,66.741,0.505,-0.018991,-0.087853,-0.10323,0,-0.17736,0.1702,0
0,0.505,0.017272,66.767,0.505,-0.019041,-0.089625,-0.10252,0,-0.17937,0.16858,0
0,0.505,0.017272,66.7,0.505,-0.018869,-0.08449,-0.10466,0,-0.17345,0.17358,0
0,0.505,0.01727,66.73,0.505,-0.018958,-0.086876,-0.10366,0,-0.17625,0.17116,0
0,0.505,0.017272,66.701,0.505,-0.018866,-0.084422,-0.10469,0,-0.17337,0.17365,0
0,0.505,0.017064,66.204,0.505,0.0056835,0.011593,-0.13832,0,0.04028,0.23317,0
0,0.505,0.017048,66.211,0.505,0.0052254,0.01049,-0.1386,0,0.036973,0.23366,0
0,0.505,0.017064,66.206,0.505,0.0057093,0.011659,-0.1383,0,0.040465,0.23315,0
0,0.505,0.017064,66.205,0.505,0.0057454,0.011749,-0.13828,0,0.040729,0.23311,0
0,0.505,0.017042,66.193,0.505,0.0049617,0.0098459,-0.13876,0,0.034956,0.23399,0
0,0.505,0.017046,66.206,0.505,0.0033948,0.0061743,-0.13942,0,0.023824,0.23509,0
0,0.505,0.017057,66.195,0.505,0.0036471,0.006766,-0.13932,0,0.025575,0.23493,0
0,0.505,0.017057,66.177,0.505,0.0013473,0.0014871,-0.13988,0,0.0090849,0.23594,0
0,0.505,0.017058,66.179,0.505,0.0013016,0.0013809,-0.13988,0,0.0087522,0.23593,0
0,0.505,0.017059,66.187,0.505,0.0024077,0.0038955,-0.13969,0,0.016321,0.23565,0
0,0.505,0.017035,66.195,0.505,0.0018897,0.0027096,-0.1398,0,0.012891,0.23582,0
0,0.505,0.01709,66.28,0.505,-0.0091271,-0.024088,-0.13338,0,-0.067974,0.22745,0
0,0.505,0.017098,66.276,0.505,-0.0092729,-0.024529,-0.13317,0,-0.06909,0.22717,0
0,0.505,0.017092,66.27,0.505,-0.0089873,-0.023684,-0.13357,0,-0.066909,0.2277,0
0,0.505,0.017096,66.305,0.505,-0.010925,-0.029797,-0.13065,0,-0.082609,0.22321,0
0,0.505,0.017119,66.313,0.505,-0.011312,-0.03117,-0.12997,0,-0.085802,0.22232,0
0,0.505,0.017099,66.296,0.505,-0.0096126,-0.025584,-0.13267,0,-0.071735,0.22653,0
0,0.505,0.017097,66.285,0.505,-0.0098311,-0.026266,-0.13237,0,-0.073424,0.22612,0
0,0.505,0.017064,66.23,0.505,-0.0067628,-0.017531,-0.13632,0,-0.049999,0.23143,0
0,0.505,0.017083,66.242,0.505,-0.0072609,-0.018864,-0.13574,0,-0.053631,0.23071,0
0,0.505,0.017081,66.239,0.505,-0.0074467,-0.019348,-0.13553,0,-0.054965,0.23043,0
0,0.505,0.017057,66.259,0.505,-0.0078703,-0.020503,-0.13506,0,-0.058071,0.22975,0
0,0.505,0.017051,66.245,0.505,-0.0082199,-0.021444,-0.13464,0,-0.060924,0.22905,0
0,0.505,0.017053,66.248,0.505,-0.0082855,-0.021638,-0.13455,0,-0.061452,0.22892,0
0,0.505,0.017078,66.278,0.505,-0.0086484,-0.022677,-0.13402,0,-0.064312,0.22828,0
0,0.505,0.017083,66.247,0.505,-0.0073358,-0.019056,-0.13566,0,-0.054168,0.23061,0
0,0.505,0.01705,66.208,0.505,-0.0061363,-0.015942,-0.13699,0,-0.04523,0.23219,0
0,0.505,0.01705,66.211,0.505,-0.0062201,-0.016141,-0.1369,0,-0.045885,0.23208,0
0,0.505,0.017063,66.225,0.505,-0.0066559,-0.017268,-0.13643,0,-0.049221,0.23159,0
0,0.505,0.017056,66.201,0.505,-0.0056576,-0.014761,-0.13743,0,-0.041473,0.23283,0
0,0.505,0.017054,66.199,0.505,-0.005842,-0.015216,-0.13726,0,-0.042915,0.23257,0
0,0.505,0.017061,66.227,0.505,0.006651,0.014,-0.13764,0,0.047375,0.23196,0
0,0.505,0.017059,66.198,0.505,0.0040907,0.007821,-0.13914,0,0.0286,0.23465,0
0,0.505,0.017062,66.202,0.505,0.0039419,0.0074648,-0.13919,0,0.02755,0.23475,0
0,0.505,0.017097,66.282,0.505,-0.010079,-0.027026,-0.132,0,-0.075323,0.2256,0
0,0.505,0.017084,66.284,0.505,-0.010356,-0.027916,-0.13159,0,-0.07769,0.22482,0
0,0.505,0.017057,66.178,0.505,0.0012663,0.0012973,-0.13989,0,0.008498,0.23594,0
0,0.505,0.017042,66.198,0.505,-0.0017152,-0.0054725,-0.13971,0,-0.012946,0.23581,0
0,0.505,0.017047,66.18,0.505,-0.0021363,-0.0064382,-0.13962,0,-0.015959,0.23566,0
0,0.505,0.017042,66.173,0.505,-0.00059539,-0.0029063,-0.13993,0,-0.0049191,0.23613,0
0,0.505,0.017057,66.184,0.505,-0.0014425,-0.00483,-0.13977,0,-0.011009,0.23592,0
0,0.505,0.017046,66.184,0.505,-0.002225,-0.0066367,-0.1396,0,-0.01659,0.23564,0
0,0.505,0.017047,66.181,0.505,-0.0022853,-0.0067703,-0.13957,0,-0.017022,0.2356,0
0,0.505,0.017059,66.186,0.505,0.00029863,-0.00089724,-0.13995,0,0.0013592,0.23604,0
0,0.505,0.017058,66.192,0.505,-0.0012129,-0.0043151,-0.13981,0,-0.0093761,0.236,0
0,0.505,0.017175,66.476,0.505,0.016351,0.050769,-0.11903,0,0.12944,0.20315,0
0,0.505,0.017172,66.469,0.505,0.016252,0.050106,-0.11938,0,0.12836,0.20374,0
0,0.505,0.017185,66.485,0.505,0.016665,0.052904,-0.1179,0,0.13294,0.20125,0
0,0.505,0.017184,66.481,0.505,0.016606,0.052481,-0.11812,0,0.13228,0.20162,0
0,0.505,0.017104,66.321,0.505,0.011899,0.029493,-0.1308,0,0.088022,0.22137,0
0,0.505,0.017104,66.321,0.505,0.011818,0.029218,-0.13096,0,0.08732,0.22162,0
0,0.505,0.017104,66.306,0.505,0.011499,0.028104,-0.13156,0,0.084837,0.22251,0
0,0.505,0.017104,66.307,0.505,0.011339,0.027552,-0.13185,0,0.083591,0.22295,0
0,0.505,0.017101,66.305,0.505,0.011307,0.027433,-0.13191,0,0.083341,0.22304,0
0,0.505,0.017101,66.297,0.505,0.011204,0.027078,-0.1321,0,0.082483,0.22335,0
0,0.505,0.017104,66.339,0.505,0.012261,0.030838,-0.13008,0,0.091142,0.22025,0
0,0.505,0.017153,66.447,0.505,0.015608,0.046213,-0.12149,0,0.12166,0.20708,0
0,0.505,0.017152,66.434,0.505,0.015424,0.045143,-0.12206,0,0.1198,0.20799,0
0,0.505,0.017162,66.47,0.505,0.016003,0.048548,-0.12022,0,0.12578,0.20502,0
0,0.505,0.017161,66.461,0.505,0.015843,0.047553,-0.12075,0,0.12411,0.20585,0
0,0.505,0.017105,66.345,0.505,0.012387,0.031291,-0.12983,0,0.092211,0.21993,0
0,0.505,0.01712,66.362,0.505,0.012834,0.033043,-0.12885,0,0.095993,0.21857,0
0,0.505,0.017117,66.359,0.505,0.012696,0.032509,-0.12916,0,0.09485,0.21899,0
0,0.505,0.017125,66.384,0.505,0.013493,0.035795,-0.12732,0,0.1017,0.21627,0
0,0.505,0.017126,66.372,0.505,0.013278,0.03486,-0.12783,0,0.099811,0.21705,0
0,0.505,0.017127,66.383,0.505,0.013714,0.036724,-0.12678,0,0.10365,0.21546,0
0,0.505,0.017134,66.393,0.505,0.014129,0.038595,-0.12572,0,0.1074,0.21387,0
0,0.505,0.017128,66.392,0.505,0.013874,0.037458,-0.12638,0,0.10509,0.21485,0
0,0.505,0.017139,66.399,0.505,0.014527,0.040483,-0.12467,0,0.11111,0.21233,0
0,0.505,0.017136,66.399,0.505,0.01425,0.039182,-0.1254,0,0.10849,0.21339,0
0,0.505,0.017081,66.283,0.505,-0.010519,-0.028424,-0.13134,0,-0.079134,0.22441,0
0,0.505,0.017069,66.252,0.505,0.0080631,0.017655,-0.1364,0,0.05792,0.22988,0
0,0.505,0.017276,66.748,0.505,0.019566,0.094112,-0.099473,0,0.18576,0.16273,0
0,0.505,0.017268,66.763,0.505,0.01955,0.09269,-0.10003,0,0.1844,0.16403,0
0,0.505,0.017268,66.719,0.505,0.019514,0.090754,-0.10081,0,0.18236,0.16582,0
0,0.505,0.017267,66.719,0.505,0.019511,0.090557,-0.10089,0,0.18215,0.16601,0
0,0.505,0.017276,66.764,0.505,0.019577,0.095337,-0.099002,0,0.1869,0.1616,0
0,0.505,0.017278,66.776,0.505,0.019597,0.098023,-0.097969,0,0.18962,0.15895,0
0,0.505,0.01728,66.759,0.505,0.019587,0.096668,-0.098504,0,0.18824,0.16032,0
0,0.505,0.017287,66.796,0.505,0.019578,0.1035,-0.09594,0,0.19491,0.15366,0
0,0.505,0.017288,66.781,0.505,0.019585,0.10225,-0.096414,0,0.1937,0.15487,0
0,0.505,0.017292,66.807,0.505,0.019541,0.10632,-0.094936,0,0.19752,0.15095,0
0,0.505,0.017291,66.789,0.505,0.019564,0.10459,-0.09555,0,0.19592,0.15261,0
0,0.505,0.017302,66.803,0.505,0.019473,0.10982,-0.093723,0,0.20074,0.14753,0
0,0.505,0.0173,66.806,0.505,0.019489,0.1092,-0.093936,0,0.20017,0.14816,0
0,0.505,0.017283,66.786,0.505,0.019593,0.10076,-0.096949,0,0.19227,0.1563,0
0,0.505,0.017284,66.769,0.505,0.019596,0.099418,-0.097444,0,0.19099,0.15759,0
0,0.505,0.017258,66.702,0.505,0.019281,0.083041,-0.10394,0,0.17382,0.17321,0
0,0.505,0.017255,66.677,0.505,0.019218,0.081503,-0.10458,0,0.17205,0.17462,0
0,0.505,0.017268,66.717,0.505,0.019506,0.090365,-0.10096,0,0.18194,0.1662,0
0,0.505,0.017235,66.731,0.505,0.015094,0.1661,-0.080446,0,0.24114,0.090635,0
0,0.505,0.017235,66.733,0.505,0.015101,0.16604,-0.080453,0,0.2411,0.090693,0
0,0.505,0.017219,66.639,0.505,0.014082,0.1735,-0.079283,0,0.24517,0.082721,0
0,0.505,0.017236,66.672,0.505,0.014463,0.1708,-0.079705,0,0.24372,0.085721,0
0,0.505,0.017254,66.766,0.505,0.015642,0.16178,-0.08112,0,0.2386,0.095068,0
0,0.505,0.017265,66.79,0.505,0.015977,0.15899,-0.081585,0,0.23688,0.098085,0
0,0.505,0.017181,66.551,0.505,0.013313,0.17869,-0.07846,0,0.24777,0.077234,0
0,0.505,0.017188,66.577,0.505,0.013482,0.17758,-0.07864,0,0.24723,0.078399,0
0,0.505,0.01721,66.618,0.505,0.013915,0.17464,-0.079112,0,0.24578,0.081494,0
0,0.505,0.017238,66.673,0.505,0.019064,0.078327,-0.10593,0,0.16825,0.17754,0
0,0.505,0.017235,66.642,0.505,0.018951,0.076316,-0.10681,0,0.16566,0.17948,0
0,0.505,0.017209,66.595,0.505,0.018402,0.068528,-0.11027,0,0.15594,0.18671,0
0,0.505,0.017211,66.583,0.505,0.018275,0.067073,-0.11095,0,0.15381,0.18824,0
0,0.505,0.017212,66.583,0.505,0.018222,0.066469,-0.11122,0,0.153,0.18881,0
0,0.505,0.017214,66.561,0.505,0.018027,0.064374,-0.1122,0,0.15016,0.19072,0
0,0.505,0.017213,66.561,0.505,0.018024,0.064336,-0.11222,0,0.15011,0.19076,0
0,0.505,0.017213,66.561,0.505,0.018023,0.064326,-0.11223,0,0.15009,0.19077,0
0,0.505,0.017206,66.555,0.505,0.017752,0.061689,-0.11348,0,0.14642,0.1932,0
0,0.505,0.017201,66.555,0.505,0.017601,0.060284,-0.11415,0,0.14443,0.19447,0
0,0.505,0.0172,66.531,0.505,0.017451,0.058995,-0.11481,0,0.14259,0.19563,0
0,0.505,0.017193,66.53,0.505,0.017375,0.058331,-0.11513,0,0.14163,0.19619,0
0,0.505,0.017234,66.642,0.505,0.018933,0.076021,-0.10694,0,0.16529,0.17975,0
0,0.505,0.0173,66.798,0.505,0.019501,0.10852,-0.094184,0,0.19954,0.14882,0
0,0.505,0.017307,66.828,0.505,0.019274,0.11643,-0.091571,0,0.20643,0.14104,0
0,0.505,0.017305,66.836,0.505,0.019322,0.11518,-0.091956,0,0.20547,0.14229,0
0,0.505,0.017301,66.851,0.505,0.019202,0.11827,-0.091001,0,0.20785,0.13922,0
0,0.505,0.017304,66.843,0.505,0.019131,0.11992,-0.090521,0,0.20909,0.13763,0
0,0.505,0.017304,66.853,0.505,0.019025,0.12231,-0.08979,0,0.21102,0.1353,0
0,0.505,0.017301,66.86,0.505,0.019062,0.12155,-0.090011,0,0.21042,0.13607,0
0,0.505,0.017304,66.85,0.505,0.018864,0.12544,-0.088921,0,0.21361,0.13213,0
0,0.505,0.017305,66.845,0.505,0.018911,0.12453,-0.089175,0,0.21286,0.13303,0
0,0.505,0.017293,66.866,0.505,0.017827,0.14051,-0.085175,0,0.22491,0.11712,0
0,0.505,0.017296,66.86,0.505,0.018004,0.13833,-0.085676,0,0.22337,0.11932,0
0,0.505,0.017291,66.858,0.505,0.017567,0.14354,-0.084516,0,0.22699,0.11405,0
0,0.505,0.017294,66.856,0.505,0.01768,0.14225,-0.084794,0,0.22611,0.11536,0
0,0.505,0.0173,66.86,0.505,0.018603,0.12985,-0.087745,0,0.21712,0.1278,0
0,0.505,0.017298,66.869,0.505,0.018694,0.12841,-0.088113,0,0.21602,0.12924,0
0,0.505,0.017297,66.869,0.505,0.018502,0.13143,-0.087343,0,0.21832,0.12623,0
0,0.505,0.017299,66.854,0.505,0.018308,0.13427,-0.086652,0,0.22043,0.1234,0
0,0.505,0.017299,66.852,0.505,0.018262,0.13491,-0.086504,0,0.22089,0.12276,0
0,0.505,0.017298,66.854,0.505,0.018295,0.13445,-0.08661,0,0.22056,0.12322,0
0,0.505,0.017295,66.864,0.505,0.018071,0.13747,-0.085874,0,0.22277,0.12018,0
0,0.505,0.017241,66.69,0.505,0.014598,0.16982,-0.079851,0,0.24322,0.086794,0
0,0.505,0.017308,66.823,0.505,0.019347,0.11432,-0.09225,0,0.20473,0.14313,0
0,0.505,0.017301,66.827,0.505,0.019414,0.11212,-0.092947,0,0.20279,0.14529,0
0,0.505,0.017304,66.848,0.505,0.018824,0.12614,-0.088741,0,0.21417,0.13144,0
0,0.505,0.017252,66.762,0.505,0.015575,0.16233,-0.081031,0,0.23893,0.094495,0
0,0.505,0.017268,66.795,0.505,0.016108,0.15787,-0.081779,0,0.23619,0.099266,0
0,0.505,0.017269,66.815,0.505,0.016343,0.15578,-0.082134,0,0.23494,0.10145,0
0,0.505,0.017291,66.841,0.505,0.017331,0.14614,-0.083983,0,0.22874,0.11141,0
0,0.505,0.017286,66.83,0.505,0.016956,0.15003,-0.08321,0,0.2313,0.10743,0
0,0.505,0.017285,66.833,0.505,0.016998,0.14961,-0.083289,0,0.23103,0.10785,0
0,0.505,0.017289,66.83,0.505,0.017141,0.14813,-0.083597,0,0.23005,0.10937,0
0,0.505,0.01729,66.841,0.505,0.017291,0.14658,-0.083896,0,0.22902,0.11096,0
0,0.505,0.017278,66.83,0.505,0.016683,0.15267,-0.082695,0,0.233,0.10469,0
0,0.505,0.017277,66.82,0.505,0.016548,0.15392,-0.082471,0,0.23378,0.10339,0
0,0.505,0.017102,66.268,0.505,0.011605,0.18967,-0.076487,0,0.25283,0.065775,0
0,0.505,0.017119,66.314,0.505,0.011828,0.18831,-0.076787,0,0.25223,0.067212,0
0,0.505,0.017071,66.143,0.505,0.011068,0.19306,-0.075776,0,0.25422,0.062386,0
0,0.505,0.017166,66.453,0.505,0.012672,0.18294,-0.077799,0,0.24979,0.072863,0
0,0.505,0.017168,66.464,0.505,0.012747,0.18245,-0.077876,0,0.24957,0.073367,0
0,0.505,0.017135,66.38,0.505,0.01218,0.18605,-0.077192,0,0.25126,0.069513,0
0,0.505,0.017236,66.733,0.505,0.015107,0.166,-0.08046,0,0.24108,0.09074,0
0,0.505,0.017173,66.478,0.505,0.012881,0.18157,-0.078038,0,0.24914,0.074288,0
0,0.505,0.014443,62.09,0.505,0.0018528,0.18433,-0.026267,0,0.26903,0.014178,0
0,0.505,0.014508,62.082,0.505,0.001935,0.18799,-0.027463,0,0.26893,0.01471,0
0,0.505,0.013671,62.74,0.505,0.00081722,0.12697,-0.010964,0,0.27043,0.0073741,0
0,0.505,0.013752,62.624,0.505,0.00091156,0.13425,-0.012601,0,0.2703,0.0080559,0
0,0.505,0.013358,64.118,0.505,0.0004548,0.074352,-0.0039364,0,0.27116,0.0037541,0
0,0.505,0.013568,63.192,0.505,0.00070421,0.10983,-0.0087306,0,0.27071,0.0061694,0
0,0.505,0.014572,62.122,0.505,0.0020465,0.1907,-0.028808,0,0.26879,0.015288,0
0,0.505,0.014068,62.199,0.505,0.0013251,0.16311,-0.019042,0,0.2696,0.011033,0
0,0.505,0.014887,62.332,0.505,0.0026304,0.20425,-0.035196,0,0.26803,0.018251,0
0,0.505,0.013168,64.775,0.505,0.00037049,0.052693,-0.002224,0,0.27144,0.0017734,0
0,0.505,0.01553,62.862,0.505,0.0037961,0.21757,-0.046386,0,0.26663,0.023945,0
0,0.505,0.015701,63.045,0.505,0.0041699,0.21954,-0.049319,0,0.26615,0.025855,0
0,0.505,0.01516,62.486,0.505,0.003115,0.21028,-0.039903,0,0.26751,0.020492,0
0,0.505,0.016796,65.355,0.505,0.0085655,0.20786,-0.070555,0,0.25963,0.04798,0
0,0.505,0.016852,65.53,0.505,0.008933,0.20588,-0.071565,0,0.25899,0.049879,0
0,0.505,0.016759,65.223,0.505,0.0081979,0.21004,-0.069528,0,0.26016,0.046012,0
0,0.505,0.016945,65.808,0.505,0.0097288,0.20113,-0.073309,0,0.25733,0.054663,0
0,0.505,0.016984,65.923,0.505,0.01011,0.19893,-0.074108,0,0.25656,0.056726,0
0,0.505,0.017011,65.994,0.505,0.010404,0.19709,-0.074618,0,0.25588,0.058329,0
0,0.505,0.017066,66.128,0.505,0.010988,0.19356,-0.075652,0,0.25442,0.061885,0
0,0.505,0.01624,64.049,0.505,0.0058625,0.21991,-0.060137,0,0.26376,0.033918,0
0,0.505,0.016475,64.522,0.505,0.0067369,0.21716,-0.06437,0,0.26247,0.038262,0
0,0.505,0.016476,64.525,0.505,0.006743,0.21713,-0.064393,0,0.26246,0.038292,0
0,0.505,0.016481,64.534,0.505,0.0067633,0.21704,-0.064475,0,0.26243,0.038396,0
0,0.505,0.016633,64.892,0.505,0.0074805,0.21373,-0.067153,0,0.26145,0.042142,0
0,0.505,0.01669,65.05,0.505,0.0077875,0.21232,-0.068263,0,0.26091,0.043769,0
0,0.505,0.015872,63.387,0.505,0.004684,0.22089,-0.053039,0,0.26541,0.028439,0
0,0.505,0.015955,63.524,0.505,0.0049578,0.22088,-0.054739,0,0.26507,0.029708,0
0,0.505,0.015351,62.671,0.505,0.0034509,0.21502,-0.043306,0,0.26709,0.022103,0
0,0.505,0.016231,64.034,0.505,0.0058251,0.22005,-0.059948,0,0.26382,0.033722,0
0,0.505,0.016215,64.011,0.505,0.0057766,0.22018,-0.059697,0,0.26389,0.033489,0
0,0.505,0.017067,66.133,0.505,0.011011,0.19341,-0.075687,0,0.25437,0.062027,0
0,0.505,0.016947,65.695,0.505,0.0094264,0.20305,-0.072856,0,0.25798,0.0529,0
0,0.505,0.016928,65.643,0.505,0.0092589,0.20407,-0.072488,0,0.25832,0.051912,0
0,0.505,0.017265,66.727,0.505,0.019459,0.088419,-0.10173,0,0.17972,0.16824,0
0,0.505,0.017262,66.733,0.505,0.019434,0.087488,-0.10212,0,0.1787,0.16909,0
0,0.505,0.017261,66.722,0.505,0.019376,0.085515,-0.10291,0,0.17665,0.171,0
0,0.505,0.017262,66.698,0.505,0.01932,0.084051,-0.10353,0,0.17502,0.17234,0
0,0.505,0.017205,66.564,0.505,0.017819,0.062289,-0.11319,0,0.14728,0.19264,0
0,0.505,0.017181,66.503,0.505,0.017176,0.056674,-0.11598,0,0.13903,0.19782,0
0,0.505,0.017186,66.493,0.505,0.017043,0.055661,-0.11649,0,0.13735,0.19878,0
0,0.505,0.017187,66.493,0.505,0.016947,0.054931,-0.11686,0,0.13613,0.19948,0
0,0.505,0.017188,66.491,0.505,0.016926,0.054767,-0.11694,0,0.13589,0.19963,0
0,0.505,0.017186,66.503,0.505,0.017231,0.057124,-0.11575,0,0.13975,0.19737,0
0,0.505,0.015794,63.262,0.505,-0.0039933,-0.22209,-0.052724,0,-0.26583,0.027456,0
0,0.505,0.015609,62.989,0.505,-0.0035329,-0.22042,-0.04909,0,-0.2664,0.025242,0
0,0.505,0.01497,62.255,0.505,-0.002173,-0.20706,-0.036588,0,-0.268,0.018612,0
0,0.505,0.0147,62.094,0.505,-0.0016916,-0.19698,-0.031382,0,-0.26854,0.016154,0
0,0.505,0.015317,62.578,0.505,-0.0028741,-0.21611,-0.043761,0,-0.26716,0.022075,0
0,0.505,0.015305,62.562,0.505,-0.0028484,-0.21588,-0.043517,0,-0.26719,0.021948,0
0,0.505,0.014601,62.044,0.505,-0.001521,-0.19282,-0.029261,0,-0.26874,0.015245,0
0,0.505,0.014453,62.041,0.505,-0.0013331,-0.18555,-0.026736,0,-0.26897,0.014154,0
0,0.505,0.017297,66.852,0.505,-0.016632,-0.15019,-0.084675,0,-0.23053,0.10868,0
0,0.505,0.017296,66.852,0.505,-0.016603,-0.15048,-0.084622,0,-0.23071,0.10837,0
0,0.505,0.017295,66.846,0.505,-0.016544,-0.15106,-0.084529,0,-0.23109,0.10778,0
0,0.505,0.017226,66.678,0.505,-0.013809,-0.17367,-0.081087,0,-0.24447,0.084111,0
0,0.505,0.017219,66.647,0.505,-0.013533,-0.17564,-0.080819,0,-0.24548,0.082057,0
0,0.505,0.017156,66.391,0.505,-0.011806,-0.18719,-0.079024,0,-0.25095,0.070053,0
0,0.505,0.017155,66.388,0.505,-0.011794,-0.18726,-0.07901,0,-0.25098,0.069978,0
0,0.505,0.017178,66.487,0.505,-0.012377,-0.18347,-0.079669,0,-0.24925,0.073896,0
0,0.505,0.017177,66.483,0.505,-0.012355,-0.18361,-0.079645,0,-0.24932,0.07375,0
0,0.505,0.017211,66.624,0.505,-0.013336,-0.17698,-0.080616,0,-0.24617,0.08063,0
0,0.505,0.0172,66.575,0.505,-0.012956,-0.1796,-0.08025,0,-0.24746,0.077904,0
0,0.505,0.017195,66.56,0.505,-0.012854,-0.18027,-0.080144,0,-0.24779,0.077194,0
0,0.505,0.013436,63.753,0.505,3.2373e-05,-0.085222,-0.0052199,0,-0.2708,0.0043468,0
0,0.505,0.013371,63.966,0.505,7.9907e-05,-0.076908,-0.0043236,0,-0.2709,0.0038336,0
0,0.505,0.013874,62.337,0.505,-0.00057355,-0.15019,-0.016208,0,-0.26982,0.0096039,0
0,0.505,0.013723,62.51,0.505,-0.00039354,-0.13807,-0.013225,0,-0.27006,0.008333,0
0,0.505,0.014123,62.107,0.505,-0.00091607,-0.17048,-0.021193,0,-0.26947,0.011816,0
0,0.505,0.01319,64.404,0.505,0.00013,-0.062755,-0.0032472,0,-0.27115,0.0026394,0
0,0.505,0.016688,65.049,0.505,-0.0072236,-0.21441,-0.069373,0,-0.26099,0.043512,0
0,0.505,0.016656,64.954,0.505,-0.0070361,-0.21526,-0.068688,0,-0.26132,0.042554,0
0,0.505,0.016345,64.219,0.505,-0.0056512,-0.22085,-0.062692,0,-0.26355,0.035513,0
0,0.505,0.01618,63.891,0.505,-0.0050822,-0.22228,-0.059758,0,-0.26435,0.032715,0
0,0.505,0.016491,64.517,0.505,-0.0061829,-0.21915,-0.065309,0,-0.26275,0.038209,0
0,0.505,0.01604,63.623,0.505,-0.0046679,-0.2224,-0.057212,0,-0.26492,0.030683,0
0,0.505,0.015883,63.386,0.505,-0.004225,-0.22247,-0.054267,0,-0.26554,0.028547,0
0,0.505,0.015286,62.538,0.505,-0.0028117,-0.21536,-0.043149,0,-0.26724,0.021763,0
0,0.505,0.013535,63.267,0.505,-0.00014894,-0.10625,-0.0085756,0,-0.27048,0.00598,0
0,0.505,0.017308,66.887,0.505,-0.017494,-0.14057,-0.086523,0,-0.22424,0.11824,0
0,0.505,0.017299,66.883,0.505,-0.017284,-0.14306,-0.086026,0,-0.22594,0.11578,0
0,0.505,0.017317,66.872,0.505,-0.01763,-0.13884,-0.08693,0,-0.2229,0.12025,0
0,0.505,0.017311,66.897,0.505,-0.01804,-0.13311,-0.088246,0,-0.2188,0.12596,0
0,0.505,0.017307,66.898,0.505,-0.017963,-0.13427,-0.087968,0,-0.21976,0.12478,0
0,0.505,0.017238,66.703,0.505,-0.014099,-0.1716,-0.081393,0,-0.24336,0.086316,0
0,0.505,0.017242,66.72,0.505,-0.014266,-0.17036,-0.081562,0,-0.2427,0.087613,0
0,0.505,0.017279,66.804,0.505,-0.015628,-0.15953,-0.083144,0,-0.2364,0.09896,0
0,0.505,0.017276,66.799,0.505,-0.015534,-0.16033,-0.083021,0,-0.23688,0.098119,0
0,0.505,0.017272,66.77,0.505,-0.015139,-0.16362,-0.082544,0,-0.23885,0.094674,0
0,0.505,0.017256,66.75,0.505,-0.014706,-0.16704,-0.082045,0,-0.24088,0.091118,0
0,0.505,0.017256,66.744,0.505,-0.014641,-0.16755,-0.081977,0,-0.24115,0.090594,0
0,0.505,0.017271,66.769,0.505,-0.015127,-0.16372,-0.08253,0,-0.23891,0.094567,0
0,0.505,0.01727,66.763,0.505,-0.015059,-0.16426,-0.082457,0,-0.23923,0.094009,0
0,0.505,0.017286,66.851,0.505,-0.016275,-0.15369,-0.084053,0,-0.23279,0.10506,0
0,0.505,0.017286,66.836,0.505,-0.016133,-0.15502,-0.083849,0,-0.2336,0.10368,0
0,0.505,0.017278,66.832,0.505,-0.015918,-0.15697,-0.08353,0,-0.23482,0.10165,0
0,0.505,0.017294,66.886,0.505,-0.016905,-0.14733,-0.085167,0,-0.22864,0.1116,0
0,0.505,0.017292,66.895,0.505,-0.017211,-0.14394,-0.085819,0,-0.22655,0.1149,0
0,0.505,0.017295,66.88,0.505,-0.017118,-0.14497,-0.085632,0,-0.22718,0.11389,0
0,0.505,0.017308,66.894,0.505,-0.017882,-0.13541,-0.087713,0,-0.22046,0.12356,0
0,0.505,0.017319,66.876,0.505,-0.017715,-0.13773,-0.087172,0,-0.22207,0.12138,0
0,0.505,0.017304,66.89,0.505,-0.018568,-0.12404,-0.090616,0,-0.21183,0.13466,0
0,0.505,0.017302,66.89,0.505,-0.018496,-0.12543,-0.090226,0,-0.21297,0.13321,0
0,0.505,0.017306,66.902,0.505,-0.018394,-0.12732,-0.089728,0,-0.21438,0.13137,0
0,0.505,0.017313,66.901,0.505,-0.018287,-0.12918,-0.089232,0,-0.2158,0.12961,0
0,0.505,0.017314,66.899,0.505,-0.018196,-0.1307,-0.088855,0,-0.217,0.12828,0
0,0.505,0.01731,66.857,0.505,-0.018699,-0.12127,-0.091415,0,-0.20958,0.13724,0
0,0.505,0.017311,66.858,0.505,-0.018715,-0.12092,-0.09152,0,-0.2093,0.13757,0
0,0.505,0.016834,65.45,0.505,-0.0082427,-0.20886,-0.072517,0,-0.25926,0.04886,0
0,0.505,0.016742,65.25,0.505,-0.0076697,-0.21194,-0.070688,0,-0.26025,0.045817,0
0,0.505,0.01684,65.471,0.505,-0.0082873,-0.20862,-0.072638,0,-0.25919,0.049097,0
0,0.505,0.016974,65.831,0.505,-0.0094042,-0.20205,-0.075267,0,-0.25692,0.05534,0
0,0.505,0.016918,65.696,0.505,-0.0089073,-0.205,-0.07408,0,-0.25796,0.052506,0
0,0.505,0.017057,66.089,0.505,-0.010339,-0.19635,-0.076949,0,-0.25482,0.060848,0
0,0.505,0.017039,66.05,0.505,-0.010125,-0.19768,-0.076563,0,-0.25533,0.059558,0
0,0.505,0.017082,66.192,0.505,-0.010702,-0.19411,-0.077476,0,-0.25393,0.063052,0
0,0.505,0.016846,65.488,0.505,-0.0083329,-0.20837,-0.072763,0,-0.2591,0.049349,0
0,0.505,0.017121,66.299,0.505,-0.011253,-0.19068,-0.078294,0,-0.25248,0.066468,0
0,0.505,0.016987,65.875,0.505,-0.0095214,-0.20136,-0.075504,0,-0.25666,0.056017,0
0,0.505,0.017005,65.925,0.505,-0.0097011,-0.2003,-0.075858,0,-0.25627,0.057069,0
0,0.505,0.017113,66.265,0.505,-0.011124,-0.19148,-0.078127,0,-0.25283,0.065655,0
0,0.505,0.016131,63.796,0.505,-0.0049308,-0.22244,-0.058855,0,-0.26455,0.031959,0
0,0.505,0.01659,64.748,0.505,-0.0066692,-0.21695,-0.067323,0,-0.26197,0.040666,0
0,0.505,0.016532,64.608,0.505,-0.0063661,-0.21837,-0.066071,0,-0.26249,0.039125,0
0,0.505,0.017209,66.548,0.505,-0.016808,-0.059143,-0.11643,0,-0.13903,0.19768,0
0,0.505,0.01721,66.542,0.505,-0.016903,-0.059905,-0.11607,0,-0.14018,0.19706,0
0,0.505,0.017192,66.54,0.505,-0.016492,-0.056743,-0.11759,0,-0.1353,0.19989,0
0,0.505,0.017209,66.541,0.505,-0.016754,-0.058704,-0.11663,0,-0.13838,0.19808,0
0,0.505,0.017206,66.558,0.505,-0.017084,-0.061365,-0.11537,0,-0.14244,0.19584,0
0,0.505,0.017211,66.563,0.505,-0.017407,-0.064271,-0.11397,0,-0.14707,0.19298,0
0,0.505,0.017213,66.585,0.505,-0.017543,-0.065531,-0.11334,0,-0.14896,0.19168,0
0,0.505,0.017181,66.477,0.505,-0.01563,-0.050967,-0.12039,0,-0.12565,0.20538,0
0,0.505,0.017186,66.472,0.505,-0.015752,-0.051721,-0.12002,0,-0.12699,0.20467,0
0,0.505,0.017235,66.595,0.505,-0.017782,-0.068015,-0.11215,0,-0.15237,0.1894,0
0,0.505,0.017235,66.598,0.505,-0.017799,-0.068183,-0.11207,0,-0.15261,0.18923,0
0,0.505,0.017235,66.598,0.505,-0.017813,-0.068341,-0.11199,0,-0.15284,0.18908,0
0,0.505,0.017287,66.808,0.505,-0.019181,-0.1011,-0.098065,0,-0.1914,0.15704,0
0,0.505,0.01729,66.808,0.505,-0.019177,-0.10188,-0.097793,0,-0.19211,0.15626,0
0,0.505,0.017309,66.854,0.505,-0.019054,-0.11079,-0.094713,0,-0.20076,0.14777,0
0,0.505,0.017314,66.844,0.505,-0.019002,-0.11274,-0.094098,0,-0.20228,0.14582,0
0,0.505,0.017193,66.495,0.505,-0.016129,-0.05418,-0.11884,0,-0.13121,0.20233,0
0,0.505,0.017191,66.507,0.505,-0.016216,-0.054738,-0.11856,0,-0.13216,0.20179,0
0,0.505,0.017179,66.492,0.505,-0.015924,-0.052822,-0.1195,0,-0.12891,0.2037,0
0,0.505,0.017209,66.548,0.505,-0.017211,-0.062473,-0.11483,0,-0.14425,0.19478,0
0,0.505,0.017202,66.558,0.505,-0.017316,-0.063394,-0.11439,0,-0.1457,0.19385,0
0,0.505,0.017242,66.663,0.505,-0.018315,-0.074627,-0.10908,0,-0.16113,0.1831,0
0,0.505,0.017241,66.679,0.505,-0.01843,-0.076226,-0.10832,0,-0.16323,0.18155,0
0,0.505,0.017249,66.694,0.505,-0.018715,-0.081124,-0.10613,0,-0.1694,0.17698,0
0,0.505,0.01725,66.699,0.505,-0.018752,-0.081897,-0.1058,0,-0.17044,0.17614,0
0,0.505,0.017242,66.636,0.505,-0.01815,-0.072325,-0.11012,0,-0.15821,0.18534,0
0,0.505,0.017238,66.664,0.505,-0.018243,-0.073588,-0.10954,0,-0.15982,0.18411,0
0,0.505,0.017294,66.838,0.505,-0.019166,-0.10396,-0.097021,0,-0.19414,0.15444,0
0,0.505,0.017305,66.815,0.505,-0.019154,-0.10516,-0.096606,0,-0.19537,0.15321,0
0,0.505,0.017227,66.62,0.505,0.018576,0.070722,-0.10926,0,0.15893,0.18464,0
0,0.505,0.017226,66.607,0.505,0.018539,0.070281,-0.10947,0,0.15833,0.18503,0
0,0.505,0.01715,66.441,0.505,0.015265,0.044286,-0.12255,0,0.11826,0.20885,0
0,0.505,0.017142,66.404,0.505,0.014947,0.04258,-0.1235,0,0.11529,0.21041,0
0,0.505,0.017142,66.404,0.505,0.014947,0.042578,-0.1235,0,0.11529,0.21041,0
0,0.505,0.017142,66.404,0.505,0.014946,0.042572,-0.12351,0,0.11528,0.21042,0
0,0.505,0.017136,66.401,0.505,0.014612,0.040909,-0.12444,0,0.11196,0.21193,0
0,0.505,0.017123,66.375,0.505,0.013103,0.034158,-0.12824,0,0.098313,0.21768,0
0,0.505,0.017237,66.634,0.505,0.018866,0.074941,-0.1074,0,0.16394,0.18078,0
0,0.505,0.017237,66.638,0.505,0.018785,0.073664,-0.10795,0,0.16235,0.18201,0
0,0.505,0.017249,66.682,0.505,0.019183,0.080661,-0.10493,0,0.17107,0.17541,0
0,0.505,0.017249,66.67,0.505,0.01915,0.080043,-0.10521,0,0.17032,0.17596,0
0,0.505,0.017236,66.637,0.505,0.018767,0.073414,-0.10807,0,0.16203,0.18223,0
0,0.505,0.017227,66.621,0.505,0.018596,0.070986,-0.10914,0,0.15925,0.18438,0
0,0.505,0.017095,66.295,0.505,-0.010807,-0.029407,-0.13085,0,-0.081585,0.22356,0
0,0.505,0.017104,66.34,0.505,-0.012536,-0.035777,-0.12778,0,-0.096171,0.21849,0
0,0.505,0.01711,66.34,0.505,-0.012638,-0.036182,-0.12757,0,-0.097098,0.21812,0
0,0.505,0.017135,66.363,0.505,-0.013159,-0.038379,-0.1265,0,-0.1016,0.21628,0
0,0.505,0.017135,66.368,0.505,-0.013217,-0.038619,-0.12638,0,-0.10208,0.21608,0
0,0.505,0.017123,66.367,0.505,-0.012849,-0.037072,-0.12713,0,-0.099003,0.21742,0
0,0.505,0.017108,66.329,0.505,-0.012173,-0.034364,-0.12846,0,-0.092844,0.21979,0
0,0.505,0.017108,66.329,0.505,-0.012193,-0.034438,-0.12843,0,-0.09302,0.21973,0
0,0.505,0.017121,66.324,0.505,-0.011763,-0.032825,-0.12918,0,-0.08944,0.22108,0
0,0.505,0.017115,66.325,0.505,-0.011982,-0.033646,-0.1288,0,-0.091257,0.22039,0
0,0.505,0.017119,66.314,0.505,-0.011333,-0.03124,-0.12993,0,-0.085963,0.22227,0
0,0.505,0.017121,66.316,0.505,-0.01152,-0.03193,-0.12961,0,-0.087478,0.22175,0
0,0.505,0.017193,66.505,0.505,-0.016294,-0.055282,-0.11829,0,-0.13303,0.20123,0
0,0.505,0.017236,66.636,0.505,-0.018041,-0.070951,-0.11077,0,-0.15643,0.18667,0
0,0.505,0.017308,66.816,0.505,-0.019141,-0.10621,-0.096251,0,-0.19644,0.15216,0
0,0.505,0.01731,66.839,0.505,-0.019087,-0.10931,-0.095193,0,-0.1994,0.14912,0
0,0.505,0.017309,66.851,0.505,-0.019066,-0.11033,-0.094854,0,-0.20034,0.1482,0
0,0.505,0.017312,66.851,0.505,-0.018959,-0.11439,-0.093561,0,-0.20358,0.1442,0
0,0.505,0.017303,66.846,0.505,-0.019129,-0.1072,-0.09589,0,-0.1975,0.15109,0
0,0.505,0.017316,66.845,0.505,-0.018948,-0.11473,-0.093454,0,-0.20391,0.14384,0
0,0.505,0.017316,66.842,0.505,-0.018921,-0.11552,-0.0932,0,-0.20465,0.14299,0
0,0.505,0.017312,66.85,0.505,-0.018741,-0.12027,-0.091729,0,-0.20878,0.1382,0
0,0.505,0.017311,66.854,0.505,-0.018839,-0.11787,-0.092462,0,-0.20689,0.14065,0
0,0.505,0.017271,66.699,0.505,-0.018859,-0.084278,-0.10475,0,-0.17319,0.1738,0
0,0.505,0.017256,66.67,0.505,-0.018601,-0.079035,-0.10706,0,-0.1668,0.17895,0
0,0.505,0.017255,66.669,0.505,-0.018565,-0.078407,-0.10735,0,-0.16598,0.17955,0
0,0.505,0.017255,66.672,0.505,-0.018579,-0.078619,-0.10725,0,-0.16627,0.17935,0
0,0.505,0.017173,66.456,0.505,-0.015324,-0.049155,-0.12126,0,-0.12245,0.207,0
0,0.505,0.017177,66.455,0.505,-0.01541,-0.049662,-0.12102,0,-0.12335,0.20655,0
0,0.505,0.01706,66.195,0.505,-0.0048048,-0.012676,-0.13814,0,-0.035264,0.23382,0
0,0.505,0.017055,66.215,0.505,-0.0051947,-0.013632,-0.13782,0,-0.038112,0.23341,0
0,0.505,0.017057,66.198,0.505,-0.0055873,-0.01458,-0.13749,0,-0.040948,0.23291,0
0,0.505,0.017058,66.2,0.505,-0.0047211,-0.012479,-0.13821,0,-0.034656,0.23391,0
0,0.505,0.01706,66.194,0.505,-0.0046011,-0.012198,-0.13829,0,-0.033786,0.23401,0
0,0.505,0.017135,66.366,0.505,-0.01325,-0.038763,-0.12631,0,-0.10238,0.21594,0
0,0.505,0.017123,66.389,0.505,-0.013581,-0.040245,-0.1256,0,-0.10547,0.2147,0
0,0.505,0.017162,66.457,0.505,-0.01501,-0.047383,-0.12212,0,-0.11925,0.2086,0
0,0.505,0.017172,66.452,0.505,-0.015287,-0.048927,-0.12137,0,-0.12206,0.2072,0
0,0.505,0.017157,66.446,0.505,-0.01468,-0.045591,-0.12299,0,-0.11599,0.21023,0
0,0.505,0.017163,66.443,0.505,-0.014865,-0.046565,-0.12251,0,-0.11779,0.20932,0
0,0.505,0.017135,66.415,0.505,-0.014109,-0.042681,-0.12439,0,-0.11049,0.21261,0
0,0.505,0.017147,66.426,0.505,-0.014329,-0.043778,-0.12386,0,-0.1126,0.21175,0
0,0.505,0.017122,66.323,0.505,-0.011744,-0.032753,-0.12922,0,-0.08928,0.22114,0
0,0.505,0.017152,66.432,0.505,-0.014473,-0.044498,-0.12351,0,-0.11396,0.21116,0
0,0.505,0.017127,66.389,0.505,-0.013725,-0.04088,-0.12528,0,-0.10686,0.21409,0
0,0.505,0.017132,66.402,0.505,-0.013955,-0.041967,-0.12475,0,-0.10902,0.21315,0
