"cvar","mu","phivar","pressure","rho","str","velocity:0","velocity:1","Label","Points:0","Points:1","Points:2"
0,0.505,0.012784,65.371,0.505,0.00024298,-0.033055,-0.00063663,0,-0.2715,0,0
0,0.505,0.012915,65.375,0.505,0.00030157,0.035153,-0.0007376,0,0.27148,0,0
0,0.505,0.017134,66.401,0.505,-0.014246,-0.041623,-0.1311,0,-0.10551,0.21481,0
0,0.505,0.017139,66.401,0.505,-0.014402,-0.042311,-0.13074,0,-0.10695,0.21417,0
0,0.505,0.017146,66.427,0.505,-0.014802,-0.044193,-0.12978,0,-0.11057,0.2127,0
0,0.505,0.017158,66.438,0.505,-0.015027,-0.045322,-0.12921,0,-0.11265,0.21185,0
0,0.505,0.017146,66.378,0.505,-0.013907,-0.040102,-0.13185,0,-0.10247,0.21602,0
0,0.505,0.017103,66.302,0.505,-0.011341,-0.030304,-0.13679,0,-0.081596,0.22371,0
0,0.505,0.017104,66.314,0.505,-0.011473,-0.030737,-0.13656,0,-0.082691,0.22333,0
0,0.505,0.017183,66.469,0.505,-0.016066,-0.050957,-0.1264,0,-0.12249,0.2071,0
0,0.505,0.017187,66.468,0.505,-0.016145,-0.05143,-0.12617,0,-0.12329,0.2067,0
0,0.505,0.017112,66.307,0.505,0.011745,0.027953,-0.13802,0,0.082736,0.2234,0
0,0.505,0.017103,66.302,0.505,0.011369,0.026708,-0.1387,0,0.079792,0.22442,0
0,0.505,0.017112,66.295,0.505,0.01096,0.025399,-0.13936,0,0.076586,0.22533,0
0,0.505,0.017111,66.299,0.505,0.010876,0.025139,-0.1395,0,0.075941,0.22551,0
0,0.505,0.017108,66.29,0.505,0.010721,0.024671,-0.13974,0,0.074775,0.22585,0
0,0.505,0.017077,66.259,0.505,0.0084306,0.018097,-0.14274,0,0.057964,0.23002,0
0,0.505,0.017079,66.245,0.505,0.0082107,0.017532,-0.14297,0,0.05639,0.23035,0
0,0.505,0.01709,66.269,0.505,0.0093164,0.020515,-0.14172,0,0.064437,0.22848,0
0,0.505,0.017075,66.276,0.505,0.0089158,0.019406,-0.1422,0,0.061491,0.2292,0
0,0.505,0.017069,66.246,0.505,0.0074461,0.01556,-0.1437,0,0.050917,0.23147,0
0,0.505,0.017071,66.227,0.505,0.0071089,0.014723,-0.14399,0,0.048534,0.2319,0
0,0.505,0.017067,66.231,0.505,0.0069507,0.014324,-0.14412,0,0.047413,0.2321,0
0,0.505,0.017076,66.238,0.505,0.0077229,0.016251,-0.14344,0,0.052887,0.23107,0
0,0.505,0.017069,66.223,0.505,0.0068257,0.014004,-0.14422,0,0.046529,0.23227,0
0,0.505,0.01705,66.21,0.505,0.0035399,0.0062926,-0.14605,0,0.023859,0.23524,0
0,0.505,0.017046,66.203,0.505,0.003402,0.0059961,-0.14611,0,0.022915,0.23539,0
0,0.505,0.017012,66.188,0.505,0.0030438,0.005164,-0.14626,0,0.020275,0.23565,0
0,0.505,0.017061,66.191,0.505,0.0026173,0.004206,-0.14631,0,0.017116,0.2358,0
0,0.505,0.017066,66.2,0.505,0.0042568,0.007951,-0.14576,0,0.02856,0.23481,0
0,0.505,0.017068,66.205,0.505,0.0041127,0.0076133,-0.1458,0,0.027589,0.2349,0
0,0.505,0.017066,66.201,0.505,-0.0048254,-0.012467,-0.14483,0,-0.033673,0.23418,0
0,0.505,0.017064,66.208,0.505,-0.0049708,-0.012802,-0.14472,0,-0.03468,0.23406,0
0,0.505,0.017063,66.197,0.505,0.0038273,0.0069513,-0.14593,0,0.025764,0.23507,0
0,0.505,0.017148,66.413,0.505,0.01528,0.042303,-0.12984,0,0.11199,0.21204,0
0,0.505,0.01715,66.411,0.505,0.015197,0.041885,-0.13006,0,0.1112,0.21242,0
0,0.505,0.017093,66.306,0.505,0.0098924,0.022179,-0.14095,0,0.068544,0.22742,0
0,0.505,0.017091,66.274,0.505,0.0094622,0.020914,-0.14153,0,0.065493,0.22821,0
0,0.505,0.01708,66.255,0.505,0.0086058,0.018553,-0.14255,0,0.059233,0.22972,0
0,0.505,0.017074,66.251,0.505,0.0079391,0.016822,-0.14323,0,0.054437,0.23075,0
0,0.505,0.017089,66.275,0.505,0.009402,0.020747,-0.14161,0,0.065059,0.22834,0
0,0.505,0.017062,66.205,0.505,-0.0061033,-0.015516,-0.14374,0,-0.042625,0.23277,0
0,0.505,0.017058,66.215,0.505,-0.0064498,-0.016357,-0.14341,0,-0.045225,0.23235,0
0,0.505,0.01706,66.213,0.505,-0.0044704,-0.011634,-0.14508,0,-0.031205,0.23448,0
0,0.505,0.017067,66.203,0.505,-0.0050724,-0.013036,-0.14464,0,-0.035383,0.23396,0
0,0.505,0.017057,66.219,0.505,-0.0065484,-0.016587,-0.1433,0,-0.045962,0.23222,0
0,0.505,0.017062,66.222,0.505,-0.0054664,-0.013987,-0.1443,0,-0.038129,0.23356,0
0,0.505,0.017064,66.204,0.505,-0.0058917,-0.014996,-0.14394,0,-0.041065,0.23304,0
0,0.505,0.017063,66.206,0.505,-0.0059501,-0.015144,-0.14388,0,-0.041482,0.23298,0
0,0.505,0.01706,66.196,0.505,-0.0034287,-0.009231,-0.14573,0,-0.023991,0.23522,0
0,0.505,0.017063,66.192,0.505,-0.0035841,-0.0095908,-0.14565,0,-0.025067,0.23513,0
0,0.505,0.017059,66.209,0.505,-0.0039562,-0.010439,-0.14543,0,-0.027638,0.23489,0
0,0.505,0.017063,66.2,0.505,-0.0042092,-0.011011,-0.14526,0,-0.029386,0.23469,0
0,0.505,0.017053,66.187,0.505,-0.0024318,-0.0069763,-0.14618,0,-0.017128,0.23575,0
0,0.505,0.017052,66.205,0.505,-0.0028942,-0.0080227,-0.14599,0,-0.020308,0.23554,0
0,0.505,0.017061,66.192,0.505,-0.0033196,-0.0089734,-0.14579,0,-0.023234,0.23529,0
0,0.505,0.017087,66.286,0.505,-0.0090897,-0.023343,-0.1402,0,-0.064384,0.22841,0
0,0.505,0.0171,66.277,0.505,-0.0094297,-0.024343,-0.13973,0,-0.066871,0.22785,0
0,0.505,0.017099,66.288,0.505,-0.0095899,-0.024802,-0.13951,0,-0.068037,0.22758,0
0,0.505,0.017107,66.284,0.505,-0.0097569,-0.025303,-0.13926,0,-0.069257,0.22727,0
0,0.505,0.017089,66.291,0.505,-0.01105,-0.029316,-0.1373,0,-0.079228,0.22452,0
0,0.505,0.017092,66.292,0.505,-0.010871,-0.02876,-0.13759,0,-0.077707,0.22495,0
0,0.505,0.017105,66.292,0.505,-0.01032,-0.02704,-0.13843,0,-0.073439,0.22625,0
0,0.505,0.017104,66.289,0.505,-0.01059,-0.027861,-0.13802,0,-0.075416,0.22571,0
0,0.505,0.01706,66.255,0.505,-0.0087015,-0.022242,-0.14078,0,-0.061459,0.22907,0
0,0.505,0.017065,66.267,0.505,-0.0082707,-0.021079,-0.14132,0,-0.058108,0.2299,0
0,0.505,0.017058,66.253,0.505,-0.0086476,-0.022084,-0.14086,0,-0.061045,0.22916,0
0,0.505,0.01725,66.613,0.505,-0.018619,-0.07078,-0.11657,0,-0.15236,0.18949,0
0,0.505,0.01725,66.617,0.505,-0.01864,-0.070987,-0.11646,0,-0.15264,0.1893,0
0,0.505,0.017216,66.576,0.505,-0.01814,-0.065948,-0.11896,0,-0.14574,0.19392,0
0,0.505,0.017225,66.58,0.505,-0.018231,-0.066835,-0.11852,0,-0.14706,0.19308,0
0,0.505,0.017224,66.565,0.505,-0.018036,-0.065015,-0.11941,0,-0.14434,0.19481,0
0,0.505,0.017251,66.617,0.505,-0.018657,-0.071183,-0.11636,0,-0.1529,0.18912,0
0,0.505,0.017206,66.521,0.505,-0.017082,-0.057443,-0.12315,0,-0.13312,0.20128,0
0,0.505,0.017204,66.555,0.505,-0.017282,-0.058936,-0.12241,0,-0.13533,0.19997,0
0,0.505,0.017191,66.506,0.505,-0.016691,-0.054815,-0.12448,0,-0.12895,0.20378,0
0,0.505,0.017205,66.509,0.505,-0.016899,-0.056201,-0.12379,0,-0.13117,0.20246,0
0,0.505,0.017203,66.522,0.505,-0.016995,-0.05683,-0.12346,0,-0.13219,0.20188,0
0,0.505,0.017197,66.487,0.505,-0.016518,-0.053692,-0.12503,0,-0.12709,0.20473,0
0,0.505,0.017182,66.465,0.505,-0.016032,-0.050745,-0.1265,0,-0.12214,0.20727,0
0,0.505,0.017191,66.492,0.505,-0.016384,-0.052863,-0.12545,0,-0.12569,0.20547,0
0,0.505,0.017222,66.557,0.505,-0.017558,-0.061025,-0.12137,0,-0.13845,0.19814,0
0,0.505,0.017222,66.564,0.505,-0.017611,-0.061459,-0.12116,0,-0.13906,0.19776,0
0,0.505,0.017223,66.559,0.505,-0.017704,-0.062216,-0.1208,0,-0.14015,0.19717,0
0,0.505,0.017219,66.575,0.505,-0.017899,-0.063807,-0.12001,0,-0.14248,0.1959,0
0,0.505,0.017227,66.603,0.505,-0.018375,-0.0682,-0.11782,0,-0.149,0.19174,0
0,0.505,0.017071,66.233,0.505,-0.006993,-0.01772,-0.14281,0,-0.049216,0.23174,0
0,0.505,0.017108,66.303,0.505,-0.010099,-0.026356,-0.13874,0,-0.071806,0.22665,0
0,0.505,0.017117,66.339,0.505,-0.012773,-0.035475,-0.13421,0,-0.09288,0.21991,0
0,0.505,0.017118,66.338,0.505,-0.012802,-0.035581,-0.13415,0,-0.093121,0.21982,0
0,0.505,0.017128,66.321,0.505,-0.011869,-0.032137,-0.13584,0,-0.085816,0.22245,0
0,0.505,0.017128,66.324,0.505,-0.0119,-0.03224,-0.13579,0,-0.086043,0.22238,0
0,0.505,0.01709,66.256,0.505,-0.0077132,-0.019587,-0.14197,0,-0.054219,0.23075,0
0,0.505,0.017088,66.248,0.505,-0.0078436,-0.019926,-0.14181,0,-0.055115,0.23055,0
0,0.505,0.017072,66.238,0.505,-0.0071153,-0.018018,-0.14268,0,-0.050066,0.23156,0
0,0.505,0.01709,66.251,0.505,-0.0076253,-0.019365,-0.14207,0,-0.053618,0.23086,0
0,0.505,0.017131,66.326,0.505,-0.012175,-0.033247,-0.1353,0,-0.088167,0.22165,0
0,0.505,0.017131,66.331,0.505,-0.012331,-0.033816,-0.13501,0,-0.089364,0.22124,0
0,0.505,0.01706,66.175,0.505,-0.00093245,-0.0036368,-0.14652,0,-0.0069064,0.23622,0
0,0.505,0.017064,66.196,0.505,-0.0012937,-0.0044326,-0.14644,0,-0.0093813,0.23616,0
0,0.505,0.017049,66.179,0.505,-0.00076636,-0.0032646,-0.14656,0,-0.0057754,0.23626,0
0,0.505,0.017062,66.188,0.505,-0.0015472,-0.0049879,-0.1464,0,-0.011102,0.23607,0
0,0.505,0.017049,66.201,0.505,-0.0018206,-0.0056177,-0.14634,0,-0.012955,0.23597,0
0,0.505,0.017065,66.182,0.505,0.00013915,-0.0012731,-0.1466,0,0.00035676,0.2362,0
0,0.505,0.01704,66.191,0.505,-0.00023452,-0.0021089,-0.14661,0,-0.002102,0.23635,0
0,0.505,0.017049,66.174,0.505,-0.00065891,-0.0030206,-0.14657,0,-0.0050076,0.23628,0
0,0.505,0.017063,66.181,0.505,0.0013416,0.001382,-0.14654,0,0.0087595,0.23609,0
0,0.505,0.017062,66.18,0.505,0.0013159,0.0013225,-0.14655,0,0.0085828,0.23609,0
0,0.505,0.017051,66.19,0.505,-0.0023549,-0.0068103,-0.14622,0,-0.016603,0.23579,0
0,0.505,0.017053,66.185,0.505,-0.0022424,-0.0065635,-0.14625,0,-0.015837,0.23583,0
0,0.505,0.017096,66.291,0.505,0.010222,0.023133,-0.14049,0,0.070989,0.22685,0
0,0.505,0.01709,66.292,0.505,0.01038,0.023615,-0.14028,0,0.072196,0.22656,0
0,0.505,0.017132,66.373,0.505,0.013428,0.034104,-0.13456,0,0.096079,0.21867,0
0,0.505,0.017128,66.371,0.505,0.013277,0.03352,-0.13491,0,0.094882,0.21911,0
0,0.505,0.017311,66.859,0.505,-0.017249,-0.15803,-0.087709,0,-0.23108,0.10765,0
0,0.505,0.017302,66.864,0.505,-0.016974,-0.16068,-0.087228,0,-0.23274,0.10501,0
0,0.505,0.017322,66.911,0.505,-0.019393,-0.12964,-0.094047,0,-0.21181,0.13465,0
0,0.505,0.017318,66.911,0.505,-0.019318,-0.13109,-0.093647,0,-0.21294,0.13321,0
0,0.505,0.017332,66.875,0.505,-0.019681,-0.12316,-0.095952,0,-0.20687,0.14065,0
0,0.505,0.017333,66.869,0.505,-0.019576,-0.12572,-0.095186,0,-0.20878,0.13817,0
0,0.505,0.017331,66.877,0.505,-0.019549,-0.12637,-0.094979,0,-0.20928,0.13756,0
0,0.505,0.01733,66.876,0.505,-0.019533,-0.12672,-0.094875,0,-0.20955,0.13724,0
0,0.505,0.017337,66.864,0.505,-0.01977,-0.12066,-0.096727,0,-0.2046,0.14303,0
0,0.505,0.017307,66.807,0.505,-0.02005,-0.1022,-0.10297,0,-0.1881,0.16031,0
0,0.505,0.017307,66.806,0.505,-0.02005,-0.10227,-0.10294,0,-0.18818,0.16023,0
0,0.505,0.017258,66.681,0.505,-0.019173,-0.077745,-0.11328,0,-0.16113,0.18318,0
0,0.505,0.017257,66.698,0.505,-0.019292,-0.07945,-0.11246,0,-0.16326,0.18161,0
0,0.505,0.017254,66.683,0.505,-0.019099,-0.076675,-0.11376,0,-0.15984,0.18417,0
0,0.505,0.017298,66.771,0.505,-0.019972,-0.095883,-0.1054,0,-0.18185,0.16653,0
0,0.505,0.017297,66.776,0.505,-0.01998,-0.096312,-0.10524,0,-0.1823,0.16613,0
0,0.505,0.017296,66.81,0.505,-0.020023,-0.099053,-0.10416,0,-0.18517,0.16336,0
0,0.505,0.017307,66.805,0.505,-0.020049,-0.10207,-0.10302,0,-0.18797,0.16043,0
0,0.505,0.017289,66.791,0.505,-0.019918,-0.093528,-0.10635,0,-0.17937,0.16862,0
0,0.505,0.017288,66.765,0.505,-0.019868,-0.091681,-0.10709,0,-0.17738,0.17023,0
0,0.505,0.017289,66.723,0.505,-0.019744,-0.088157,-0.10859,0,-0.17349,0.1736,0
0,0.505,0.017288,66.754,0.505,-0.019833,-0.090642,-0.10754,0,-0.17626,0.1712,0
0,0.505,0.017289,66.724,0.505,-0.01974,-0.088067,-0.10863,0,-0.17338,0.1737,0
0,0.505,0.017265,66.716,0.505,-0.019586,-0.084607,-0.11014,0,-0.16942,0.17702,0
0,0.505,0.017267,66.721,0.505,-0.019623,-0.085406,-0.1098,0,-0.17044,0.1762,0
0,0.505,0.017298,66.776,0.505,-0.019988,-0.096808,-0.10505,0,-0.18284,0.16564,0
0,0.505,0.017252,66.654,0.505,-0.01889,-0.073898,-0.11507,0,-0.15645,0.18673,0
0,0.505,0.017258,66.654,0.505,-0.019005,-0.075377,-0.11436,0,-0.15827,0.18537,0
0,0.505,0.017272,66.69,0.505,-0.019471,-0.082451,-0.1111,0,-0.16687,0.17896,0
0,0.505,0.01727,66.689,0.505,-0.01943,-0.08172,-0.11144,0,-0.16598,0.17962,0
0,0.505,0.01727,66.693,0.505,-0.019446,-0.081967,-0.11132,0,-0.16629,0.17939,0
0,0.505,0.017305,66.833,0.505,-0.020053,-0.10557,-0.10172,0,-0.19141,0.15705,0
0,0.505,0.017309,66.833,0.505,-0.020049,-0.10639,-0.10144,0,-0.19211,0.15628,0
0,0.505,0.017198,66.494,0.505,0.017366,0.054505,-0.12304,0,0.13236,0.20168,0
0,0.505,0.017188,66.489,0.505,0.017096,0.052674,-0.12404,0,0.12948,0.20324,0
0,0.505,0.0172,66.505,0.505,0.017802,0.057713,-0.12137,0,0.1372,0.19897,0
0,0.505,0.017201,66.505,0.505,0.017717,0.057058,-0.1217,0,0.13617,0.19956,0
0,0.505,0.017227,66.596,0.505,0.019043,0.069235,-0.11567,0,0.15304,0.18886,0
0,0.505,0.017228,66.574,0.505,0.018847,0.06709,-0.11668,0,0.1503,0.19072,0
0,0.505,0.0172,66.517,0.505,0.01802,0.059433,-0.12048,0,0.13988,0.19739,0
0,0.505,0.017195,66.517,0.505,0.017956,0.058907,-0.12075,0,0.13909,0.19789,0
0,0.505,0.017303,66.813,0.505,0.020431,0.10808,-0.099706,0,0.19492,0.15366,0
0,0.505,0.017305,66.797,0.505,0.020439,0.10676,-0.1002,0,0.19371,0.15488,0
0,0.505,0.017307,66.826,0.505,0.02039,0.11102,-0.098659,0,0.19752,0.15095,0
0,0.505,0.017307,66.806,0.505,0.020416,0.10921,-0.099298,0,0.19593,0.15261,0
0,0.505,0.017296,66.764,0.505,0.020425,0.09827,-0.10336,0,0.18578,0.16273,0
0,0.505,0.017287,66.78,0.505,0.020409,0.096774,-0.10394,0,0.18442,0.16404,0
0,0.505,0.017287,66.735,0.505,0.020373,0.094738,-0.10475,0,0.18238,0.16585,0
0,0.505,0.017286,66.735,0.505,0.02037,0.094544,-0.10482,0,0.18217,0.16602,0
0,0.505,0.017296,66.78,0.505,0.020436,0.099544,-0.10288,0,0.18692,0.16161,0
0,0.505,0.017299,66.775,0.505,0.020445,0.10093,-0.10236,0,0.18825,0.16034,0
0,0.505,0.017297,66.792,0.505,0.020454,0.10235,-0.10181,0,0.18964,0.15896,0
0,0.505,0.017302,66.802,0.505,0.020449,0.10521,-0.10075,0,0.19228,0.1563,0
0,0.505,0.017303,66.785,0.505,0.020452,0.10381,-0.10126,0,0.19101,0.15759,0
0,0.505,0.017114,66.315,0.505,0.011989,0.028802,-0.13756,0,0.084607,0.22274,0
0,0.505,0.017114,66.315,0.505,0.011857,0.028344,-0.13781,0,0.083614,0.22309,0
0,0.505,0.016456,64.456,0.505,0.0069915,0.22591,-0.066756,0,0.2623,0.038248,0
0,0.505,0.016458,64.462,0.505,0.0070021,0.22588,-0.066806,0,0.26228,0.038302,0
0,0.505,0.01713,66.312,0.505,0.012308,0.19607,-0.0798,0,0.25207,0.067285,0
0,0.505,0.017146,66.376,0.505,0.01266,0.19385,-0.080203,0,0.25113,0.069489,0
0,0.505,0.014331,61.919,0.505,0.0019049,0.19134,-0.027109,0,0.26884,0.014137,0
0,0.505,0.014405,61.909,0.505,0.001997,0.19544,-0.028444,0,0.26873,0.014709,0
0,0.505,0.013531,62.609,0.505,0.00083364,0.13179,-0.011299,0,0.27024,0.0073637,0
0,0.505,0.01362,62.478,0.505,0.00093922,0.13995,-0.013127,0,0.2701,0.0080975,0
0,0.505,0.015831,63.282,0.505,0.0048658,0.22977,-0.055032,0,0.26523,0.028481,0
0,0.505,0.015912,63.417,0.505,0.0051364,0.22975,-0.056703,0,0.2649,0.029685,0
0,0.505,0.013938,62.036,0.505,0.0013622,0.16947,-0.0197,0,0.26941,0.011026,0
0,0.505,0.017222,66.619,0.505,0.014468,0.18218,-0.082165,0,0.24569,0.081443,0
0,0.505,0.017232,66.641,0.505,0.014651,0.18095,-0.082348,0,0.24505,0.082735,0
0,0.505,0.017179,66.461,0.505,0.013251,0.19016,-0.080914,0,0.24945,0.073345,0
0,0.505,0.017183,66.472,0.505,0.013364,0.18943,-0.081047,0,0.24911,0.074082,0
0,0.505,0.01711,66.263,0.505,0.01206,0.19756,-0.079468,0,0.25271,0.065751,0
0,0.505,0.017013,65.98,0.505,0.010808,0.20519,-0.077517,0,0.25574,0.058305,0
0,0.505,0.017073,66.121,0.505,0.011432,0.20146,-0.078629,0,0.25426,0.061951,0
0,0.505,0.017073,66.122,0.505,0.01144,0.20141,-0.078642,0,0.25424,0.061998,0
0,0.505,0.017075,66.126,0.505,0.01146,0.20129,-0.078673,0,0.25419,0.062117,0
0,0.505,0.016947,65.788,0.505,0.010106,0.20935,-0.076133,0,0.25718,0.054646,0
0,0.505,0.016987,65.911,0.505,0.010518,0.20699,-0.077005,0,0.25638,0.056788,0
0,0.505,0.01679,65.314,0.505,0.0088794,0.21638,-0.073196,0,0.25951,0.047886,0
0,0.505,0.01685,65.501,0.505,0.0092787,0.21424,-0.0743,0,0.25884,0.049867,0
0,0.505,0.016949,65.668,0.505,0.0097785,0.21141,-0.075637,0,0.25785,0.052814,0
0,0.505,0.016619,64.838,0.505,0.0077602,0.22239,-0.06965,0,0.2613,0.042105,0
0,0.505,0.016683,65.012,0.505,0.0081007,0.22083,-0.070887,0,0.26073,0.043839,0
0,0.505,0.016932,65.624,0.505,0.009633,0.21229,-0.075313,0,0.25814,0.051991,0
0,0.505,0.016198,63.948,0.505,0.006042,0.2289,-0.062152,0,0.26365,0.033709,0
0,0.505,0.016205,63.959,0.505,0.0060695,0.2288,-0.062292,0,0.26361,0.033847,0
0,0.505,0.016405,64.355,0.505,0.0068067,0.22649,-0.065869,0,0.26256,0.037364,0
0,0.505,0.015485,62.734,0.505,0.0039455,0.2264,-0.048176,0,0.26644,0.024007,0
0,0.505,0.015653,62.918,0.505,0.0043174,0.22835,-0.051077,0,0.26598,0.025832,0
0,0.505,0.017265,66.695,0.505,0.020035,0.084169,-0.10903,0,0.17111,0.17544,0
0,0.505,0.017266,66.683,0.505,0.020002,0.08351,-0.10932,0,0.17034,0.176,0
0,0.505,0.017249,66.655,0.505,0.019779,0.079292,-0.11113,0,0.16533,0.17979,0
0,0.505,0.017252,66.647,0.505,0.019711,0.078196,-0.1116,0,0.16403,0.18078,0
0,0.505,0.017254,66.686,0.505,0.019914,0.081718,-0.11007,0,0.16829,0.17757,0
0,0.505,0.01725,66.655,0.505,0.019796,0.079592,-0.11101,0,0.16569,0.17953,0
0,0.505,0.017251,66.651,0.505,0.019626,0.076812,-0.1122,0,0.1624,0.18205,0
0,0.505,0.01725,66.65,0.505,0.019607,0.076541,-0.11233,0,0.16207,0.18228,0
0,0.505,0.017241,66.634,0.505,0.019409,0.073711,-0.11359,0,0.15896,0.18469,0
0,0.505,0.01724,66.62,0.505,0.01937,0.07323,-0.11381,0,0.15835,0.1851,0
0,0.505,0.017226,66.596,0.505,0.019096,0.069855,-0.11539,0,0.15384,0.1883,0
0,0.505,0.017224,66.608,0.505,0.019229,0.071407,-0.11465,0,0.15599,0.18676,0
0,0.505,0.017177,66.453,0.505,0.013189,0.19056,-0.08085,0,0.24963,0.072941,0
0,0.505,0.016752,65.183,0.505,0.0085115,0.21856,-0.07216,0,0.26001,0.045993,0
0,0.505,0.016187,63.931,0.505,0.0060062,0.229,-0.061966,0,0.26369,0.033544,0
0,0.505,0.01342,63.128,0.505,0.00070462,0.11225,-0.0087627,0,0.27055,0.0060431,0
0,0.505,0.01448,61.953,0.505,0.0021222,0.19849,-0.029949,0,0.26859,0.015334,0
0,0.505,0.015297,62.528,0.505,0.0035745,0.22367,-0.044878,0,0.26691,0.022104,0
0,0.505,0.014814,62.168,0.505,0.0027209,0.21244,-0.036476,0,0.26785,0.018255,0
0,0.505,0.015091,62.329,0.505,0.0032157,0.2186,-0.041257,0,0.26734,0.020452,0
0,0.505,0.017254,66.692,0.505,0.015189,0.17719,-0.082919,0,0.24311,0.086796,0
0,0.505,0.017248,66.731,0.505,0.015698,0.17344,-0.083508,0,0.24107,0.090562,0
0,0.505,0.017191,66.551,0.505,0.013841,0.18632,-0.081504,0,0.24767,0.077197,0
0,0.505,0.0172,66.578,0.505,0.014026,0.18512,-0.081696,0,0.2471,0.078424,0
0,0.505,0.017305,66.843,0.505,0.018055,0.15275,-0.087118,0,0.22866,0.11142,0
0,0.505,0.017306,66.861,0.505,0.0183,0.15008,-0.087661,0,0.22694,0.11403,0
0,0.505,0.017309,66.859,0.505,0.018421,0.1487,-0.087955,0,0.22604,0.11537,0
0,0.505,0.017308,66.87,0.505,0.018575,0.14692,-0.088342,0,0.22486,0.1171,0
0,0.505,0.017313,66.863,0.505,0.018762,0.14461,-0.088871,0,0.22331,0.11933,0
0,0.505,0.017317,66.858,0.505,0.019083,0.14037,-0.089893,0,0.22037,0.1234,0
0,0.505,0.017315,66.874,0.505,0.019286,0.13742,-0.090622,0,0.21828,0.12622,0
0,0.505,0.017317,66.855,0.505,0.019027,0.14114,-0.089713,0,0.2209,0.12267,0
0,0.505,0.017317,66.858,0.505,0.019068,0.14059,-0.089841,0,0.22052,0.1232,0
0,0.505,0.017299,66.833,0.505,0.017701,0.15639,-0.086401,0,0.23097,0.10783,0
0,0.505,0.017303,66.83,0.505,0.017839,0.15498,-0.08669,0,0.23007,0.10922,0
0,0.505,0.017304,66.843,0.505,0.018009,0.15324,-0.087021,0,0.22897,0.11094,0
0,0.505,0.017283,66.815,0.505,0.017014,0.16277,-0.085219,0,0.23486,0.10142,0
0,0.505,0.01729,66.82,0.505,0.017233,0.16081,-0.085572,0,0.23368,0.1034,0
0,0.505,0.017291,66.83,0.505,0.01737,0.15956,-0.085792,0,0.23293,0.10466,0
0,0.505,0.017299,66.83,0.505,0.017661,0.15678,-0.086326,0,0.23121,0.10744,0
0,0.505,0.013033,64.693,0.505,0.00037519,0.055936,-0.0023809,0,0.27125,0.0018828,0
0,0.505,0.013219,64.05,0.505,0.00045757,0.077102,-0.0040382,0,0.27099,0.003743,0
0,0.505,0.017286,66.733,0.505,0.020366,0.094354,-0.1049,0,0.18198,0.16621,0
0,0.505,0.017283,66.743,0.505,0.020318,0.092304,-0.1057,0,0.17975,0.16826,0
0,0.505,0.017242,66.634,0.505,0.019431,0.073997,-0.11345,0,0.15929,0.18442,0
0,0.505,0.017228,66.574,0.505,0.018835,0.066958,-0.11675,0,0.15013,0.19084,0
0,0.505,0.017218,66.577,0.505,0.018625,0.064825,-0.11777,0,0.14733,0.1927,0
0,0.505,0.01722,66.568,0.505,0.018553,0.064174,-0.11809,0,0.14645,0.19328,0
0,0.505,0.017214,66.567,0.505,0.018398,0.062714,-0.1188,0,0.14448,0.19453,0
0,0.505,0.017214,66.543,0.505,0.01824,0.061335,-0.11951,0,0.14262,0.19571,0
0,0.505,0.017207,66.542,0.505,0.018164,0.060659,-0.11984,0,0.14169,0.19625,0
0,0.505,0.017277,66.738,0.505,0.020233,0.08926,-0.10691,0,0.17668,0.17102,0
0,0.505,0.017279,66.713,0.505,0.020176,0.087717,-0.10757,0,0.17504,0.17237,0
0,0.505,0.017279,66.75,0.505,0.020292,0.091323,-0.1061,0,0.17872,0.16912,0
0,0.505,0.017275,66.717,0.505,0.020136,0.086665,-0.10798,0,0.17386,0.17323,0
0,0.505,0.017272,66.691,0.505,0.020072,0.085065,-0.10865,0,0.1721,0.17463,0
0,0.505,0.017044,66.04,0.505,-0.010545,-0.20581,-0.079509,0,-0.2552,0.059531,0
0,0.505,0.017011,65.921,0.505,-0.010138,-0.20829,-0.078831,0,-0.25605,0.057241,0
0,0.505,0.01706,66.076,0.505,-0.01075,-0.20455,-0.079881,0,-0.25472,0.060717,0
0,0.505,0.013231,63.877,0.505,6.7739e-05,-0.080147,-0.004477,0,-0.27073,0.0038432,0
0,0.505,0.013062,64.288,0.505,0.00011468,-0.066894,-0.0034779,0,-0.27093,0.0027688,0
0,0.505,0.016989,65.86,0.505,-0.0099161,-0.20958,-0.078392,0,-0.25652,0.055991,0
0,0.505,0.016973,65.806,0.505,-0.0097711,-0.21042,-0.078098,0,-0.25682,0.055188,0
0,0.505,0.016736,65.206,0.505,-0.0079867,-0.22051,-0.07335,0,-0.2601,0.045785,0
0,0.505,0.016681,65.007,0.505,-0.0075409,-0.22296,-0.072028,0,-0.26081,0.043574,0
0,0.505,0.016918,65.672,0.505,-0.009276,-0.21334,-0.076908,0,-0.25782,0.052478,0
0,0.505,0.016847,65.465,0.505,-0.0087029,-0.21668,-0.075586,0,-0.2589,0.049453,0
0,0.505,0.016645,64.899,0.505,-0.0073264,-0.22393,-0.071241,0,-0.26116,0.042521,0
0,0.505,0.016568,64.666,0.505,-0.0069064,-0.22586,-0.069675,0,-0.26187,0.040446,0
0,0.505,0.016513,64.538,0.505,-0.0066294,-0.22715,-0.068526,0,-0.26233,0.039094,0
0,0.505,0.016476,64.457,0.505,-0.0064621,-0.22786,-0.067828,0,-0.26256,0.03829,0
0,0.505,0.015838,63.272,0.505,-0.0044032,-0.23137,-0.056225,0,-0.26538,0.028523,0
0,0.505,0.015755,63.156,0.505,-0.0041831,-0.23101,-0.054767,0,-0.26563,0.027529,0
0,0.505,0.015985,63.494,0.505,-0.0048229,-0.23129,-0.059016,0,-0.26481,0.030468,0
0,0.505,0.016151,63.812,0.505,-0.0053173,-0.23113,-0.062053,0,-0.26415,0.032797,0
0,0.505,0.016092,63.699,0.505,-0.0051366,-0.23132,-0.060974,0,-0.26439,0.031931,0
0,0.505,0.015268,62.45,0.505,-0.0030194,-0.2249,-0.045498,0,-0.26696,0.022154,0
0,0.505,0.015246,62.42,0.505,-0.0029728,-0.22448,-0.045061,0,-0.26702,0.021934,0
0,0.505,0.016837,65.438,0.505,-0.0086297,-0.21706,-0.075385,0,-0.25904,0.049066,0
0,0.505,0.016827,65.405,0.505,-0.0085585,-0.21744,-0.07519,0,-0.25915,0.048702,0
0,0.505,0.017188,66.491,0.505,-0.012896,-0.19126,-0.082724,0,-0.24913,0.073883,0
0,0.505,0.017186,66.484,0.505,-0.012861,-0.19147,-0.082686,0,-0.24923,0.073658,0
0,0.505,0.017129,66.298,0.505,-0.011722,-0.19862,-0.081303,0,-0.25235,0.066451,0
0,0.505,0.017119,66.259,0.505,-0.011571,-0.19954,-0.081109,0,-0.25274,0.065538,0
0,0.505,0.017165,66.393,0.505,-0.0123,-0.19505,-0.082058,0,-0.25082,0.070036,0
0,0.505,0.017164,66.387,0.505,-0.012273,-0.19522,-0.082027,0,-0.25089,0.06987,0
0,0.505,0.017087,66.187,0.505,-0.011146,-0.20214,-0.080454,0,-0.2538,0.063026,0
0,0.505,0.017293,66.843,0.505,-0.016599,-0.16408,-0.086687,0,-0.23476,0.1016,0
0,0.505,0.017293,66.816,0.505,-0.0163,-0.16668,-0.086294,0,-0.2363,0.098959,0
0,0.505,0.017331,66.92,0.505,-0.018999,-0.13663,-0.092227,0,-0.21698,0.12826,0
0,0.505,0.017329,66.917,0.505,-0.018836,-0.13915,-0.091597,0,-0.21875,0.12595,0
0,0.505,0.017315,66.899,0.505,-0.018035,-0.14961,-0.089277,0,-0.22591,0.11572,0
0,0.505,0.017308,66.91,0.505,-0.01796,-0.15051,-0.089068,0,-0.2265,0.11487,0
0,0.505,0.015212,62.377,0.505,-0.0029067,-0.22355,-0.0444,0,-0.2671,0.021613,0
0,0.505,0.014899,62.093,0.505,-0.0022713,-0.21531,-0.037914,0,-0.26781,0.018603,0
0,0.505,0.015559,62.862,0.505,-0.0036843,-0.22922,-0.050841,0,-0.26622,0.025224,0
0,0.505,0.016315,64.136,0.505,-0.0058856,-0.22969,-0.064986,0,-0.26339,0.035481,0
0,0.505,0.014332,61.869,0.505,-0.0013771,-0.19203,-0.027413,0,-0.26882,0.014027,0
0,0.505,0.013999,61.933,0.505,-0.00096409,-0.17711,-0.021943,0,-0.26929,0.011803,0
0,0.505,0.014625,61.93,0.505,-0.0017902,-0.20522,-0.032745,0,-0.26834,0.016243,0
0,0.505,0.014508,61.872,0.505,-0.0015934,-0.20042,-0.030311,0,-0.26856,0.015236,0
0,0.505,0.013381,63.227,0.505,-0.00014351,-0.10723,-0.0083854,0,-0.27035,0.0057472,0
0,0.505,0.013293,63.68,0.505,2.3808e-05,-0.087833,-0.0052989,0,-0.27063,0.0042999,0
0,0.505,0.013756,62.165,0.505,-0.00062481,-0.15701,-0.017013,0,-0.26962,0.0096956,0
0,0.505,0.013586,62.362,0.505,-0.00042052,-0.14326,-0.013633,0,-0.26988,0.0083092,0
0,0.505,0.01727,66.758,0.505,-0.015325,-0.17449,-0.085153,0,-0.24081,0.091052,0
0,0.505,0.01727,66.752,0.505,-0.015264,-0.17495,-0.08509,0,-0.24104,0.090579,0
0,0.505,0.017146,66.373,0.505,-0.013794,-0.039626,-0.1321,0,-0.10156,0.21642,0
0,0.505,0.017146,66.38,0.505,-0.013865,-0.039923,-0.13195,0,-0.10213,0.21618,0
0,0.505,0.017134,66.377,0.505,-0.013482,-0.03831,-0.13275,0,-0.099058,0.21753,0
0,0.505,0.017172,66.47,0.505,-0.015738,-0.049099,-0.12733,0,-0.11929,0.20869,0
0,0.505,0.017163,66.444,0.505,-0.015182,-0.046096,-0.12882,0,-0.11404,0.21124,0
0,0.505,0.017173,66.455,0.505,-0.015591,-0.048264,-0.12773,0,-0.11786,0.2094,0
0,0.505,0.017167,66.459,0.505,-0.015394,-0.047221,-0.12827,0,-0.11603,0.21033,0
0,0.505,0.017131,66.332,0.505,-0.012344,-0.033866,-0.13499,0,-0.08947,0.22121,0
0,0.505,0.017144,66.414,0.505,-0.014636,-0.043426,-0.13018,0,-0.10906,0.21326,0
0,0.505,0.017127,66.332,0.505,-0.012497,-0.034441,-0.13471,0,-0.090689,0.22074,0
0,0.505,0.017114,66.35,0.505,-0.013154,-0.036953,-0.13346,0,-0.096209,0.21861,0
0,0.505,0.01712,66.35,0.505,-0.01327,-0.037415,-0.13322,0,-0.097224,0.2182,0
0,0.505,0.017325,66.917,0.505,-0.018753,-0.14038,-0.091304,0,-0.21972,0.12476,0
0,0.505,0.017327,66.912,0.505,-0.018667,-0.14159,-0.091034,0,-0.22043,0.12352,0
0,0.505,0.017325,66.904,0.505,-0.018259,-0.14698,-0.089801,0,-0.2242,0.11822,0
0,0.505,0.017337,66.893,0.505,-0.018493,-0.144,-0.090477,0,-0.22202,0.12136,0
0,0.505,0.017335,66.889,0.505,-0.0184,-0.14519,-0.090219,0,-0.22287,0.1202,0
0,0.505,0.017288,66.721,0.505,-0.019731,-0.087872,-0.10871,0,-0.17316,0.17388,0
0,0.505,0.017311,66.896,0.505,-0.017866,-0.15155,-0.08888,0,-0.22711,0.11389,0
0,0.505,0.017307,66.807,0.505,-0.020051,-0.10273,-0.10277,0,-0.18862,0.15978,0
0,0.505,0.017327,66.88,0.505,-0.019912,-0.11573,-0.098274,0,-0.20076,0.14777,0
0,0.505,0.017333,66.868,0.505,-0.019855,-0.11784,-0.097623,0,-0.20231,0.14576,0
0,0.505,0.017322,66.871,0.505,-0.019993,-0.11197,-0.099483,0,-0.19749,0.15109,0
0,0.505,0.017329,66.865,0.505,-0.019948,-0.11415,-0.098777,0,-0.19937,0.14915,0
0,0.505,0.017313,66.864,0.505,-0.020035,-0.10857,-0.10065,0,-0.19414,0.15446,0
0,0.505,0.017325,66.841,0.505,-0.020022,-0.10983,-0.10022,0,-0.19536,0.15322,0
0,0.505,0.017336,66.868,0.505,-0.019798,-0.11987,-0.096981,0,-0.20389,0.14384,0
0,0.505,0.017332,66.874,0.505,-0.019809,-0.11952,-0.097087,0,-0.20358,0.14419,0
0,0.505,0.017327,66.877,0.505,-0.019925,-0.11524,-0.098422,0,-0.20033,0.14821,0
0,0.505,0.017327,66.842,0.505,-0.020007,-0.11094,-0.099851,0,-0.19645,0.15216,0
0,0.505,0.017322,66.923,0.505,-0.019209,-0.13308,-0.093131,0,-0.21436,0.13135,0
0,0.505,0.01733,66.922,0.505,-0.019097,-0.13502,-0.09262,0,-0.21577,0.1296,0
0,0.505,0.017309,66.902,0.505,-0.017637,-0.15404,-0.088389,0,-0.22859,0.11156,0
0,0.505,0.01729,66.81,0.505,-0.016195,-0.16757,-0.086159,0,-0.23681,0.098064,0
0,0.505,0.017301,66.849,0.505,-0.01683,-0.16201,-0.087026,0,-0.23351,0.10369,0
0,0.505,0.017312,66.866,0.505,-0.017319,-0.15734,-0.087819,0,-0.23066,0.10833,0
0,0.505,0.017313,66.867,0.505,-0.017354,-0.15699,-0.087881,0,-0.23044,0.10867,0
0,0.505,0.017286,66.78,0.505,-0.015787,-0.17091,-0.085672,0,-0.23876,0.09467,0
0,0.505,0.017212,66.581,0.505,-0.013501,-0.18731,-0.083321,0,-0.24734,0.07789,0
0,0.505,0.017206,66.563,0.505,-0.013384,-0.18806,-0.083202,0,-0.2477,0.077111,0
0,0.505,0.017233,66.655,0.505,-0.014104,-0.18325,-0.083904,0,-0.24537,0.082045,0
0,0.505,0.017223,66.63,0.505,-0.01389,-0.18469,-0.083687,0,-0.24609,0.080555,0
0,0.505,0.017256,66.728,0.505,-0.014864,-0.1779,-0.084657,0,-0.24263,0.087546,0
0,0.505,0.017253,66.711,0.505,-0.014697,-0.17912,-0.084491,0,-0.24325,0.086303,0
0,0.505,0.017239,66.685,0.505,-0.014384,-0.1813,-0.084169,0,-0.24439,0.084039,0
0,0.505,0.017283,66.77,0.505,-0.01566,-0.1719,-0.085538,0,-0.23932,0.093671,0
0,0.505,0.017285,66.779,0.505,-0.015767,-0.17107,-0.08565,0,-0.23885,0.09451,0
0,0.505,0.017185,66.482,0.505,0.016997,0.052007,-0.12439,0,0.12845,0.2038,0
0,0.505,0.017174,66.484,0.505,0.016732,0.050337,-0.12531,0,0.12582,0.20511,0
0,0.505,0.017199,66.498,0.505,0.017422,0.054921,-0.12282,0,0.13298,0.20133,0
0,0.505,0.017201,66.504,0.505,0.017698,0.056913,-0.12177,0,0.13596,0.19969,0
0,0.505,0.017114,66.351,0.505,0.012822,0.031773,-0.1359,0,0.091168,0.22037,0
0,0.505,0.017114,66.333,0.505,0.012452,0.030401,-0.13666,0,0.088125,0.22147,0
0,0.505,0.017114,66.333,0.505,0.012359,0.030085,-0.13684,0,0.087351,0.22175,0
0,0.505,0.017116,66.358,0.505,0.012961,0.032275,-0.13561,0,0.092301,0.22003,0
0,0.505,0.017173,66.475,0.505,0.01657,0.049318,-0.12586,0,0.1242,0.20592,0
0,0.505,0.017163,66.455,0.505,0.015962,0.045854,-0.12781,0,0.1183,0.20895,0
0,0.505,0.017155,66.418,0.505,0.015637,0.044095,-0.12881,0,0.11539,0.21049,0
0,0.505,0.017164,66.461,0.505,0.01632,0.047878,-0.12667,0,0.1217,0.20717,0
0,0.505,0.017147,66.41,0.505,0.014901,0.040492,-0.13087,0,0.10852,0.2135,0
0,0.505,0.017146,66.404,0.505,0.01478,0.039907,-0.1312,0,0.10748,0.21396,0
0,0.505,0.017139,66.394,0.505,0.014347,0.03795,-0.13233,0,0.10374,0.21555,0
0,0.505,0.017137,66.395,0.505,0.01411,0.036953,-0.13293,0,0.10174,0.21638,0
0,0.505,0.01714,66.403,0.505,0.014508,0.03869,-0.13192,0,0.10512,0.21496,0
0,0.505,0.017155,66.419,0.505,0.01563,0.044059,-0.12883,0,0.11533,0.21052,0
0,0.505,0.017134,66.386,0.505,0.013703,0.035243,-0.13391,0,0.098349,0.2178,0
0,0.505,0.017138,66.383,0.505,0.013892,0.036003,-0.13346,0,0.099897,0.21714,0
0,0.505,0.017155,66.417,0.505,0.015607,0.043947,-0.12889,0,0.11511,0.21062,0
0,0.505,0.017112,66.313,0.505,0.01183,0.028246,-0.13786,0,0.083415,0.22316,0
0,0.505,0.017164,66.448,0.505,0.016134,0.046789,-0.12727,0,0.11989,0.20805,0
0,0.505,0.017249,66.735,0.505,0.015726,0.17323,-0.083538,0,0.24095,0.090775,0
0,0.505,0.017265,66.763,0.505,0.016208,0.16952,-0.084103,0,0.23884,0.094469,0
0,0.505,0.017268,66.767,0.505,0.016285,0.1689,-0.084201,0,0.23848,0.095093,0
0,0.505,0.017279,66.79,0.505,0.016629,0.16609,-0.084662,0,0.23681,0.098054,0
0,0.505,0.017248,66.734,0.505,0.015713,0.17332,-0.083523,0,0.24101,0.09068,0
0,0.505,0.017249,66.672,0.505,0.015039,0.17825,-0.082763,0,0.24363,0.08566,0
0,0.505,0.017313,66.818,0.505,0.020347,0.11332,-0.097872,0,0.19954,0.14882,0
0,0.505,0.017314,66.823,0.505,0.020317,0.11469,-0.097389,0,0.20073,0.14753,0
0,0.505,0.017313,66.826,0.505,0.020334,0.11404,-0.097612,0,0.20017,0.14815,0
0,0.505,0.017282,66.796,0.505,0.016772,0.16488,-0.084867,0,0.23609,0.099284,0
0,0.505,0.017317,66.865,0.505,0.019395,0.13574,-0.091059,0,0.21707,0.1278,0
0,0.505,0.017315,66.875,0.505,0.01949,0.13424,-0.091447,0,0.21599,0.12922,0
0,0.505,0.017318,66.859,0.505,0.019669,0.13112,-0.092314,0,0.21358,0.13212,0
0,0.505,0.017318,66.855,0.505,0.01972,0.13013,-0.092593,0,0.21281,0.13304,0
0,0.505,0.017319,66.849,0.505,0.020105,0.12163,-0.095126,0,0.20641,0.14104,0
0,0.505,0.017317,66.858,0.505,0.020155,0.12033,-0.095529,0,0.20546,0.14228,0
0,0.505,0.01732,66.844,0.505,0.020182,0.11943,-0.095837,0,0.20473,0.14312,0
0,0.505,0.017314,66.849,0.505,0.020254,0.11711,-0.096572,0,0.20279,0.14528,0
0,0.505,0.017313,66.87,0.505,0.020028,0.12358,-0.094522,0,0.20783,0.13921,0
0,0.505,0.017315,66.859,0.505,0.019952,0.12533,-0.094011,0,0.20909,0.13761,0
0,0.505,0.017318,66.856,0.505,0.019626,0.13188,-0.092113,0,0.21417,0.1314,0
0,0.505,0.017317,66.867,0.505,0.01984,0.12782,-0.093242,0,0.21099,0.13529,0
0,0.505,0.017313,66.875,0.505,0.019879,0.12703,-0.093475,0,0.2104,0.13606,0
0,0.505,0.017312,66.868,0.505,0.018832,0.14375,-0.08907,0,0.22272,0.12016,0
0,0.505,0.017228,66.575,0.505,0.018837,0.066984,-0.11673,0,0.15016,0.19082,0
0,0.505,0.017062,66.18,0.505,0.0013748,0.0014576,-0.14654,0,0.0089907,0.23609,0
0,0.505,0.017063,66.19,0.505,0.0024859,0.0039226,-0.14634,0,0.016235,0.23581,0
0,0.505,0.01704,66.198,0.505,0.0019596,0.0027463,-0.14646,0,0.012908,0.23597,0
0,0.505,0.017063,66.195,0.505,0.0025593,0.004082,-0.14632,0,0.016717,0.2358,0
0,0.505,0.017062,66.188,0.505,0.00029145,-0.00094321,-0.14661,0,0.0013671,0.2362,0
0,0.505,0.017033,66.181,0.505,0.00076284,0.00010912,-0.14661,0,0.0047944,0.23621,0
0,0.505,0.01705,66.176,0.505,0.00053233,-0.0004129,-0.14661,0,0.0031367,0.23619,0
0,0.505,0.017054,66.212,0.505,0.0046663,0.0088758,-0.14558,0,0.031316,0.23451,0
0,0.505,0.01707,66.208,0.505,0.0059497,0.011878,-0.14485,0,0.040404,0.23331,0
0,0.505,0.017055,66.215,0.505,0.0054552,0.010711,-0.14516,0,0.036996,0.23381,0
0,0.505,0.017071,66.209,0.505,0.0059634,0.011912,-0.14484,0,0.040498,0.2333,0
0,0.505,0.017071,66.208,0.505,0.0059826,0.011959,-0.14483,0,0.040632,0.23328,0
0,0.505,0.017063,66.236,0.505,0.0064541,0.013107,-0.1445,0,0.043925,0.23273,0
0,0.505,0.01705,66.197,0.505,0.0051905,0.010076,-0.14533,0,0.035063,0.23413,0
0,0.505,0.017048,66.2,0.505,0.0049748,0.009595,-0.14545,0,0.033529,0.23429,0
