"cvar","mu","phivar","pressure","rho","str","velocity:0","velocity:1","Label","Points:0","Points:1","Points:2"
0,0.505,0.016015,66.354,0.505,-9.6256e-05,-0.0069315,-0.00015019,0,-0.27496,0,0
0,0.505,0.016024,66.355,0.505,-8.3765e-05,0.0074747,-0.00017076,0,0.27483,0,0
0,0.505,0.016838,66.413,0.505,-0.001782,-0.043954,-0.014046,0,-0.26287,0.046351,0
0,0.505,0.016839,66.365,0.505,-0.0016887,-0.044568,-0.013873,0,-0.26367,0.044017,0
0,0.505,0.016825,66.289,0.505,-0.0015657,-0.045242,-0.013538,0,-0.26477,0.040981,0
0,0.505,0.016816,66.261,0.505,-0.0015083,-0.045563,-0.013357,0,-0.26527,0.039575,0
0,0.505,0.016657,65.997,0.505,-0.0010572,-0.046789,-0.011224,0,-0.26854,0.028907,0
0,0.505,0.016642,65.977,0.505,-0.0010204,-0.046764,-0.011009,0,-0.26877,0.028082,0
0,0.505,0.016545,65.817,0.505,-0.00076351,-0.045662,-0.0091248,0,-0.27031,0.022211,0
0,0.505,0.016528,65.795,0.505,-0.00073181,-0.045258,-0.0088283,0,-0.27051,0.021459,0
0,0.505,0.016882,66.488,0.505,-0.0020402,-0.042338,-0.014487,0,-0.2604,0.053112,0
0,0.505,0.016859,66.444,0.505,-0.0019129,-0.043163,-0.014312,0,-0.2617,0.049718,0
0,0.505,0.016859,66.444,0.505,-0.0019113,-0.043173,-0.014309,0,-0.26172,0.049673,0
0,0.505,0.016859,66.443,0.505,-0.0019095,-0.043184,-0.014306,0,-0.26173,0.049628,0
0,0.505,0.016732,66.106,0.505,-0.0012486,-0.04658,-0.012292,0,-0.2672,0.033358,0
0,0.505,0.016716,66.082,0.505,-0.0012064,-0.046662,-0.012075,0,-0.26749,0.032352,0
0,0.505,0.016687,66.031,0.505,-0.0011297,-0.046717,-0.011654,0,-0.26803,0.030577,0
0,0.505,0.016091,66.132,0.505,-0.00012403,-0.014089,-0.00077735,0,-0.27442,0.0028783,0
0,0.505,0.016835,66.343,0.505,-0.0016489,-0.044784,-0.01377,0,-0.26403,0.043039,0
0,0.505,0.016767,66.176,0.505,-0.0013581,-0.046202,-0.012774,0,-0.26642,0.035934,0
0,0.505,0.016809,66.242,0.505,-0.0014759,-0.045733,-0.013253,0,-0.26551,0.038796,0
0,0.505,0.016464,65.745,0.505,-0.00061863,-0.043929,-0.0077413,0,-0.27119,0.018826,0
0,0.505,0.016128,66.057,0.505,-0.00013364,-0.016723,-0.00098633,0,-0.27424,0.0039276,0
0,0.505,0.016417,65.709,0.505,-0.00053529,-0.042312,-0.0068904,0,-0.27165,0.016827,0
0,0.505,0.016382,65.69,0.505,-0.00047802,-0.041001,-0.0062138,0,-0.27199,0.015397,0
0,0.505,0.016291,65.69,0.505,-0.00034724,-0.036373,-0.0045218,0,-0.27277,0.011916,0
0,0.505,0.01624,65.722,0.505,-0.00029022,-0.033096,-0.003721,0,-0.27305,0.010202,0
0,0.505,0.016554,65.831,0.505,-0.00078489,-0.04583,-0.0093106,0,-0.27019,0.022709,0
0,0.505,0.016599,65.918,0.505,-0.00091012,-0.04648,-0.010231,0,-0.26947,0.025562,0
0,0.505,0.016147,65.955,0.505,-0.00016894,-0.02114,-0.0016216,0,-0.27393,0.00546,0
0,0.505,0.016132,66.023,0.505,-0.00014171,-0.018093,-0.0011353,0,-0.27415,0.0043316,0
0,0.505,0.016337,65.682,0.505,-0.00041444,-0.038663,-0.0053877,0,-0.27237,0.013674,0
0,0.505,0.01619,65.773,0.505,-0.00023425,-0.029457,-0.0028266,0,-0.2734,0.0083721,0
0,0.505,0.016939,66.609,0.505,-0.0026461,-0.038225,-0.014979,0,-0.25281,0.070966,0
0,0.505,0.016938,66.609,0.505,-0.0026387,-0.038277,-0.014975,0,-0.25292,0.070715,0
0,0.505,0.016949,66.648,0.505,-0.002992,-0.035709,-0.015214,0,-0.24711,0.082724,0
0,0.505,0.016947,66.647,0.505,-0.0029576,-0.035965,-0.01518,0,-0.24774,0.081501,0
0,0.505,0.016962,66.648,0.505,-0.0033174,-0.0331,-0.01565,0,-0.24015,0.09525,0
0,0.505,0.016962,66.648,0.505,-0.0033169,-0.033104,-0.015649,0,-0.24016,0.095231,0
0,0.505,0.016963,66.654,0.505,-0.0034736,-0.031691,-0.016002,0,-0.23593,0.10217,0
0,0.505,0.016963,66.648,0.505,-0.0034148,-0.032238,-0.015856,0,-0.23759,0.099467,0
0,0.505,0.016965,66.653,0.505,-0.0035441,-0.03101,-0.0162,0,-0.23383,0.10551,0
0,0.505,0.016966,66.648,0.505,-0.0035153,-0.03129,-0.016121,0,-0.23469,0.10413,0
0,0.505,0.016935,66.601,0.505,-0.0025897,-0.038615,-0.014953,0,-0.25362,0.069171,0
0,0.505,0.016929,66.595,0.505,-0.0025248,-0.039058,-0.014917,0,-0.25455,0.067118,0
0,0.505,0.016918,66.563,0.505,-0.0023504,-0.040252,-0.014806,0,-0.25686,0.061905,0
0,0.505,0.016913,66.556,0.505,-0.0022924,-0.04065,-0.014758,0,-0.25758,0.060205,0
0,0.505,0.016928,66.592,0.505,-0.0025116,-0.039147,-0.01491,0,-0.25473,0.066716,0
0,0.505,0.016943,66.636,0.505,-0.0028606,-0.036681,-0.015112,0,-0.24944,0.078108,0
0,0.505,0.016942,66.624,0.505,-0.0027832,-0.037247,-0.015067,0,-0.25069,0.075493,0
0,0.505,0.016941,66.623,0.505,-0.0027557,-0.037446,-0.015048,0,-0.25113,0.074566,0
0,0.505,0.016899,66.513,0.505,-0.0021576,-0.041564,-0.014652,0,-0.25912,0.056357,0
0,0.505,0.01694,66.623,0.505,-0.0027595,-0.037418,-0.01505,0,-0.25107,0.074695,0
0,0.505,0.0169,66.516,0.505,-0.0021675,-0.0415,-0.014663,0,-0.25901,0.056634,0
0,0.505,0.016902,66.519,0.505,-0.0021818,-0.041407,-0.014678,0,-0.25885,0.05704,0
0,0.505,0.016944,66.637,0.505,-0.0028742,-0.036583,-0.015123,0,-0.24921,0.078575,0
0,0.505,0.016968,66.641,0.505,-0.0036144,-0.030289,-0.016443,0,-0.23149,0.10905,0
0,0.505,0.016968,66.642,0.505,-0.0036089,-0.030348,-0.016423,0,-0.23168,0.10876,0
0,0.505,0.016968,66.64,0.505,-0.003598,-0.030462,-0.016387,0,-0.23205,0.10821,0
0,0.505,0.016972,66.626,0.505,-0.0038873,-0.026888,-0.017877,0,-0.21933,0.12611,0
0,0.505,0.01697,66.629,0.505,-0.0038723,-0.027121,-0.017764,0,-0.22037,0.12489,0
0,0.505,0.016967,66.639,0.505,-0.0037416,-0.028852,-0.016985,0,-0.22676,0.11602,0
0,0.505,0.016963,66.648,0.505,-0.0037276,-0.029019,-0.016907,0,-0.22737,0.11517,0
0,0.505,0.016972,66.636,0.505,-0.0037826,-0.028354,-0.017189,0,-0.22499,0.11847,0
0,0.505,0.016971,66.629,0.505,-0.0038562,-0.027358,-0.017657,0,-0.22114,0.12361,0
0,0.505,0.016978,66.623,0.505,-0.0038255,-0.027793,-0.017449,0,-0.22274,0.12156,0
0,0.505,0.016971,66.609,0.505,-0.0039709,-0.025474,-0.018623,0,-0.2134,0.13313,0
0,0.505,0.016971,66.617,0.505,-0.0039522,-0.025828,-0.018432,0,-0.21488,0.13129,0
0,0.505,0.016974,66.62,0.505,-0.0039329,-0.026159,-0.018249,0,-0.2163,0.12963,0
0,0.505,0.016972,66.61,0.505,-0.0039839,-0.025228,-0.01877,0,-0.21226,0.13452,0
0,0.505,0.016958,66.654,0.505,-0.0032172,-0.033944,-0.015484,0,-0.24254,0.091219,0
0,0.505,0.016954,66.657,0.505,-0.0031446,-0.034531,-0.015377,0,-0.24411,0.088388,0
0,0.505,0.016965,66.642,0.505,-0.0037098,-0.029221,-0.016831,0,-0.22802,0.1142,0
0,0.505,0.016972,66.545,0.505,-0.004063,-0.020272,-0.021902,0,-0.1851,0.16252,0
0,0.505,0.016981,66.54,0.505,-0.0040724,-0.020741,-0.021586,0,-0.18791,0.15971,0
0,0.505,0.016981,66.541,0.505,-0.0040733,-0.020786,-0.021554,0,-0.18821,0.15943,0
0,0.505,0.016981,66.542,0.505,-0.0040746,-0.020914,-0.021468,0,-0.18903,0.15866,0
0,0.505,0.016979,66.553,0.505,-0.0040787,-0.021313,-0.021202,0,-0.19158,0.1563,0
0,0.505,0.01698,66.553,0.505,-0.0040791,-0.021394,-0.021153,0,-0.19208,0.15582,0
0,0.505,0.016969,66.508,0.505,-0.0039629,-0.018107,-0.023374,0,-0.17016,0.17501,0
0,0.505,0.016985,66.506,0.505,-0.0039898,-0.01853,-0.02307,0,-0.17309,0.17262,0
0,0.505,0.016985,66.506,0.505,-0.00399,-0.018533,-0.023068,0,-0.17311,0.1726,0
0,0.505,0.016978,66.523,0.505,-0.0040125,-0.01895,-0.022794,0,-0.17604,0.17017,0
0,0.505,0.016979,66.528,0.505,-0.0040204,-0.019109,-0.022682,0,-0.17712,0.16927,0
0,0.505,0.016978,66.541,0.505,-0.0040336,-0.019412,-0.022484,0,-0.1792,0.16766,0
0,0.505,0.016985,66.506,0.505,-0.0039899,-0.018532,-0.023069,0,-0.1731,0.1726,0
0,0.505,0.016981,66.496,0.505,-0.0039198,-0.017536,-0.023771,0,-0.16573,0.17829,0
0,0.505,0.016981,66.497,0.505,-0.0039215,-0.017555,-0.023757,0,-0.16589,0.17819,0
0,0.505,0.016981,66.495,0.505,-0.0039243,-0.017592,-0.02373,0,-0.16617,0.17798,0
0,0.505,0.016968,66.507,0.505,-0.0039534,-0.017968,-0.023468,0,-0.16904,0.17589,0
0,0.505,0.016974,66.508,0.505,-0.0038444,-0.016678,-0.024349,0,-0.15938,0.18282,0
0,0.505,0.016974,66.503,0.505,-0.0038628,-0.016879,-0.024219,0,-0.16084,0.18174,0
0,0.505,0.016972,66.509,0.505,-0.0038871,-0.01714,-0.024033,0,-0.16282,0.18033,0
0,0.505,0.016971,66.476,0.505,-0.0036853,-0.015216,-0.025305,0,-0.14838,0.1902,0
0,0.505,0.016982,66.476,0.505,-0.0037433,-0.015707,-0.02498,0,-0.15209,0.18781,0
0,0.505,0.016982,66.476,0.505,-0.0037435,-0.015709,-0.024978,0,-0.1521,0.1878,0
0,0.505,0.016982,66.476,0.505,-0.0037437,-0.01571,-0.024977,0,-0.15212,0.18779,0
0,0.505,0.016975,66.463,0.505,-0.0036045,-0.014607,-0.02571,0,-0.14321,0.19346,0
0,0.505,0.016964,66.467,0.505,-0.0036343,-0.014817,-0.025581,0,-0.14507,0.19231,0
0,0.505,0.016972,66.466,0.505,-0.0036597,-0.015021,-0.025445,0,-0.14678,0.19127,0
0,0.505,0.016973,66.471,0.505,-0.0035825,-0.01445,-0.025812,0,-0.1418,0.19426,0
0,0.505,0.016977,66.525,0.505,-0.0040475,-0.019773,-0.022244,0,-0.18168,0.16566,0
0,0.505,0.016974,66.527,0.505,-0.0040525,-0.019928,-0.022146,0,-0.18276,0.16472,0
0,0.505,0.016981,66.541,0.505,-0.004073,-0.020768,-0.021566,0,-0.1881,0.15954,0
0,0.505,0.016974,66.528,0.505,-0.0040501,-0.019845,-0.022198,0,-0.18217,0.16522,0
0,0.505,0.016978,66.46,0.505,-0.0033883,-0.013142,-0.026551,0,-0.13143,0.20004,0
0,0.505,0.016978,66.459,0.505,-0.003396,-0.013191,-0.026523,0,-0.13182,0.1998,0
0,0.505,0.016971,66.479,0.505,-0.0034509,-0.013556,-0.026325,0,-0.13465,0.19818,0
0,0.505,0.01698,66.474,0.505,-0.0035039,-0.013911,-0.026116,0,-0.13747,0.19659,0
0,0.505,0.016976,66.577,0.505,-0.0040665,-0.02289,-0.020189,0,-0.20081,0.1474,0
0,0.505,0.01698,66.572,0.505,-0.0040583,-0.023235,-0.019974,0,-0.20244,0.14544,0
0,0.505,0.016978,66.565,0.505,-0.0040775,-0.022131,-0.020678,0,-0.19648,0.15178,0
0,0.505,0.016979,66.572,0.505,-0.0040768,-0.022266,-0.020583,0,-0.19728,0.15099,0
0,0.505,0.016975,66.572,0.505,-0.0040795,-0.021781,-0.020894,0,-0.19449,0.15365,0
0,0.505,0.016977,66.623,0.505,-0.003808,-0.028028,-0.017344,0,-0.22365,0.12038,0
0,0.505,0.016974,66.621,0.505,-0.0039156,-0.026455,-0.0181,0,-0.21757,0.12829,0
0,0.505,0.01698,66.567,0.505,-0.004072,-0.022565,-0.020392,0,-0.19898,0.14926,0
0,0.505,0.016961,66.649,0.505,-0.0033976,-0.032395,-0.015815,0,-0.23806,0.098706,0
0,0.505,0.016962,66.648,0.505,-0.0033146,-0.033124,-0.015645,0,-0.24022,0.095136,0
0,0.505,0.016953,66.653,0.505,-0.0031072,-0.034825,-0.015334,0,-0.24487,0.086965,0
0,0.505,0.016957,66.656,0.505,-0.0032328,-0.033814,-0.015505,0,-0.24221,0.091843,0
0,0.505,0.01695,66.654,0.505,-0.0030526,-0.035247,-0.015268,0,-0.24596,0.084935,0
0,0.505,0.016979,66.589,0.505,-0.0040147,-0.024545,-0.019171,0,-0.20913,0.138,0
0,0.505,0.016977,66.594,0.505,-0.0040102,-0.024659,-0.019099,0,-0.20966,0.13738,0
0,0.505,0.016978,66.593,0.505,-0.0040074,-0.024721,-0.019061,0,-0.20995,0.13706,0
0,0.505,0.016978,66.589,0.505,-0.0040317,-0.024116,-0.019423,0,-0.20718,0.14041,0
0,0.505,0.016977,66.574,0.505,-0.0040684,-0.0228,-0.02024,0,-0.20032,0.14791,0
0,0.505,0.016981,66.577,0.505,-0.0040453,-0.023708,-0.019672,0,-0.20489,0.1427,0
0,0.505,0.01698,66.579,0.505,-0.0040518,-0.023509,-0.019798,0,-0.20376,0.14392,0
0,0.505,0.016982,66.576,0.505,-0.00405,-0.023568,-0.01976,0,-0.20411,0.14355,0
0,0.505,0.016921,66.581,0.505,-0.0024113,-0.039836,-0.014845,0,-0.25608,0.063704,0
0,0.505,0.01697,66.46,0.505,-0.0033223,-0.012754,-0.026765,0,-0.1281,0.20194,0
0,0.505,0.016979,66.457,0.505,-0.0033794,-0.013092,-0.026579,0,-0.13099,0.20028,0
0,0.505,0.016979,66.452,0.505,-0.0032763,-0.012496,-0.026894,0,-0.12578,0.20306,0
0,0.505,0.01698,66.477,0.505,-0.0035215,-0.014035,-0.026047,0,-0.13842,0.19602,0
0,0.505,0.016977,66.467,0.505,-0.0035516,-0.014241,-0.025936,0,-0.14007,0.19516,0
0,0.505,0.016958,66.427,0.505,-0.0024853,-0.0086793,-0.028428,0,-0.091532,0.21763,0
0,0.505,0.016958,66.426,0.505,-0.0024946,-0.008715,-0.028415,0,-0.091908,0.2175,0
0,0.505,0.016977,66.428,0.505,-0.0023797,-0.0082467,-0.028535,0,-0.087538,0.21907,0
0,0.505,0.016977,66.428,0.505,-0.0023941,-0.0083084,-0.028519,0,-0.08807,0.21889,0
0,0.505,0.016971,66.451,0.505,-0.003176,-0.011938,-0.027162,0,-0.12098,0.20542,0
0,0.505,0.016972,66.453,0.505,-0.0031866,-0.011999,-0.027136,0,-0.12148,0.20518,0
0,0.505,0.016957,66.443,0.505,-0.0028805,-0.010437,-0.027815,0,-0.10788,0.21116,0
0,0.505,0.016956,66.452,0.505,-0.0029186,-0.010606,-0.027742,0,-0.10952,0.21058,0
0,0.505,0.016966,66.453,0.505,-0.0029637,-0.010833,-0.027645,0,-0.11149,0.20981,0
0,0.505,0.016969,66.456,0.505,-0.0029983,-0.011009,-0.027572,0,-0.11296,0.2092,0
0,0.505,0.016972,66.453,0.505,-0.003084,-0.011452,-0.027379,0,-0.11676,0.20744,0
0,0.505,0.016969,66.458,0.505,-0.003116,-0.011623,-0.027308,0,-0.11822,0.20674,0
0,0.505,0.01697,66.459,0.505,-0.0030421,-0.011236,-0.027477,0,-0.11491,0.20835,0
0,0.505,0.016955,66.428,0.505,-0.0025962,-0.009132,-0.028277,0,-0.096153,0.21589,0
0,0.505,0.016966,66.441,0.505,-0.002636,-0.0093115,-0.028203,0,-0.097791,0.21531,0
0,0.505,0.016974,66.436,0.505,-0.0026937,-0.0095746,-0.028116,0,-0.099999,0.21437,0
0,0.505,0.016972,66.442,0.505,-0.002717,-0.0096803,-0.028084,0,-0.10089,0.21401,0
0,0.505,0.016949,66.429,0.505,-0.0025656,-0.0090045,-0.028328,0,-0.094883,0.21638,0
0,0.505,0.016976,66.448,0.505,-0.0032141,-0.012152,-0.027065,0,-0.12279,0.20454,0
0,0.505,0.016978,66.456,0.505,-0.0032556,-0.012382,-0.026956,0,-0.12476,0.20358,0
0,0.505,0.016965,66.653,0.505,-0.0036678,-0.029704,-0.016645,0,-0.22953,0.11193,0
0,0.505,0.016958,66.441,0.505,-0.0028347,-0.010221,-0.027895,0,-0.10592,0.21198,0
0,0.505,0.016955,66.445,0.505,-0.0027977,-0.010059,-0.027971,0,-0.10428,0.21267,0
0,0.505,0.016972,66.439,0.505,-0.0027307,-0.0097442,-0.028063,0,-0.10143,0.21377,0
0,0.505,0.016978,66.495,0.505,-0.0037987,-0.016206,-0.024656,0,-0.15597,0.1853,0
0,0.505,0.01698,66.492,0.505,-0.0038207,-0.016427,-0.024509,0,-0.15757,0.18414,0
0,0.505,0.016956,66.411,0.505,-0.00037552,-0.0010242,-0.029758,0,-0.016683,0.23262,0
0,0.505,0.016955,66.422,0.505,-0.00046713,-0.0013456,-0.029759,0,-0.019772,0.23243,0
0,0.505,0.01696,66.411,0.505,-0.00055125,-0.0016383,-0.029759,0,-0.022606,0.2322,0
0,0.505,0.016958,66.414,0.505,-0.00057418,-0.0017208,-0.029758,0,-0.023388,0.23213,0
0,0.505,0.01696,66.41,0.505,-0.00060798,-0.0018407,-0.029756,0,-0.024535,0.23204,0
0,0.505,0.016956,66.421,0.505,-0.00068012,-0.0020927,-0.029749,0,-0.026969,0.23183,0
0,0.505,0.016962,66.413,0.505,-0.00088445,-0.0028103,-0.029701,0,-0.033886,0.23104,0
0,0.505,0.016963,66.41,0.505,-0.00089976,-0.002863,-0.029696,0,-0.034401,0.23097,0
0,0.505,0.016951,66.424,0.505,-0.00025327,-0.00058979,-0.029722,0,-0.012583,0.23283,0
0,0.505,0.016955,66.411,0.505,-0.0003358,-0.00088599,-0.029752,0,-0.015357,0.2327,0
0,0.505,0.016954,66.414,0.505,-0.00035953,-0.00096942,-0.029758,0,-0.016149,0.23266,0
0,0.505,0.016958,66.421,0.505,-0.00078359,-0.0024567,-0.029726,0,-0.030472,0.23144,0
0,0.505,0.016963,66.41,0.505,-0.00086197,-0.0027324,-0.029707,0,-0.033128,0.23113,0
0,0.505,0.016956,66.421,0.505,-0.00098501,-0.0031606,-0.029671,0,-0.037296,0.23057,0
0,0.505,0.016958,66.405,0.505,-0.0010646,-0.0034309,-0.029642,0,-0.039964,0.23011,0
0,0.505,0.016957,66.408,0.505,-4.4554e-05,0.00017951,-0.029678,0,-0.0055758,0.2331,0
0,0.505,0.016968,66.407,0.505,-7.5141e-05,6.8742e-05,-0.029673,0,-0.0066056,0.23307,0
0,0.505,0.016973,66.423,0.505,-0.00014882,-0.00019914,-0.02967,0,-0.0090941,0.233,0
0,0.505,0.016968,66.416,0.505,-0.00020055,-0.00038958,-0.029694,0,-0.010821,0.23292,0
0,0.505,0.016958,66.416,0.505,0.0023274,0.0090088,-0.028451,0,0.078354,0.22197,0
0,0.505,0.016969,66.416,0.505,0.0022448,0.0086822,-0.028519,0,0.07508,0.22287,0
0,0.505,0.016957,66.415,0.505,0.0024003,0.009307,-0.02837,0,0.081252,0.22101,0
0,0.505,0.016969,66.419,0.505,0.00223,0.0086242,-0.028533,0,0.07451,0.22302,0
0,0.505,0.016958,66.424,0.505,0.0020994,0.0081045,-0.028657,0,0.069507,0.22431,0
0,0.505,0.016961,66.437,0.505,0.0020365,0.0078617,-0.028697,0,0.067145,0.22482,0
0,0.505,0.016966,66.415,0.505,0.0022032,0.0085193,-0.028563,0,0.073494,0.2233,0
0,0.505,0.016948,66.422,0.505,0.0021324,0.0082348,-0.028643,0,0.07078,0.22402,0
0,0.505,0.016955,66.43,0.505,0.0026136,0.010209,-0.028089,0,0.089702,0.2181,0
0,0.505,0.016956,66.422,0.505,0.0025416,0.0098983,-0.028179,0,0.086703,0.21914,0
0,0.505,0.016963,66.444,0.505,0.0027873,0.01101,-0.027819,0,0.096867,0.21566,0
0,0.505,0.016964,66.44,0.505,0.0027343,0.010758,-0.027908,0,0.094648,0.21647,0
0,0.505,0.016965,66.439,0.505,0.0028257,0.011187,-0.027748,0,0.098466,0.21501,0
0,0.505,0.016961,66.453,0.505,0.0032351,0.013238,-0.026943,0,0.11694,0.20714,0
0,0.505,0.01696,66.435,0.505,0.0031701,0.012875,-0.027101,0,0.11398,0.20864,0
0,0.505,0.016963,66.457,0.505,0.0033878,0.014104,-0.026564,0,0.12449,0.20345,0
0,0.505,0.016963,66.457,0.505,0.0033545,0.013904,-0.026647,0,0.12281,0.20425,0
0,0.505,0.016961,66.44,0.505,0.0029155,0.011607,-0.027596,0,0.10231,0.21349,0
0,0.505,0.016962,66.443,0.505,0.0028678,0.011388,-0.027679,0,0.10027,0.2143,0
0,0.505,0.016959,66.442,0.505,0.0029466,0.01176,-0.027541,0,0.10366,0.21293,0
0,0.505,0.016961,66.437,0.505,0.0030832,0.012431,-0.027277,0,0.10979,0.21049,0
0,0.505,0.016961,66.441,0.505,0.0030245,0.012143,-0.027392,0,0.10709,0.21153,0
0,0.505,0.016962,66.445,0.505,0.0032683,0.013418,-0.026855,0,0.1185,0.20629,0
0,0.505,0.01697,66.473,0.505,0.0037478,0.016647,-0.025287,0,0.14524,0.19206,0
0,0.505,0.016969,66.477,0.505,0.0037176,0.016388,-0.02542,0,0.14329,0.19325,0
0,0.505,0.01697,66.471,0.505,0.003805,0.01716,-0.025013,0,0.14906,0.18964,0
0,0.505,0.01697,66.47,0.505,0.0038029,0.017142,-0.025024,0,0.14893,0.18972,0
0,0.505,0.016973,66.465,0.505,0.0036861,0.016136,-0.025559,0,0.1414,0.19439,0
0,0.505,0.016973,66.451,0.505,0.0035775,0.015327,-0.025975,0,0.13462,0.19827,0
0,0.505,0.016972,66.453,0.505,0.003524,0.014975,-0.026146,0,0.13168,0.19982,0
0,0.505,0.016964,66.452,0.505,0.0036296,0.015688,-0.0258,0,0.13782,0.19651,0
0,0.505,0.01697,66.448,0.505,0.0036034,0.015507,-0.025889,0,0.1362,0.1974,0
0,0.505,0.016973,66.451,0.505,0.0035115,0.01489,-0.026185,0,0.13099,0.20019,0
0,0.505,0.016967,66.451,0.505,0.0036408,0.015774,-0.025753,0,0.13853,0.19608,0
0,0.505,0.016959,66.421,0.505,0.0019496,0.007512,-0.028767,0,0.064035,0.2256,0
0,0.505,0.016971,66.53,0.505,0.0041149,0.022736,-0.021635,0,0.18753,0.16026,0
0,0.505,0.01697,66.532,0.505,0.0041137,0.022568,-0.021739,0,0.18644,0.16124,0
0,0.505,0.016972,66.546,0.505,0.0041144,0.02344,-0.021183,0,0.19198,0.15601,0
0,0.505,0.016972,66.539,0.505,0.0041154,0.023256,-0.021296,0,0.19087,0.15709,0
0,0.505,0.016973,66.519,0.505,0.0040928,0.021437,-0.022445,0,0.17918,0.16767,0
0,0.505,0.016972,66.524,0.505,0.0040871,0.021246,-0.022567,0,0.17789,0.16869,0
0,0.505,0.016969,66.512,0.505,0.0041015,0.021749,-0.022257,0,0.18138,0.16573,0
0,0.505,0.016974,66.505,0.505,0.0040646,0.020654,-0.022934,0,0.17408,0.17189,0
0,0.505,0.016972,66.509,0.505,0.0040587,0.020521,-0.023011,0,0.17315,0.17254,0
0,0.505,0.016967,66.483,0.505,0.0039913,0.019312,-0.023763,0,0.16458,0.17884,0
0,0.505,0.016967,66.483,0.505,0.0039903,0.019299,-0.02377,0,0.16448,0.17891,0
0,0.505,0.016972,66.499,0.505,0.0040491,0.020312,-0.023138,0,0.17175,0.17361,0
0,0.505,0.016968,66.504,0.505,0.0040395,0.020106,-0.023265,0,0.17034,0.17469,0
0,0.505,0.016966,66.499,0.505,0.0040161,0.0197,-0.023514,0,0.16748,0.17676,0
0,0.505,0.01697,66.495,0.505,0.0040307,0.019956,-0.023362,0,0.16927,0.17545,0
0,0.505,0.016459,65.733,0.505,0.00048082,0.045093,-0.0081391,0,0.27102,0.019505,0
0,0.505,0.016541,65.792,0.505,0.0006053,0.046765,-0.0093018,0,0.27027,0.022224,0
0,0.505,0.016355,65.656,0.505,0.00027428,0.041001,-0.0059901,0,0.27221,0.014788,0
0,0.505,0.016399,65.692,0.505,0.00036621,0.043107,-0.0070283,0,0.27167,0.016956,0
0,0.505,0.016968,66.483,0.505,0.0039868,0.01925,-0.023799,0,0.16413,0.17917,0
0,0.505,0.016968,66.49,0.505,0.0039232,0.018399,-0.02429,0,0.15841,0.18335,0
0,0.505,0.016968,66.49,0.505,0.0039168,0.018323,-0.024337,0,0.1579,0.18374,0
0,0.505,0.016973,66.492,0.505,0.0039609,0.01889,-0.024008,0,0.16155,0.18109,0
0,0.505,0.016973,66.492,0.505,0.0039553,0.018817,-0.024053,0,0.16103,0.18143,0
0,0.505,0.016968,66.479,0.505,0.0039054,0.018196,-0.024415,0,0.15697,0.18434,0
0,0.505,0.016962,66.477,0.505,0.0038823,0.017927,-0.024575,0,0.15498,0.18568,0
0,0.505,0.016972,66.451,0.505,0.0035822,0.01536,-0.02596,0,0.13489,0.19811,0
0,0.505,0.016968,66.474,0.505,0.0038456,0.017556,-0.02479,0,0.15199,0.18774,0
0,0.505,0.016971,66.469,0.505,0.0038128,0.017236,-0.02497,0,0.14963,0.18927,0
0,0.505,0.01696,66.449,0.505,0.0033062,0.013638,-0.026766,0,0.12036,0.20542,0
0,0.505,0.016957,66.41,0.505,0.0014944,0.005814,-0.029024,0,0.047473,0.22903,0
0,0.505,0.016954,66.415,0.505,0.0014612,0.0056911,-0.029037,0,0.046286,0.22923,0
0,0.505,0.016958,66.422,0.505,0.0019402,0.0074752,-0.028775,0,0.063692,0.22569,0
0,0.505,0.016958,66.42,0.505,0.0019268,0.0074247,-0.028784,0,0.0632,0.2258,0
0,0.505,0.016955,66.416,0.505,0.0017817,0.0068719,-0.028881,0,0.05783,0.22702,0
0,0.505,0.016955,66.42,0.505,0.0017499,0.006757,-0.028899,0,0.056672,0.22728,0
0,0.505,0.016948,66.427,0.505,0.0018448,0.0071104,-0.028847,0,0.060152,0.22651,0
0,0.505,0.016893,66.438,0.505,0.0018656,0.044052,-0.014609,0,0.26092,0.052133,0
0,0.505,0.016894,66.44,0.505,0.0018714,0.044015,-0.014615,0,0.26086,0.05229,0
0,0.505,0.016843,66.342,0.505,0.0016184,0.045501,-0.014157,0,0.2631,0.045774,0
0,0.505,0.016842,66.364,0.505,0.0016764,0.045129,-0.014269,0,0.26268,0.047213,0
0,0.505,0.016942,66.63,0.505,0.003144,0.035528,-0.015655,0,0.24252,0.091248,0
0,0.505,0.016946,66.628,0.505,0.0032318,0.034857,-0.015787,0,0.24059,0.094472,0
0,0.505,0.016941,66.633,0.505,0.0031262,0.035662,-0.015627,0,0.24292,0.090601,0
0,0.505,0.016941,66.632,0.505,0.0031281,0.035648,-0.015629,0,0.24288,0.090666,0
0,0.505,0.016947,66.62,0.505,0.0029008,0.037336,-0.015342,0,0.24724,0.08254,0
0,0.505,0.016954,66.622,0.505,0.0029889,0.036713,-0.015435,0,0.24562,0.08571,0
0,0.505,0.016962,66.622,0.505,0.003532,0.032305,-0.016522,0,0.23263,0.10734,0
0,0.505,0.016961,66.623,0.505,0.003544,0.032197,-0.016559,0,0.23227,0.10789,0
0,0.505,0.016965,66.621,0.505,0.0036683,0.030979,-0.01702,0,0.22803,0.11409,0
0,0.505,0.016966,66.617,0.505,0.0036912,0.030739,-0.017118,0,0.22717,0.1153,0
0,0.505,0.016965,66.617,0.505,0.0036148,0.031517,-0.016811,0,0.22994,0.11134,0
0,0.505,0.016964,66.615,0.505,0.003584,0.031816,-0.016703,0,0.23096,0.10983,0
0,0.505,0.016964,66.617,0.505,0.0036081,0.031583,-0.016786,0,0.23016,0.111,0
0,0.505,0.016718,66.104,0.505,0.0011229,0.047643,-0.012575,0,0.26684,0.033918,0
0,0.505,0.016765,66.19,0.505,0.0012912,0.047041,-0.01324,0,0.26564,0.037785,0
0,0.505,0.016656,65.971,0.505,0.00090638,0.047922,-0.01148,0,0.26826,0.029317,0
0,0.505,0.016667,65.991,0.505,0.00094468,0.047869,-0.011682,0,0.26799,0.03013,0
0,0.505,0.016829,66.316,0.505,0.0015577,0.045845,-0.014023,0,0.26363,0.044248,0
0,0.505,0.016854,66.417,0.505,0.0017797,0.044542,-0.014455,0,0.26179,0.049676,0
0,0.505,0.016967,66.612,0.505,0.0037781,0.029795,-0.017531,0,0.22363,0.12019,0
0,0.505,0.01697,66.599,0.505,0.0038204,0.029298,-0.017771,0,0.22164,0.12279,0
0,0.505,0.016966,66.62,0.505,0.0037251,0.030382,-0.017269,0,0.22586,0.11715,0
0,0.505,0.016973,66.584,0.505,0.0039508,0.027565,-0.018666,0,0.2141,0.13206,0
0,0.505,0.016974,66.579,0.505,0.0039632,0.027371,-0.018775,0,0.21316,0.13315,0
0,0.505,0.016973,66.583,0.505,0.0039407,0.027715,-0.018588,0,0.2148,0.13125,0
0,0.505,0.016969,66.598,0.505,0.0039137,0.028102,-0.018372,0,0.21662,0.12918,0
0,0.505,0.016974,66.56,0.505,0.0041011,0.024334,-0.02062,0,0.19736,0.15076,0
0,0.505,0.016975,66.551,0.505,0.0041062,0.024077,-0.020778,0,0.19585,0.15226,0
0,0.505,0.016977,66.565,0.505,0.0040573,0.025659,-0.019799,0,0.20486,0.14298,0
0,0.505,0.016974,66.57,0.505,0.0040725,0.025286,-0.020024,0,0.20281,0.14517,0
0,0.505,0.016975,66.576,0.505,0.0040083,0.026629,-0.019212,0,0.20952,0.1374,0
0,0.505,0.016973,66.583,0.505,0.0040252,0.026315,-0.019392,0,0.2081,0.13914,0
0,0.505,0.016975,66.572,0.505,0.0040519,0.025793,-0.019707,0,0.20559,0.14218,0
0,0.505,0.016978,66.568,0.505,0.0040421,0.025985,-0.019592,0,0.20651,0.14105,0
0,0.505,0.016968,66.611,0.505,0.0037624,0.029968,-0.017452,0,0.22429,0.11928,0
0,0.505,0.01697,66.599,0.505,0.003827,0.02922,-0.017807,0,0.22133,0.1232,0
0,0.505,0.016959,66.631,0.505,0.0034748,0.032825,-0.016346,0,0.23434,0.10472,0
0,0.505,0.016958,66.629,0.505,0.0034422,0.033108,-0.016261,0,0.23524,0.10328,0
0,0.505,0.016956,66.628,0.505,0.0033453,0.03394,-0.016025,0,0.2378,0.099128,0
0,0.505,0.016955,66.633,0.505,0.0034004,0.033471,-0.016151,0,0.23638,0.10147,0
0,0.505,0.016946,66.628,0.505,0.0032429,0.034768,-0.015809,0,0.24032,0.094903,0
0,0.505,0.016954,66.63,0.505,0.0033201,0.034151,-0.015967,0,0.23843,0.098086,0
0,0.505,0.016629,65.853,0.505,0.00073256,0.047634,-0.010361,0,0.26943,0.025333,0
0,0.505,0.016419,65.722,0.505,0.00043004,0.044492,-0.0076803,0,0.27129,0.01843,0
0,0.505,0.01615,65.788,0.505,2.616e-05,0.027495,-0.0023365,0,0.27377,0.0073264,0
0,0.505,0.016196,65.73,0.505,7.158e-05,0.030919,-0.003106,0,0.27347,0.0088083,0
0,0.505,0.016955,66.42,0.505,0.0016538,0.0064031,-0.028945,0,0.053189,0.22797,0
0,0.505,0.016957,66.413,0.505,0.0016095,0.0062363,-0.028968,0,0.051586,0.22828,0
0,0.505,0.016958,66.413,0.505,0.00171,0.0066108,-0.028919,0,0.055232,0.22757,0
0,0.505,0.016114,65.946,0.505,-1.3766e-05,0.021436,-0.0015609,0,0.27423,0.0053601,0
0,0.505,0.01608,66.085,0.505,-5.0892e-05,0.016235,-0.00086866,0,0.27453,0.0037371,0
0,0.505,0.016049,66.212,0.505,-6.8098e-05,0.011838,-0.00051913,0,0.27469,0.0018838,0
0,0.505,0.016631,65.855,0.505,0.00073691,0.047654,-0.010392,0,0.26941,0.025434,0
0,0.505,0.016654,65.967,0.505,0.00089798,0.047929,-0.011434,0,0.26831,0.029139,0
0,0.505,0.01671,66.083,0.505,0.0010934,0.047668,-0.01243,0,0.267,0.033263,0
0,0.505,0.016777,66.21,0.505,0.0013316,0.046917,-0.013395,0,0.26533,0.038773,0
0,0.505,0.016308,65.656,0.505,0.0002123,0.038339,-0.0051055,0,0.27257,0.012969,0
0,0.505,0.016266,65.666,0.505,0.00013827,0.035512,-0.0041165,0,0.27295,0.010979,0
0,0.505,0.016966,66.415,0.505,0.00061987,0.0025842,-0.029393,0,0.016738,0.23268,0
0,0.505,0.016968,66.418,0.505,0.000608,0.0025422,-0.029396,0,0.016329,0.23267,0
0,0.505,0.016947,66.42,0.505,0.00077182,0.0031579,-0.029348,0,0.022372,0.2323,0
0,0.505,0.016915,66.414,0.505,0.00070233,0.0028914,-0.02941,0,0.019799,0.23254,0
0,0.505,0.016961,66.414,0.505,0.00085428,0.0034655,-0.029294,0,0.025136,0.23199,0
0,0.505,0.016951,66.424,0.505,0.00079883,0.0032537,-0.029329,0,0.023294,0.23215,0
0,0.505,0.016965,66.417,0.505,0.00090967,0.0036736,-0.029256,0,0.026908,0.23184,0
0,0.505,0.016962,66.414,0.505,0.00093782,0.0037772,-0.029254,0,0.027861,0.23176,0
0,0.505,0.016953,66.421,0.505,0.0013648,0.0053361,-0.02908,0,0.042866,0.22982,0
0,0.505,0.016961,66.407,0.505,0.0012748,0.0049998,-0.02912,0,0.039705,0.23032,0
0,0.505,0.016947,66.417,0.505,6.0527e-05,0.00053983,-0.029651,0,-0.0019919,0.23318,0
0,0.505,0.016957,66.406,0.505,-2.4753e-05,0.00024962,-0.029674,0,-0.0048743,0.23312,0
0,0.505,0.016971,66.409,0.505,0.00037041,0.0016796,-0.029502,0,0.0086068,0.23293,0
0,0.505,0.01697,66.409,0.505,0.00036669,0.0016658,-0.029504,0,0.0084792,0.23293,0
0,0.505,0.016977,66.417,0.505,0.0001642,0.00092307,-0.029584,0,0.00139,0.23303,0
0,0.505,0.016977,66.413,0.505,0.00013266,0.00080464,-0.029597,0,0.00035783,0.23304,0
0,0.505,0.016934,66.411,0.505,0.00025673,0.0012691,-0.029576,0,0.0047367,0.23305,0
0,0.505,0.016957,66.408,0.505,0.00021393,0.0011065,-0.02958,0,0.0032056,0.23303,0
0,0.505,0.01697,66.409,0.505,0.00037523,0.0016972,-0.029501,0,0.0087746,0.23293,0
0,0.505,0.016967,66.414,0.505,0.00059276,0.0024863,-0.029403,0,0.015833,0.23268,0
0,0.505,0.016941,66.418,0.505,0.00049136,0.0021174,-0.029464,0,0.012645,0.23282,0
0,0.505,0.016956,66.411,0.505,0.0014353,0.0055933,-0.029049,0,0.045359,0.2294,0
0,0.505,0.016961,66.408,0.505,0.0012694,0.0049794,-0.029122,0,0.039513,0.23035,0
0,0.505,0.01696,66.407,0.505,0.0012655,0.0049646,-0.029124,0,0.039378,0.23037,0
0,0.505,0.016948,66.415,0.505,0.0011706,0.0046134,-0.029177,0,0.036092,0.23083,0
0,0.505,0.01695,66.418,0.505,0.001017,0.0040633,-0.029236,0,0.030525,0.23147,0
0,0.505,0.016943,66.405,0.505,0.0011184,0.004422,-0.029209,0,0.034169,0.23113,0
0,0.505,0.016942,66.408,0.505,0.0010774,0.0042815,-0.029227,0,0.032707,0.23128,0
0,0.505,0.016974,66.583,0.505,0.0039865,0.027008,-0.018979,0,0.21136,0.13526,0
0,0.505,0.016969,66.515,0.505,0.0041027,0.021791,-0.022229,0,0.18167,0.16547,0
0,0.505,0.016972,66.521,0.505,0.0040771,0.02095,-0.022745,0,0.17603,0.17035,0
0,0.505,0.01693,66.612,0.505,0.0027336,0.03848,-0.015209,0,0.24997,0.077076,0
0,0.505,0.016932,66.615,0.505,0.0027685,0.038245,-0.015236,0,0.24942,0.078178,0
0,0.505,0.01681,66.267,0.505,0.0014551,0.046328,-0.013737,0,0.26451,0.041746,0
0,0.505,0.016906,66.528,0.505,0.0022303,0.041784,-0.014916,0,0.25693,0.061829,0
0,0.505,0.016914,66.559,0.505,0.0023587,0.04095,-0.014988,0,0.25533,0.065552,0
0,0.505,0.016921,66.566,0.505,0.00241,0.040628,-0.015023,0,0.25466,0.067067,0
0,0.505,0.016906,66.527,0.505,0.0022251,0.041817,-0.014912,0,0.25699,0.061681,0
0,0.505,0.016906,66.528,0.505,0.0022289,0.041793,-0.014915,0,0.25694,0.061789,0
0,0.505,0.016954,66.625,0.505,0.0030152,0.03652,-0.01547,0,0.24515,0.086662,0
0,0.505,0.016943,66.631,0.505,0.0031171,0.035734,-0.015615,0,0.2431,0.090275,0
0,0.505,0.016925,66.582,0.505,0.0024845,0.040136,-0.015052,0,0.25366,0.069301,0
0,0.505,0.016934,66.591,0.505,0.0025914,0.039445,-0.015122,0,0.25213,0.072635,0
0,0.505,0.016934,66.593,0.505,0.0026086,0.03933,-0.015128,0,0.25188,0.073171,0
0,0.505,0.016878,66.477,0.505,0.0019504,0.043496,-0.014651,0,0.26006,0.054431,0
0,0.505,0.016887,66.497,0.505,0.0020449,0.04294,-0.01476,0,0.25912,0.05679,0
0,0.505,0.016893,66.508,0.505,0.0020966,0.042613,-0.014794,0,0.25854,0.058086,0
0,0.505,0.016934,66.595,0.505,0.0026416,0.039108,-0.015155,0,0.25137,0.074204,0
0,0.505,0.016945,66.618,0.505,0.0028674,0.037567,-0.01531,0,0.24783,0.081416,0
0,0.505,0.016956,66.407,0.505,-0.0010838,-0.0034984,-0.029636,0,-0.040631,0.23001,0
0,0.505,0.016954,66.403,0.505,-0.0011362,-0.0036718,-0.029616,0,-0.042535,0.22968,0
0,0.505,0.016949,66.409,0.505,-0.0012008,-0.0038822,-0.029588,0,-0.044885,0.22931,0
0,0.505,0.016957,66.417,0.505,-0.0012989,-0.0042227,-0.029521,0,-0.048364,0.22883,0
0,0.505,0.016951,66.407,0.505,-0.0011867,-0.0038387,-0.029594,0,-0.044377,0.2294,0
0,0.505,0.01696,66.414,0.505,-0.00072767,-0.0022574,-0.029739,0,-0.02857,0.23165,0
0,0.505,0.016977,66.428,0.505,-0.0023951,-0.0083128,-0.028518,0,-0.088111,0.21888,0
0,0.505,0.016975,66.428,0.505,-0.0024061,-0.008357,-0.028507,0,-0.088525,0.21873,0
0,0.505,0.016975,66.431,0.505,-0.0023035,-0.0079198,-0.028624,0,-0.08472,0.21998,0
0,0.505,0.016953,66.419,0.505,-0.0020899,-0.007085,-0.028897,0,-0.076429,0.22244,0
0,0.505,0.016951,66.416,0.505,-0.0021249,-0.0072061,-0.028861,0,-0.077853,0.22205,0
0,0.505,0.016972,66.44,0.505,-0.0019283,-0.0064968,-0.029018,0,-0.070481,0.22407,0
0,0.505,0.016968,66.428,0.505,-0.0019773,-0.006678,-0.028985,0,-0.072228,0.22367,0
0,0.505,0.01697,66.43,0.505,-0.0018497,-0.0061936,-0.029093,0,-0.067665,0.22472,0
0,0.505,0.016968,66.428,0.505,-0.0017998,-0.006007,-0.029136,0,-0.065914,0.22513,0
0,0.505,0.016966,66.433,0.505,-0.0018239,-0.0060946,-0.029118,0,-0.066757,0.22494,0
0,0.505,0.016957,66.42,0.505,-0.0013169,-0.004283,-0.02951,0,-0.04897,0.22871,0
0,0.505,0.016972,66.424,0.505,-0.0014294,-0.0046901,-0.029421,0,-0.052764,0.22799,0
0,0.505,0.016972,66.426,0.505,-0.0014402,-0.0047289,-0.029414,0,-0.05312,0.22793,0
0,0.505,0.016972,66.422,0.505,-0.001456,-0.0047837,-0.029405,0,-0.053643,0.22782,0
0,0.505,0.016948,66.431,0.505,-0.0015558,-0.0051348,-0.029364,0,-0.05702,0.22711,0
0,0.505,0.016961,66.42,0.505,-0.0021871,-0.0074492,-0.028779,0,-0.08028,0.22124,0
0,0.505,0.01696,66.427,0.505,-0.002214,-0.0075504,-0.028744,0,-0.081352,0.22089,0
0,0.505,0.016968,66.422,0.505,-0.0020288,-0.0068647,-0.02894,0,-0.074037,0.2232,0
0,0.505,0.016969,66.538,0.505,0.0041091,0.022126,-0.02202,0,0.18381,0.16365,0
0,0.505,0.016972,66.526,0.505,0.0041124,0.022417,-0.021831,0,0.18557,0.16207,0
0,0.505,0.016969,66.603,0.505,0.0038718,0.028657,-0.018084,0,0.219,0.1262,0
0,0.505,0.016971,66.594,0.505,0.0038944,0.028355,-0.018238,0,0.21771,0.1278,0
0,0.505,0.01697,66.598,0.505,0.0038295,0.029188,-0.017822,0,0.2212,0.12337,0
0,0.505,0.016972,66.587,0.505,0.0039941,0.026888,-0.019051,0,0.21079,0.13597,0
0,0.505,0.016977,66.558,0.505,0.0040852,0.024916,-0.020257,0,0.20074,0.14733,0
0,0.505,0.016975,66.56,0.505,0.0040893,0.024803,-0.02033,0,0.20009,0.14801,0
0,0.505,0.016968,66.542,0.505,0.0041164,0.022999,-0.02146,0,0.18927,0.15862,0
0,0.505,0.016975,66.543,0.505,0.0041125,0.02365,-0.021054,0,0.19326,0.15479,0
0,0.505,0.016974,66.554,0.505,0.0041101,0.023882,-0.020901,0,0.19468,0.15343,0
0,0.505,0.016976,66.555,0.505,0.0040925,0.024675,-0.020414,0,0.19934,0.14877,0
0,0.505,0.016954,66.421,0.505,0.0015577,0.0060467,-0.028995,0,0.049727,0.22864,0
0,0.505,0.016968,66.466,0.505,0.0036709,0.01601,-0.025625,0,0.14045,0.19492,0
0,0.505,0.016968,66.478,0.505,0.0037627,0.016771,-0.02522,0,0.14618,0.19147,0
0,0.505,0.016966,66.473,0.505,0.0038538,0.017639,-0.024746,0,0.15261,0.18732,0
0,0.505,0.01696,66.434,0.505,0.0031659,0.012853,-0.02711,0,0.11378,0.20873,0
0,0.505,0.016959,66.437,0.505,0.0030997,0.012517,-0.027248,0,0.11058,0.21013,0
0,0.505,0.01696,66.435,0.505,0.0031691,0.012869,-0.027103,0,0.11394,0.20866,0
0,0.505,0.016961,66.439,0.505,0.003001,0.012022,-0.027437,0,0.10606,0.21196,0
0,0.505,0.016972,66.454,0.505,0.0034595,0.014556,-0.026353,0,0.12817,0.20165,0
0,0.505,0.01697,66.452,0.505,0.0034387,0.014421,-0.026416,0,0.12706,0.20224,0
0,0.505,0.016956,66.423,0.505,0.0025224,0.0098236,-0.028205,0,0.085896,0.21942,0
0,0.505,0.016957,66.417,0.505,0.0024493,0.0095139,-0.028307,0,0.08315,0.22037,0
0,0.505,0.016958,66.419,0.505,0.0024235,0.0094057,-0.028342,0,0.082173,0.2207,0
0,0.505,0.016956,66.418,0.505,0.0024181,0.0093815,-0.02835,0,0.08197,0.22077,0
0,0.505,0.016953,66.435,0.505,0.0026423,0.010329,-0.028056,0,0.090879,0.21777,0
0,0.505,0.016961,66.44,0.505,0.0027032,0.010612,-0.027961,0,0.093405,0.21691,0
0,0.505,0.01696,66.437,0.505,-0.0017204,-0.0057108,-0.029205,0,-0.063107,0.22573,0
0,0.505,0.016946,66.42,0.505,-0.001647,-0.0054474,-0.029293,0,-0.060443,0.2263,0
0,0.505,0.016975,66.429,0.505,-0.0022962,-0.0078907,-0.028631,0,-0.084461,0.22006,0
0,0.505,0.016943,66.418,0.505,-0.0016245,-0.0053631,-0.029314,0,-0.059606,0.22649,0
