"cvar","mu","phivar","pressure","rho","str","velocity:0","velocity:1","Label","Points:0","Points:1","Points:2"
0,0.505,0.014669,65.902,0.505,0.00011285,-0.017783,-0.00035858,0,-0.27369,0,0
0,0.505,0.014737,65.896,0.505,0.0001445,0.018937,-0.00041071,0,0.27358,0,0
0,0.505,0.017074,66.438,0.505,-0.009014,-0.035045,-0.065701,0,-0.13872,0.19681,0
0,0.505,0.017073,66.428,0.505,-0.0090926,-0.035627,-0.065447,0,-0.14043,0.19591,0
0,0.505,0.017063,66.433,0.505,-0.008838,-0.033788,-0.066274,0,-0.13498,0.19899,0
0,0.505,0.017074,66.43,0.505,-0.0089683,-0.0347,-0.065851,0,-0.13774,0.19741,0
0,0.505,0.017041,66.376,0.505,-0.0076325,-0.026816,-0.069131,0,-0.11207,0.2107,0
0,0.505,0.017043,66.38,0.505,-0.007702,-0.027163,-0.069,0,-0.11325,0.2102,0
0,0.505,0.017047,66.389,0.505,-0.0078264,-0.02782,-0.068754,0,-0.11546,0.20921,0
0,0.505,0.017051,66.383,0.505,-0.007916,-0.02829,-0.068568,0,-0.11705,0.20842,0
0,0.505,0.017054,66.381,0.505,-0.0081468,-0.02955,-0.068085,0,-0.12127,0.20636,0
0,0.505,0.017054,66.385,0.505,-0.0081836,-0.029765,-0.068006,0,-0.12197,0.20602,0
0,0.505,0.017003,66.282,0.505,-0.0021535,-0.0071845,-0.075023,0,-0.030908,0.23276,0
0,0.505,0.017008,66.264,0.505,-0.0024083,-0.0079372,-0.074931,0,-0.034333,0.23235,0
0,0.505,0.017,66.282,0.505,-0.0026659,-0.008705,-0.07482,0,-0.037802,0.23187,0
0,0.505,0.017002,66.269,0.505,-0.0028321,-0.0091895,-0.074736,0,-0.040014,0.23148,0
0,0.505,0.016999,66.268,0.505,-0.0031486,-0.010129,-0.074566,0,-0.044519,0.2307,0
0,0.505,0.016999,66.27,0.505,-0.0031833,-0.01023,-0.074546,0,-0.045021,0.23062,0
0,0.505,0.016994,66.26,0.505,-0.00026429,-0.0015927,-0.075273,0,-0.0057293,0.23448,0
0,0.505,0.017015,66.256,0.505,-0.00041472,-0.0020367,-0.075256,0,-0.0077238,0.23442,0
0,0.505,0.017006,66.268,0.505,-0.001967,-0.0066238,-0.075091,0,-0.028395,0.23304,0
0,0.505,0.017002,66.266,0.505,-0.0015139,-0.0052808,-0.075214,0,-0.02232,0.2336,0
0,0.505,0.017,66.274,0.505,-0.0016203,-0.0056026,-0.075189,0,-0.023752,0.23348,0
0,0.505,0.016999,66.259,0.505,-0.0010622,-0.0039585,-0.075285,0,-0.016295,0.23403,0
0,0.505,0.016998,66.26,0.505,-0.0010714,-0.0039867,-0.075285,0,-0.016419,0.23402,0
0,0.505,0.016999,66.259,0.505,-0.0010866,-0.0040318,-0.075284,0,-0.016622,0.23401,0
0,0.505,0.016997,66.276,0.505,-0.0013466,-0.0047943,-0.075247,0,-0.020088,0.23379,0
0,0.505,0.017008,66.264,0.505,-0.0024093,-0.0079401,-0.07493,0,-0.034346,0.23234,0
0,0.505,0.017028,66.295,0.505,-0.0038096,-0.012172,-0.074069,0,-0.053614,0.22917,0
0,0.505,0.017028,66.294,0.505,-0.0038209,-0.012207,-0.07406,0,-0.053763,0.22914,0
0,0.505,0.017014,66.322,0.505,-0.0045143,-0.014411,-0.07345,0,-0.0636,0.22693,0
0,0.505,0.017027,66.31,0.505,-0.0047464,-0.015196,-0.073216,0,-0.066861,0.22621,0
0,0.505,0.016998,66.27,0.505,-0.0031932,-0.010258,-0.07454,0,-0.045164,0.2306,0
0,0.505,0.017,66.274,0.505,-0.0029188,-0.0094554,-0.074691,0,-0.041209,0.23129,0
0,0.505,0.017022,66.258,0.505,0.0002352,-0.0001322,-0.075194,0,0.00086317,0.23439,0
0,0.505,0.016987,66.266,0.505,5.3712e-06,-0.00081696,-0.075259,0,-0.0020815,0.23458,0
0,0.505,0.017018,66.267,0.505,-0.0005323,-0.0023812,-0.075248,0,-0.0092897,0.23438,0
0,0.505,0.017016,66.263,0.505,-0.00061514,-0.0026243,-0.075255,0,-0.010381,0.23432,0
0,0.505,0.016994,66.253,0.505,-0.00016702,-0.0013053,-0.075271,0,-0.0043755,0.23452,0
0,0.505,0.016985,66.269,0.505,0.0011158,0.0024794,-0.075019,0,0.012737,0.23423,0
0,0.505,0.017007,66.258,0.505,0.00087475,0.0017746,-0.075071,0,0.009588,0.23432,0
0,0.505,0.017011,66.264,0.505,0.00080825,0.001576,-0.075079,0,0.0086834,0.23431,0
0,0.505,0.017009,66.26,0.505,0.00075687,0.0014199,-0.075096,0,0.007993,0.23432,0
0,0.505,0.017008,66.274,0.505,0.0021994,0.005746,-0.074629,0,0.027176,0.23318,0
0,0.505,0.017003,66.267,0.505,0.0019736,0.0050595,-0.074736,0,0.024355,0.23342,0
0,0.505,0.016999,66.273,0.505,0.0019073,0.0048577,-0.074766,0,0.023495,0.2335,0
0,0.505,0.016997,66.27,0.505,0.001875,0.0047647,-0.07478,0,0.023064,0.23357,0
0,0.505,0.017004,66.268,0.505,0.0023136,0.0060927,-0.074601,0,0.028682,0.23304,0
0,0.505,0.016987,66.259,0.505,0.0026599,0.0071245,-0.074487,0,0.033404,0.23257,0
0,0.505,0.016995,66.274,0.505,0.0024725,0.0065618,-0.074547,0,0.030769,0.23282,0
0,0.505,0.017006,66.269,0.505,0.0032158,0.0088212,-0.07421,0,0.04108,0.23145,0
0,0.505,0.017004,66.273,0.505,0.0031414,0.0085895,-0.074242,0,0.040061,0.2316,0
0,0.505,0.017004,66.265,0.505,-0.0017744,-0.0060615,-0.075151,0,-0.025823,0.2333,0
0,0.505,0.017002,66.274,0.505,-0.0018896,-0.0063993,-0.075119,0,-0.027362,0.23317,0
0,0.505,0.017069,66.437,0.505,0.0097627,0.038133,-0.063301,0,0.14964,0.19012,0
0,0.505,0.017069,66.437,0.505,0.0097593,0.0381,-0.063315,0,0.14955,0.19017,0
0,0.505,0.017064,66.449,0.505,0.0099031,0.039523,-0.062674,0,0.15336,0.18764,0
0,0.505,0.017066,66.45,0.505,0.0098706,0.039188,-0.062818,0,0.15246,0.18825,0
0,0.505,0.01707,66.435,0.505,0.0097471,0.037987,-0.063366,0,0.14924,0.19037,0
0,0.505,0.017067,66.436,0.505,0.0096136,0.036791,-0.063904,0,0.14596,0.1925,0
0,0.505,0.017064,66.438,0.505,0.0095241,0.036026,-0.064243,0,0.14383,0.19382,0
0,0.505,0.017058,66.422,0.505,0.0093984,0.035021,-0.064708,0,0.141,0.19551,0
0,0.505,0.017053,66.398,0.505,0.0093002,0.034261,-0.065064,0,0.13868,0.19694,0
0,0.505,0.017074,66.471,0.505,0.010071,0.041364,-0.061809,0,0.15845,0.18412,0
0,0.505,0.017074,66.462,0.505,0.010052,0.041156,-0.061909,0,0.1579,0.18448,0
0,0.505,0.017066,66.441,0.505,0.0096452,0.037052,-0.063785,0,0.1467,0.19203,0
0,0.505,0.017065,66.422,0.505,0.0094482,0.035426,-0.064526,0,0.14215,0.19485,0
0,0.505,0.017089,66.499,0.505,0.010437,0.046795,-0.059328,0,0.17164,0.1743,0
0,0.505,0.017084,66.503,0.505,0.010417,0.046381,-0.059518,0,0.17067,0.17506,0
0,0.505,0.017077,66.5,0.505,0.010349,0.045205,-0.060055,0,0.16783,0.17717,0
0,0.505,0.017076,66.479,0.505,0.010284,0.044203,-0.060529,0,0.16524,0.17906,0
0,0.505,0.017076,66.479,0.505,0.010273,0.044044,-0.060598,0,0.16484,0.17935,0
0,0.505,0.017085,66.495,0.505,0.010399,0.046077,-0.059663,0,0.16993,0.1756,0
0,0.505,0.01709,66.517,0.505,0.010474,0.047575,-0.058973,0,0.17345,0.1729,0
0,0.505,0.017092,66.513,0.505,0.010498,0.048082,-0.058754,0,0.17465,0.17205,0
0,0.505,0.017091,66.532,0.505,0.010581,0.050257,-0.05776,0,0.17938,0.16803,0
0,0.505,0.017088,66.538,0.505,0.010566,0.049796,-0.057977,0,0.17835,0.16885,0
0,0.505,0.017091,66.667,0.505,0.0091812,0.083301,-0.045454,0,0.2337,0.10488,0
0,0.505,0.017096,66.661,0.505,0.0093141,0.081992,-0.045784,0,0.23212,0.10736,0
0,0.505,0.017064,66.642,0.505,0.008316,0.090806,-0.043852,0,0.24217,0.090662,0
0,0.505,0.017064,66.641,0.505,0.0083331,0.09067,-0.04388,0,0.24203,0.0909,0
0,0.505,0.017033,66.501,0.505,0.0069543,0.10075,-0.04215,0,0.25132,0.072351,0
0,0.505,0.017034,66.514,0.505,0.0070434,0.10014,-0.042243,0,0.25081,0.073454,0
0,0.505,0.016977,66.34,0.505,0.006094,0.10653,-0.041045,0,0.25577,0.06214,0
0,0.505,0.016988,66.365,0.505,0.00624,0.10556,-0.041267,0,0.25505,0.063815,0
0,0.505,0.017088,66.653,0.505,0.0088546,0.086318,-0.044767,0,0.23718,0.099136,0
0,0.505,0.017087,66.663,0.505,0.0089994,0.085004,-0.045055,0,0.2357,0.10164,0
0,0.505,0.017071,66.638,0.505,0.0084689,0.089575,-0.044099,0,0.24084,0.092917,0
0,0.505,0.017075,66.642,0.505,0.0085852,0.088632,-0.044275,0,0.23982,0.094645,0
0,0.505,0.017099,66.654,0.505,0.0094678,0.080404,-0.046211,0,0.23013,0.11038,0
0,0.505,0.017099,66.657,0.505,0.0095059,0.080003,-0.046314,0,0.22963,0.11114,0
0,0.505,0.017095,66.663,0.505,0.0093499,0.081637,-0.045874,0,0.23169,0.10804,0
0,0.505,0.017091,66.662,0.505,0.0090935,0.084128,-0.04526,0,0.23468,0.1033,0
0,0.505,0.017099,66.656,0.505,0.0095166,0.079887,-0.046345,0,0.22949,0.11136,0
0,0.505,0.017099,66.665,0.505,0.0096519,0.078379,-0.04676,0,0.22754,0.11421,0
0,0.505,0.017076,66.642,0.505,0.008601,0.0885,-0.044302,0,0.23967,0.094893,0
0,0.505,0.017102,66.652,0.505,0.010142,0.071991,-0.048766,0,0.21868,0.12632,0
0,0.505,0.017104,66.644,0.505,0.010192,0.071203,-0.049035,0,0.21752,0.12781,0
0,0.505,0.017105,66.644,0.505,0.010035,0.073567,-0.048245,0,0.22097,0.12333,0
0,0.505,0.017105,66.644,0.505,0.010037,0.073544,-0.048252,0,0.22094,0.12337,0
0,0.505,0.0171,66.667,0.505,0.0097893,0.076766,-0.047228,0,0.22541,0.11727,0
0,0.505,0.017103,66.658,0.505,0.0098753,0.075691,-0.047557,0,0.22395,0.1193,0
0,0.505,0.017107,66.588,0.505,0.010632,0.060922,-0.053043,0,0.20072,0.14752,0
0,0.505,0.017105,66.591,0.505,0.010639,0.060613,-0.053177,0,0.20015,0.14813,0
0,0.505,0.017111,66.605,0.505,0.010571,0.06322,-0.052086,0,0.20483,0.14309,0
0,0.505,0.017106,66.609,0.505,0.010604,0.062084,-0.052547,0,0.20282,0.14529,0
0,0.505,0.017105,66.631,0.505,0.010329,0.068879,-0.049871,0,0.21388,0.13218,0
0,0.505,0.017105,66.627,0.505,0.010353,0.068407,-0.050046,0,0.21311,0.13308,0
0,0.505,0.0171,66.562,0.505,0.010677,0.055743,-0.055295,0,0.19083,0.15747,0
0,0.505,0.017096,66.567,0.505,0.010675,0.055056,-0.055602,0,0.18946,0.15881,0
0,0.505,0.0171,66.592,0.505,0.010661,0.059174,-0.053798,0,0.19746,0.15089,0
0,0.505,0.017103,66.578,0.505,0.01067,0.058313,-0.054167,0,0.19584,0.15253,0
0,0.505,0.017102,66.571,0.505,0.010677,0.057152,-0.054687,0,0.19359,0.15477,0
0,0.505,0.017099,66.575,0.505,0.010679,0.056411,-0.055003,0,0.19214,0.15618,0
0,0.505,0.017101,66.661,0.505,0.0097027,0.077789,-0.046927,0,0.22677,0.11532,0
0,0.505,0.017102,66.66,0.505,0.0099174,0.07516,-0.047723,0,0.22323,0.12031,0
0,0.505,0.017109,66.616,0.505,0.01056,0.06363,-0.051906,0,0.20555,0.1423,0
0,0.505,0.01711,66.61,0.505,0.010538,0.064223,-0.051669,0,0.20647,0.14114,0
0,0.505,0.017105,66.584,0.505,0.010644,0.060273,-0.053332,0,0.19951,0.14879,0
0,0.505,0.017102,66.649,0.505,0.010241,0.070421,-0.049308,0,0.21635,0.1293,0
0,0.505,0.017103,66.63,0.505,0.0105,0.065202,-0.05128,0,0.20799,0.13925,0
0,0.505,0.017105,66.623,0.505,0.010463,0.066082,-0.050946,0,0.20932,0.1376,0
0,0.505,0.0171,66.583,0.505,0.010676,0.057774,-0.054405,0,0.19482,0.15358,0
0,0.505,0.017105,66.644,0.505,0.010031,0.073626,-0.048226,0,0.22105,0.12322,0
0,0.505,0.017106,66.63,0.505,0.010309,0.069227,-0.049749,0,0.21444,0.13152,0
0,0.505,0.017104,66.632,0.505,0.010411,0.067261,-0.050471,0,0.21122,0.13535,0
0,0.505,0.017101,66.638,0.505,0.01043,0.066886,-0.05062,0,0.21063,0.1361,0
0,0.505,0.016993,66.275,0.505,0.0028877,0.0078102,-0.074372,0,0.03664,0.2321,0
0,0.505,0.016987,66.258,0.505,0.0027131,0.0072773,-0.074464,0,0.034143,0.23249,0
0,0.505,0.017003,66.273,0.505,0.0035271,0.0097789,-0.074052,0,0.045339,0.23075,0
0,0.505,0.017,66.283,0.505,0.0033901,0.0093609,-0.074125,0,0.043459,0.23108,0
0,0.505,0.017017,66.306,0.505,0.0064032,0.01956,-0.071348,0,0.086844,0.22036,0
0,0.505,0.017017,66.303,0.505,0.0063436,0.019334,-0.07144,0,0.085982,0.22066,0
0,0.505,0.017082,66.48,0.505,0.010189,0.042858,-0.061128,0,0.16188,0.18156,0
0,0.505,0.017082,66.479,0.505,0.010179,0.04274,-0.061186,0,0.16158,0.18177,0
0,0.505,0.017032,66.336,0.505,0.0071647,0.022705,-0.070055,0,0.098983,0.216,0
0,0.505,0.017029,66.34,0.505,0.0070907,0.022392,-0.070196,0,0.097801,0.21649,0
0,0.505,0.017029,66.344,0.505,0.0072998,0.023305,-0.069808,0,0.10119,0.21511,0
0,0.505,0.017017,66.319,0.505,0.0066411,0.020497,-0.070979,0,0.090653,0.21901,0
0,0.505,0.017017,66.305,0.505,0.0064186,0.019616,-0.071324,0,0.087094,0.22027,0
0,0.505,0.017027,66.332,0.505,0.0068728,0.021455,-0.070589,0,0.094339,0.21777,0
0,0.505,0.017015,66.323,0.505,0.0066853,0.020667,-0.070912,0,0.091352,0.21881,0
0,0.505,0.017038,66.372,0.505,0.0082533,0.027859,-0.067861,0,0.11775,0.20783,0
0,0.505,0.017035,66.352,0.505,0.0081225,0.027175,-0.068157,0,0.11549,0.20899,0
0,0.505,0.017058,66.396,0.505,0.0090127,0.032298,-0.065926,0,0.13241,0.20041,0
0,0.505,0.017058,66.392,0.505,0.0089675,0.031994,-0.066055,0,0.13148,0.20093,0
0,0.505,0.017054,66.392,0.505,0.0088418,0.031206,-0.066413,0,0.12891,0.20228,0
0,0.505,0.01705,66.387,0.505,0.0087723,0.030769,-0.066601,0,0.12752,0.20302,0
0,0.505,0.017042,66.385,0.505,0.0085497,0.029459,-0.067165,0,0.12328,0.20508,0
0,0.505,0.017038,66.375,0.505,0.0084406,0.028872,-0.067425,0,0.12118,0.20611,0
0,0.505,0.017043,66.39,0.505,0.008653,0.030063,-0.066915,0,0.12525,0.20412,0
0,0.505,0.017031,66.352,0.505,0.0080778,0.026942,-0.068258,0,0.11472,0.20938,0
0,0.505,0.017031,66.349,0.505,0.0080579,0.026837,-0.068302,0,0.11434,0.20955,0
0,0.505,0.017039,66.366,0.505,0.0083191,0.0282,-0.067703,0,0.11893,0.20718,0
0,0.505,0.017059,66.397,0.505,0.0091445,0.033166,-0.065543,0,0.13513,0.19895,0
0,0.505,0.017052,66.398,0.505,0.0092904,0.034187,-0.065099,0,0.13845,0.19708,0
0,0.505,0.017054,66.396,0.505,0.009268,0.034031,-0.065168,0,0.13793,0.19737,0
0,0.505,0.017057,66.399,0.505,0.0091675,0.033329,-0.065476,0,0.13561,0.19866,0
0,0.505,0.017061,66.455,0.505,0.0099721,0.040234,-0.062339,0,0.15543,0.18619,0
0,0.505,0.017029,66.333,0.505,0.0069265,0.021679,-0.070492,0,0.095164,0.21748,0
0,0.505,0.017016,66.308,0.505,0.0061502,0.018601,-0.071731,0,0.08316,0.22163,0
0,0.505,0.017012,66.306,0.505,0.006111,0.018443,-0.071792,0,0.082587,0.22183,0
0,0.505,0.017032,66.348,0.505,0.0078381,0.025763,-0.068752,0,0.11028,0.21137,0
0,0.505,0.017032,66.35,0.505,0.0077079,0.025158,-0.069014,0,0.108,0.21228,0
0,0.505,0.017029,66.349,0.505,0.0079021,0.026077,-0.068629,0,0.11146,0.21083,0
0,0.505,0.017013,66.292,0.505,0.0048669,0.01405,-0.073169,0,0.064194,0.22686,0
0,0.505,0.017,66.301,0.505,0.0046341,0.013282,-0.073367,0,0.060848,0.22767,0
0,0.505,0.017015,66.314,0.505,0.0051332,0.014966,-0.07292,0,0.067891,0.22595,0
0,0.505,0.017015,66.292,0.505,0.0048998,0.014164,-0.073139,0,0.064659,0.22675,0
0,0.505,0.017015,66.302,0.505,0.0052678,0.01542,-0.072792,0,0.069845,0.2255,0
0,0.505,0.017002,66.299,0.505,0.0053835,0.015823,-0.072694,0,0.071567,0.2251,0
0,0.505,0.017027,66.291,0.505,0.0056331,0.016701,-0.072392,0,0.07526,0.22409,0
0,0.505,0.017027,66.291,0.505,0.0056366,0.016713,-0.072388,0,0.075312,0.22408,0
0,0.505,0.017027,66.291,0.505,0.0056386,0.01672,-0.072385,0,0.075341,0.22407,0
0,0.505,0.017015,66.292,0.505,0.0059802,0.017951,-0.071974,0,0.080565,0.22252,0
0,0.505,0.017014,66.292,0.505,0.0058907,0.017621,-0.072096,0,0.079193,0.22299,0
0,0.505,0.017,66.282,0.505,0.0036397,0.010136,-0.073991,0,0.046899,0.23047,0
0,0.505,0.017004,66.282,0.505,0.0038903,0.010913,-0.073855,0,0.05037,0.22986,0
0,0.505,0.017005,66.273,0.505,0.0037825,0.010582,-0.073916,0,0.048882,0.23012,0
0,0.505,0.017008,66.279,0.505,0.0043405,0.012336,-0.073576,0,0.056687,0.22859,0
0,0.505,0.017003,66.29,0.505,0.0041391,0.011698,-0.0737,0,0.053849,0.22916,0
0,0.505,0.017006,66.276,0.505,0.003979,0.011186,-0.073801,0,0.051605,0.22961,0
0,0.505,0.017007,66.282,0.505,0.0044267,0.012605,-0.073518,0,0.057898,0.22833,0
0,0.505,0.017006,66.284,0.505,0.0043884,0.012485,-0.073546,0,0.057357,0.22846,0
0,0.505,0.017081,66.474,0.505,0.010232,0.043461,-0.060859,0,0.16338,0.18042,0
0,0.505,0.017075,66.471,0.505,0.010082,0.041489,-0.061748,0,0.15875,0.18389,0
0,0.505,0.017031,66.345,0.505,0.0076236,0.024753,-0.069182,0,0.10658,0.21288,0
0,0.505,0.017028,66.347,0.505,0.0075048,0.024219,-0.069417,0,0.10459,0.21371,0
0,0.505,0.017029,66.341,0.505,0.0073997,0.023733,-0.069619,0,0.10283,0.21444,0
0,0.505,0.01698,66.263,0.505,0.00051776,0.00072059,-0.075168,0,0.0048022,0.23442,0
0,0.505,0.017014,66.256,0.505,0.00032852,0.00014457,-0.075184,0,0.0021479,0.23438,0
0,0.505,0.017021,66.261,0.505,0.00027144,-2.4905e-05,-0.075189,0,0.0013302,0.23439,0
0,0.505,0.017014,66.266,0.505,0.0014196,0.0033812,-0.074906,0,0.01649,0.23403,0
0,0.505,0.017014,66.263,0.505,0.0013998,0.0033209,-0.074915,0,0.016235,0.23405,0
0,0.505,0.016962,66.259,0.505,0.0016613,0.0041079,-0.074892,0,0.019981,0.23385,0
0,0.505,0.016966,66.259,0.505,0.0016437,0.0040552,-0.074893,0,0.019727,0.23386,0
0,0.505,0.017014,66.265,0.505,0.0014311,0.0034167,-0.074904,0,0.016641,0.23401,0
0,0.505,0.017014,66.293,0.505,0.0048809,0.014099,-0.073155,0,0.064398,0.22681,0
0,0.505,0.017004,66.269,0.505,0.0030884,0.0084213,-0.074273,0,0.039347,0.2317,0
0,0.505,0.017091,66.523,0.505,0.010611,0.051227,-0.057327,0,0.18165,0.166,0
0,0.505,0.017097,66.554,0.505,0.010667,0.054387,-0.055913,0,0.18806,0.16016,0
0,0.505,0.017094,66.558,0.505,0.010659,0.053723,-0.056203,0,0.18669,0.16143,0
0,0.505,0.01709,66.56,0.505,0.010639,0.052405,-0.056796,0,0.18416,0.1638,0
0,0.505,0.017091,66.525,0.505,0.010616,0.051433,-0.057236,0,0.1821,0.1656,0
0,0.505,0.017091,66.525,0.505,0.010613,0.051329,-0.057282,0,0.18187,0.1658,0
0,0.505,0.01709,66.531,0.505,0.01053,0.048811,-0.058411,0,0.17629,0.17073,0
0,0.505,0.017095,66.547,0.505,0.010651,0.053112,-0.056473,0,0.18554,0.16253,0
0,0.505,0.017039,66.529,0.505,0.0072044,0.099016,-0.042451,0,0.24984,0.075471,0
0,0.505,0.017061,66.587,0.505,0.0076964,0.095526,-0.043017,0,0.2468,0.081795,0
0,0.505,0.017064,66.593,0.505,0.0077564,0.095094,-0.043089,0,0.24639,0.082608,0
0,0.505,0.017041,66.565,0.505,0.0074225,0.097483,-0.042691,0,0.24853,0.078205,0
0,0.505,0.017077,66.609,0.505,0.0079966,0.093315,-0.043401,0,0.24464,0.086086,0
0,0.505,0.017079,66.615,0.505,0.0080427,0.092966,-0.043462,0,0.24432,0.086757,0
0,0.505,0.017038,66.556,0.505,0.0073605,0.097914,-0.042619,0,0.24891,0.077421,0
0,0.505,0.017071,66.629,0.505,0.0082289,0.091498,-0.043736,0,0.24284,0.089415,0
0,0.505,0.017087,66.652,0.505,0.0088027,0.086778,-0.044666,0,0.2377,0.098267,0
0,0.505,0.016669,65.493,0.505,0.0038345,0.12003,-0.035506,0,0.26388,0.039299,0
0,0.505,0.01674,65.652,0.505,0.004147,0.11852,-0.036628,0,0.26308,0.042248,0
0,0.505,0.016024,64.406,0.505,0.0018983,0.11976,-0.02375,0,0.26894,0.022117,0
0,0.505,0.016129,64.513,0.505,0.0020891,0.12116,-0.02542,0,0.26847,0.023946,0
0,0.505,0.015553,64.069,0.505,0.0010554,0.10481,-0.015136,0,0.27083,0.014731,0
0,0.505,0.015598,64.1,0.505,0.0011352,0.10674,-0.016076,0,0.27065,0.015474,0
0,0.505,0.016641,65.439,0.505,0.0037106,0.12063,-0.035035,0,0.26422,0.038165,0
0,0.505,0.016646,65.451,0.505,0.0037382,0.12049,-0.035131,0,0.26415,0.038409,0
0,0.505,0.016766,65.72,0.505,0.0042745,0.11791,-0.037075,0,0.26267,0.043468,0
0,0.505,0.016306,64.812,0.505,0.0025768,0.12291,-0.028981,0,0.26724,0.02838,0
0,0.505,0.01635,64.895,0.505,0.0027388,0.12286,-0.029958,0,0.26686,0.02973,0
0,0.505,0.016508,65.176,0.505,0.003219,0.1223,-0.032731,0,0.26558,0.033739,0
0,0.505,0.016516,65.19,0.505,0.0032555,0.12216,-0.032909,0,0.26548,0.034083,0
0,0.505,0.015318,64.123,0.505,0.0007143,0.09096,-0.010468,0,0.27151,0.011038,0
0,0.505,0.015507,64.073,0.505,0.00099552,0.10217,-0.014275,0,0.27096,0.014037,0
0,0.505,0.01649,65.154,0.505,0.003173,0.12244,-0.032501,0,0.2657,0.03334,0
0,0.505,0.014895,65.194,0.505,0.00022869,0.041453,-0.0021783,0,0.2731,0.0037556,0
0,0.505,0.015006,64.713,0.505,0.00035851,0.059858,-0.0046212,0,0.27267,0.0060052,0
0,0.505,0.0148,65.544,0.505,0.0001828,0.029708,-0.0012598,0,0.27336,0.001823,0
0,0.505,0.015127,64.351,0.505,0.00049241,0.075501,-0.0070746,0,0.27219,0.0081801,0
0,0.505,0.015071,64.428,0.505,0.00043023,0.070719,-0.0060121,0,0.27235,0.0073766,0
0,0.505,0.015744,64.221,0.505,0.0014434,0.1138,-0.019366,0,0.26991,0.01828,0
0,0.505,0.01591,64.301,0.505,0.0017058,0.11706,-0.021852,0,0.26939,0.020463,0
0,0.505,0.016973,66.328,0.505,0.0060359,0.10693,-0.040961,0,0.25603,0.061493,0
0,0.505,0.016906,66.166,0.505,0.0053822,0.11111,-0.039821,0,0.25885,0.054714,0
0,0.505,0.016924,66.216,0.505,0.0055504,0.11008,-0.040155,0,0.25822,0.056366,0
0,0.505,0.016946,66.266,0.505,0.0057579,0.10871,-0.040489,0,0.25731,0.058419,0
0,0.505,0.016999,66.408,0.505,0.0064198,0.10435,-0.041501,0,0.25418,0.065883,0
0,0.505,0.017006,66.423,0.505,0.0064938,0.10387,-0.0416,0,0.25381,0.066752,0
0,0.505,0.01689,66.06,0.505,0.0050808,0.1131,-0.039293,0,0.26004,0.051502,0
0,0.505,0.016911,66.114,0.505,0.0052489,0.11201,-0.039635,0,0.2594,0.053295,0
0,0.505,0.016814,65.836,0.505,0.0045361,0.11639,-0.037848,0,0.26177,0.046051,0
0,0.505,0.016829,65.927,0.505,0.0047753,0.11487,-0.038485,0,0.26112,0.048374,0
0,0.505,0.017018,66.47,0.505,0.0067348,0.10223,-0.041873,0,0.25255,0.069623,0
0,0.505,0.016852,66.01,0.505,0.004939,0.11393,-0.038915,0,0.26058,0.049906,0
0,0.505,0.016225,64.618,0.505,0.0022986,0.12223,-0.027023,0,0.26797,0.025865,0
0,0.505,0.016326,64.851,0.505,-0.0023965,-0.12336,-0.029708,0,-0.26729,0.028769,0
0,0.505,0.01625,64.742,0.505,-0.0022013,-0.12308,-0.02844,0,-0.26773,0.027106,0
0,0.505,0.014817,65.384,0.505,5.0013e-05,-0.034276,-0.0017546,0,-0.27312,0.0025392,0
0,0.505,0.015175,64.249,0.505,-0.00032534,-0.082363,-0.0085875,0,-0.27177,0.0093811,0
0,0.505,0.015108,64.322,0.505,-0.00024785,-0.077143,-0.0073224,0,-0.27196,0.0083947,0
0,0.505,0.014928,65.127,0.505,1.9817e-05,-0.042775,-0.0023986,0,-0.27284,0.003835,0
0,0.505,0.015024,64.673,0.505,-0.00013134,-0.062067,-0.0051539,0,-0.27233,0.0063831,0
0,0.505,0.014957,64.997,0.505,-9.9199e-06,-0.04794,-0.00295,0,-0.27272,0.0044123,0
0,0.505,0.015352,64.103,0.505,-0.0005408,-0.095115,-0.011675,0,-0.27137,0.01189,0
0,0.505,0.015608,64.069,0.505,-0.00087969,-0.10746,-0.016157,0,-0.27062,0.015335,0
0,0.505,0.015564,64.066,0.505,-0.00082089,-0.1052,-0.015373,0,-0.27076,0.014719,0
0,0.505,0.015811,64.207,0.505,-0.0012449,-0.11522,-0.020132,0,-0.26984,0.018725,0
0,0.505,0.015638,64.086,0.505,-0.0009299,-0.10868,-0.016773,0,-0.27051,0.015818,0
0,0.505,0.016039,64.417,0.505,-0.0016936,-0.12041,-0.024456,0,-0.26886,0.022686,0
0,0.505,0.016009,64.385,0.505,-0.0016243,-0.12002,-0.023877,0,-0.26902,0.022091,0
0,0.505,0.016174,64.624,0.505,-0.002008,-0.12241,-0.026951,0,-0.26817,0.025425,0
0,0.505,0.016474,65.074,0.505,-0.0027991,-0.12323,-0.032308,0,-0.26623,0.032291,0
0,0.505,0.016472,65.069,0.505,-0.0027917,-0.12324,-0.032265,0,-0.26625,0.032225,0
0,0.505,0.015986,64.363,0.505,-0.0015769,-0.11953,-0.023475,0,-0.26911,0.021683,0
0,0.505,0.017068,66.624,0.505,-0.0074913,-0.095543,-0.044036,0,-0.24654,0.082302,0
0,0.505,0.017065,66.617,0.505,-0.0074177,-0.096082,-0.043942,0,-0.24703,0.081308,0
0,0.505,0.016995,66.397,0.505,-0.005963,-0.10621,-0.042064,0,-0.25523,0.063362,0
0,0.505,0.016986,66.36,0.505,-0.0058349,-0.10705,-0.041878,0,-0.25583,0.06193,0
0,0.505,0.017019,66.446,0.505,-0.0062541,-0.10427,-0.042504,0,-0.25379,0.066659,0
0,0.505,0.017022,66.453,0.505,-0.0062973,-0.10398,-0.042562,0,-0.25357,0.067172,0
0,0.505,0.017019,66.447,0.505,-0.0062613,-0.10423,-0.042514,0,-0.25376,0.066742,0
0,0.505,0.017046,66.553,0.505,-0.0068971,-0.099845,-0.043312,0,-0.25028,0.074518,0
0,0.505,0.017046,66.549,0.505,-0.0068683,-0.10005,-0.043278,0,-0.25043,0.074155,0
0,0.505,0.017037,66.503,0.505,-0.0065615,-0.10219,-0.04289,0,-0.25217,0.070325,0
0,0.505,0.016971,66.327,0.505,-0.0056504,-0.10828,-0.041558,0,-0.25667,0.059889,0
0,0.505,0.016945,66.23,0.505,-0.005342,-0.11031,-0.041057,0,-0.25798,0.05656,0
0,0.505,0.016467,65.06,0.505,-0.0027788,-0.12324,-0.032186,0,-0.26629,0.032111,0
0,0.505,0.016769,65.749,0.505,-0.0039945,-0.11853,-0.037613,0,-0.26278,0.043194,0
0,0.505,0.016764,65.73,0.505,-0.0039605,-0.1187,-0.037494,0,-0.26289,0.042878,0
0,0.505,0.016752,65.69,0.505,-0.0038935,-0.11903,-0.037253,0,-0.26312,0.04225,0
0,0.505,0.016694,65.539,0.505,-0.0035886,-0.12055,-0.036046,0,-0.26409,0.039429,0
0,0.505,0.016653,65.442,0.505,-0.0034075,-0.12139,-0.035318,0,-0.26459,0.037782,0
0,0.505,0.016943,66.226,0.505,-0.0053214,-0.11045,-0.041015,0,-0.25807,0.056338,0
0,0.505,0.01694,66.217,0.505,-0.0052918,-0.11065,-0.040959,0,-0.25818,0.056031,0
0,0.505,0.016856,66.017,0.505,-0.0046471,-0.1147,-0.039469,0,-0.26068,0.049431,0
0,0.505,0.016847,65.998,0.505,-0.0045908,-0.11506,-0.039337,0,-0.26086,0.048889,0
0,0.505,0.016903,66.133,0.505,-0.0049855,-0.11258,-0.040258,0,-0.2594,0.052839,0
0,0.505,0.016867,66.032,0.505,-0.0047134,-0.11428,-0.039652,0,-0.26042,0.050099,0
0,0.505,0.016801,65.9,0.505,-0.004307,-0.11668,-0.038487,0,-0.26178,0.046144,0
0,0.505,0.01659,65.316,0.505,-0.003193,-0.12213,-0.034293,0,-0.26519,0.035808,0
0,0.505,0.017109,66.597,0.505,-0.010397,-0.058051,-0.054846,0,-0.1954,0.15301,0
0,0.505,0.017109,66.598,0.505,-0.010393,-0.058548,-0.05464,0,-0.19644,0.15201,0
0,0.505,0.017113,66.626,0.505,-0.010363,-0.060626,-0.053753,0,-0.20043,0.14806,0
0,0.505,0.017114,66.628,0.505,-0.010358,-0.060832,-0.053674,0,-0.20081,0.14767,0
0,0.505,0.017116,66.645,0.505,-0.010216,-0.065516,-0.051809,0,-0.20885,0.13834,0
0,0.505,0.017114,66.653,0.505,-0.010201,-0.065914,-0.051648,0,-0.20949,0.13759,0
0,0.505,0.017117,66.63,0.505,-0.010296,-0.063267,-0.05268,0,-0.20492,0.14279,0
0,0.505,0.017113,66.645,0.505,-0.01026,-0.064369,-0.052246,0,-0.20705,0.14062,0
0,0.505,0.017115,66.685,0.505,-0.0099894,-0.07014,-0.050104,0,-0.21614,0.12967,0
0,0.505,0.017115,66.687,0.505,-0.0099461,-0.070884,-0.049861,0,-0.2173,0.12841,0
0,0.505,0.01711,66.672,0.505,-0.010093,-0.068242,-0.050772,0,-0.21326,0.13321,0
0,0.505,0.017111,66.682,0.505,-0.010044,-0.069166,-0.05045,0,-0.21464,0.13146,0
0,0.505,0.017115,66.652,0.505,-0.010192,-0.066129,-0.051564,0,-0.20984,0.13719,0
0,0.505,0.01711,66.674,0.505,-0.01013,-0.067503,-0.051052,0,-0.21205,0.13471,0
0,0.505,0.017112,66.692,0.505,-0.0098645,-0.072168,-0.049434,0,-0.21919,0.12603,0
0,0.505,0.01711,66.695,0.505,-0.0098281,-0.072737,-0.049257,0,-0.22011,0.12493,0
0,0.505,0.017113,66.694,0.505,-0.0097899,-0.073295,-0.049091,0,-0.22078,0.1238,0
0,0.505,0.017124,66.683,0.505,-0.0097016,-0.074567,-0.048695,0,-0.22249,0.12155,0
0,0.505,0.017123,66.682,0.505,-0.0096638,-0.075075,-0.048547,0,-0.22322,0.12058,0
0,0.505,0.017066,66.376,0.505,-0.008273,-0.030274,-0.067798,0,-0.12367,0.20518,0
0,0.505,0.017086,66.453,0.505,-0.0095617,-0.03959,-0.063509,0,-0.15211,0.18865,0
0,0.505,0.017086,66.455,0.505,-0.0095687,-0.039658,-0.063476,0,-0.15229,0.18854,0
0,0.505,0.017086,66.455,0.505,-0.0095706,-0.039677,-0.063467,0,-0.15234,0.18851,0
0,0.505,0.017087,66.455,0.505,-0.0095774,-0.039746,-0.063434,0,-0.15253,0.18838,0
0,0.505,0.017069,66.435,0.505,-0.009166,-0.036171,-0.065195,0,-0.14206,0.19504,0
0,0.505,0.01707,66.427,0.505,-0.0092183,-0.036585,-0.064993,0,-0.14339,0.19428,0
0,0.505,0.017058,66.435,0.505,-0.0092956,-0.037199,-0.064709,0,-0.14531,0.19308,0
0,0.505,0.017068,66.437,0.505,-0.0093623,-0.03778,-0.064423,0,-0.14709,0.19198,0
0,0.505,0.017084,66.481,0.505,-0.0097093,-0.041085,-0.062784,0,-0.15619,0.18597,0
0,0.505,0.017105,66.618,0.505,-0.0104,-0.057455,-0.055097,0,-0.19415,0.15424,0
0,0.505,0.0171,66.68,0.505,-0.0085766,-0.086717,-0.045663,0,-0.23754,0.098592,0
0,0.505,0.017099,66.672,0.505,-0.0084301,-0.08801,-0.045407,0,-0.23896,0.096181,0
0,0.505,0.017101,66.68,0.505,-0.0086072,-0.086441,-0.04572,0,-0.23723,0.099109,0
0,0.505,0.017098,66.674,0.505,-0.0083637,-0.088592,-0.045283,0,-0.23961,0.095085,0
0,0.505,0.017097,66.674,0.505,-0.0083512,-0.088697,-0.045263,0,-0.23973,0.094896,0
0,0.505,0.017086,66.675,0.505,-0.0081418,-0.090452,-0.044929,0,-0.24163,0.091678,0
0,0.505,0.017109,66.692,0.505,-0.009133,-0.081317,-0.046867,0,-0.23125,0.10872,0
0,0.505,0.017109,66.691,0.505,-0.0091281,-0.081368,-0.046856,0,-0.23132,0.10863,0
0,0.505,0.0171,66.696,0.505,-0.0087766,-0.08486,-0.046052,0,-0.23543,0.10208,0
0,0.505,0.017109,66.692,0.505,-0.0091355,-0.081291,-0.046873,0,-0.23122,0.10877,0
0,0.505,0.017105,66.712,0.505,-0.0092876,-0.079622,-0.047273,0,-0.22914,0.1119,0
0,0.505,0.017105,66.702,0.505,-0.009388,-0.07847,-0.047576,0,-0.22779,0.11396,0
0,0.505,0.017103,66.704,0.505,-0.0089618,-0.083067,-0.046442,0,-0.23338,0.10544,0
0,0.505,0.017104,66.694,0.505,-0.0088724,-0.083941,-0.046255,0,-0.23437,0.1038,0
0,0.505,0.01708,66.663,0.505,-0.0079095,-0.09233,-0.044585,0,-0.24348,0.088207,0
0,0.505,0.017077,66.651,0.505,-0.0077955,-0.093226,-0.044431,0,-0.24435,0.086557,0
0,0.505,0.017054,66.57,0.505,-0.0070702,-0.098616,-0.043534,0,-0.24924,0.076733,0
0,0.505,0.017057,66.584,0.505,-0.0071637,-0.097946,-0.043642,0,-0.24869,0.077931,0
0,0.505,0.017039,66.507,0.505,-0.0066013,-0.10191,-0.042943,0,-0.25194,0.070833,0
0,0.505,0.017058,66.587,0.505,-0.0071805,-0.097826,-0.043663,0,-0.24858,0.07815,0
0,0.505,0.017087,66.669,0.505,-0.008086,-0.090913,-0.044847,0,-0.24207,0.090829,0
0,0.505,0.017071,66.643,0.505,-0.0076673,-0.094206,-0.044255,0,-0.24529,0.084743,0
0,0.505,0.017117,66.634,0.505,-0.010316,-0.062628,-0.052939,0,-0.20368,0.14415,0
0,0.505,0.017119,66.63,0.505,-0.01031,-0.062818,-0.052861,0,-0.20406,0.14374,0
0,0.505,0.017105,66.594,0.505,-0.010401,-0.056433,-0.055555,0,-0.19211,0.15601,0
0,0.505,0.017105,66.623,0.505,-0.010389,-0.059058,-0.05441,0,-0.19754,0.15092,0
0,0.505,0.017113,66.617,0.505,-0.010371,-0.060162,-0.053946,0,-0.19957,0.14889,0
0,0.505,0.017117,66.624,0.505,-0.010338,-0.061695,-0.053325,0,-0.20218,0.14596,0
0,0.505,0.017116,66.698,0.505,-0.0095888,-0.076054,-0.048242,0,-0.22469,0.11844,0
0,0.505,0.017109,66.7,0.505,-0.0094889,-0.077277,-0.047911,0,-0.2263,0.11617,0
0,0.505,0.017102,66.713,0.505,-0.0094447,-0.077822,-0.047742,0,-0.22702,0.11515,0
0,0.505,0.017097,66.554,0.505,-0.010336,-0.051689,-0.057694,0,-0.1822,0.1657,0
0,0.505,0.017098,66.554,0.505,-0.010342,-0.051982,-0.057565,0,-0.18289,0.1651,0
0,0.505,0.017106,66.572,0.505,-0.010389,-0.054429,-0.056442,0,-0.188,0.16003,0
0,0.505,0.017105,66.573,0.505,-0.010389,-0.054457,-0.056429,0,-0.18806,0.15997,0
0,0.505,0.017105,66.573,0.505,-0.010389,-0.054474,-0.056421,0,-0.1881,0.15994,0
0,0.505,0.017096,66.578,0.505,-0.010366,-0.052973,-0.057099,0,-0.1851,0.16299,0
0,0.505,0.017106,66.573,0.505,-0.01039,-0.054581,-0.056372,0,-0.18832,0.15972,0
0,0.505,0.017082,66.499,0.505,-0.0098722,-0.043011,-0.061854,0,-0.16111,0.18232,0
0,0.505,0.017081,66.508,0.505,-0.0099307,-0.043723,-0.061488,0,-0.16299,0.18097,0
0,0.505,0.017087,66.479,0.505,-0.0097611,-0.041663,-0.062496,0,-0.15768,0.18488,0
0,0.505,0.017068,66.45,0.505,-0.0094232,-0.038292,-0.064155,0,-0.1486,0.19095,0
0,0.505,0.017069,66.396,0.505,-0.008519,-0.031716,-0.067177,0,-0.1285,0.20276,0
0,0.505,0.017079,66.396,0.505,-0.008665,-0.032622,-0.06678,0,-0.13145,0.20105,0
0,0.505,0.017078,66.399,0.505,-0.0086983,-0.03283,-0.066688,0,-0.13211,0.20065,0
0,0.505,0.017078,66.399,0.505,-0.0086825,-0.032727,-0.066734,0,-0.1318,0.20085,0
0,0.505,0.017071,66.384,0.505,-0.008354,-0.030734,-0.067604,0,-0.1252,0.20442,0
0,0.505,0.017075,66.381,0.505,-0.0083972,-0.030986,-0.06749,0,-0.12605,0.20397,0
0,0.505,0.0171,66.516,0.505,-0.010186,-0.047769,-0.059517,0,-0.17313,0.17322,0
0,0.505,0.017101,66.517,0.505,-0.010188,-0.04781,-0.059497,0,-0.17322,0.17314,0
0,0.505,0.017081,66.514,0.505,-0.010096,-0.046142,-0.060309,0,-0.16914,0.17649,0
0,0.505,0.017082,66.517,0.505,-0.010121,-0.046575,-0.060106,0,-0.17032,0.17555,0
0,0.505,0.017092,66.495,0.505,-0.010017,-0.044918,-0.06091,0,-0.16603,0.17879,0
0,0.505,0.017092,66.494,0.505,-0.010019,-0.044955,-0.060891,0,-0.16612,0.17872,0
0,0.505,0.017081,66.504,0.505,-0.0098238,-0.042407,-0.06214,0,-0.15958,0.18347,0
0,0.505,0.017098,66.546,0.505,-0.010262,-0.049468,-0.05871,0,-0.17713,0.16983,0
0,0.505,0.017097,66.566,0.505,-0.010296,-0.050392,-0.058289,0,-0.17927,0.16815,0
0,0.505,0.017103,66.594,0.505,-0.010401,-0.056036,-0.055719,0,-0.19138,0.1568,0
0,0.505,0.0171,66.55,0.505,-0.010328,-0.051431,-0.057806,0,-0.18163,0.16622,0
0,0.505,0.017101,66.517,0.505,-0.010192,-0.047902,-0.059455,0,-0.17343,0.17296,0
0,0.505,0.017092,66.494,0.505,-0.010015,-0.044899,-0.060919,0,-0.16598,0.17883,0
0,0.505,0.017097,66.539,0.505,-0.010244,-0.049037,-0.058922,0,-0.17614,0.17068,0
0,0.505,0.016996,66.297,0.505,-0.0042589,-0.013572,-0.073726,0,-0.059886,0.22775,0
0,0.505,0.017,66.301,0.505,-0.004346,-0.013865,-0.073639,0,-0.061172,0.22745,0
0,0.505,0.017,66.309,0.505,-0.0041072,-0.013108,-0.073857,0,-0.057613,0.22831,0
0,0.505,0.01701,66.286,0.505,-0.0034918,-0.011168,-0.074328,0,-0.049353,0.22998,0
0,0.505,0.017028,66.295,0.505,-0.003802,-0.012148,-0.074075,0,-0.053514,0.22919,0
0,0.505,0.01701,66.284,0.505,-0.0034696,-0.011103,-0.074343,0,-0.049057,0.23004,0
0,0.505,0.016995,66.277,0.505,-0.00079926,-0.0031848,-0.075273,0,-0.012806,0.23421,0
0,0.505,0.017008,66.264,0.505,-0.0024107,-0.0079443,-0.07493,0,-0.034365,0.23234,0
0,0.505,0.01704,66.328,0.505,-0.0061986,-0.020492,-0.071425,0,-0.088494,0.21998,0
0,0.505,0.017039,66.329,0.505,-0.006227,-0.020609,-0.071388,0,-0.088936,0.21982,0
0,0.505,0.017024,66.323,0.505,-0.0064422,-0.021465,-0.071107,0,-0.092196,0.21861,0
0,0.505,0.017023,66.323,0.505,-0.0064513,-0.021503,-0.071095,0,-0.09234,0.21855,0
0,0.505,0.017026,66.313,0.505,-0.0047774,-0.015298,-0.073186,0,-0.067293,0.22611,0
0,0.505,0.017028,66.311,0.505,-0.0048101,-0.015411,-0.073149,0,-0.067751,0.226,0
0,0.505,0.01703,66.327,0.505,-0.0050383,-0.016209,-0.072892,0,-0.071006,0.22524,0
0,0.505,0.017027,66.306,0.505,-0.005284,-0.017055,-0.072634,0,-0.074473,0.22437,0
0,0.505,0.017009,66.303,0.505,-0.0054633,-0.017681,-0.072442,0,-0.077276,0.22346,0
0,0.505,0.017007,66.301,0.505,-0.0055233,-0.017884,-0.072368,0,-0.078251,0.22319,0
0,0.505,0.017021,66.309,0.505,-0.0057138,-0.018591,-0.072103,0,-0.081214,0.22219,0
0,0.505,0.017026,66.31,0.505,-0.0051827,-0.016711,-0.072748,0,-0.073053,0.22474,0
0,0.505,0.017031,66.352,0.505,-0.0072878,-0.025162,-0.069754,0,-0.10612,0.21309,0
0,0.505,0.017031,66.36,0.505,-0.0074268,-0.02582,-0.069513,0,-0.10849,0.21207,0
0,0.505,0.017045,66.341,0.505,-0.0070141,-0.023913,-0.070205,0,-0.10143,0.21496,0
0,0.505,0.017045,66.341,0.505,-0.0070192,-0.023935,-0.070197,0,-0.10151,0.21493,0
0,0.505,0.017033,66.35,0.505,-0.0068157,-0.023033,-0.070523,0,-0.098398,0.21628,0
0,0.505,0.017014,66.325,0.505,-0.0066475,-0.0223,-0.070815,0,-0.095624,0.21729,0
0,0.505,0.017017,66.325,0.505,-0.0066775,-0.022425,-0.070765,0,-0.096123,0.21709,0
0,0.505,0.017045,66.341,0.505,-0.0070222,-0.023949,-0.070192,0,-0.10155,0.21491,0
0,0.505,0.017028,66.355,0.505,-0.0072211,-0.024864,-0.069877,0,-0.10494,0.21359,0
0,0.505,0.017021,66.321,0.505,-0.0065111,-0.021746,-0.07101,0,-0.093342,0.21816,0
0,0.505,0.017021,66.314,0.505,-0.0057525,-0.01873,-0.07205,0,-0.081828,0.22199,0
0,0.505,0.017036,66.317,0.505,-0.0059174,-0.01937,-0.071813,0,-0.084316,0.2213,0
0,0.505,0.017039,66.323,0.505,-0.0059733,-0.019589,-0.071732,0,-0.085167,0.22107,0
0,0.505,0.017048,66.392,0.505,-0.0080091,-0.028804,-0.068382,0,-0.11874,0.2076,0
0,0.505,0.01703,66.369,0.505,-0.0075017,-0.026161,-0.069381,0,-0.10978,0.21161,0
0,0.505,0.01704,66.323,0.505,-0.0059844,-0.019634,-0.071716,0,-0.085336,0.22102,0
