"cvar","mu","phivar","pressure","rho","str","velocity:0","velocity:1","Label","Points:0","Points:1","Points:2"
0,0.505,0.0090713,63.373,0.505,0.00035481,-0.061063,-0.0011298,0,-0.26521,0,0
0,0.505,0.0091988,63.507,0.505,0.00045377,0.060174,-0.0011125,0,0.26548,0,0
0,0.505,0.017659,67.654,0.505,-0.039381,-0.12649,-0.27519,0,-0.12036,0.21225,0
0,0.505,0.017661,67.633,0.505,-0.039594,-0.12809,-0.27367,0,-0.1214,0.21168,0
0,0.505,0.017655,67.566,0.505,-0.040643,-0.13651,-0.26581,0,-0.12675,0.20868,0
0,0.505,0.017656,67.537,0.505,-0.0409,-0.13876,-0.26378,0,-0.12816,0.20788,0
0,0.505,0.017653,67.621,0.505,-0.040031,-0.13147,-0.27047,0,-0.12357,0.21049,0
0,0.505,0.017649,67.506,0.505,-0.041465,-0.14385,-0.25913,0,-0.13131,0.20599,0
0,0.505,0.01764,67.501,0.505,-0.04177,-0.14682,-0.25646,0,-0.13311,0.20484,0
0,0.505,0.017519,66.724,0.505,-0.044468,-0.26018,-0.17942,0,-0.19083,0.15735,0
0,0.505,0.01752,66.685,0.505,-0.044308,-0.26345,-0.17796,0,-0.19216,0.15573,0
0,0.505,0.017537,66.745,0.505,-0.044732,-0.2539,-0.18245,0,-0.18794,0.16038,0
0,0.505,0.017538,66.751,0.505,-0.044769,-0.25293,-0.18293,0,-0.18752,0.16084,0
0,0.505,0.017537,66.75,0.505,-0.044747,-0.25352,-0.18264,0,-0.18776,0.16056,0
0,0.505,0.017513,66.685,0.505,-0.044162,-0.26639,-0.17658,0,-0.19347,0.15442,0
0,0.505,0.017517,66.649,0.505,-0.044074,-0.268,-0.17593,0,-0.1942,0.15361,0
0,0.505,0.017518,66.604,0.505,-0.043792,-0.27286,-0.17387,0,-0.19652,0.1511,0
0,0.505,0.017516,66.608,0.505,-0.043773,-0.2732,-0.17371,0,-0.19669,0.15091,0
0,0.505,0.017516,66.6,0.505,-0.043729,-0.27385,-0.17346,0,-0.19697,0.1506,0
0,0.505,0.017502,66.589,0.505,-0.043399,-0.27885,-0.1714,0,-0.19919,0.14822,0
0,0.505,0.017501,66.572,0.505,-0.043226,-0.28122,-0.17047,0,-0.20026,0.14701,0
0,0.505,0.017507,66.506,0.505,-0.042806,-0.28683,-0.16841,0,-0.20234,0.14404,0
0,0.505,0.017504,66.465,0.505,-0.042505,-0.29046,-0.16712,0,-0.20393,0.14212,0
0,0.505,0.017491,66.449,0.505,-0.042168,-0.29445,-0.1657,0,-0.20585,0.13994,0
0,0.505,0.017472,66.336,0.505,-0.041013,-0.30634,-0.16198,0,-0.21068,0.13336,0
0,0.505,0.017472,66.336,0.505,-0.041011,-0.30636,-0.16197,0,-0.21069,0.13335,0
0,0.505,0.017472,66.336,0.505,-0.041021,-0.30627,-0.162,0,-0.21065,0.1334,0
0,0.505,0.01748,66.411,0.505,-0.041612,-0.30034,-0.16378,0,-0.20821,0.13656,0
0,0.505,0.017458,66.292,0.505,-0.040263,-0.31309,-0.16006,0,-0.21343,0.12948,0
0,0.505,0.017452,66.234,0.505,-0.039646,-0.31825,-0.15873,0,-0.21566,0.12674,0
0,0.505,0.017434,66.186,0.505,-0.039004,-0.32327,-0.15752,0,-0.21797,0.12365,0
0,0.505,0.017431,66.128,0.505,-0.038422,-0.32754,-0.1566,0,-0.21945,0.12079,0
0,0.505,0.017431,66.12,0.505,-0.038348,-0.32808,-0.1565,0,-0.21965,0.12047,0
0,0.505,0.01755,66.817,0.505,-0.045103,-0.24192,-0.1886,0,-0.18258,0.16628,0
0,0.505,0.017534,66.812,0.505,-0.044971,-0.24691,-0.18592,0,-0.18491,0.16376,0
0,0.505,0.017555,66.926,0.505,-0.045317,-0.22855,-0.19606,0,-0.1763,0.1721,0
0,0.505,0.01755,66.921,0.505,-0.045291,-0.23133,-0.19443,0,-0.1776,0.17086,0
0,0.505,0.017566,67.001,0.505,-0.045325,-0.21655,-0.20338,0,-0.17055,0.17749,0
0,0.505,0.017573,66.964,0.505,-0.045336,-0.22027,-0.20109,0,-0.17229,0.17587,0
0,0.505,0.017566,67.011,0.505,-0.045318,-0.21548,-0.20405,0,-0.16997,0.178,0
0,0.505,0.017577,67.022,0.505,-0.045289,-0.21285,-0.20578,0,-0.16867,0.17909,0
0,0.505,0.017569,66.958,0.505,-0.045346,-0.22289,-0.19943,0,-0.17354,0.17471,0
0,0.505,0.017581,67.07,0.505,-0.045205,-0.20699,-0.20962,0,-0.16569,0.18147,0
0,0.505,0.017576,67.068,0.505,-0.045249,-0.20915,-0.20813,0,-0.16682,0.18059,0
0,0.505,0.017596,67.21,0.505,-0.044707,-0.18955,-0.22181,0,-0.15697,0.18852,0
0,0.505,0.017597,67.152,0.505,-0.044926,-0.19571,-0.2174,0,-0.16002,0.18605,0
0,0.505,0.017594,67.151,0.505,-0.04495,-0.1965,-0.21683,0,-0.16041,0.18572,0
0,0.505,0.017603,67.26,0.505,-0.044413,-0.18279,-0.22683,0,-0.15342,0.19113,0
0,0.505,0.017605,67.23,0.505,-0.044556,-0.18597,-0.22447,0,-0.1551,0.18991,0
0,0.505,0.017607,67.283,0.505,-0.044085,-0.17658,-0.23166,0,-0.15014,0.19356,0
0,0.505,0.017611,67.259,0.505,-0.044211,-0.17901,-0.22981,0,-0.1514,0.19265,0
0,0.505,0.017621,67.369,0.505,-0.043357,-0.16527,-0.24074,0,-0.14368,0.19805,0
0,0.505,0.017617,67.328,0.505,-0.043575,-0.16841,-0.23821,0,-0.14556,0.19687,0
0,0.505,0.017633,67.462,0.505,-0.042281,-0.15205,-0.25186,0,-0.13614,0.20279,0
0,0.505,0.017632,67.448,0.505,-0.042373,-0.15309,-0.25098,0,-0.13676,0.20238,0
0,0.505,0.017577,67.118,0.505,-0.045131,-0.20327,-0.21209,0,-0.16384,0.18294,0
0,0.505,0.017631,67.383,0.505,-0.043155,-0.16258,-0.24296,0,-0.14217,0.19896,0
0,0.505,0.017609,67.32,0.505,-0.043741,-0.1708,-0.23624,0,-0.14698,0.19598,0
0,0.505,0.017595,67.142,0.505,-0.044971,-0.19722,-0.21633,0,-0.16077,0.18542,0
0,0.505,0.017611,67.29,0.505,-0.043907,-0.17358,-0.23406,0,-0.14849,0.19483,0
0,0.505,0.017649,67.532,0.505,-0.041231,-0.14162,-0.26111,0,-0.12998,0.20684,0
0,0.505,0.017657,67.571,0.505,-0.040494,-0.13524,-0.26698,0,-0.12595,0.20913,0
0,0.505,0.017629,67.426,0.505,-0.042764,-0.15765,-0.24709,0,-0.13941,0.20074,0
0,0.505,0.017627,67.429,0.505,-0.042917,-0.15941,-0.24553,0,-0.14046,0.20009,0
0,0.505,0.017639,67.462,0.505,-0.042113,-0.15037,-0.25338,0,-0.13514,0.20343,0
0,0.505,0.017546,66.908,0.505,-0.04524,-0.23493,-0.19235,0,-0.17932,0.16933,0
0,0.505,0.017552,66.83,0.505,-0.04514,-0.2404,-0.18941,0,-0.18184,0.16702,0
0,0.505,0.017563,67.06,0.505,0.045824,0.2104,-0.20647,0,0.16917,0.17838,0
0,0.505,0.017573,67.068,0.505,0.045747,0.20495,-0.21004,0,0.16637,0.18068,0
0,0.505,0.017582,67.139,0.505,0.045623,0.19914,-0.21383,0,0.16354,0.1831,0
0,0.505,0.017583,67.146,0.505,0.045586,0.19775,-0.21478,0,0.16286,0.18363,0
0,0.505,0.017593,67.183,0.505,0.045268,0.18805,-0.22162,0,0.15827,0.1874,0
0,0.505,0.017588,67.198,0.505,0.045198,0.18614,-0.22298,0,0.15726,0.18817,0
0,0.505,0.017588,67.185,0.505,0.045438,0.19268,-0.21825,0,0.16059,0.18557,0
0,0.505,0.017589,67.195,0.505,0.045382,0.19106,-0.21938,0,0.15984,0.18622,0
0,0.505,0.017602,67.234,0.505,0.044978,0.18105,-0.22671,0,0.15445,0.19038,0
0,0.505,0.017603,67.235,0.505,0.044958,0.18065,-0.22701,0,0.15424,0.19053,0
0,0.505,0.017573,67.069,0.505,0.045746,0.20486,-0.2101,0,0.16632,0.18072,0
0,0.505,0.017573,67.069,0.505,0.045745,0.20481,-0.21012,0,0.1663,0.18074,0
0,0.505,0.017563,66.988,0.505,0.045878,0.22161,-0.1996,0,0.17454,0.17377,0
0,0.505,0.017569,66.991,0.505,0.045878,0.21839,-0.20156,0,0.17302,0.17511,0
0,0.505,0.017564,67.021,0.505,0.045876,0.21596,-0.20298,0,0.17188,0.17612,0
0,0.505,0.01757,67.018,0.505,0.045858,0.21405,-0.20421,0,0.17094,0.17689,0
0,0.505,0.017326,65.777,0.505,0.033791,0.35692,-0.15137,0,0.23201,0.099625,0
0,0.505,0.01733,65.79,0.505,0.033944,0.35617,-0.15146,0,0.23171,0.10018,0
0,0.505,0.017343,65.855,0.505,0.034681,0.35242,-0.15183,0,0.23022,0.1029,0
0,0.505,0.017318,65.693,0.505,0.032859,0.36142,-0.15096,0,0.2338,0.096269,0
0,0.505,0.017351,65.878,0.505,0.035001,0.35077,-0.15205,0,0.22955,0.1041,0
0,0.505,0.017357,65.924,0.505,0.035531,0.34791,-0.15237,0,0.22842,0.10611,0
0,0.505,0.017407,66.078,0.505,0.037946,0.33361,-0.15469,0,0.22262,0.1158,0
0,0.505,0.017412,66.14,0.505,0.038611,0.32913,-0.15553,0,0.22079,0.11866,0
0,0.505,0.017389,66.028,0.505,0.037131,0.33873,-0.15376,0,0.22472,0.11242,0
0,0.505,0.017403,66.051,0.505,0.037641,0.33554,-0.15435,0,0.2234,0.11453,0
0,0.505,0.017405,66.074,0.505,0.037883,0.33402,-0.15461,0,0.22278,0.11554,0
0,0.505,0.017418,66.156,0.505,0.038871,0.32733,-0.15593,0,0.22005,0.1198,0
0,0.505,0.017421,66.198,0.505,0.039318,0.32412,-0.15659,0,0.21874,0.1218,0
0,0.505,0.017433,66.222,0.505,0.039792,0.32058,-0.15745,0,0.21727,0.12398,0
0,0.505,0.017452,66.278,0.505,0.040645,0.31377,-0.15917,0,0.21443,0.12806,0
0,0.505,0.017454,66.283,0.505,0.040734,0.313,-0.15939,0,0.21411,0.12852,0
0,0.505,0.01745,66.259,0.505,0.040473,0.31517,-0.15882,0,0.21502,0.12723,0
0,0.505,0.017435,66.242,0.505,0.039999,0.31899,-0.15781,0,0.21663,0.12494,0
0,0.505,0.017494,66.487,0.505,0.043148,0.28879,-0.16711,0,0.20422,0.14198,0
0,0.505,0.01749,66.545,0.505,0.043529,0.28399,-0.16887,0,0.20217,0.1445,0
0,0.505,0.01749,66.474,0.505,0.042985,0.29069,-0.16641,0,0.20503,0.14095,0
0,0.505,0.01749,66.482,0.505,0.043055,0.28991,-0.16669,0,0.2047,0.14138,0
0,0.505,0.017467,66.472,0.505,0.042532,0.29576,-0.16457,0,0.20702,0.13818,0
0,0.505,0.01747,66.375,0.505,0.04186,0.30274,-0.16237,0,0.20968,0.1344,0
0,0.505,0.017469,66.383,0.505,0.041915,0.30222,-0.16252,0,0.20946,0.1347,0
0,0.505,0.017471,66.386,0.505,0.041963,0.30174,-0.16268,0,0.20928,0.13495,0
0,0.505,0.017513,66.652,0.505,0.044646,0.26679,-0.17606,0,0.19473,0.15316,0
0,0.505,0.017515,66.653,0.505,0.044688,0.26593,-0.17647,0,0.19435,0.15358,0
0,0.505,0.017512,66.644,0.505,0.044607,0.26747,-0.17578,0,0.19502,0.15283,0
0,0.505,0.017516,66.712,0.505,0.044929,0.26107,-0.17866,0,0.19223,0.15592,0
0,0.505,0.017525,66.72,0.505,0.045107,0.25713,-0.18056,0,0.19051,0.15783,0
0,0.505,0.017502,66.574,0.505,0.043999,0.27741,-0.17155,0,0.19931,0.14789,0
0,0.505,0.017501,66.634,0.505,0.044315,0.27247,-0.17355,0,0.1972,0.15036,0
0,0.505,0.017318,65.692,0.505,0.032854,0.36144,-0.15095,0,0.23381,0.09625,0
0,0.505,0.017639,67.522,0.505,0.042303,0.14382,-0.25716,0,0.1341,0.20422,0
0,0.505,0.017643,67.549,0.505,0.041943,0.14027,-0.26035,0,0.132,0.20548,0
0,0.505,0.017632,67.478,0.505,0.042848,0.14962,-0.25206,0,0.13746,0.20221,0
0,0.505,0.017639,67.502,0.505,0.042561,0.1465,-0.25478,0,0.1357,0.20329,0
0,0.505,0.017619,67.429,0.505,0.043301,0.15489,-0.24755,0,0.14058,0.20035,0
0,0.505,0.017626,67.444,0.505,0.043134,0.15291,-0.24923,0,0.13939,0.2011,0
0,0.505,0.017615,67.362,0.505,0.044056,0.16503,-0.23913,0,0.14614,0.19644,0
0,0.505,0.01762,67.367,0.505,0.043878,0.16246,-0.24125,0,0.14481,0.19739,0
0,0.505,0.0176,67.218,0.505,0.045037,0.18242,-0.22572,0,0.15521,0.18978,0
0,0.505,0.017606,67.294,0.505,0.044705,0.17562,-0.23076,0,0.1517,0.19243,0
0,0.505,0.017605,67.34,0.505,0.044395,0.17027,-0.23492,0,0.14891,0.19445,0
0,0.505,0.017615,67.347,0.505,0.04414,0.16631,-0.23812,0,0.14682,0.19597,0
0,0.505,0.017542,66.835,0.505,0.045688,0.23899,-0.18978,0,0.18257,0.16611,0
0,0.505,0.017545,66.84,0.505,0.045707,0.238,-0.19032,0,0.18211,0.16658,0
0,0.505,0.017523,66.742,0.505,0.045187,0.2553,-0.1814,0,0.18972,0.1587,0
0,0.505,0.017529,66.744,0.505,0.045256,0.25336,-0.18239,0,0.18884,0.15965,0
0,0.505,0.017542,66.825,0.505,0.045661,0.24012,-0.18918,0,0.1831,0.16561,0
0,0.505,0.017535,66.8,0.505,0.045499,0.24625,-0.18596,0,0.18579,0.16292,0
0,0.505,0.017529,66.839,0.505,0.045575,0.24373,-0.18719,0,0.18477,0.16399,0
0,0.505,0.01755,66.893,0.505,0.045776,0.23405,-0.19244,0,0.18022,0.1685,0
0,0.505,0.017552,66.958,0.505,0.045858,0.22737,-0.19617,0,0.17728,0.17142,0
0,0.505,0.017563,66.957,0.505,0.045873,0.22388,-0.19827,0,0.17566,0.17287,0
0,0.505,0.017546,66.918,0.505,0.045805,0.23197,-0.19357,0,0.17928,0.16936,0
0,0.505,0.0178,68.453,0.505,-0.0065988,-0.015778,-0.38362,0,-0.016729,0.24203,0
0,0.505,0.017802,68.446,0.505,-0.0068709,-0.016299,-0.38335,0,-0.017439,0.24197,0
0,0.505,0.017807,68.401,0.505,0.015173,0.02841,-0.37458,0,0.040212,0.23945,0
0,0.505,0.017806,68.427,0.505,0.014041,0.025837,-0.37654,0,0.03719,0.23986,0
0,0.505,0.01781,68.43,0.505,0.01357,0.024726,-0.37727,0,0.035885,0.24002,0
0,0.505,0.017803,68.449,0.505,0.012596,0.022639,-0.37877,0,0.033186,0.24037,0
0,0.505,0.017813,68.448,0.505,0.011501,0.020322,-0.38028,0,0.030213,0.24069,0
0,0.505,0.017812,68.455,0.505,0.011199,0.019632,-0.38067,0,0.029412,0.24078,0
0,0.505,0.017797,68.488,0.505,0.0051077,0.0072443,-0.38592,0,0.013725,0.24212,0
0,0.505,0.017815,68.475,0.505,0.0038805,0.0048506,-0.38643,0,0.01036,0.2422,0
0,0.505,0.017816,68.488,0.505,0.0066129,0.010241,-0.385,0,0.017567,0.2418,0
0,0.505,0.017817,68.482,0.505,0.0063145,0.0095967,-0.3852,0,0.016817,0.24185,0
0,0.505,0.017815,68.477,0.505,0.0037581,0.0045904,-0.38647,0,0.010041,0.24221,0
0,0.505,0.017814,68.472,0.505,0.0033018,0.0036935,-0.38659,0,0.0088864,0.24231,0
0,0.505,0.017806,68.497,0.505,-0.00076143,-0.0042346,-0.38672,0,-0.0016052,0.24266,0
0,0.505,0.01781,68.471,0.505,-0.0019885,-0.0065947,-0.38643,0,-0.0047551,0.24256,0
0,0.505,0.017808,68.473,0.505,-0.0022287,-0.0071038,-0.38635,0,-0.0053776,0.24255,0
0,0.505,0.01781,68.466,0.505,-0.0026261,-0.0079118,-0.38618,0,-0.0064087,0.24252,0
0,0.505,0.017803,68.483,0.505,-0.0036897,-0.0099815,-0.38567,0,-0.0091575,0.24244,0
0,0.505,0.017682,67.783,0.505,0.037909,0.1096,-0.28995,0,0.11255,0.21622,0
0,0.505,0.017688,67.804,0.505,0.037549,0.10735,-0.2922,0,0.11101,0.21692,0
0,0.505,0.017651,67.663,0.505,0.040089,0.12452,-0.27515,0,0.12225,0.21094,0
0,0.505,0.017674,67.686,0.505,0.039431,0.11968,-0.27988,0,0.11925,0.21276,0
0,0.505,0.017623,67.397,0.505,0.043539,0.15793,-0.24502,0,0.14233,0.19914,0
0,0.505,0.017676,67.691,0.505,0.039325,0.11896,-0.2806,0,0.11879,0.21301,0
0,0.505,0.01768,67.74,0.505,0.038683,0.11459,-0.28493,0,0.116,0.21448,0
0,0.505,0.017651,67.609,0.505,0.040835,0.13047,-0.26948,0,0.12609,0.20876,0
0,0.505,0.017645,67.639,0.505,0.04034,0.12644,-0.27329,0,0.12354,0.21018,0
0,0.505,0.017644,67.569,0.505,0.041702,0.13798,-0.26243,0,0.1306,0.20627,0
0,0.505,0.01765,67.601,0.505,0.041182,0.13335,-0.26671,0,0.12787,0.20775,0
0,0.505,0.017651,67.616,0.505,0.04102,0.13193,-0.26803,0,0.12705,0.20825,0
0,0.505,0.01778,68.33,0.505,0.0208,0.042273,-0.362,0,0.055706,0.23636,0
0,0.505,0.017785,68.331,0.505,0.020283,0.04086,-0.36335,0,0.054239,0.23669,0
0,0.505,0.017768,68.286,0.505,0.023316,0.04926,-0.3548,0,0.062957,0.2346,0
0,0.505,0.017777,68.287,0.505,0.022496,0.046877,-0.35727,0,0.060562,0.23521,0
0,0.505,0.017817,68.451,0.505,0.010554,0.018258,-0.38143,0,0.027712,0.24099,0
0,0.505,0.017801,68.493,0.505,0.0082269,0.013441,-0.38378,0,0.021708,0.24181,0
0,0.505,0.017817,68.476,0.505,0.0069499,0.010953,-0.38479,0,0.01846,0.24185,0
0,0.505,0.017817,68.468,0.505,0.0094267,0.015971,-0.38267,0,0.024793,0.24132,0
0,0.505,0.017815,68.47,0.505,0.00975,0.016572,-0.38234,0,0.02563,0.24126,0
0,0.505,0.017806,68.478,0.505,0.0022455,0.0016356,-0.38684,0,0.0062256,0.24254,0
0,0.505,0.017806,68.477,0.505,0.0020134,0.0012293,-0.38687,0,0.0056175,0.24257,0
0,0.505,0.017784,68.361,0.505,0.019508,0.038872,-0.36532,0,0.052061,0.23718,0
0,0.505,0.017793,68.356,0.505,0.018499,0.036369,-0.36773,0,0.049242,0.23775,0
0,0.505,0.017795,68.367,0.505,0.017953,0.034958,-0.36897,0,0.047727,0.23805,0
0,0.505,0.017791,68.406,0.505,0.016851,0.032317,-0.37131,0,0.04469,0.23863,0
0,0.505,0.017806,68.463,0.505,-0.0044172,-0.011363,-0.38524,0,-0.011044,0.24234,0
0,0.505,0.0178,68.472,0.505,-0.0051463,-0.012876,-0.38474,0,-0.012943,0.24224,0
0,0.505,0.017804,68.488,0.505,0.0007157,-0.0013513,-0.38692,0,0.0021301,0.24266,0
0,0.505,0.017808,68.483,0.505,0.00014995,-0.0023817,-0.38688,0,0.00070673,0.24267,0
0,0.505,0.017799,68.427,0.505,-0.0094709,-0.021695,-0.38052,0,-0.024273,0.24139,0
0,0.505,0.0178,68.42,0.505,-0.0097396,-0.022281,-0.38017,0,-0.024986,0.24132,0
0,0.505,0.01779,68.431,0.505,-0.010876,-0.02466,-0.37861,0,-0.027996,0.24102,0
0,0.505,0.017795,68.406,0.505,-0.011647,-0.026283,-0.37745,0,-0.030044,0.24077,0
0,0.505,0.017791,68.409,0.505,-0.012237,-0.027624,-0.37651,0,-0.031628,0.24057,0
0,0.505,0.017795,68.459,0.505,-0.0080451,-0.018736,-0.38215,0,-0.020519,0.24173,0
0,0.505,0.0178,68.426,0.505,-0.0092819,-0.021272,-0.38075,0,-0.023772,0.24144,0
0,0.505,0.017794,68.384,0.505,-0.013017,-0.029376,-0.37522,0,-0.033718,0.2403,0
0,0.505,0.017789,68.389,0.505,-0.013555,-0.030525,-0.37429,0,-0.035158,0.24012,0
0,0.505,0.017804,68.447,0.505,-0.0062104,-0.015031,-0.38393,0,-0.015718,0.24208,0
0,0.505,0.017371,65.982,0.505,0.036347,0.34335,-0.15301,0,0.22659,0.10928,0
0,0.505,0.017388,66.017,0.505,0.037,0.33952,-0.15364,0,0.22503,0.11189,0
0,0.505,0.017294,65.631,0.505,0.031898,0.36576,-0.15054,0,0.23562,0.092943,0
0,0.505,0.017317,65.689,0.505,0.032818,0.36161,-0.15094,0,0.23388,0.096126,0
0,0.505,0.017289,65.621,0.505,0.031734,0.36649,-0.15048,0,0.23591,0.0924,0
0,0.505,0.017254,65.571,0.505,0.030937,0.36989,-0.15014,0,0.23729,0.089819,0
0,0.505,0.017369,65.955,0.505,0.03602,0.34522,-0.15277,0,0.22733,0.108,0
0,0.505,0.017251,65.432,0.505,0.029918,0.37421,-0.14994,0,0.23899,0.086381,0
0,0.505,0.017255,65.442,0.505,0.030002,0.37388,-0.14996,0,0.23885,0.086673,0
0,0.505,0.017206,65.312,0.505,0.028704,0.37903,-0.1495,0,0.24068,0.082329,0
0,0.505,0.017215,65.344,0.505,0.028946,0.3781,-0.14958,0,0.24034,0.083088,0
0,0.505,0.017137,65.05,0.505,0.026473,0.3876,-0.1487,0,0.24379,0.075394,0
0,0.505,0.017159,65.184,0.505,0.027518,0.3836,-0.14908,0,0.24238,0.078567,0
0,0.505,0.017131,65.029,0.505,0.026348,0.38805,-0.14864,0,0.24396,0.075021,0
0,0.505,0.017258,65.456,0.505,0.03014,0.37331,-0.15002,0,0.23864,0.087156,0
0,0.505,0.01753,66.793,0.505,0.045392,0.24952,-0.18426,0,0.18714,0.16145,0
0,0.505,0.0175,66.57,0.505,0.043939,0.2783,-0.17117,0,0.19969,0.14744,0
0,0.505,0.0175,66.555,0.505,0.043858,0.27944,-0.17072,0,0.20019,0.14686,0
0,0.505,0.017116,64.955,0.505,0.025892,0.38976,-0.14845,0,0.24451,0.0736,0
0,0.505,0.017083,64.862,0.505,0.025173,0.39241,-0.14804,0,0.24538,0.071373,0
0,0.505,0.017073,64.824,0.505,0.024893,0.39347,-0.1479,0,0.24571,0.070524,0
0,0.505,0.016985,64.536,0.505,0.023148,0.39988,-0.14668,0,0.24772,0.065348,0
0,0.505,0.01702,64.679,0.505,0.023971,0.39678,-0.14724,0,0.24679,0.067769,0
0,0.505,0.017168,65.222,0.505,0.027772,0.38265,-0.14918,0,0.24204,0.079351,0
0,0.505,0.016881,64.198,0.505,0.02151,0.4059,-0.14515,0,0.24947,0.060656,0
0,0.505,0.016903,64.25,0.505,0.021813,0.40478,-0.14549,0,0.24915,0.061524,0
0,0.505,0.016958,64.452,0.505,0.022742,0.4013,-0.14631,0,0.24815,0.06417,0
0,0.505,0.016528,63.132,0.505,0.017603,0.42035,-0.13891,0,0.25318,0.049747,0
0,0.505,0.016644,63.427,0.505,0.018633,0.41645,-0.14092,0,0.25222,0.052778,0
0,0.505,0.017457,66.344,0.505,0.041256,0.30842,-0.16062,0,0.21216,0.13117,0
0,0.505,0.010937,57.194,0.505,0.0022277,0.30086,-0.034113,0,0.26317,0.010127,0
0,0.505,0.011158,56.972,0.505,0.002463,0.31686,-0.038203,0,0.26301,0.010977,0
0,0.505,0.011983,56.715,0.505,0.0036113,0.3655,-0.054282,0,0.26236,0.014705,0
0,0.505,0.010385,58.311,0.505,0.0012789,0.22936,-0.018417,0,0.26379,0.0067757,0
0,0.505,0.013088,57.353,0.505,0.0054624,0.40652,-0.07449,0,0.2613,0.019445,0
0,0.505,0.013627,57.705,0.505,0.0064714,0.41968,-0.084141,0,0.26067,0.021854,0
0,0.505,0.015527,60.75,0.505,0.012012,0.43638,-0.12065,0,0.25759,0.035458,0
0,0.505,0.01557,60.817,0.505,0.012196,0.43592,-0.12146,0,0.25747,0.035905,0
0,0.505,0.014953,59.658,0.505,0.0099585,0.43711,-0.10981,0,0.25859,0.030645,0
0,0.505,0.01506,59.83,0.505,0.010355,0.43688,-0.11189,0,0.25836,0.031533,0
0,0.505,0.014428,58.723,0.505,0.0084225,0.43241,-0.099407,0,0.25944,0.026895,0
0,0.505,0.016205,62.26,0.505,0.015349,0.42788,-0.13302,0,0.25505,0.044118,0
0,0.505,0.016325,62.634,0.505,0.016163,0.42545,-0.13535,0,0.25433,0.046111,0
0,0.505,0.01645,62.895,0.505,0.017013,0.4223,-0.13758,0,0.25366,0.04819,0
0,0.505,0.016731,63.695,0.505,0.019439,0.41367,-0.14232,0,0.25147,0.055035,0
0,0.505,0.016782,63.918,0.505,0.020276,0.41041,-0.14347,0,0.25077,0.057251,0
0,0.505,0.016687,63.561,0.505,0.018993,0.41523,-0.14158,0,0.25187,0.053776,0
0,0.505,0.016873,64.172,0.505,0.021375,0.40643,-0.14499,0,0.24962,0.060271,0
0,0.505,0.015667,60.995,0.505,0.012602,0.435,-0.1232,0,0.25716,0.036966,0
0,0.505,0.009812,60.954,0.505,0.0007248,0.13831,-0.0070063,0,0.26441,0.0035477,0
0,0.505,0.01035,58.473,0.505,0.0012397,0.22339,-0.017605,0,0.26382,0.0065595,0
0,0.505,0.011992,56.717,0.505,0.0036238,0.36595,-0.054449,0,0.26235,0.014745,0
0,0.505,0.012721,57.079,0.505,0.0048016,0.3933,-0.066975,0,0.26168,0.017765,0
0,0.505,0.0092524,62.929,0.505,0.00051079,0.076976,-0.0024364,0,0.26519,0.00080842,0
0,0.505,0.016058,61.877,0.505,0.014363,0.43127,-0.1301,0,0.25579,0.041586,0
0,0.505,0.015947,61.598,0.505,0.013812,0.43248,-0.12806,0,0.25619,0.040139,0
0,0.505,0.014037,58.224,0.505,0.0073991,0.42753,-0.092085,0,0.26007,0.024278,0
0,0.505,0.014293,58.537,0.505,0.0079978,0.43142,-0.096631,0,0.25972,0.025848,0
0,0.505,0.01712,64.927,0.505,-0.025198,-0.39075,-0.14919,0,-0.2443,0.073697,0
0,0.505,0.017115,64.909,0.505,-0.025098,-0.3911,-0.14915,0,-0.24442,0.073392,0
0,0.505,0.01706,64.714,0.505,-0.023798,-0.39572,-0.14855,0,-0.246,0.06949,0
0,0.505,0.016995,64.528,0.505,-0.022598,-0.39993,-0.14777,0,-0.24736,0.065961,0
0,0.505,0.017064,64.73,0.505,-0.023877,-0.39545,-0.1486,0,-0.2459,0.069722,0
0,0.505,0.016835,64.006,0.505,-0.020069,-0.40891,-0.14545,0,-0.25011,0.058728,0
0,0.505,0.016773,63.778,0.505,-0.01922,-0.41203,-0.14448,0,-0.25092,0.056372,0
0,0.505,0.016978,64.452,0.505,-0.02228,-0.40102,-0.14757,0,-0.24774,0.065038,0
0,0.505,0.01692,64.297,0.505,-0.021342,-0.40435,-0.14672,0,-0.24878,0.062334,0
0,0.505,0.016868,64.082,0.505,-0.020507,-0.4073,-0.14599,0,-0.24965,0.059963,0
0,0.505,0.016226,62.327,0.505,-0.014749,-0.42746,-0.135,0,-0.25472,0.044495,0
0,0.505,0.016067,61.868,0.505,-0.013675,-0.43118,-0.13206,0,-0.25553,0.041824,0
0,0.505,0.01673,63.66,0.505,-0.018763,-0.4136,-0.14383,0,-0.25136,0.055106,0
0,0.505,0.016704,63.561,0.505,-0.018485,-0.41456,-0.14341,0,-0.25162,0.054342,0
0,0.505,0.016461,62.844,0.505,-0.016208,-0.42274,-0.13914,0,-0.2536,0.048164,0
0,0.505,0.016447,62.819,0.505,-0.016107,-0.42312,-0.13889,0,-0.2537,0.047894,0
0,0.505,0.01508,59.774,0.505,-0.0096021,-0.43816,-0.11406,0,-0.25844,0.031507,0
0,0.505,0.014983,59.589,0.505,-0.0092911,-0.43792,-0.11219,0,-0.25861,0.030751,0
0,0.505,0.016596,63.289,0.505,-0.017447,-0.4183,-0.14147,0,-0.25257,0.051511,0
0,0.505,0.016434,62.783,0.505,-0.016002,-0.42352,-0.13866,0,-0.25377,0.047628,0
0,0.505,0.012103,56.614,0.505,-0.0030362,-0.37287,-0.057496,0,-0.26224,0.015101,0
0,0.505,0.01191,56.559,0.505,-0.0027422,-0.36448,-0.053718,0,-0.26242,0.014276,0
0,0.505,0.011636,56.607,0.505,-0.0023805,-0.34833,-0.048575,0,-0.26265,0.013143,0
0,0.505,0.013996,58.099,0.505,-0.0066311,-0.42911,-0.093409,0,-0.26018,0.024302,0
0,0.505,0.013475,57.399,0.505,-0.0054405,-0.41856,-0.083348,0,-0.26087,0.021357,0
0,0.505,0.014833,59.306,0.505,-0.0088556,-0.437,-0.10945,0,-0.25889,0.029689,0
0,0.505,0.014522,58.843,0.505,-0.0079592,-0.43549,-0.10342,0,-0.25943,0.027524,0
0,0.505,0.013375,57.309,0.505,-0.0052202,-0.41633,-0.081375,0,-0.26099,0.020817,0
0,0.505,0.012739,56.832,0.505,-0.0040051,-0.39692,-0.068428,0,-0.26169,0.017701,0
0,0.505,0.013418,57.342,0.505,-0.0053095,-0.4175,-0.082186,0,-0.26095,0.021037,0
0,0.505,0.014301,58.537,0.505,-0.007376,-0.43336,-0.099422,0,-0.25976,0.026127,0
0,0.505,0.010034,59.483,0.505,-0.00024428,-0.18719,-0.013625,0,-0.26419,0.005223,0
0,0.505,0.0096512,60.818,0.505,8.9621e-05,-0.13786,-0.0069896,0,-0.26449,0.0035473,0
0,0.505,0.011079,56.811,0.505,-0.001587,-0.31511,-0.03744,0,-0.26313,0.010753,0
0,0.505,0.017166,65.111,0.505,-0.026554,-0.38584,-0.14964,0,-0.24257,0.077887,0
0,0.505,0.017155,65.073,0.505,-0.026299,-0.38674,-0.14955,0,-0.2429,0.077094,0
0,0.505,0.017304,65.623,0.505,-0.031764,-0.36493,-0.15123,0,-0.23447,0.094992,0
0,0.505,0.017277,65.552,0.505,-0.030813,-0.36907,-0.15086,0,-0.23614,0.091718,0
0,0.505,0.017272,65.529,0.505,-0.030516,-0.37035,-0.15078,0,-0.23665,0.090723,0
0,0.505,0.017387,65.947,0.505,-0.03595,-0.34348,-0.15371,0,-0.22587,0.11058,0
0,0.505,0.017382,65.94,0.505,-0.03573,-0.34479,-0.15348,0,-0.22637,0.10972,0
0,0.505,0.017415,66.056,0.505,-0.037537,-0.33364,-0.15538,0,-0.222,0.11691,0
0,0.505,0.01739,66.038,0.505,-0.036816,-0.33824,-0.15451,0,-0.22386,0.11392,0
0,0.505,0.01745,66.228,0.505,-0.039547,-0.31904,-0.15855,0,-0.21598,0.12628,0
0,0.505,0.01725,65.458,0.505,-0.02972,-0.37362,-0.15051,0,-0.23796,0.088068,0
0,0.505,0.017243,65.412,0.505,-0.029234,-0.37561,-0.15039,0,-0.23871,0.08646,0
0,0.505,0.015688,60.96,0.505,-0.011819,-0.43594,-0.12514,0,-0.25706,0.037134,0
0,0.505,0.015376,60.346,0.505,-0.010654,-0.43747,-0.11946,0,-0.25779,0.034087,0
0,0.505,0.0093146,61.799,0.505,0.00020038,-0.10713,-0.0046653,0,-0.26478,0.0021833,0
0,0.505,0.010431,57.966,0.505,-0.00059966,-0.24229,-0.020893,0,-0.26382,0.0070991,0
0,0.505,0.010745,57.419,0.505,-0.0010026,-0.27377,-0.028081,0,-0.26354,0.0086346,0
0,0.505,0.017342,65.806,0.505,-0.033903,-0.35466,-0.15218,0,-0.23033,0.10271,0
0,0.505,0.017333,65.721,0.505,-0.033034,-0.35901,-0.15178,0,-0.23207,0.099515,0
0,0.505,0.01733,65.711,0.505,-0.032919,-0.35956,-0.15172,0,-0.23229,0.0991,0
0,0.505,0.017321,65.664,0.505,-0.032429,-0.36185,-0.15153,0,-0.23322,0.097355,0
0,0.505,0.017306,65.631,0.505,-0.031885,-0.36438,-0.15127,0,-0.23425,0.095417,0
0,0.505,0.017416,66.064,0.505,-0.037603,-0.3332,-0.15547,0,-0.22182,0.1172,0
0,0.505,0.017425,66.086,0.505,-0.03798,-0.33062,-0.156,0,-0.22074,0.11884,0
0,0.505,0.017457,66.298,0.505,-0.040355,-0.31229,-0.16027,0,-0.2131,0.12992,0
0,0.505,0.017354,65.835,0.505,-0.03433,-0.35246,-0.15247,0,-0.22944,0.1043,0
0,0.505,0.017384,66.029,0.505,-0.036606,-0.3395,-0.15427,0,-0.22436,0.11311,0
0,0.505,0.017382,65.928,0.505,-0.03562,-0.34543,-0.15341,0,-0.22661,0.10929,0
0,0.505,0.017357,65.889,0.505,-0.03484,-0.34973,-0.15276,0,-0.22837,0.10623,0
0,0.505,0.017207,65.273,0.505,-0.027906,-0.38079,-0.15003,0,-0.24069,0.082158,0
0,0.505,0.01719,65.218,0.505,-0.027463,-0.38242,-0.14988,0,-0.24131,0.08075,0
0,0.505,0.017221,65.346,0.505,-0.028603,-0.37806,-0.15019,0,-0.23966,0.084406,0
0,0.505,0.015846,61.294,0.505,-0.012555,-0.43403,-0.12807,0,-0.25647,0.03899,0
0,0.505,0.015737,61.056,0.505,-0.012032,-0.43542,-0.12602,0,-0.25692,0.037667,0
0,0.505,0.016014,61.718,0.505,-0.013393,-0.43183,-0.1311,0,-0.25573,0.041136,0
0,0.505,0.01757,66.943,0.505,-0.045342,-0.22396,-0.19881,0,-0.17408,0.1742,0
0,0.505,0.01755,66.826,0.505,-0.045126,-0.24107,-0.18904,0,-0.18216,0.1667,0
0,0.505,0.017777,68.321,0.505,-0.017286,-0.039248,-0.3667,0,-0.045488,0.23852,0
0,0.505,0.017777,68.313,0.505,-0.017751,-0.040449,-0.36561,0,-0.046867,0.23826,0
0,0.505,0.017784,68.339,0.505,-0.016075,-0.036338,-0.36938,0,-0.041948,0.23913,0
0,0.505,0.017785,68.328,0.505,-0.016363,-0.037017,-0.36875,0,-0.04278,0.239,0
0,0.505,0.017771,68.312,0.505,-0.018531,-0.04232,-0.36373,0,-0.049059,0.23773,0
0,0.505,0.017776,68.297,0.505,-0.019302,-0.044363,-0.36178,0,-0.051207,0.23722,0
0,0.505,0.017771,68.297,0.505,-0.019827,-0.045644,-0.36042,0,-0.052682,0.23689,0
0,0.505,0.017783,68.376,0.505,-0.014842,-0.03347,-0.37186,0,-0.038625,0.2396,0
0,0.505,0.017786,68.338,0.505,-0.01585,-0.035838,-0.36985,0,-0.041333,0.23922,0
0,0.505,0.017791,68.374,0.505,-0.013957,-0.031409,-0.37355,0,-0.036234,0.23996,0
0,0.505,0.017776,68.255,0.505,-0.021013,-0.048839,-0.35723,0,-0.055961,0.23613,0
0,0.505,0.017776,68.255,0.505,-0.021073,-0.048985,-0.35706,0,-0.056128,0.23609,0
0,0.505,0.017751,68.186,0.505,-0.023718,-0.056449,-0.34915,0,-0.063937,0.23433,0
0,0.505,0.017753,68.188,0.505,-0.024636,-0.059223,-0.34612,0,-0.066746,0.23347,0
0,0.505,0.017776,68.251,0.505,-0.021161,-0.049225,-0.35681,0,-0.056384,0.23603,0
0,0.505,0.017752,68.243,0.505,-0.022286,-0.052327,-0.35354,0,-0.059595,0.23535,0
0,0.505,0.017749,68.151,0.505,-0.025826,-0.062945,-0.34208,0,-0.070383,0.23244,0
0,0.505,0.01775,68.141,0.505,-0.026055,-0.063684,-0.34125,0,-0.071089,0.23221,0
0,0.505,0.017689,67.82,0.505,-0.035479,-0.1024,-0.29938,0,-0.1035,0.22038,0
0,0.505,0.017681,67.786,0.505,-0.03595,-0.10496,-0.29676,0,-0.10531,0.21949,0
0,0.505,0.017692,67.862,0.505,-0.034662,-0.098173,-0.30379,0,-0.10041,0.22178,0
0,0.505,0.017691,67.824,0.505,-0.035259,-0.10122,-0.30059,0,-0.10268,0.22078,0
0,0.505,0.017692,67.871,0.505,-0.033982,-0.094814,-0.30737,0,-0.097747,0.22301,0
0,0.505,0.017725,68.013,0.505,-0.029945,-0.077508,-0.32615,0,-0.083704,0.22846,0
0,0.505,0.017716,68.011,0.505,-0.030491,-0.07957,-0.32382,0,-0.085605,0.22767,0
0,0.505,0.017706,67.902,0.505,-0.033116,-0.090809,-0.3117,0,-0.094493,0.2243,0
0,0.505,0.017692,67.881,0.505,-0.0338,-0.093943,-0.30832,0,-0.097062,0.22332,0
0,0.505,0.017718,67.986,0.505,-0.031126,-0.082159,-0.32098,0,-0.087717,0.2269,0
0,0.505,0.017719,67.985,0.505,-0.031573,-0.084013,-0.31895,0,-0.089166,0.22634,0
0,0.505,0.017718,67.976,0.505,-0.031745,-0.084771,-0.31817,0,-0.089745,0.22613,0
0,0.505,0.017711,67.921,0.505,-0.032784,-0.089273,-0.31333,0,-0.093259,0.22477,0
0,0.505,0.017709,67.918,0.505,-0.032843,-0.089549,-0.31304,0,-0.093468,0.22468,0
0,0.505,0.017667,67.747,0.505,-0.037219,-0.11214,-0.28932,0,-0.11074,0.21694,0
0,0.505,0.017677,67.713,0.505,-0.037896,-0.11636,-0.2851,0,-0.1137,0.21569,0
0,0.505,0.017674,67.77,0.505,-0.036392,-0.10736,-0.29424,0,-0.10707,0.21865,0
0,0.505,0.017668,67.744,0.505,-0.037049,-0.11117,-0.29036,0,-0.10997,0.21729,0
0,0.505,0.017674,67.78,0.505,-0.036271,-0.10667,-0.29495,0,-0.10654,0.2189,0
0,0.505,0.017673,67.679,0.505,-0.038679,-0.12152,-0.28001,0,-0.11712,0.21404,0
0,0.505,0.017674,67.675,0.505,-0.038733,-0.12189,-0.27965,0,-0.11736,0.21391,0
0,0.505,0.017793,68.367,0.505,0.018191,0.035575,-0.36844,0,0.048383,0.23792,0
0,0.505,0.017805,68.398,0.505,0.015622,0.029401,-0.37377,0,0.041398,0.23927,0
0,0.505,0.017804,68.403,0.505,0.015481,0.029088,-0.37404,0,0.041026,0.23934,0
0,0.505,0.017775,68.306,0.505,0.022073,0.04571,-0.35851,0,0.059343,0.23552,0
0,0.505,0.017782,68.303,0.505,0.021486,0.044164,-0.36014,0,0.057669,0.2359,0
0,0.505,0.017733,68.041,0.505,-0.029139,-0.074394,-0.3295,0,-0.080795,0.22948,0
0,0.505,0.017726,68.032,0.505,-0.029457,-0.075596,-0.32822,0,-0.081945,0.22912,0
0,0.505,0.017754,68.149,0.505,-0.025536,-0.062075,-0.34308,0,-0.069499,0.23269,0
0,0.505,0.017744,68.136,0.505,-0.027029,-0.066937,-0.33768,0,-0.074042,0.23136,0
0,0.505,0.017748,68.104,0.505,-0.027778,-0.069487,-0.33483,0,-0.076405,0.23069,0
0,0.505,0.017742,68.079,0.505,-0.028323,-0.071442,-0.33277,0,-0.078072,0.23019,0
0,0.505,0.017675,67.715,0.505,-0.037967,-0.11678,-0.28465,0,-0.11399,0.21556,0
0,0.505,0.017751,68.197,0.505,-0.02325,-0.055116,-0.35064,0,-0.062537,0.2347,0
0,0.505,0.017749,68.197,0.505,-0.023472,-0.055721,-0.34995,0,-0.063197,0.23455,0
0,0.505,0.017503,66.498,0.505,-0.042697,-0.28817,-0.16791,0,-0.20288,0.14334,0
0,0.505,0.017491,66.415,0.505,-0.041886,-0.29752,-0.16472,0,-0.20705,0.13822,0
0,0.505,0.017757,68.146,0.505,0.02804,0.064267,-0.3386,0,0.077186,0.23045,0
0,0.505,0.017757,68.146,0.505,0.027948,0.063964,-0.33895,0,0.076901,0.23054,0
0,0.505,0.017751,68.196,0.505,0.026885,0.060334,-0.34288,0,0.073608,0.23165,0
0,0.505,0.017733,68.054,0.505,0.030863,0.074858,-0.32698,0,0.086256,0.22725,0
0,0.505,0.017738,68.086,0.505,0.030263,0.072485,-0.32956,0,0.084352,0.22798,0
0,0.505,0.017741,68.09,0.505,0.029875,0.070951,-0.33121,0,0.083061,0.22849,0
0,0.505,0.01774,68.126,0.505,0.029185,0.068368,-0.33406,0,0.080851,0.22938,0
0,0.505,0.017757,68.143,0.505,0.028088,0.064435,-0.33841,0,0.077337,0.2304,0
0,0.505,0.017693,67.874,0.505,0.036238,0.099831,-0.30001,0,0.10569,0.21941,0
0,0.505,0.0177,67.895,0.505,0.03567,0.096726,-0.30323,0,0.10348,0.22043,0
0,0.505,0.017702,67.911,0.505,0.035361,0.09515,-0.30493,0,0.10229,0.22096,0
0,0.505,0.017714,67.934,0.505,0.034651,0.091529,-0.30874,0,0.099656,0.22217,0
0,0.505,0.017716,67.945,0.505,0.034427,0.090459,-0.30991,0,0.098867,0.22251,0
0,0.505,0.017674,67.69,0.505,0.0394,0.11946,-0.28009,0,0.11912,0.21284,0
0,0.505,0.017684,67.749,0.505,0.038457,0.11306,-0.28644,0,0.11496,0.21503,0
0,0.505,0.017756,68.204,0.505,0.026378,0.058624,-0.3447,0,0.072054,0.23205,0
0,0.505,0.017756,68.235,0.505,0.025719,0.056518,-0.34701,0,0.070054,0.23261,0
0,0.505,0.017768,68.235,0.505,0.024537,0.052864,-0.35101,0,0.066538,0.23365,0
0,0.505,0.017769,68.235,0.505,0.024505,0.052774,-0.35111,0,0.066444,0.23367,0
0,0.505,0.017768,68.234,0.505,0.024557,0.052923,-0.35094,0,0.066596,0.23363,0
0,0.505,0.017723,68.034,0.505,0.031504,0.077389,-0.32414,0,0.088413,0.22649,0
0,0.505,0.017726,68.048,0.505,0.031305,0.076575,-0.32504,0,0.08769,0.22676,0
0,0.505,0.017714,67.975,0.505,0.033619,0.086575,-0.31405,0,0.096009,0.22369,0
0,0.505,0.017707,68.006,0.505,0.032601,0.082016,-0.31905,0,0.092421,0.22498,0
0,0.505,0.017708,68.008,0.505,0.032297,0.080752,-0.3205,0,0.091299,0.2254,0
0,0.505,0.017715,67.973,0.505,0.03338,0.085549,-0.31524,0,0.095217,0.22402,0
0,0.505,0.017618,67.396,0.505,0.043695,0.15988,-0.24333,0,0.14343,0.19835,0
0,0.505,0.01761,67.3,0.505,0.044585,0.17356,-0.23239,0,0.15061,0.19322,0
0,0.505,0.017688,67.831,0.505,0.037085,0.10464,-0.29503,0,0.10909,0.21783,0
0,0.505,0.017692,67.852,0.505,0.036634,0.102,-0.29771,0,0.10726,0.21868,0
